{
"ouid" : [
"4518d68f72644596b817aa41",
"61a862a2c6bc4c22aba5c743",
"6dca899647f24e10b813129d",
"94a3adfc585a4c86a14e7189",
"a6d516ac29eb483299fa8b70",
"aa3d4f2398804d52b7294613",
"bd9b132aa02d43d794b6c4ef",
"f882fc6e2de04e09ba930cb3"
],
"version" : {
"0" : [
"94a3adfc585a4c86a14e7189"
],
"1" : [
"4518d68f72644596b817aa41"
],
"2" : [
"f882fc6e2de04e09ba930cb3"
],
"3" : [
"bd9b132aa02d43d794b6c4ef"
],
"4" : [
"a6d516ac29eb483299fa8b70"
],
"5" : [
"6dca899647f24e10b813129d"
],
"6" : [
"aa3d4f2398804d52b7294613"
],
"7" : [
"61a862a2c6bc4c22aba5c743"
]
},
"configurations.name" : {
"notprovided" : [
"4518d68f72644596b817aa41",
"61a862a2c6bc4c22aba5c743",
"6dca899647f24e10b813129d",
"94a3adfc585a4c86a14e7189",
"a6d516ac29eb483299fa8b70",
"aa3d4f2398804d52b7294613",
"bd9b132aa02d43d794b6c4ef",
"f882fc6e2de04e09ba930cb3"
],
"BurninBoxConfig_v26" : [
"94a3adfc585a4c86a14e7189"
],
"BurninBoxConfig_v27" : [
"94a3adfc585a4c86a14e7189"
],
"BurninBoxConfig_v28" : [
"94a3adfc585a4c86a14e7189"
],
"BurninBoxConfig_v29" : [
"94a3adfc585a4c86a14e7189"
],
"BurninBoxConfig_v30" : [
"94a3adfc585a4c86a14e7189"
],
"BurninBoxConfig_v31" : [
"94a3adfc585a4c86a14e7189"
],
"BurninBoxConfig_v32" : [
"94a3adfc585a4c86a14e7189"
],
"BurninBoxConfig_v33" : [
"94a3adfc585a4c86a14e7189"
],
"BurninBoxConfig_v34" : [
"94a3adfc585a4c86a14e7189"
],
"BurninBoxConfig_v35" : [
"94a3adfc585a4c86a14e7189"
],
"BurninBoxConfig_v36" : [
"94a3adfc585a4c86a14e7189"
],
"BurninBoxConfiguration_v0" : [
"94a3adfc585a4c86a14e7189"
],
"BurninBoxConfiguration_v1" : [
"94a3adfc585a4c86a14e7189"
],
"BurninBoxConfiguration_v2" : [
"94a3adfc585a4c86a14e7189"
],
"BurninBoxConfiguration_v3" : [
"94a3adfc585a4c86a14e7189"
],
"BurninBoxConfiguration_v4" : [
"4518d68f72644596b817aa41"
],
"BurninBoxConfiguration_v5" : [
"4518d68f72644596b817aa41"
],
"BurninBoxConfiguration_v6" : [
"4518d68f72644596b817aa41"
],
"BurninBoxConfiguration_v7" : [
"4518d68f72644596b817aa41"
],
"BurninBoxConfiguration_v8" : [
"4518d68f72644596b817aa41"
],
"BurninBoxConfiguration_v9" : [
"4518d68f72644596b817aa41"
],
"BurninBoxConfiguration_v10" : [
"4518d68f72644596b817aa41"
],
"BurninBoxConfiguration_v11" : [
"4518d68f72644596b817aa41"
],
"BurninBoxConfiguration_v12" : [
"4518d68f72644596b817aa41"
],
"BurninBoxConfiguration_v13" : [
"4518d68f72644596b817aa41"
],
"BurninBoxConfiguration_v14" : [
"4518d68f72644596b817aa41"
],
"BurninBoxConfiguration_v15" : [
"4518d68f72644596b817aa41"
],
"BurninBoxConfiguration_v16" : [
"4518d68f72644596b817aa41"
],
"BurninBoxConfiguration_v17" : [
"4518d68f72644596b817aa41"
],
"BurninBoxConfiguration_v18" : [
"4518d68f72644596b817aa41"
],
"BurninBoxConfiguration_v19" : [
"4518d68f72644596b817aa41"
],
"BurninBoxConfiguration_v20" : [
"4518d68f72644596b817aa41"
],
"BurninBoxConfiguration_v21" : [
"4518d68f72644596b817aa41"
],
"BurninBoxConfiguration_v22" : [
"4518d68f72644596b817aa41"
],
"BurninBoxConfiguration_v23" : [
"4518d68f72644596b817aa41"
],
"BurninBoxConfiguration_v24" : [
"4518d68f72644596b817aa41"
],
"BurninBoxConfiguration_v25" : [
"4518d68f72644596b817aa41"
],
"BurninBoxConfiguration_v26" : [
"4518d68f72644596b817aa41"
],
"BurninBoxConfiguration_v27" : [
"4518d68f72644596b817aa41"
],
"BurninBoxConfiguration_v28" : [
"bd9b132aa02d43d794b6c4ef"
],
"BurninBoxConfiguration_v29" : [
"a6d516ac29eb483299fa8b70"
],
"BurninBoxConfiguration_v30" : [
"a6d516ac29eb483299fa8b70"
],
"BurninBoxConfiguration_v31" : [
"a6d516ac29eb483299fa8b70"
],
"BurninBoxConfiguration_v32" : [
"a6d516ac29eb483299fa8b70"
],
"BurninBoxConfiguration_v33" : [
"6dca899647f24e10b813129d"
],
"BurninBoxConfiguration_v34" : [
"6dca899647f24e10b813129d"
],
"BurninBoxConfiguration_v35" : [
"6dca899647f24e10b813129d"
],
"BurninBoxConfiguration_v36" : [
"6dca899647f24e10b813129d"
],
"BurninBoxConfiguration_v37" : [
"6dca899647f24e10b813129d"
],
"BurninBoxConfiguration_v38" : [
"aa3d4f2398804d52b7294613"
],
"BurninBoxConfiguration_v39" : [
"aa3d4f2398804d52b7294613"
],
"BurninBoxConfiguration_v40" : [
"aa3d4f2398804d52b7294613"
],
"BurninBoxConfiguration_v41" : [
"aa3d4f2398804d52b7294613"
],
"BurninBoxConfiguration_v42" : [
"aa3d4f2398804d52b7294613"
],
"BurninBoxConfiguration_v43" : [
"aa3d4f2398804d52b7294613"
],
"BurninBoxConfiguration_v44" : [
"aa3d4f2398804d52b7294613"
],
"BurninBoxConfiguration_v45" : [
"aa3d4f2398804d52b7294613"
],
"BurninBoxConfiguration_v46" : [
"aa3d4f2398804d52b7294613"
],
"BurninBoxConfiguration_v47" : [
"aa3d4f2398804d52b7294613"
],
"BurninBoxConfiguration_v48" : [
"aa3d4f2398804d52b7294613"
],
"BurninBoxConfiguration_v49" : [
"aa3d4f2398804d52b7294613"
],
"BurninBoxConfiguration_v50" : [
"aa3d4f2398804d52b7294613"
],
"BurninBoxConfiguration_v51" : [
"aa3d4f2398804d52b7294613"
],
"BurninBoxConfiguration_v52" : [
"aa3d4f2398804d52b7294613"
],
"BurninBoxConfiguration_v53" : [
"aa3d4f2398804d52b7294613"
],
"BurninBoxConfiguration_v54" : [
"aa3d4f2398804d52b7294613"
],
"BurninBoxConfiguration_v55" : [
"aa3d4f2398804d52b7294613"
],
"BurninBoxConfiguration_v56" : [
"aa3d4f2398804d52b7294613"
],
"BurninBoxConfiguration_v57" : [
"aa3d4f2398804d52b7294613"
],
"BurninBoxConfiguration_v58" : [
"aa3d4f2398804d52b7294613"
],
"BurninBoxConfiguration_v59" : [
"aa3d4f2398804d52b7294613"
],
"BurninBoxConfiguration_v60" : [
"aa3d4f2398804d52b7294613"
],
"BurninBoxConfiguration_v61" : [
"aa3d4f2398804d52b7294613"
],
"BurninBoxConfiguration_v62" : [
"aa3d4f2398804d52b7294613"
],
"BurninBoxConfiguration_v63" : [
"aa3d4f2398804d52b7294613"
],
"BurninBoxConfiguration_v64" : [
"aa3d4f2398804d52b7294613"
],
"BurninBoxConfiguration_v65" : [
"aa3d4f2398804d52b7294613"
],
"BurninBoxConfiguration_v66" : [
"aa3d4f2398804d52b7294613"
],
"BurninBoxConfiguration_v67" : [
"aa3d4f2398804d52b7294613"
],
"BurninBoxConfiguration_v68" : [
"aa3d4f2398804d52b7294613"
],
"BurninBoxConfiguration_v69" : [
"aa3d4f2398804d52b7294613"
],
"BurninBoxConfiguration_v70" : [
"aa3d4f2398804d52b7294613"
],
"BurninBoxConfiguration_v71" : [
"61a862a2c6bc4c22aba5c743"
],
"BurninBoxConfiguration_v72" : [
"61a862a2c6bc4c22aba5c743"
],
"BurninBoxConfiguration_v73" : [
"61a862a2c6bc4c22aba5c743"
],
"BurninBoxConfiguration_v74" : [
"aa3d4f2398804d52b7294613"
],
"BurninBoxConfiguration_v75" : [
"61a862a2c6bc4c22aba5c743"
],
"BurninBoxConfiguration_v76" : [
"61a862a2c6bc4c22aba5c743"
],
"BurninBoxConfiguration_v77" : [
"aa3d4f2398804d52b7294613"
],
"BurninBoxConfiguration_v78" : [
"aa3d4f2398804d52b7294613"
],
"BurninBoxConfiguration_v79" : [
"aa3d4f2398804d52b7294613"
],
"BurninBoxConfiguration_v80" : [
"aa3d4f2398804d52b7294613"
],
"BurninBoxConfiguration_v81" : [
"aa3d4f2398804d52b7294613"
],
"BurninBoxConfiguration_v82" : [
"aa3d4f2398804d52b7294613"
],
"BurninBoxConfiguration_v83" : [
"aa3d4f2398804d52b7294613"
],
"BurninBoxConfiguration_v84" : [
"aa3d4f2398804d52b7294613"
],
"BurninBoxConfiguration_v85" : [
"aa3d4f2398804d52b7294613"
],
"BurninBoxConfiguration_v86" : [
"aa3d4f2398804d52b7294613"
],
"BurninBoxConfiguration_v87" : [
"aa3d4f2398804d52b7294613"
],
"BurninBoxConfiguration_v88" : [
"aa3d4f2398804d52b7294613"
],
"BurninBoxConfiguration_v89" : [
"aa3d4f2398804d52b7294613"
],
"BurninBoxConfiguration_v90" : [
"aa3d4f2398804d52b7294613"
],
"BurninBoxConfiguration_v91" : [
"aa3d4f2398804d52b7294613"
],
"BurninBoxConfiguration_v92" : [
"aa3d4f2398804d52b7294613"
],
"BurninBoxConfiguration_v93" : [
"aa3d4f2398804d52b7294613"
],
"BurninBoxConfiguration_v94" : [
"aa3d4f2398804d52b7294613"
],
"BurninBoxConfiguration_v95" : [
"aa3d4f2398804d52b7294613"
],
"BurninBoxConfiguration_v96" : [
"aa3d4f2398804d52b7294613"
],
"BurninBoxConfiguration_v97" : [
"aa3d4f2398804d52b7294613"
]
},
"entities.name" : {
"OTSROOT" : [
"4518d68f72644596b817aa41",
"61a862a2c6bc4c22aba5c743",
"6dca899647f24e10b813129d",
"94a3adfc585a4c86a14e7189",
"a6d516ac29eb483299fa8b70",
"aa3d4f2398804d52b7294613",
"bd9b132aa02d43d794b6c4ef",
"f882fc6e2de04e09ba930cb3"
]
},
"aliases.active.name" : {

},
"runs.name" : {

},
"configurations.assigned" : {
"notprovided" : [
"2019-07-24T14:29:17.468-0500",
"2020-09-02T11:25:05.819-0500",
"2020-09-02T15:07:57.306-0500",
"2020-10-29T13:28:50.947-0500",
"2020-10-29T13:41:32.372-0500",
"2021-06-30T16:17:34.157-0500",
"2021-07-09T11:18:26.476-0500",
"2021-09-02T14:03:33.745-0500"
],
"BurninBoxConfig_v26" : [
"2019-07-24T14:34:10.329-0500"
],
"BurninBoxConfig_v27" : [
"2019-07-24T14:47:23.550-0500"
],
"BurninBoxConfig_v28" : [
"2019-07-24T14:48:41.030-0500"
],
"BurninBoxConfig_v29" : [
"2020-06-29T10:55:10.553-0500"
],
"BurninBoxConfig_v30" : [
"2020-06-29T11:05:39.837-0500"
],
"BurninBoxConfig_v31" : [
"2020-06-29T11:28:21.523-0500"
],
"BurninBoxConfig_v32" : [
"2020-07-24T10:58:17.759-0500"
],
"BurninBoxConfig_v33" : [
"2020-07-24T11:00:07.399-0500"
],
"BurninBoxConfig_v34" : [
"2020-07-24T11:56:06.112-0500"
],
"BurninBoxConfig_v35" : [
"2020-07-24T12:12:09.132-0500"
],
"BurninBoxConfig_v36" : [
"2020-07-24T12:16:35.631-0500"
],
"BurninBoxConfiguration_v0" : [
"2020-07-29T15:59:40.640-0500"
],
"BurninBoxConfiguration_v1" : [
"2020-07-30T11:42:27.271-0500"
],
"BurninBoxConfiguration_v2" : [
"2020-07-30T12:05:12.650-0500"
],
"BurninBoxConfiguration_v3" : [
"2020-09-02T11:30:04.372-0500"
],
"BurninBoxConfiguration_v4" : [
"2020-09-02T11:31:32.193-0500"
],
"BurninBoxConfiguration_v5" : [
"2020-09-02T15:08:51.123-0500"
],
"BurninBoxConfiguration_v6" : [
"2020-09-02T16:01:05.873-0500"
],
"BurninBoxConfiguration_v7" : [
"2020-09-02T16:05:19.305-0500"
],
"BurninBoxConfiguration_v8" : [
"2020-10-05T17:05:55.367-0500"
],
"BurninBoxConfiguration_v9" : [
"2020-10-05T17:09:48.403-0500"
],
"BurninBoxConfiguration_v10" : [
"2020-10-05T17:11:02.262-0500"
],
"BurninBoxConfiguration_v11" : [
"2020-10-05T17:39:03.816-0500"
],
"BurninBoxConfiguration_v12" : [
"2020-10-05T17:43:06.046-0500"
],
"BurninBoxConfiguration_v13" : [
"2020-10-09T14:43:39.985-0500"
],
"BurninBoxConfiguration_v14" : [
"2020-10-09T15:30:46.562-0500"
],
"BurninBoxConfiguration_v15" : [
"2020-10-12T10:14:43.452-0500"
],
"BurninBoxConfiguration_v16" : [
"2020-10-12T15:33:09.038-0500"
],
"BurninBoxConfiguration_v17" : [
"2020-10-19T16:16:02.585-0500"
],
"BurninBoxConfiguration_v18" : [
"2020-10-23T11:00:20.392-0500"
],
"BurninBoxConfiguration_v19" : [
"2020-10-26T11:51:21.397-0500"
],
"BurninBoxConfiguration_v20" : [
"2020-10-26T11:51:43.044-0500"
],
"BurninBoxConfiguration_v21" : [
"2020-10-26T11:56:42.480-0500"
],
"BurninBoxConfiguration_v22" : [
"2020-10-26T14:34:34.405-0500"
],
"BurninBoxConfiguration_v23" : [
"2020-10-26T14:53:01.343-0500"
],
"BurninBoxConfiguration_v24" : [
"2020-10-26T15:02:46.590-0500"
],
"BurninBoxConfiguration_v25" : [
"2020-10-27T17:42:10.398-0500"
],
"BurninBoxConfiguration_v26" : [
"2020-10-29T11:52:32.583-0500"
],
"BurninBoxConfiguration_v27" : [
"2020-10-29T11:54:26.366-0500"
],
"BurninBoxConfiguration_v28" : [
"2020-10-29T13:30:24.323-0500"
],
"BurninBoxConfiguration_v29" : [
"2020-10-29T13:45:55.720-0500"
],
"BurninBoxConfiguration_v30" : [
"2020-10-29T13:46:38.004-0500"
],
"BurninBoxConfiguration_v31" : [
"2020-10-29T13:48:02.655-0500"
],
"BurninBoxConfiguration_v32" : [
"2020-10-29T14:39:28.673-0500"
],
"BurninBoxConfiguration_v33" : [
"2021-06-30T16:17:51.663-0500"
],
"BurninBoxConfiguration_v34" : [
"2021-06-30T16:23:48.026-0500"
],
"BurninBoxConfiguration_v35" : [
"2021-07-08T14:06:13.908-0500"
],
"BurninBoxConfiguration_v36" : [
"2021-07-08T14:16:58.098-0500"
],
"BurninBoxConfiguration_v37" : [
"2021-07-08T16:20:44.669-0500"
],
"BurninBoxConfiguration_v38" : [
"2021-07-09T11:47:13.867-0500"
],
"BurninBoxConfiguration_v39" : [
"2021-07-09T11:48:45.989-0500"
],
"BurninBoxConfiguration_v40" : [
"2021-07-09T16:06:00.457-0500"
],
"BurninBoxConfiguration_v41" : [
"2021-07-12T11:04:55.448-0500"
],
"BurninBoxConfiguration_v42" : [
"2021-07-13T12:01:31.268-0500"
],
"BurninBoxConfiguration_v43" : [
"2021-07-13T12:22:05.766-0500"
],
"BurninBoxConfiguration_v44" : [
"2021-07-14T13:05:58.346-0500"
],
"BurninBoxConfiguration_v45" : [
"2021-07-14T14:26:04.524-0500"
],
"BurninBoxConfiguration_v46" : [
"2021-07-14T14:46:56.797-0500"
],
"BurninBoxConfiguration_v47" : [
"2021-07-14T15:24:33.671-0500"
],
"BurninBoxConfiguration_v48" : [
"2021-07-14T16:05:29.273-0500"
],
"BurninBoxConfiguration_v49" : [
"2021-07-14T16:15:40.893-0500"
],
"BurninBoxConfiguration_v50" : [
"2021-07-14T16:17:40.719-0500"
],
"BurninBoxConfiguration_v51" : [
"2021-07-15T11:50:33.725-0500"
],
"BurninBoxConfiguration_v52" : [
"2021-07-20T13:45:53.845-0500"
],
"BurninBoxConfiguration_v53" : [
"2021-07-20T16:41:42.031-0500"
],
"BurninBoxConfiguration_v54" : [
"2021-07-20T17:09:26.749-0500"
],
"BurninBoxConfiguration_v55" : [
"2021-07-20T17:28:39.926-0500"
],
"BurninBoxConfiguration_v56" : [
"2021-07-20T17:46:27.236-0500"
],
"BurninBoxConfiguration_v57" : [
"2021-07-21T11:50:01.829-0500"
],
"BurninBoxConfiguration_v58" : [
"2021-07-21T11:58:37.470-0500"
],
"BurninBoxConfiguration_v59" : [
"2021-07-21T11:59:33.241-0500"
],
"BurninBoxConfiguration_v60" : [
"2021-07-22T18:35:00.237-0500"
],
"BurninBoxConfiguration_v61" : [
"2021-07-23T12:33:56.558-0500"
],
"BurninBoxConfiguration_v62" : [
"2021-07-24T00:54:49.362-0500"
],
"BurninBoxConfiguration_v63" : [
"2021-07-24T12:12:50.964-0500"
],
"BurninBoxConfiguration_v64" : [
"2021-07-25T21:07:15.910-0500"
],
"BurninBoxConfiguration_v65" : [
"2021-07-26T07:43:11.784-0500"
],
"BurninBoxConfiguration_v66" : [
"2021-07-26T18:37:11.856-0500"
],
"BurninBoxConfiguration_v67" : [
"2021-07-27T08:25:40.590-0500"
],
"BurninBoxConfiguration_v68" : [
"2021-08-03T11:10:36.998-0500"
],
"BurninBoxConfiguration_v69" : [
"2021-08-04T12:21:57.362-0500"
],
"BurninBoxConfiguration_v70" : [
"2021-09-02T13:43:33.794-0500"
],
"BurninBoxConfiguration_v71" : [
"2021-09-02T14:03:36.629-0500"
],
"BurninBoxConfiguration_v72" : [
"2021-09-23T15:47:05.017-0500"
],
"BurninBoxConfiguration_v73" : [
"2021-09-23T15:47:41.989-0500"
],
"BurninBoxConfiguration_v74" : [
"2021-09-24T15:36:49.884-0500"
],
"BurninBoxConfiguration_v75" : [
"2021-09-24T15:53:22.872-0500"
],
"BurninBoxConfiguration_v76" : [
"2021-09-24T16:04:21.832-0500"
],
"BurninBoxConfiguration_v77" : [
"2021-09-24T16:28:06.660-0500"
],
"BurninBoxConfiguration_v78" : [
"2021-09-27T09:02:56.257-0500"
],
"BurninBoxConfiguration_v79" : [
"2021-09-27T14:22:24.539-0500"
],
"BurninBoxConfiguration_v80" : [
"2021-09-28T09:24:50.424-0500"
],
"BurninBoxConfiguration_v81" : [
"2021-09-30T09:14:50.707-0500"
],
"BurninBoxConfiguration_v82" : [
"2021-10-01T10:56:21.222-0500"
],
"BurninBoxConfiguration_v83" : [
"2021-10-01T11:01:40.869-0500"
],
"BurninBoxConfiguration_v84" : [
"2021-10-06T10:02:31.091-0500"
],
"BurninBoxConfiguration_v85" : [
"2021-10-07T16:32:40.240-0500"
],
"BurninBoxConfiguration_v86" : [
"2021-10-08T14:03:15.081-0500"
],
"BurninBoxConfiguration_v87" : [
"2021-10-11T16:00:55.988-0500"
],
"BurninBoxConfiguration_v88" : [
"2021-10-12T09:07:17.256-0500"
],
"BurninBoxConfiguration_v89" : [
"2021-10-12T11:11:22.934-0500"
],
"BurninBoxConfiguration_v90" : [
"2021-10-14T17:03:16.347-0500"
],
"BurninBoxConfiguration_v91" : [
"2021-10-15T10:48:31.085-0500"
],
"BurninBoxConfiguration_v92" : [
"2021-10-15T15:50:49.017-0500"
],
"BurninBoxConfiguration_v93" : [
"2021-11-03T16:30:19.888-0500"
],
"BurninBoxConfiguration_v94" : [
"2021-11-10T15:11:02.292-0600"
],
"BurninBoxConfiguration_v95" : [
"2022-04-19T14:35:56.286-0400"
],
"BurninBoxConfiguration_v96" : [
"2022-04-20T10:06:05.293-0400"
],
"BurninBoxConfiguration_v97" : [
"2022-04-20T11:23:52.014-0400"
]
}
}