{
"document" : {
"data" : {
"NAME" : "UDP_DATA_LISTENER_PRODUCER_TABLE",
"COMMENT" : "UDP Listener records.",
"AUTHOR" : "admin",
"CREATION_TIME" : 1536269413,
"COL_TYPES" : {
"PROCESSOR_UID" : "VARCHAR2",
"BUFFER_SIZE" : "NUMBER",
"HOST_IP_ADDRESS" : "VARCHAR2",
"HOST_PORT" : "NUMBER",
"COMMENT_DESCRIPTION" : "VARCHAR2",
"AUTHOR" : "VARCHAR2",
"RECORD_INSERTION_TIME" : "TIMESTAMP WITH TIMEZONE"
},
"DATA_SET" : [
{
"PROCESSOR_UID" : "BurninBox0_DB0_Listener0",
"BUFFER_SIZE" : "1000",
"HOST_IP_ADDRESS" : "127.0.0.1",
"HOST_PORT" : "40005",
"COMMENT_DESCRIPTION" : "",
"AUTHOR" : "admin",
"RECORD_INSERTION_TIME" : "1536269413"
},
{
"PROCESSOR_UID" : "VBListener0",
"BUFFER_SIZE" : "1000",
"HOST_IP_ADDRESS" : "192.168.133.46",
"HOST_PORT" : "50000",
"COMMENT_DESCRIPTION" : "",
"AUTHOR" : "admin",
"RECORD_INSERTION_TIME" : "1536269413"
}
]
},
"metadata" : {

},
"search" : [

]
},
"comments" : [

],
"origin" : {
"source" : "template",
"name" : "notprovided",
"format" : "json",
"created" : "2018-09-06T17:34:14.250-0500",
"rawdata" : [

]
},
"version" : "0",
"entities" : [
{
"name" : "OTSROOT",
"assigned" : "2018-09-06T17:34:14.253-0500"
}
],
"tables" : [
{
"name" : "notprovided",
"assigned" : "2018-09-06T17:34:14.251-0500"
},
{
"name" : "BurninBoxConfig_v0",
"assigned" : "2018-09-06T17:34:14.737-0500"
},
{
"name" : "BurninBoxConfig_v1",
"assigned" : "2018-09-10T10:45:51.311-0500"
},
{
"name" : "BurninBoxConfig_v2",
"assigned" : "2018-09-10T11:24:18.726-0500"
},
{
"name" : "BurninBoxConfig_v3",
"assigned" : "2018-09-11T09:59:56.341-0500"
}
],
"changelog" : "notprovided",
"bookkeeping" : {
"isdeleted" : false,
"isreadonly" : false,
"updates" : [
{
"event" : "addTable",
"timestamp" : "2018-09-06T17:34:14.251-0500",
"value" : {
"name" : "notprovided",
"assigned" : "2018-09-06T17:34:14.251-0500"
}
},
{
"event" : "setVersion",
"timestamp" : "2018-09-06T17:34:14.252-0500",
"value" : {
"name" : "0",
"assigned" : "2018-09-06T17:34:14.252-0500"
}
},
{
"event" : "setCollection",
"timestamp" : "2018-09-06T17:34:14.252-0500",
"value" : {
"name" : "UDPDataListenerProducerTable",
"assigned" : "2018-09-06T17:34:14.252-0500"
}
},
{
"event" : "addEntity",
"timestamp" : "2018-09-06T17:34:14.253-0500",
"value" : {
"name" : "OTSROOT",
"assigned" : "2018-09-06T17:34:14.253-0500"
}
},
{
"event" : "addTable",
"timestamp" : "2018-09-06T17:34:14.737-0500",
"value" : {
"name" : "BurninBoxConfig_v0",
"assigned" : "2018-09-06T17:34:14.737-0500"
}
},
{
"event" : "addTable",
"timestamp" : "2018-09-10T10:45:51.311-0500",
"value" : {
"name" : "BurninBoxConfig_v1",
"assigned" : "2018-09-10T10:45:51.311-0500"
}
},
{
"event" : "addTable",
"timestamp" : "2018-09-10T11:24:18.726-0500",
"value" : {
"name" : "BurninBoxConfig_v2",
"assigned" : "2018-09-10T11:24:18.726-0500"
}
},
{
"event" : "addTable",
"timestamp" : "2018-09-11T09:59:56.341-0500",
"value" : {
"name" : "BurninBoxConfig_v3",
"assigned" : "2018-09-11T09:59:56.341-0500"
}
}
],
"created" : "2018-09-06T17:34:14.250-0500"
},
"_id" : {
"$oid" : "877d824c02544fd3b82e4128"
},
"collection" : "UDPDataListenerProducerTable",
"aliases" : {
"active" : [

],
"history" : [

]
},
"runs" : [

],
"attachments" : [

],
"configtype" : "notprovided"
}