{
"document" : {
"data" : {
"NAME" : "DATA_PROCESSOR_TABLE",
"COMMENT" : "No comment.",
"AUTHOR" : "admin",
"CREATION_TIME" : 1630609413,
"COL_TYPES" : {
"DATA_PROCESSOR_GROUP_ID" : "STRING",
"PROCESSOR_UID" : "STRING",
"PROCESSOR_TYPE" : "STRING",
"PROCESSOR_PLUGIN_NAME" : "STRING",
"LINK_TO_PROCESSOR_TABLE" : "STRING",
"LINK_TO_PROCESSOR_UID" : "STRING",
"STATUS" : "STRING",
"COMMENT_DESCRIPTION" : "STRING",
"AUTHOR" : "STRING",
"RECORD_INSERTION_TIME" : "TIMESTAMP WITH TIMEZONE"
},
"DATA_SET" : [
{
"DATA_PROCESSOR_GROUP_ID" : "VisualizerBurninBoxBuffer",
"PROCESSOR_UID" : "VBBurninBoxListener",
"PROCESSOR_TYPE" : "Producer",
"PROCESSOR_PLUGIN_NAME" : "TCPDataReceiverProducer",
"LINK_TO_PROCESSOR_TABLE" : "TCPDataReceiverProducerTable",
"LINK_TO_PROCESSOR_UID" : "VBBurninBoxListener",
"STATUS" : "On",
"COMMENT_DESCRIPTION" : "",
"AUTHOR" : "admin",
"RECORD_INSERTION_TIME" : "1625847506"
},
{
"DATA_PROCESSOR_GROUP_ID" : "VisualizerBurninBoxBuffer",
"PROCESSOR_UID" : "VBBurninBoxDQMHistos",
"PROCESSOR_TYPE" : "Consumer",
"PROCESSOR_PLUGIN_NAME" : "BurninBoxDQMHistosConsumer",
"LINK_TO_PROCESSOR_TABLE" : "BurninBoxDQMHistosConsumerTable",
"LINK_TO_PROCESSOR_UID" : "VBBurninBoxDQMHistos",
"STATUS" : "On",
"COMMENT_DESCRIPTION" : "",
"AUTHOR" : "admin",
"RECORD_INSERTION_TIME" : "1625847506"
},
{
"DATA_PROCESSOR_GROUP_ID" : "VisualizerPowerSupplyBuffer",
"PROCESSOR_UID" : "VBPowerSupplyListener",
"PROCESSOR_TYPE" : "Producer",
"PROCESSOR_PLUGIN_NAME" : "TCPDataReceiverProducer",
"LINK_TO_PROCESSOR_TABLE" : "TCPDataReceiverProducerTable",
"LINK_TO_PROCESSOR_UID" : "VBPowerSupplyListener",
"STATUS" : "On",
"COMMENT_DESCRIPTION" : "",
"AUTHOR" : "admin",
"RECORD_INSERTION_TIME" : "1625847506"
},
{
"DATA_PROCESSOR_GROUP_ID" : "VisualizerPowerSupplyBuffer",
"PROCESSOR_UID" : "VBPowerSupplyDQMHistos",
"PROCESSOR_TYPE" : "Consumer",
"PROCESSOR_PLUGIN_NAME" : "DQMPowerSupplyHistoConsumer",
"LINK_TO_PROCESSOR_TABLE" : "DQMPowerSupplyConsumerTable",
"LINK_TO_PROCESSOR_UID" : "VBPowerSupplyDQMHistos",
"STATUS" : "On",
"COMMENT_DESCRIPTION" : "",
"AUTHOR" : "admin",
"RECORD_INSERTION_TIME" : "1625847506"
},
{
"DATA_PROCESSOR_GROUP_ID" : "VisualizerTrackerBuffer",
"PROCESSOR_UID" : "VBTrackerListener",
"PROCESSOR_TYPE" : "Producer",
"PROCESSOR_PLUGIN_NAME" : "TCPDataReceiverProducer",
"LINK_TO_PROCESSOR_TABLE" : "TCPDataReceiverProducerTable",
"LINK_TO_PROCESSOR_UID" : "VBTrackerListener",
"STATUS" : "Off",
"COMMENT_DESCRIPTION" : "",
"AUTHOR" : "admin",
"RECORD_INSERTION_TIME" : "1630609403"
},
{
"DATA_PROCESSOR_GROUP_ID" : "VisualizerTrackerBuffer",
"PROCESSOR_UID" : "VBTrackerDQMHistos",
"PROCESSOR_TYPE" : "Consumer",
"PROCESSOR_PLUGIN_NAME" : "DQMMiddlewareHistosConsumer",
"LINK_TO_PROCESSOR_TABLE" : "DQMMiddlewareHistosConsumerTable",
"LINK_TO_PROCESSOR_UID" : "VBTrackerDQMHistos",
"STATUS" : "Off",
"COMMENT_DESCRIPTION" : "",
"AUTHOR" : "admin",
"RECORD_INSERTION_TIME" : "1630609407"
}
]
},
"metadata" : {

},
"search" : [

]
},
"comments" : [

],
"origin" : {
"source" : "template",
"name" : "notprovided",
"format" : "json",
"created" : "2021-09-02T14:03:33.745-0500",
"rawdata" : [

]
},
"version" : "7",
"entities" : [
{
"name" : "OTSROOT",
"assigned" : "2021-09-02T14:03:33.746-0500"
}
],
"configurations" : [
{
"name" : "notprovided",
"assigned" : "2021-09-02T14:03:33.745-0500"
},
{
"name" : "BurninBoxConfiguration_v71",
"assigned" : "2021-09-02T14:03:36.629-0500"
},
{
"name" : "BurninBoxConfiguration_v72",
"assigned" : "2021-09-23T15:47:05.017-0500"
},
{
"name" : "BurninBoxConfiguration_v73",
"assigned" : "2021-09-23T15:47:41.989-0500"
},
{
"name" : "BurninBoxConfiguration_v75",
"assigned" : "2021-09-24T15:53:22.872-0500"
},
{
"name" : "BurninBoxConfiguration_v76",
"assigned" : "2021-09-24T16:04:21.832-0500"
}
],
"changelog" : "notprovided",
"bookkeeping" : {
"isdeleted" : false,
"isreadonly" : false,
"updates" : [
{
"event" : "addConfiguration",
"timestamp" : "2021-09-02T14:03:33.745-0500",
"value" : {
"name" : "notprovided",
"assigned" : "2021-09-02T14:03:33.745-0500"
}
},
{
"event" : "setVersion",
"timestamp" : "2021-09-02T14:03:33.746-0500",
"value" : {
"name" : "7",
"assigned" : "2021-09-02T14:03:33.746-0500"
}
},
{
"event" : "setCollection",
"timestamp" : "2021-09-02T14:03:33.746-0500",
"value" : {
"name" : "DataProcessorTable",
"assigned" : "2021-09-02T14:03:33.746-0500"
}
},
{
"event" : "addEntity",
"timestamp" : "2021-09-02T14:03:33.746-0500",
"value" : {
"name" : "OTSROOT",
"assigned" : "2021-09-02T14:03:33.746-0500"
}
},
{
"event" : "addConfiguration",
"timestamp" : "2021-09-02T14:03:36.629-0500",
"value" : {
"name" : "BurninBoxConfiguration_v71",
"assigned" : "2021-09-02T14:03:36.629-0500"
}
},
{
"event" : "addConfiguration",
"timestamp" : "2021-09-23T15:47:05.017-0500",
"value" : {
"name" : "BurninBoxConfiguration_v72",
"assigned" : "2021-09-23T15:47:05.017-0500"
}
},
{
"event" : "addConfiguration",
"timestamp" : "2021-09-23T15:47:41.989-0500",
"value" : {
"name" : "BurninBoxConfiguration_v73",
"assigned" : "2021-09-23T15:47:41.989-0500"
}
},
{
"event" : "addConfiguration",
"timestamp" : "2021-09-24T15:53:22.872-0500",
"value" : {
"name" : "BurninBoxConfiguration_v75",
"assigned" : "2021-09-24T15:53:22.872-0500"
}
},
{
"event" : "addConfiguration",
"timestamp" : "2021-09-24T16:04:21.832-0500",
"value" : {
"name" : "BurninBoxConfiguration_v76",
"assigned" : "2021-09-24T16:04:21.832-0500"
}
}
],
"created" : "2021-09-02T14:03:33.745-0500"
},
"_id" : {
"$oid" : "61a862a2c6bc4c22aba5c743"
},
"collection" : "DataProcessorTable",
"aliases" : {
"active" : [

],
"history" : [

]
},
"runs" : [

],
"attachments" : [

],
"configtype" : "notprovided"
}