{
"document" : {
"data" : {
"NAME" : "DATA_PROCESSOR_TABLE",
"COMMENT" : "No comment.",
"AUTHOR" : "admin",
"CREATION_TIME" : 1680636655,
"COL_TYPES" : {
"DATA_PROCESSOR_GROUP_ID" : "STRING",
"PROCESSOR_UID" : "STRING",
"PROCESSOR_TYPE" : "STRING",
"PROCESSOR_PLUGIN_NAME" : "STRING",
"LINK_TO_PROCESSOR_TABLE" : "STRING",
"LINK_TO_PROCESSOR_UID" : "STRING",
"STATUS" : "STRING",
"COMMENT_DESCRIPTION" : "STRING",
"AUTHOR" : "STRING",
"RECORD_INSERTION_TIME" : "TIMESTAMP WITH TIMEZONE"
},
"DATA_SET" : [
{
"DATA_PROCESSOR_GROUP_ID" : "VisualizerBurninBoxBuffer",
"PROCESSOR_UID" : "VBBurninBoxListener",
"PROCESSOR_TYPE" : "Producer",
"PROCESSOR_PLUGIN_NAME" : "TCPDataReceiverProducer",
"LINK_TO_PROCESSOR_TABLE" : "TCPDataReceiverProducerTable",
"LINK_TO_PROCESSOR_UID" : "VBBurninBoxListener",
"STATUS" : "On",
"COMMENT_DESCRIPTION" : "",
"AUTHOR" : "admin",
"RECORD_INSERTION_TIME" : "1625847506"
},
{
"DATA_PROCESSOR_GROUP_ID" : "VisualizerBurninBoxBuffer",
"PROCESSOR_UID" : "VBBurninBoxDQMHistos",
"PROCESSOR_TYPE" : "Consumer",
"PROCESSOR_PLUGIN_NAME" : "BurninBoxDQMHistosConsumer",
"LINK_TO_PROCESSOR_TABLE" : "DQMBurninBoxHistosConsumerTable",
"LINK_TO_PROCESSOR_UID" : "VBBurninBoxDQMHistos",
"STATUS" : "On",
"COMMENT_DESCRIPTION" : "",
"AUTHOR" : "admin",
"RECORD_INSERTION_TIME" : "1680634315"
},
{
"DATA_PROCESSOR_GROUP_ID" : "VisualizerPowerSupplyBuffer",
"PROCESSOR_UID" : "VBPowerSupplyListener",
"PROCESSOR_TYPE" : "Producer",
"PROCESSOR_PLUGIN_NAME" : "TCPDataReceiverProducer",
"LINK_TO_PROCESSOR_TABLE" : "TCPDataReceiverProducerTable",
"LINK_TO_PROCESSOR_UID" : "VBPowerSupplyListener",
"STATUS" : "On",
"COMMENT_DESCRIPTION" : "",
"AUTHOR" : "admin",
"RECORD_INSERTION_TIME" : "1625847506"
},
{
"DATA_PROCESSOR_GROUP_ID" : "VisualizerPowerSupplyBuffer",
"PROCESSOR_UID" : "VBPowerSupplyDQMHistos",
"PROCESSOR_TYPE" : "Consumer",
"PROCESSOR_PLUGIN_NAME" : "DQMPowerSupplyHistoConsumer",
"LINK_TO_PROCESSOR_TABLE" : "DQMPowerSupplyConsumerTable",
"LINK_TO_PROCESSOR_UID" : "VBPowerSupplyDQMHistos",
"STATUS" : "On",
"COMMENT_DESCRIPTION" : "",
"AUTHOR" : "admin",
"RECORD_INSERTION_TIME" : "1625847506"
},
{
"DATA_PROCESSOR_GROUP_ID" : "VisualizerTrackerBuffer",
"PROCESSOR_UID" : "VBTrackerListener",
"PROCESSOR_TYPE" : "Producer",
"PROCESSOR_PLUGIN_NAME" : "TCPDataReceiverProducer",
"LINK_TO_PROCESSOR_TABLE" : "TCPDataReceiverProducerTable",
"LINK_TO_PROCESSOR_UID" : "VBTrackerListener",
"STATUS" : "On",
"COMMENT_DESCRIPTION" : "",
"AUTHOR" : "admin",
"RECORD_INSERTION_TIME" : "1680631950"
},
{
"DATA_PROCESSOR_GROUP_ID" : "VisualizerTrackerBuffer",
"PROCESSOR_UID" : "VBTrackerDQMHistos",
"PROCESSOR_TYPE" : "Consumer",
"PROCESSOR_PLUGIN_NAME" : "DQMMiddlewareHistosConsumer",
"LINK_TO_PROCESSOR_TABLE" : "DQMMiddlewareHistosConsumerTable",
"LINK_TO_PROCESSOR_UID" : "VBTrackerDQMHistos",
"STATUS" : "On",
"COMMENT_DESCRIPTION" : "",
"AUTHOR" : "admin",
"RECORD_INSERTION_TIME" : "1680631950"
},
{
"DATA_PROCESSOR_GROUP_ID" : "VisualizerTrackerMonitorBuffer",
"PROCESSOR_UID" : "VBTrackerMonitorListener",
"PROCESSOR_TYPE" : "Producer",
"PROCESSOR_PLUGIN_NAME" : "TCPDataReceiverProducer",
"LINK_TO_PROCESSOR_TABLE" : "TCPDataReceiverProducerTable",
"LINK_TO_PROCESSOR_UID" : "VBTrackerMonitorListener",
"STATUS" : "On",
"COMMENT_DESCRIPTION" : "",
"AUTHOR" : "admin",
"RECORD_INSERTION_TIME" : "1680631950"
},
{
"DATA_PROCESSOR_GROUP_ID" : "VisualizerTrackerMonitorBuffer",
"PROCESSOR_UID" : "VBTrackerMonitorDQMHistos",
"PROCESSOR_TYPE" : "Consumer",
"PROCESSOR_PLUGIN_NAME" : "DQMMiddlewareMonitorHistosConsumer",
"LINK_TO_PROCESSOR_TABLE" : "DQMMiddlewareMonitorHistosConsumerTable",
"LINK_TO_PROCESSOR_UID" : "VBTrackerMonitorDQMHistos",
"STATUS" : "On",
"COMMENT_DESCRIPTION" : "",
"AUTHOR" : "admin",
"RECORD_INSERTION_TIME" : "1680636655"
}
]
},
"metadata" : {

},
"search" : [

]
},
"comments" : [

],
"origin" : {
"source" : "template",
"name" : "notprovided",
"format" : "json",
"created" : "2023-04-04T14:30:55.173-0500",
"rawdata" : [

]
},
"version" : "11",
"entities" : [
{
"name" : "OTSROOT",
"assigned" : "2023-04-04T14:30:55.176-0500"
}
],
"configurations" : [
{
"name" : "notprovided",
"assigned" : "2023-04-04T14:30:55.174-0500"
},
{
"name" : "BurninBoxConfiguration_v125",
"assigned" : "2023-04-04T14:31:00.229-0500"
},
{
"name" : "BurninBoxConfiguration_v126",
"assigned" : "2023-04-04T16:05:04.320-0500"
},
{
"name" : "BurninBoxConfiguration_v127",
"assigned" : "2023-04-07T10:09:32.175-0500"
},
{
"name" : "BurninBoxConfiguration_v128",
"assigned" : "2023-04-07T16:20:29.420-0500"
},
{
"name" : "BurninBoxConfiguration_v129",
"assigned" : "2023-04-14T10:53:43.682-0500"
},
{
"name" : "BurninBoxConfiguration_v130",
"assigned" : "2023-04-14T11:01:23.408-0500"
},
{
"name" : "BurninBoxConfiguration_v131",
"assigned" : "2023-04-14T11:05:25.461-0500"
},
{
"name" : "BurninBoxConfiguration_v132",
"assigned" : "2023-04-14T12:25:10.591-0500"
},
{
"name" : "BurninBoxConfiguration_v133",
"assigned" : "2023-04-14T14:03:26.620-0500"
},
{
"name" : "BurninBoxConfiguration_v134",
"assigned" : "2023-04-14T15:36:49.217-0500"
},
{
"name" : "BurninBoxConfiguration_v135",
"assigned" : "2023-04-14T15:57:03.762-0500"
},
{
"name" : "BurninBoxConfiguration_v136",
"assigned" : "2023-04-14T15:59:00.339-0500"
},
{
"name" : "BurninBoxConfiguration_v137",
"assigned" : "2023-04-14T16:18:32.374-0500"
},
{
"name" : "BurninBoxConfiguration_v138",
"assigned" : "2023-04-14T16:20:11.603-0500"
},
{
"name" : "BurninBoxConfiguration_v139",
"assigned" : "2023-04-17T15:51:48.598-0500"
},
{
"name" : "BurninBoxConfiguration_v140",
"assigned" : "2023-04-18T10:48:02.008-0500"
},
{
"name" : "BurninBoxConfiguration_v141",
"assigned" : "2023-04-18T12:02:41.043-0500"
},
{
"name" : "BurninBoxConfiguration_v142",
"assigned" : "2023-04-18T12:03:56.560-0500"
},
{
"name" : "BurninBoxConfiguration_v143",
"assigned" : "2023-04-18T13:48:31.534-0500"
},
{
"name" : "BurninBoxConfiguration_v144",
"assigned" : "2023-04-18T14:33:54.769-0500"
},
{
"name" : "BurninBoxConfiguration_v145",
"assigned" : "2023-04-18T16:14:31.359-0500"
},
{
"name" : "BurninBoxConfiguration_v146",
"assigned" : "2023-04-18T16:20:20.889-0500"
},
{
"name" : "BurninBoxConfiguration_v147",
"assigned" : "2023-04-21T15:02:47.831-0500"
},
{
"name" : "BurninBoxConfiguration_v148",
"assigned" : "2023-05-09T09:06:44.018-0500"
},
{
"name" : "BurninBoxConfiguration_v149",
"assigned" : "2023-05-11T08:26:02.166-0500"
},
{
"name" : "BurninBoxConfiguration_v150",
"assigned" : "2023-09-28T16:19:07.750+0200"
}
],
"changelog" : "notprovided",
"bookkeeping" : {
"isdeleted" : false,
"isreadonly" : false,
"updates" : [
{
"event" : "addConfiguration",
"timestamp" : "2023-04-04T14:30:55.175-0500",
"value" : {
"name" : "notprovided",
"assigned" : "2023-04-04T14:30:55.174-0500"
}
},
{
"event" : "setVersion",
"timestamp" : "2023-04-04T14:30:55.175-0500",
"value" : {
"name" : "11",
"assigned" : "2023-04-04T14:30:55.175-0500"
}
},
{
"event" : "setCollection",
"timestamp" : "2023-04-04T14:30:55.176-0500",
"value" : {
"name" : "DataProcessorTable",
"assigned" : "2023-04-04T14:30:55.176-0500"
}
},
{
"event" : "addEntity",
"timestamp" : "2023-04-04T14:30:55.176-0500",
"value" : {
"name" : "OTSROOT",
"assigned" : "2023-04-04T14:30:55.176-0500"
}
},
{
"event" : "addConfiguration",
"timestamp" : "2023-04-04T14:31:00.229-0500",
"value" : {
"name" : "BurninBoxConfiguration_v125",
"assigned" : "2023-04-04T14:31:00.229-0500"
}
},
{
"event" : "addConfiguration",
"timestamp" : "2023-04-04T16:05:04.320-0500",
"value" : {
"name" : "BurninBoxConfiguration_v126",
"assigned" : "2023-04-04T16:05:04.320-0500"
}
},
{
"event" : "addConfiguration",
"timestamp" : "2023-04-07T10:09:32.175-0500",
"value" : {
"name" : "BurninBoxConfiguration_v127",
"assigned" : "2023-04-07T10:09:32.175-0500"
}
},
{
"event" : "addConfiguration",
"timestamp" : "2023-04-07T16:20:29.420-0500",
"value" : {
"name" : "BurninBoxConfiguration_v128",
"assigned" : "2023-04-07T16:20:29.420-0500"
}
},
{
"event" : "addConfiguration",
"timestamp" : "2023-04-14T10:53:43.682-0500",
"value" : {
"name" : "BurninBoxConfiguration_v129",
"assigned" : "2023-04-14T10:53:43.682-0500"
}
},
{
"event" : "addConfiguration",
"timestamp" : "2023-04-14T11:01:23.408-0500",
"value" : {
"name" : "BurninBoxConfiguration_v130",
"assigned" : "2023-04-14T11:01:23.408-0500"
}
},
{
"event" : "addConfiguration",
"timestamp" : "2023-04-14T11:05:25.462-0500",
"value" : {
"name" : "BurninBoxConfiguration_v131",
"assigned" : "2023-04-14T11:05:25.461-0500"
}
},
{
"event" : "addConfiguration",
"timestamp" : "2023-04-14T12:25:10.591-0500",
"value" : {
"name" : "BurninBoxConfiguration_v132",
"assigned" : "2023-04-14T12:25:10.591-0500"
}
},
{
"event" : "addConfiguration",
"timestamp" : "2023-04-14T14:03:26.620-0500",
"value" : {
"name" : "BurninBoxConfiguration_v133",
"assigned" : "2023-04-14T14:03:26.620-0500"
}
},
{
"event" : "addConfiguration",
"timestamp" : "2023-04-14T15:36:49.217-0500",
"value" : {
"name" : "BurninBoxConfiguration_v134",
"assigned" : "2023-04-14T15:36:49.217-0500"
}
},
{
"event" : "addConfiguration",
"timestamp" : "2023-04-14T15:57:03.762-0500",
"value" : {
"name" : "BurninBoxConfiguration_v135",
"assigned" : "2023-04-14T15:57:03.762-0500"
}
},
{
"event" : "addConfiguration",
"timestamp" : "2023-04-14T15:59:00.340-0500",
"value" : {
"name" : "BurninBoxConfiguration_v136",
"assigned" : "2023-04-14T15:59:00.339-0500"
}
},
{
"event" : "addConfiguration",
"timestamp" : "2023-04-14T16:18:32.374-0500",
"value" : {
"name" : "BurninBoxConfiguration_v137",
"assigned" : "2023-04-14T16:18:32.374-0500"
}
},
{
"event" : "addConfiguration",
"timestamp" : "2023-04-14T16:20:11.603-0500",
"value" : {
"name" : "BurninBoxConfiguration_v138",
"assigned" : "2023-04-14T16:20:11.603-0500"
}
},
{
"event" : "addConfiguration",
"timestamp" : "2023-04-17T15:51:48.598-0500",
"value" : {
"name" : "BurninBoxConfiguration_v139",
"assigned" : "2023-04-17T15:51:48.598-0500"
}
},
{
"event" : "addConfiguration",
"timestamp" : "2023-04-18T10:48:02.008-0500",
"value" : {
"name" : "BurninBoxConfiguration_v140",
"assigned" : "2023-04-18T10:48:02.008-0500"
}
},
{
"event" : "addConfiguration",
"timestamp" : "2023-04-18T12:02:41.044-0500",
"value" : {
"name" : "BurninBoxConfiguration_v141",
"assigned" : "2023-04-18T12:02:41.043-0500"
}
},
{
"event" : "addConfiguration",
"timestamp" : "2023-04-18T12:03:56.560-0500",
"value" : {
"name" : "BurninBoxConfiguration_v142",
"assigned" : "2023-04-18T12:03:56.560-0500"
}
},
{
"event" : "addConfiguration",
"timestamp" : "2023-04-18T13:48:31.535-0500",
"value" : {
"name" : "BurninBoxConfiguration_v143",
"assigned" : "2023-04-18T13:48:31.534-0500"
}
},
{
"event" : "addConfiguration",
"timestamp" : "2023-04-18T14:33:54.769-0500",
"value" : {
"name" : "BurninBoxConfiguration_v144",
"assigned" : "2023-04-18T14:33:54.769-0500"
}
},
{
"event" : "addConfiguration",
"timestamp" : "2023-04-18T16:14:31.359-0500",
"value" : {
"name" : "BurninBoxConfiguration_v145",
"assigned" : "2023-04-18T16:14:31.359-0500"
}
},
{
"event" : "addConfiguration",
"timestamp" : "2023-04-18T16:20:20.889-0500",
"value" : {
"name" : "BurninBoxConfiguration_v146",
"assigned" : "2023-04-18T16:20:20.889-0500"
}
},
{
"event" : "addConfiguration",
"timestamp" : "2023-04-21T15:02:47.831-0500",
"value" : {
"name" : "BurninBoxConfiguration_v147",
"assigned" : "2023-04-21T15:02:47.831-0500"
}
},
{
"event" : "addConfiguration",
"timestamp" : "2023-05-09T09:06:44.018-0500",
"value" : {
"name" : "BurninBoxConfiguration_v148",
"assigned" : "2023-05-09T09:06:44.018-0500"
}
},
{
"event" : "addConfiguration",
"timestamp" : "2023-05-11T08:26:02.166-0500",
"value" : {
"name" : "BurninBoxConfiguration_v149",
"assigned" : "2023-05-11T08:26:02.166-0500"
}
},
{
"event" : "addConfiguration",
"timestamp" : "2023-09-28T16:19:07.750+0200",
"value" : {
"name" : "BurninBoxConfiguration_v150",
"assigned" : "2023-09-28T16:19:07.750+0200"
}
}
],
"created" : "2023-04-04T14:30:55.173-0500"
},
"_id" : {
"$oid" : "e8edf1e4db7d4e8cbc909861"
},
"collection" : "DataProcessorTable",
"aliases" : {
"active" : [

],
"history" : [

]
},
"runs" : [

],
"attachments" : [

],
"configtype" : "notprovided"
}