{
"document" : {
"data" : {
"NAME" : "DATA_PROCESSOR_TABLE",
"COMMENT" : "No comment.",
"AUTHOR" : "admin",
"CREATION_TIME" : 1599077277,
"COL_TYPES" : {
"DATA_PROCESSOR_GROUP_ID" : "STRING",
"PROCESSOR_UID" : "STRING",
"PROCESSOR_TYPE" : "STRING",
"PROCESSOR_PLUGIN_NAME" : "STRING",
"LINK_TO_PROCESSOR_TABLE" : "STRING",
"LINK_TO_PROCESSOR_UID" : "STRING",
"STATUS" : "STRING",
"COMMENT_DESCRIPTION" : "STRING",
"AUTHOR" : "STRING",
"RECORD_INSERTION_TIME" : "TIMESTAMP WITH TIMEZONE"
},
"DATA_SET" : [
{
"DATA_PROCESSOR_GROUP_ID" : "BurninBox0_DataBuffer0",
"PROCESSOR_UID" : "BurninBox0_DB0_Listener0",
"PROCESSOR_TYPE" : "Producer",
"PROCESSOR_PLUGIN_NAME" : "UDPDataListenerProducer",
"LINK_TO_PROCESSOR_TABLE" : "UDPDataListenerProducerTable",
"LINK_TO_PROCESSOR_UID" : "BurninBox0_DB0_Listener0",
"STATUS" : "Off",
"COMMENT_DESCRIPTION" : "",
"AUTHOR" : "admin",
"RECORD_INSERTION_TIME" : "1599077277"
},
{
"DATA_PROCESSOR_GROUP_ID" : "BurninBox0_DataBuffer0",
"PROCESSOR_UID" : "BurninBox0_DB0_RawDataSaver0",
"PROCESSOR_TYPE" : "Consumer",
"PROCESSOR_PLUGIN_NAME" : "CMSTimingRawDataSaverConsumer",
"LINK_TO_PROCESSOR_TABLE" : "RawDataSaverConsumerTable",
"LINK_TO_PROCESSOR_UID" : "BurninBox0_DB0_RawDataSaver0",
"STATUS" : "Off",
"COMMENT_DESCRIPTION" : "",
"AUTHOR" : "admin",
"RECORD_INSERTION_TIME" : "1599077277"
},
{
"DATA_PROCESSOR_GROUP_ID" : "VisualBuffer",
"PROCESSOR_UID" : "VBListener0",
"PROCESSOR_TYPE" : "Producer",
"PROCESSOR_PLUGIN_NAME" : "TCPDataListenerProducer",
"LINK_TO_PROCESSOR_TABLE" : "TCPDataListenerProducerTable",
"LINK_TO_PROCESSOR_UID" : "VBListener0",
"STATUS" : "On",
"COMMENT_DESCRIPTION" : "",
"AUTHOR" : "admin",
"RECORD_INSERTION_TIME" : "1599063905"
},
{
"DATA_PROCESSOR_GROUP_ID" : "VisualBuffer",
"PROCESSOR_UID" : "VBBurninBoxDQMHistos",
"PROCESSOR_TYPE" : "Consumer",
"PROCESSOR_PLUGIN_NAME" : "BurninBoxDQMHistosConsumer",
"LINK_TO_PROCESSOR_TABLE" : "BurninBoxDQMHistosConsumerTable",
"LINK_TO_PROCESSOR_UID" : "VBBurninBoxDQMHistos",
"STATUS" : "On",
"COMMENT_DESCRIPTION" : "",
"AUTHOR" : "admin",
"RECORD_INSERTION_TIME" : "1563996557"
}
]
},
"metadata" : {

},
"search" : [

]
},
"comments" : [

],
"origin" : {
"source" : "template",
"name" : "notprovided",
"format" : "json",
"created" : "2020-09-02T15:07:57.306-0500",
"rawdata" : [

]
},
"version" : "2",
"entities" : [
{
"name" : "OTSROOT",
"assigned" : "2020-09-02T15:07:57.307-0500"
}
],
"configurations" : [
{
"name" : "notprovided",
"assigned" : "2020-09-02T15:07:57.306-0500"
}
],
"changelog" : "notprovided",
"bookkeeping" : {
"isdeleted" : false,
"isreadonly" : false,
"updates" : [
{
"event" : "addConfiguration",
"timestamp" : "2020-09-02T15:07:57.307-0500",
"value" : {
"name" : "notprovided",
"assigned" : "2020-09-02T15:07:57.306-0500"
}
},
{
"event" : "setVersion",
"timestamp" : "2020-09-02T15:07:57.307-0500",
"value" : {
"name" : "2",
"assigned" : "2020-09-02T15:07:57.307-0500"
}
},
{
"event" : "setCollection",
"timestamp" : "2020-09-02T15:07:57.307-0500",
"value" : {
"name" : "DataProcessorTable",
"assigned" : "2020-09-02T15:07:57.307-0500"
}
},
{
"event" : "addEntity",
"timestamp" : "2020-09-02T15:07:57.307-0500",
"value" : {
"name" : "OTSROOT",
"assigned" : "2020-09-02T15:07:57.307-0500"
}
}
],
"created" : "2020-09-02T15:07:57.306-0500"
},
"_id" : {
"$oid" : "f882fc6e2de04e09ba930cb3"
},
"collection" : "DataProcessorTable",
"aliases" : {
"active" : [

],
"history" : [

]
},
"runs" : [

],
"attachments" : [

],
"configtype" : "notprovided"
}