{
"ouid" : [
"2b73209dd4bd4f6a956b61f3",
"593bf95761c04911a4bc5e58",
"96ab8491b0b842429eb334fb"
],
"version" : {
"0" : [
"593bf95761c04911a4bc5e58"
],
"1" : [
"2b73209dd4bd4f6a956b61f3"
],
"2" : [
"96ab8491b0b842429eb334fb"
]
},
"configurations.name" : {
"notprovided" : [
"2b73209dd4bd4f6a956b61f3",
"593bf95761c04911a4bc5e58",
"96ab8491b0b842429eb334fb"
],
"BurninBoxConfiguration_v33" : [
"593bf95761c04911a4bc5e58"
],
"BurninBoxConfiguration_v34" : [
"593bf95761c04911a4bc5e58"
],
"BurninBoxConfiguration_v35" : [
"593bf95761c04911a4bc5e58"
],
"BurninBoxConfiguration_v36" : [
"593bf95761c04911a4bc5e58"
],
"BurninBoxConfiguration_v37" : [
"593bf95761c04911a4bc5e58"
],
"BurninBoxConfiguration_v38" : [
"2b73209dd4bd4f6a956b61f3"
],
"BurninBoxConfiguration_v39" : [
"2b73209dd4bd4f6a956b61f3"
],
"BurninBoxConfiguration_v40" : [
"96ab8491b0b842429eb334fb"
],
"BurninBoxConfiguration_v41" : [
"96ab8491b0b842429eb334fb"
],
"BurninBoxConfiguration_v42" : [
"96ab8491b0b842429eb334fb"
],
"BurninBoxConfiguration_v43" : [
"96ab8491b0b842429eb334fb"
],
"BurninBoxConfiguration_v44" : [
"96ab8491b0b842429eb334fb"
],
"BurninBoxConfiguration_v45" : [
"96ab8491b0b842429eb334fb"
],
"BurninBoxConfiguration_v46" : [
"96ab8491b0b842429eb334fb"
],
"BurninBoxConfiguration_v47" : [
"96ab8491b0b842429eb334fb"
],
"BurninBoxConfiguration_v48" : [
"96ab8491b0b842429eb334fb"
],
"BurninBoxConfiguration_v49" : [
"96ab8491b0b842429eb334fb"
],
"BurninBoxConfiguration_v50" : [
"96ab8491b0b842429eb334fb"
],
"BurninBoxConfiguration_v51" : [
"96ab8491b0b842429eb334fb"
],
"BurninBoxConfiguration_v52" : [
"96ab8491b0b842429eb334fb"
],
"BurninBoxConfiguration_v53" : [
"96ab8491b0b842429eb334fb"
],
"BurninBoxConfiguration_v54" : [
"96ab8491b0b842429eb334fb"
],
"BurninBoxConfiguration_v55" : [
"96ab8491b0b842429eb334fb"
],
"BurninBoxConfiguration_v56" : [
"96ab8491b0b842429eb334fb"
],
"BurninBoxConfiguration_v57" : [
"96ab8491b0b842429eb334fb"
],
"BurninBoxConfiguration_v58" : [
"96ab8491b0b842429eb334fb"
],
"BurninBoxConfiguration_v59" : [
"96ab8491b0b842429eb334fb"
],
"BurninBoxConfiguration_v60" : [
"96ab8491b0b842429eb334fb"
],
"BurninBoxConfiguration_v61" : [
"96ab8491b0b842429eb334fb"
],
"BurninBoxConfiguration_v62" : [
"96ab8491b0b842429eb334fb"
],
"BurninBoxConfiguration_v63" : [
"96ab8491b0b842429eb334fb"
],
"BurninBoxConfiguration_v64" : [
"96ab8491b0b842429eb334fb"
],
"BurninBoxConfiguration_v65" : [
"96ab8491b0b842429eb334fb"
],
"BurninBoxConfiguration_v66" : [
"96ab8491b0b842429eb334fb"
],
"BurninBoxConfiguration_v67" : [
"96ab8491b0b842429eb334fb"
],
"BurninBoxConfiguration_v68" : [
"96ab8491b0b842429eb334fb"
],
"BurninBoxConfiguration_v69" : [
"96ab8491b0b842429eb334fb"
],
"BurninBoxConfiguration_v70" : [
"96ab8491b0b842429eb334fb"
],
"BurninBoxConfiguration_v71" : [
"96ab8491b0b842429eb334fb"
],
"BurninBoxConfiguration_v72" : [
"96ab8491b0b842429eb334fb"
],
"BurninBoxConfiguration_v73" : [
"96ab8491b0b842429eb334fb"
],
"BurninBoxConfiguration_v74" : [
"96ab8491b0b842429eb334fb"
],
"BurninBoxConfiguration_v75" : [
"96ab8491b0b842429eb334fb"
],
"BurninBoxConfiguration_v76" : [
"96ab8491b0b842429eb334fb"
],
"BurninBoxConfiguration_v77" : [
"96ab8491b0b842429eb334fb"
],
"BurninBoxConfiguration_v78" : [
"96ab8491b0b842429eb334fb"
],
"BurninBoxConfiguration_v79" : [
"96ab8491b0b842429eb334fb"
],
"BurninBoxConfiguration_v80" : [
"96ab8491b0b842429eb334fb"
],
"BurninBoxConfiguration_v81" : [
"96ab8491b0b842429eb334fb"
],
"BurninBoxConfiguration_v82" : [
"96ab8491b0b842429eb334fb"
],
"BurninBoxConfiguration_v83" : [
"96ab8491b0b842429eb334fb"
],
"BurninBoxConfiguration_v84" : [
"96ab8491b0b842429eb334fb"
],
"BurninBoxConfiguration_v85" : [
"96ab8491b0b842429eb334fb"
],
"BurninBoxConfiguration_v86" : [
"96ab8491b0b842429eb334fb"
],
"BurninBoxConfiguration_v87" : [
"96ab8491b0b842429eb334fb"
],
"BurninBoxConfiguration_v88" : [
"96ab8491b0b842429eb334fb"
],
"BurninBoxConfiguration_v89" : [
"96ab8491b0b842429eb334fb"
],
"BurninBoxConfiguration_v90" : [
"96ab8491b0b842429eb334fb"
],
"BurninBoxConfiguration_v91" : [
"96ab8491b0b842429eb334fb"
],
"BurninBoxConfiguration_v92" : [
"96ab8491b0b842429eb334fb"
],
"BurninBoxConfiguration_v93" : [
"96ab8491b0b842429eb334fb"
],
"BurninBoxConfiguration_v94" : [
"96ab8491b0b842429eb334fb"
],
"BurninBoxConfiguration_v95" : [
"96ab8491b0b842429eb334fb"
],
"BurninBoxConfiguration_v96" : [
"96ab8491b0b842429eb334fb"
],
"BurninBoxConfiguration_v97" : [
"96ab8491b0b842429eb334fb"
],
"BurninBoxConfiguration_v98" : [
"96ab8491b0b842429eb334fb"
],
"BurninBoxConfiguration_v99" : [
"96ab8491b0b842429eb334fb"
],
"BurninBoxConfiguration_v100" : [
"96ab8491b0b842429eb334fb"
],
"BurninBoxConfiguration_v101" : [
"96ab8491b0b842429eb334fb"
],
"BurninBoxConfiguration_v102" : [
"96ab8491b0b842429eb334fb"
],
"BurninBoxConfiguration_v103" : [
"96ab8491b0b842429eb334fb"
],
"BurninBoxConfiguration_v104" : [
"96ab8491b0b842429eb334fb"
],
"BurninBoxConfiguration_v105" : [
"96ab8491b0b842429eb334fb"
],
"BurninBoxConfiguration_v106" : [
"96ab8491b0b842429eb334fb"
],
"BurninBoxConfiguration_v107" : [
"96ab8491b0b842429eb334fb"
],
"BurninBoxConfiguration_v108" : [
"96ab8491b0b842429eb334fb"
],
"BurninBoxConfiguration_v109" : [
"96ab8491b0b842429eb334fb"
],
"BurninBoxConfiguration_v110" : [
"96ab8491b0b842429eb334fb"
],
"BurninBoxConfiguration_v111" : [
"96ab8491b0b842429eb334fb"
],
"BurninBoxConfiguration_v112" : [
"96ab8491b0b842429eb334fb"
],
"BurninBoxConfiguration_v113" : [
"96ab8491b0b842429eb334fb"
],
"BurninBoxConfiguration_v114" : [
"96ab8491b0b842429eb334fb"
],
"BurninBoxConfiguration_v115" : [
"96ab8491b0b842429eb334fb"
],
"BurninBoxConfiguration_v116" : [
"96ab8491b0b842429eb334fb"
]
},
"entities.name" : {
"OTSROOT" : [
"2b73209dd4bd4f6a956b61f3",
"593bf95761c04911a4bc5e58",
"96ab8491b0b842429eb334fb"
]
},
"aliases.active.name" : {

},
"runs.name" : {

},
"configurations.assigned" : {
"notprovided" : [
"2021-06-30T16:16:01.781-0500",
"2021-07-09T11:45:30.613-0500",
"2021-07-09T16:05:58.605-0500"
],
"BurninBoxConfiguration_v33" : [
"2021-06-30T16:17:52.093-0500"
],
"BurninBoxConfiguration_v34" : [
"2021-06-30T16:23:48.503-0500"
],
"BurninBoxConfiguration_v35" : [
"2021-07-08T14:06:14.347-0500"
],
"BurninBoxConfiguration_v36" : [
"2021-07-08T14:16:58.565-0500"
],
"BurninBoxConfiguration_v37" : [
"2021-07-08T16:20:45.151-0500"
],
"BurninBoxConfiguration_v38" : [
"2021-07-09T11:47:14.302-0500"
],
"BurninBoxConfiguration_v39" : [
"2021-07-09T11:48:46.416-0500"
],
"BurninBoxConfiguration_v40" : [
"2021-07-09T16:06:00.899-0500"
],
"BurninBoxConfiguration_v41" : [
"2021-07-12T11:04:55.875-0500"
],
"BurninBoxConfiguration_v42" : [
"2021-07-13T12:01:31.763-0500"
],
"BurninBoxConfiguration_v43" : [
"2021-07-13T12:22:06.245-0500"
],
"BurninBoxConfiguration_v44" : [
"2021-07-14T13:05:58.832-0500"
],
"BurninBoxConfiguration_v45" : [
"2021-07-14T14:26:05.036-0500"
],
"BurninBoxConfiguration_v46" : [
"2021-07-14T14:46:57.324-0500"
],
"BurninBoxConfiguration_v47" : [
"2021-07-14T15:24:34.217-0500"
],
"BurninBoxConfiguration_v48" : [
"2021-07-14T16:05:29.783-0500"
],
"BurninBoxConfiguration_v49" : [
"2021-07-14T16:15:41.481-0500"
],
"BurninBoxConfiguration_v50" : [
"2021-07-14T16:17:41.168-0500"
],
"BurninBoxConfiguration_v51" : [
"2021-07-15T11:50:34.212-0500"
],
"BurninBoxConfiguration_v52" : [
"2021-07-20T13:45:54.296-0500"
],
"BurninBoxConfiguration_v53" : [
"2021-07-20T16:41:42.549-0500"
],
"BurninBoxConfiguration_v54" : [
"2021-07-20T17:09:27.306-0500"
],
"BurninBoxConfiguration_v55" : [
"2021-07-20T17:28:40.467-0500"
],
"BurninBoxConfiguration_v56" : [
"2021-07-20T17:46:27.790-0500"
],
"BurninBoxConfiguration_v57" : [
"2021-07-21T11:50:02.304-0500"
],
"BurninBoxConfiguration_v58" : [
"2021-07-21T11:58:37.987-0500"
],
"BurninBoxConfiguration_v59" : [
"2021-07-21T11:59:33.765-0500"
],
"BurninBoxConfiguration_v60" : [
"2021-07-22T18:35:00.819-0500"
],
"BurninBoxConfiguration_v61" : [
"2021-07-23T12:33:57.106-0500"
],
"BurninBoxConfiguration_v62" : [
"2021-07-24T00:54:49.945-0500"
],
"BurninBoxConfiguration_v63" : [
"2021-07-24T12:12:51.481-0500"
],
"BurninBoxConfiguration_v64" : [
"2021-07-25T21:07:16.424-0500"
],
"BurninBoxConfiguration_v65" : [
"2021-07-26T07:43:12.326-0500"
],
"BurninBoxConfiguration_v66" : [
"2021-07-26T18:37:12.370-0500"
],
"BurninBoxConfiguration_v67" : [
"2021-07-27T08:25:41.145-0500"
],
"BurninBoxConfiguration_v68" : [
"2021-08-03T11:10:37.517-0500"
],
"BurninBoxConfiguration_v69" : [
"2021-08-04T12:21:57.963-0500"
],
"BurninBoxConfiguration_v70" : [
"2021-09-02T13:43:34.386-0500"
],
"BurninBoxConfiguration_v71" : [
"2021-09-02T14:03:37.258-0500"
],
"BurninBoxConfiguration_v72" : [
"2021-09-23T15:47:05.654-0500"
],
"BurninBoxConfiguration_v73" : [
"2021-09-23T15:47:42.568-0500"
],
"BurninBoxConfiguration_v74" : [
"2021-09-24T15:36:50.481-0500"
],
"BurninBoxConfiguration_v75" : [
"2021-09-24T15:53:23.485-0500"
],
"BurninBoxConfiguration_v76" : [
"2021-09-24T16:04:22.522-0500"
],
"BurninBoxConfiguration_v77" : [
"2021-09-24T16:28:07.292-0500"
],
"BurninBoxConfiguration_v78" : [
"2021-09-27T09:02:56.851-0500"
],
"BurninBoxConfiguration_v79" : [
"2021-09-27T14:22:25.120-0500"
],
"BurninBoxConfiguration_v80" : [
"2021-09-28T09:24:50.992-0500"
],
"BurninBoxConfiguration_v81" : [
"2021-09-30T09:14:51.338-0500"
],
"BurninBoxConfiguration_v82" : [
"2021-10-01T10:56:21.787-0500"
],
"BurninBoxConfiguration_v83" : [
"2021-10-01T11:01:41.428-0500"
],
"BurninBoxConfiguration_v84" : [
"2021-10-06T10:02:31.732-0500"
],
"BurninBoxConfiguration_v85" : [
"2021-10-07T16:32:40.866-0500"
],
"BurninBoxConfiguration_v86" : [
"2021-10-08T14:03:15.741-0500"
],
"BurninBoxConfiguration_v87" : [
"2021-10-11T16:00:56.716-0500"
],
"BurninBoxConfiguration_v88" : [
"2021-10-12T09:07:17.890-0500"
],
"BurninBoxConfiguration_v89" : [
"2021-10-12T11:11:23.588-0500"
],
"BurninBoxConfiguration_v90" : [
"2021-10-14T17:03:17.013-0500"
],
"BurninBoxConfiguration_v91" : [
"2021-10-15T10:48:31.734-0500"
],
"BurninBoxConfiguration_v92" : [
"2021-10-15T15:50:49.708-0500"
],
"BurninBoxConfiguration_v93" : [
"2021-11-03T16:30:20.535-0500"
],
"BurninBoxConfiguration_v94" : [
"2021-11-10T15:11:02.966-0600"
],
"BurninBoxConfiguration_v95" : [
"2022-04-19T14:35:56.816-0400"
],
"BurninBoxConfiguration_v96" : [
"2022-04-20T10:06:05.786-0400"
],
"BurninBoxConfiguration_v97" : [
"2022-04-20T11:23:52.514-0400"
],
"BurninBoxConfiguration_v98" : [
"2022-06-03T14:30:16.807-0500"
],
"BurninBoxConfiguration_v99" : [
"2022-06-03T14:34:09.676-0500"
],
"BurninBoxConfiguration_v100" : [
"2022-06-07T14:59:59.911-0500"
],
"BurninBoxConfiguration_v101" : [
"2022-06-07T15:05:54.156-0500"
],
"BurninBoxConfiguration_v102" : [
"2022-06-07T16:09:18.182-0500"
],
"BurninBoxConfiguration_v103" : [
"2022-06-10T10:17:26.408-0500"
],
"BurninBoxConfiguration_v104" : [
"2022-06-10T10:18:22.890-0500"
],
"BurninBoxConfiguration_v105" : [
"2022-06-13T14:13:01.638-0500"
],
"BurninBoxConfiguration_v106" : [
"2022-06-13T15:22:19.050-0500"
],
"BurninBoxConfiguration_v107" : [
"2022-06-21T15:37:15.176-0500"
],
"BurninBoxConfiguration_v108" : [
"2022-06-21T15:39:37.753-0500"
],
"BurninBoxConfiguration_v109" : [
"2022-06-30T12:02:32.217-0500"
],
"BurninBoxConfiguration_v110" : [
"2023-01-19T10:05:43.424-0600"
],
"BurninBoxConfiguration_v111" : [
"2023-01-19T10:08:20.340-0600"
],
"BurninBoxConfiguration_v112" : [
"2023-01-19T11:02:45.428-0600"
],
"BurninBoxConfiguration_v113" : [
"2023-01-20T11:51:31.440-0600"
],
"BurninBoxConfiguration_v114" : [
"2023-01-30T11:15:46.632-0600"
],
"BurninBoxConfiguration_v115" : [
"2023-03-01T10:10:34.434-0600"
],
"BurninBoxConfiguration_v116" : [
"2023-03-10T16:58:23.217+0100"
]
}
}