{
"document" : {
"data" : {
"NAME" : "GROUP_ALIASES_TABLE",
"COMMENT" : "Default Backbone.",
"AUTHOR" : "admin",
"CREATION_TIME" : 1536678676,
"COL_TYPES" : {
"GROUP_KEY_ALIAS" : "VARCHAR2",
"GROUP_NAME" : "VARCHAR2",
"GROUP_KEY" : "VARCHAR2",
"COMMENT_DESCRIPTION" : "VARCHAR2",
"AUTHOR" : "VARCHAR2",
"RECORD_INSERTION_TIME" : "TIMESTAMP WITH TIMEZONE"
},
"DATA_SET" : [
{
"GROUP_KEY_ALIAS" : "DefaultContext",
"GROUP_NAME" : "DefaultContext",
"GROUP_KEY" : "3",
"COMMENT_DESCRIPTION" : "This Group Alias was automatically setup by the server.",
"AUTHOR" : "admin",
"RECORD_INSERTION_TIME" : "1536678020"
},
{
"GROUP_KEY_ALIAS" : "BurninBoxConfig",
"GROUP_NAME" : "BurninBoxConfig",
"GROUP_KEY" : "5",
"COMMENT_DESCRIPTION" : "This Group Alias was automatically setup by the server.",
"AUTHOR" : "admin",
"RECORD_INSERTION_TIME" : "1536678676"
}
]
},
"metadata" : {

},
"search" : [

]
},
"comments" : [

],
"origin" : {
"source" : "template",
"name" : "notprovided",
"format" : "json",
"created" : "2018-09-11T10:11:16.266-0500",
"rawdata" : [

]
},
"version" : "10",
"entities" : [
{
"name" : "OTSROOT",
"assigned" : "2018-09-11T10:11:16.267-0500"
}
],
"tables" : [
{
"name" : "notprovided",
"assigned" : "2018-09-11T10:11:16.267-0500"
},
{
"name" : "GroupAliasTreeEditWizBackbone_v0",
"assigned" : "2018-09-11T10:11:16.680-0500"
},
{
"name" : "TableEditWizBackbone_v10",
"assigned" : "2018-09-12T13:36:48.243-0500"
}
],
"changelog" : "notprovided",
"bookkeeping" : {
"isdeleted" : false,
"isreadonly" : false,
"updates" : [
{
"event" : "addTable",
"timestamp" : "2018-09-11T10:11:16.267-0500",
"value" : {
"name" : "notprovided",
"assigned" : "2018-09-11T10:11:16.267-0500"
}
},
{
"event" : "setVersion",
"timestamp" : "2018-09-11T10:11:16.267-0500",
"value" : {
"name" : "10",
"assigned" : "2018-09-11T10:11:16.267-0500"
}
},
{
"event" : "setCollection",
"timestamp" : "2018-09-11T10:11:16.267-0500",
"value" : {
"name" : "GroupAliasesTable",
"assigned" : "2018-09-11T10:11:16.267-0500"
}
},
{
"event" : "addEntity",
"timestamp" : "2018-09-11T10:11:16.267-0500",
"value" : {
"name" : "OTSROOT",
"assigned" : "2018-09-11T10:11:16.267-0500"
}
},
{
"event" : "addTable",
"timestamp" : "2018-09-11T10:11:16.680-0500",
"value" : {
"name" : "GroupAliasTreeEditWizBackbone_v0",
"assigned" : "2018-09-11T10:11:16.680-0500"
}
},
{
"event" : "addTable",
"timestamp" : "2018-09-12T13:36:48.243-0500",
"value" : {
"name" : "TableEditWizBackbone_v10",
"assigned" : "2018-09-12T13:36:48.243-0500"
}
}
],
"created" : "2018-09-11T10:11:16.266-0500"
},
"_id" : {
"$oid" : "15bf408cc66a4d068d0242db"
},
"collection" : "GroupAliasesTable",
"aliases" : {
"active" : [

],
"history" : [

]
},
"runs" : [

],
"attachments" : [

],
"configtype" : "notprovided"
}