{
"document" : {
"data" : {
"NAME" : "TABLE_GROUP_METADATA",
"COMMENT" : "",
"AUTHOR" : "",
"CREATION_TIME" : 1528236848,
"COL_TYPES" : {
"UNUSED_UID" : "NUMBER",
"GROUP_ALIASES" : "STRING",
"COMMENT_DESCRIPTION" : "STRING",
"AUTHOR" : "STRING",
"GROUP_CREATION_TIME" : "TIMESTAMP WITH TIMEZONE"
},
"DATA_SET" : [
{
"UNUSED_UID" : "0",
"GROUP_ALIASES" : "",
"COMMENT_DESCRIPTION" : "No%20comment.",
"AUTHOR" : "admin",
"GROUP_CREATION_TIME" : "1674147763"
}
]
},
"metadata" : {

},
"search" : [

]
},
"comments" : [

],
"origin" : {
"source" : "template",
"name" : "notprovided",
"format" : "json",
"created" : "2023-01-19T11:02:43.958-0600",
"rawdata" : [

]
},
"version" : "522",
"entities" : [
{
"name" : "OTSROOT",
"assigned" : "2023-01-19T11:02:43.958-0600"
}
],
"configurations" : [
{
"name" : "notprovided",
"assigned" : "2023-01-19T11:02:43.958-0600"
},
{
"name" : "BurninBoxConfiguration_v112",
"assigned" : "2023-01-19T11:02:45.526-0600"
}
],
"changelog" : "notprovided",
"bookkeeping" : {
"isdeleted" : false,
"isreadonly" : false,
"updates" : [
{
"event" : "addConfiguration",
"timestamp" : "2023-01-19T11:02:43.958-0600",
"value" : {
"name" : "notprovided",
"assigned" : "2023-01-19T11:02:43.958-0600"
}
},
{
"event" : "setVersion",
"timestamp" : "2023-01-19T11:02:43.958-0600",
"value" : {
"name" : "522",
"assigned" : "2023-01-19T11:02:43.958-0600"
}
},
{
"event" : "setCollection",
"timestamp" : "2023-01-19T11:02:43.958-0600",
"value" : {
"name" : "TableGroupMetadata",
"assigned" : "2023-01-19T11:02:43.958-0600"
}
},
{
"event" : "addEntity",
"timestamp" : "2023-01-19T11:02:43.958-0600",
"value" : {
"name" : "OTSROOT",
"assigned" : "2023-01-19T11:02:43.958-0600"
}
},
{
"event" : "addConfiguration",
"timestamp" : "2023-01-19T11:02:45.526-0600",
"value" : {
"name" : "BurninBoxConfiguration_v112",
"assigned" : "2023-01-19T11:02:45.526-0600"
}
}
],
"created" : "2023-01-19T11:02:43.958-0600"
},
"_id" : {
"$oid" : "19803afe07834153b42606d8"
},
"collection" : "TableGroupMetadata",
"aliases" : {
"active" : [

],
"history" : [

]
},
"runs" : [

],
"attachments" : [

],
"configtype" : "notprovided"
}