{
"document" : {
"data" : {
"NAME" : "",
"COMMENT" : "",
"AUTHOR" : "",
"CREATION_TIME" : 1528236848,
"COL_TYPES" : {
"UNUSED_UID" : "NUMBER",
"GROUP_ALIASES" : "VARCHAR2",
"COMMENT_DESCRIPTION" : "VARCHAR2",
"AUTHOR" : "VARCHAR2",
"GROUP_CREATION_TIME" : "TIMESTAMP WITH TIMEZONE"
},
"DATA_SET" : [
{
"UNUSED_UID" : "0",
"GROUP_ALIASES" : "",
"COMMENT_DESCRIPTION" : "",
"AUTHOR" : "admin",
"GROUP_CREATION_TIME" : "1536589599"
}
]
},
"metadata" : {

},
"search" : [

]
},
"comments" : [

],
"origin" : {
"source" : "template",
"name" : "notprovided",
"format" : "json",
"created" : "2018-09-10T09:26:39.451-0500",
"rawdata" : [

]
},
"version" : "5",
"entities" : [
{
"name" : "OTSROOT",
"assigned" : "2018-09-10T09:26:39.453-0500"
}
],
"tables" : [
{
"name" : "notprovided",
"assigned" : "2018-09-10T09:26:39.452-0500"
},
{
"name" : "iterateDefaultGroup_v0",
"assigned" : "2018-09-10T09:26:39.480-0500"
}
],
"changelog" : "notprovided",
"bookkeeping" : {
"isdeleted" : false,
"isreadonly" : false,
"updates" : [
{
"event" : "addTable",
"timestamp" : "2018-09-10T09:26:39.452-0500",
"value" : {
"name" : "notprovided",
"assigned" : "2018-09-10T09:26:39.452-0500"
}
},
{
"event" : "setVersion",
"timestamp" : "2018-09-10T09:26:39.453-0500",
"value" : {
"name" : "5",
"assigned" : "2018-09-10T09:26:39.453-0500"
}
},
{
"event" : "setCollection",
"timestamp" : "2018-09-10T09:26:39.453-0500",
"value" : {
"name" : "TableGroupMetadata",
"assigned" : "2018-09-10T09:26:39.453-0500"
}
},
{
"event" : "addEntity",
"timestamp" : "2018-09-10T09:26:39.453-0500",
"value" : {
"name" : "OTSROOT",
"assigned" : "2018-09-10T09:26:39.453-0500"
}
},
{
"event" : "addTable",
"timestamp" : "2018-09-10T09:26:39.480-0500",
"value" : {
"name" : "iterateDefaultGroup_v0",
"assigned" : "2018-09-10T09:26:39.480-0500"
}
}
],
"created" : "2018-09-10T09:26:39.451-0500"
},
"_id" : {
"$oid" : "7dcb56f6c62c4749987c9f40"
},
"collection" : "TableGroupMetadata",
"aliases" : {
"active" : [

],
"history" : [

]
},
"runs" : [

],
"attachments" : [

],
"configtype" : "notprovided"
}