{
"document" : {
"data" : {
"NAME" : "",
"COMMENT" : "",
"AUTHOR" : "",
"CREATION_TIME" : 1528236848,
"COL_TYPES" : {
"UNUSED_UID" : "NUMBER",
"GROUP_ALIASES" : "VARCHAR2",
"COMMENT_DESCRIPTION" : "VARCHAR2",
"AUTHOR" : "VARCHAR2",
"GROUP_CREATION_TIME" : "TIMESTAMP WITH TIMEZONE"
},
"DATA_SET" : [
{
"UNUSED_UID" : "0",
"GROUP_ALIASES" : "",
"COMMENT_DESCRIPTION" : "",
"AUTHOR" : "admin",
"GROUP_CREATION_TIME" : "1563997722"
}
]
},
"metadata" : {

},
"search" : [

]
},
"comments" : [

],
"origin" : {
"source" : "template",
"name" : "notprovided",
"format" : "json",
"created" : "2019-07-24T14:48:42.492-0500",
"rawdata" : [

]
},
"version" : "67",
"entities" : [
{
"name" : "OTSROOT",
"assigned" : "2019-07-24T14:48:42.493-0500"
}
],
"configurations" : [
{
"name" : "notprovided",
"assigned" : "2019-07-24T14:48:42.492-0500"
},
{
"name" : "GroupAliasTreeEditWizBackbone_v7",
"assigned" : "2019-07-24T14:48:42.551-0500"
}
],
"changelog" : "notprovided",
"bookkeeping" : {
"isdeleted" : false,
"isreadonly" : false,
"updates" : [
{
"event" : "addConfiguration",
"timestamp" : "2019-07-24T14:48:42.492-0500",
"value" : {
"name" : "notprovided",
"assigned" : "2019-07-24T14:48:42.492-0500"
}
},
{
"event" : "setVersion",
"timestamp" : "2019-07-24T14:48:42.492-0500",
"value" : {
"name" : "67",
"assigned" : "2019-07-24T14:48:42.492-0500"
}
},
{
"event" : "setCollection",
"timestamp" : "2019-07-24T14:48:42.492-0500",
"value" : {
"name" : "TableGroupMetadata",
"assigned" : "2019-07-24T14:48:42.492-0500"
}
},
{
"event" : "addEntity",
"timestamp" : "2019-07-24T14:48:42.493-0500",
"value" : {
"name" : "OTSROOT",
"assigned" : "2019-07-24T14:48:42.493-0500"
}
},
{
"event" : "addConfiguration",
"timestamp" : "2019-07-24T14:48:42.551-0500",
"value" : {
"name" : "GroupAliasTreeEditWizBackbone_v7",
"assigned" : "2019-07-24T14:48:42.551-0500"
}
}
],
"created" : "2019-07-24T14:48:42.492-0500"
},
"_id" : {
"$oid" : "92b214f3881049db80c0210a"
},
"collection" : "TableGroupMetadata",
"aliases" : {
"active" : [

],
"history" : [

]
},
"runs" : [

],
"attachments" : [

],
"configtype" : "notprovided"
}