{
"document" : {
"data" : {
"NAME" : "CAEN_POWER_SUPPLY_CHANNEL_TABLE",
"COMMENT" : "No comment.",
"AUTHOR" : "admin",
"CREATION_TIME" : 1681837432,
"COL_TYPES" : {
"POWER_SUPPLY_GROUP_UID" : "STRING",
"CHANNEL_UID" : "STRING",
"SLOT" : "NUMBER",
"CHANNEL" : "NUMBER",
"IN_USE" : "STRING",
"I0SET" : "NUMBER",
"V0SET" : "NUMBER",
"R_UP" : "NUMBER",
"R_DWN" : "NUMBER",
"TRIP" : "NUMBER",
"R_UP_TIME" : "NUMBER",
"R_DW_TIME" : "NUMBER",
"UNV_THR" : "NUMBER",
"OVV_THR" : "NUMBER",
"COMMENT_DESCRIPTION" : "STRING",
"AUTHOR" : "STRING",
"RECORD_INSERTION_TIME" : "TIMESTAMP WITH TIMEZONE"
},
"DATA_SET" : [
{
"POWER_SUPPLY_GROUP_UID" : "BurninBox",
"CHANNEL_UID" : "Module1L_LV",
"SLOT" : "1",
"CHANNEL" : "0",
"IN_USE" : "Yes",
"I0SET" : "1.5",
"V0SET" : "10.4",
"R_UP" : "0",
"R_DWN" : "0",
"TRIP" : "10",
"R_UP_TIME" : "100",
"R_DW_TIME" : "100",
"UNV_THR" : "9",
"OVV_THR" : "11",
"COMMENT_DESCRIPTION" : "No Comment",
"AUTHOR" : "admin",
"RECORD_INSERTION_TIME" : "1681505936"
},
{
"POWER_SUPPLY_GROUP_UID" : "BurninBox",
"CHANNEL_UID" : "Module1L_HV",
"SLOT" : "5",
"CHANNEL" : "0",
"IN_USE" : "Yes",
"I0SET" : "30",
"V0SET" : "400",
"R_UP" : "50",
"R_DWN" : "50",
"TRIP" : "5",
"R_UP_TIME" : "0",
"R_DW_TIME" : "0",
"UNV_THR" : "0",
"OVV_THR" : "0",
"COMMENT_DESCRIPTION" : "No Comment",
"AUTHOR" : "admin",
"RECORD_INSERTION_TIME" : "1681505936"
},
{
"POWER_SUPPLY_GROUP_UID" : "BurninBox",
"CHANNEL_UID" : "Module2L_LV",
"SLOT" : "1",
"CHANNEL" : "1",
"IN_USE" : "Yes",
"I0SET" : "1.5",
"V0SET" : "10.4",
"R_UP" : "0",
"R_DWN" : "0",
"TRIP" : "10",
"R_UP_TIME" : "100",
"R_DW_TIME" : "100",
"UNV_THR" : "9",
"OVV_THR" : "11",
"COMMENT_DESCRIPTION" : "No Comment",
"AUTHOR" : "admin",
"RECORD_INSERTION_TIME" : "1681505936"
},
{
"POWER_SUPPLY_GROUP_UID" : "BurninBox",
"CHANNEL_UID" : "Module2L_HV",
"SLOT" : "5",
"CHANNEL" : "1",
"IN_USE" : "Yes",
"I0SET" : "30",
"V0SET" : "400",
"R_UP" : "50",
"R_DWN" : "50",
"TRIP" : "5",
"R_UP_TIME" : "0",
"R_DW_TIME" : "0",
"UNV_THR" : "0",
"OVV_THR" : "0",
"COMMENT_DESCRIPTION" : "No Comment",
"AUTHOR" : "admin",
"RECORD_INSERTION_TIME" : "1681505936"
},
{
"POWER_SUPPLY_GROUP_UID" : "BurninBox",
"CHANNEL_UID" : "Module3L_LV",
"SLOT" : "1",
"CHANNEL" : "2",
"IN_USE" : "Yes",
"I0SET" : "1.5",
"V0SET" : "10.4",
"R_UP" : "0",
"R_DWN" : "0",
"TRIP" : "10",
"R_UP_TIME" : "100",
"R_DW_TIME" : "100",
"UNV_THR" : "9",
"OVV_THR" : "11",
"COMMENT_DESCRIPTION" : "No Comment",
"AUTHOR" : "admin",
"RECORD_INSERTION_TIME" : "1681505936"
},
{
"POWER_SUPPLY_GROUP_UID" : "BurninBox",
"CHANNEL_UID" : "Module3L_HV",
"SLOT" : "5",
"CHANNEL" : "2",
"IN_USE" : "Yes",
"I0SET" : "30",
"V0SET" : "400",
"R_UP" : "50",
"R_DWN" : "50",
"TRIP" : "5",
"R_UP_TIME" : "0",
"R_DW_TIME" : "0",
"UNV_THR" : "0",
"OVV_THR" : "0",
"COMMENT_DESCRIPTION" : "No Comment",
"AUTHOR" : "admin",
"RECORD_INSERTION_TIME" : "1681505936"
},
{
"POWER_SUPPLY_GROUP_UID" : "BurninBox",
"CHANNEL_UID" : "Module4L_LV",
"SLOT" : "1",
"CHANNEL" : "3",
"IN_USE" : "Yes",
"I0SET" : "1.5",
"V0SET" : "10.5",
"R_UP" : "0",
"R_DWN" : "0",
"TRIP" : "10",
"R_UP_TIME" : "100",
"R_DW_TIME" : "100",
"UNV_THR" : "9",
"OVV_THR" : "11",
"COMMENT_DESCRIPTION" : "No Comment",
"AUTHOR" : "admin",
"RECORD_INSERTION_TIME" : "1681505936"
},
{
"POWER_SUPPLY_GROUP_UID" : "BurninBox",
"CHANNEL_UID" : "Module4L_HV",
"SLOT" : "5",
"CHANNEL" : "3",
"IN_USE" : "Yes",
"I0SET" : "30",
"V0SET" : "400",
"R_UP" : "50",
"R_DWN" : "50",
"TRIP" : "5",
"R_UP_TIME" : "0",
"R_DW_TIME" : "0",
"UNV_THR" : "0",
"OVV_THR" : "0",
"COMMENT_DESCRIPTION" : "No Comment",
"AUTHOR" : "admin",
"RECORD_INSERTION_TIME" : "1681505936"
},
{
"POWER_SUPPLY_GROUP_UID" : "BurninBox",
"CHANNEL_UID" : "Module5L_LV",
"SLOT" : "3",
"CHANNEL" : "4",
"IN_USE" : "Yes",
"I0SET" : "1.5",
"V0SET" : "10.4",
"R_UP" : "0",
"R_DWN" : "0",
"TRIP" : "10",
"R_UP_TIME" : "100",
"R_DW_TIME" : "100",
"UNV_THR" : "9",
"OVV_THR" : "11",
"COMMENT_DESCRIPTION" : "No Comment",
"AUTHOR" : "admin",
"RECORD_INSERTION_TIME" : "1681837432"
},
{
"POWER_SUPPLY_GROUP_UID" : "BurninBox",
"CHANNEL_UID" : "Module5L_HV",
"SLOT" : "5",
"CHANNEL" : "4",
"IN_USE" : "Yes",
"I0SET" : "30",
"V0SET" : "300",
"R_UP" : "50",
"R_DWN" : "50",
"TRIP" : "5",
"R_UP_TIME" : "0",
"R_DW_TIME" : "0",
"UNV_THR" : "0",
"OVV_THR" : "0",
"COMMENT_DESCRIPTION" : "No Comment",
"AUTHOR" : "admin",
"RECORD_INSERTION_TIME" : "1681837432"
},
{
"POWER_SUPPLY_GROUP_UID" : "BurninBox",
"CHANNEL_UID" : "Module1R_LV",
"SLOT" : "1",
"CHANNEL" : "4",
"IN_USE" : "Yes",
"I0SET" : "1.5",
"V0SET" : "10.4",
"R_UP" : "0",
"R_DWN" : "0",
"TRIP" : "10",
"R_UP_TIME" : "100",
"R_DW_TIME" : "100",
"UNV_THR" : "9",
"OVV_THR" : "11",
"COMMENT_DESCRIPTION" : "No Comment",
"AUTHOR" : "admin",
"RECORD_INSERTION_TIME" : "1681837432"
},
{
"POWER_SUPPLY_GROUP_UID" : "BurninBox",
"CHANNEL_UID" : "Module1R_HV",
"SLOT" : "5",
"CHANNEL" : "5",
"IN_USE" : "Yes",
"I0SET" : "30",
"V0SET" : "300",
"R_UP" : "50",
"R_DWN" : "50",
"TRIP" : "5",
"R_UP_TIME" : "0",
"R_DW_TIME" : "0",
"UNV_THR" : "0",
"OVV_THR" : "0",
"COMMENT_DESCRIPTION" : "No Comment",
"AUTHOR" : "admin",
"RECORD_INSERTION_TIME" : "1681837432"
},
{
"POWER_SUPPLY_GROUP_UID" : "BurninBox",
"CHANNEL_UID" : "Module2R_LV",
"SLOT" : "1",
"CHANNEL" : "5",
"IN_USE" : "Yes",
"I0SET" : "1.5",
"V0SET" : "10.4",
"R_UP" : "0",
"R_DWN" : "0",
"TRIP" : "10",
"R_UP_TIME" : "100",
"R_DW_TIME" : "100",
"UNV_THR" : "9",
"OVV_THR" : "11",
"COMMENT_DESCRIPTION" : "No Comment",
"AUTHOR" : "admin",
"RECORD_INSERTION_TIME" : "1681837432"
},
{
"POWER_SUPPLY_GROUP_UID" : "BurninBox",
"CHANNEL_UID" : "Module2R_HV",
"SLOT" : "5",
"CHANNEL" : "6",
"IN_USE" : "Yes",
"I0SET" : "30",
"V0SET" : "300",
"R_UP" : "50",
"R_DWN" : "50",
"TRIP" : "5",
"R_UP_TIME" : "0",
"R_DW_TIME" : "0",
"UNV_THR" : "0",
"OVV_THR" : "0",
"COMMENT_DESCRIPTION" : "No Comment",
"AUTHOR" : "admin",
"RECORD_INSERTION_TIME" : "1681837432"
},
{
"POWER_SUPPLY_GROUP_UID" : "BurninBox",
"CHANNEL_UID" : "Module3R_LV",
"SLOT" : "1",
"CHANNEL" : "6",
"IN_USE" : "Yes",
"I0SET" : "1.5",
"V0SET" : "10.4",
"R_UP" : "0",
"R_DWN" : "0",
"TRIP" : "10",
"R_UP_TIME" : "100",
"R_DW_TIME" : "100",
"UNV_THR" : "9",
"OVV_THR" : "11",
"COMMENT_DESCRIPTION" : "No Comment",
"AUTHOR" : "admin",
"RECORD_INSERTION_TIME" : "1681837432"
},
{
"POWER_SUPPLY_GROUP_UID" : "BurninBox",
"CHANNEL_UID" : "Module3R_HV",
"SLOT" : "5",
"CHANNEL" : "7",
"IN_USE" : "Yes",
"I0SET" : "30",
"V0SET" : "300",
"R_UP" : "50",
"R_DWN" : "50",
"TRIP" : "5",
"R_UP_TIME" : "0",
"R_DW_TIME" : "0",
"UNV_THR" : "0",
"OVV_THR" : "0",
"COMMENT_DESCRIPTION" : "No Comment",
"AUTHOR" : "admin",
"RECORD_INSERTION_TIME" : "1681837432"
},
{
"POWER_SUPPLY_GROUP_UID" : "BurninBox",
"CHANNEL_UID" : "Module4R_LV",
"SLOT" : "1",
"CHANNEL" : "7",
"IN_USE" : "Yes",
"I0SET" : "1.5",
"V0SET" : "10.4",
"R_UP" : "0",
"R_DWN" : "0",
"TRIP" : "10",
"R_UP_TIME" : "100",
"R_DW_TIME" : "100",
"UNV_THR" : "9",
"OVV_THR" : "11",
"COMMENT_DESCRIPTION" : "No Comment",
"AUTHOR" : "admin",
"RECORD_INSERTION_TIME" : "1681837432"
},
{
"POWER_SUPPLY_GROUP_UID" : "BurninBox",
"CHANNEL_UID" : "Module4R_HV",
"SLOT" : "5",
"CHANNEL" : "8",
"IN_USE" : "Yes",
"I0SET" : "30",
"V0SET" : "300",
"R_UP" : "50",
"R_DWN" : "50",
"TRIP" : "5",
"R_UP_TIME" : "0",
"R_DW_TIME" : "0",
"UNV_THR" : "0",
"OVV_THR" : "0",
"COMMENT_DESCRIPTION" : "No Comment",
"AUTHOR" : "admin",
"RECORD_INSERTION_TIME" : "1681837432"
},
{
"POWER_SUPPLY_GROUP_UID" : "BurninBox",
"CHANNEL_UID" : "Module5R_LV",
"SLOT" : "3",
"CHANNEL" : "5",
"IN_USE" : "Yes",
"I0SET" : "1.5",
"V0SET" : "10.4",
"R_UP" : "0",
"R_DWN" : "0",
"TRIP" : "10",
"R_UP_TIME" : "100",
"R_DW_TIME" : "100",
"UNV_THR" : "9",
"OVV_THR" : "11",
"COMMENT_DESCRIPTION" : "No Comment",
"AUTHOR" : "admin",
"RECORD_INSERTION_TIME" : "1681837432"
},
{
"POWER_SUPPLY_GROUP_UID" : "BurninBox",
"CHANNEL_UID" : "Module5R_HV",
"SLOT" : "5",
"CHANNEL" : "9",
"IN_USE" : "Yes",
"I0SET" : "30",
"V0SET" : "300",
"R_UP" : "50",
"R_DWN" : "50",
"TRIP" : "5",
"R_UP_TIME" : "0",
"R_DW_TIME" : "0",
"UNV_THR" : "0",
"OVV_THR" : "0",
"COMMENT_DESCRIPTION" : "No Comment",
"AUTHOR" : "admin",
"RECORD_INSERTION_TIME" : "1681837432"
}
]
},
"metadata" : {

},
"search" : [

]
},
"comments" : [

],
"origin" : {
"source" : "template",
"name" : "notprovided",
"format" : "json",
"created" : "2023-04-18T12:03:52.949-0500",
"rawdata" : [

]
},
"version" : "16",
"entities" : [
{
"name" : "OTSROOT",
"assigned" : "2023-04-18T12:03:52.949-0500"
}
],
"configurations" : [
{
"name" : "notprovided",
"assigned" : "2023-04-18T12:03:52.949-0500"
},
{
"name" : "BurninBoxConfiguration_v142",
"assigned" : "2023-04-18T12:03:55.726-0500"
},
{
"name" : "BurninBoxConfiguration_v143",
"assigned" : "2023-04-18T13:48:30.653-0500"
},
{
"name" : "BurninBoxConfiguration_v144",
"assigned" : "2023-04-18T14:33:54.000-0500"
},
{
"name" : "BurninBoxConfiguration_v145",
"assigned" : "2023-04-18T16:14:30.517-0500"
},
{
"name" : "BurninBoxConfiguration_v146",
"assigned" : "2023-04-18T16:20:20.114-0500"
},
{
"name" : "BurninBoxConfiguration_v147",
"assigned" : "2023-04-21T15:02:46.970-0500"
},
{
"name" : "BurninBoxConfiguration_v148",
"assigned" : "2023-05-09T09:06:43.256-0500"
},
{
"name" : "BurninBoxConfiguration_v149",
"assigned" : "2023-05-11T08:26:01.323-0500"
},
{
"name" : "BurninBoxConfiguration_v150",
"assigned" : "2023-09-28T16:19:05.914+0200"
}
],
"changelog" : "notprovided",
"bookkeeping" : {
"isdeleted" : false,
"isreadonly" : false,
"updates" : [
{
"event" : "addConfiguration",
"timestamp" : "2023-04-18T12:03:52.949-0500",
"value" : {
"name" : "notprovided",
"assigned" : "2023-04-18T12:03:52.949-0500"
}
},
{
"event" : "setVersion",
"timestamp" : "2023-04-18T12:03:52.949-0500",
"value" : {
"name" : "16",
"assigned" : "2023-04-18T12:03:52.949-0500"
}
},
{
"event" : "setCollection",
"timestamp" : "2023-04-18T12:03:52.949-0500",
"value" : {
"name" : "CAENPowerSupplyChannelTable",
"assigned" : "2023-04-18T12:03:52.949-0500"
}
},
{
"event" : "addEntity",
"timestamp" : "2023-04-18T12:03:52.949-0500",
"value" : {
"name" : "OTSROOT",
"assigned" : "2023-04-18T12:03:52.949-0500"
}
},
{
"event" : "addConfiguration",
"timestamp" : "2023-04-18T12:03:55.726-0500",
"value" : {
"name" : "BurninBoxConfiguration_v142",
"assigned" : "2023-04-18T12:03:55.726-0500"
}
},
{
"event" : "addConfiguration",
"timestamp" : "2023-04-18T13:48:30.653-0500",
"value" : {
"name" : "BurninBoxConfiguration_v143",
"assigned" : "2023-04-18T13:48:30.653-0500"
}
},
{
"event" : "addConfiguration",
"timestamp" : "2023-04-18T14:33:54.000-0500",
"value" : {
"name" : "BurninBoxConfiguration_v144",
"assigned" : "2023-04-18T14:33:54.000-0500"
}
},
{
"event" : "addConfiguration",
"timestamp" : "2023-04-18T16:14:30.517-0500",
"value" : {
"name" : "BurninBoxConfiguration_v145",
"assigned" : "2023-04-18T16:14:30.517-0500"
}
},
{
"event" : "addConfiguration",
"timestamp" : "2023-04-18T16:20:20.114-0500",
"value" : {
"name" : "BurninBoxConfiguration_v146",
"assigned" : "2023-04-18T16:20:20.114-0500"
}
},
{
"event" : "addConfiguration",
"timestamp" : "2023-04-21T15:02:46.970-0500",
"value" : {
"name" : "BurninBoxConfiguration_v147",
"assigned" : "2023-04-21T15:02:46.970-0500"
}
},
{
"event" : "addConfiguration",
"timestamp" : "2023-05-09T09:06:43.256-0500",
"value" : {
"name" : "BurninBoxConfiguration_v148",
"assigned" : "2023-05-09T09:06:43.256-0500"
}
},
{
"event" : "addConfiguration",
"timestamp" : "2023-05-11T08:26:01.323-0500",
"value" : {
"name" : "BurninBoxConfiguration_v149",
"assigned" : "2023-05-11T08:26:01.323-0500"
}
},
{
"event" : "addConfiguration",
"timestamp" : "2023-09-28T16:19:05.914+0200",
"value" : {
"name" : "BurninBoxConfiguration_v150",
"assigned" : "2023-09-28T16:19:05.914+0200"
}
}
],
"created" : "2023-04-18T12:03:52.949-0500"
},
"_id" : {
"$oid" : "e88bfb4e43f24e31a8830d2b"
},
"collection" : "CAENPowerSupplyChannelTable",
"aliases" : {
"active" : [

],
"history" : [

]
},
"runs" : [

],
"attachments" : [

],
"configtype" : "notprovided"
}