27 Nov 2023 17:36:49.847 [140044799490240] INFO  gov.fnal.lenny01.p:2021 <> - xdaq version: 05.13.00, compiled on Oct 12 2023 at 10:53:33, 64bit
27 Nov 2023 17:36:49.848 [140044799490240] INFO  gov.fnal.lenny01.p:2021 <> - Loaded profile: /home/modtest/Programming/otsdaq_develop_git/srcs/otsdaq_cmsburninbox/DataDefault/XDAQConfigurations/otsConfiguration_CMake.xml
27 Nov 2023 17:36:49.849 [140044799490240] INFO  gov.fnal.lenny01.p:2021 <> - core::b2innub version: 02.05.02, compiled on Oct 12 2023 at 10:57:11
27 Nov 2023 17:36:49.850 [140044799490240] INFO  gov.fnal.lenny01.p:2021 <> - core::i2outils version: 04.00.00, compiled on Oct 12 2023 at 10:54:52
27 Nov 2023 17:36:49.852 [140044799490240] INFO  gov.fnal.lenny01.p:2021 <> - core::executive version: 04.04.00, compiled on Oct 12 2023 at 10:56:30
27 Nov 2023 17:36:49.854 [140044799490240] INFO  gov.fnal.lenny01.p:2021 <> - core::b2inutils version: 04.04.05, compiled on Oct 12 2023 at 10:57:19
27 Nov 2023 17:36:49.856 [140044799490240] INFO  gov.fnal.lenny01.p:2021 <> - core::pthttp version: 04.07.01, compiled on Oct 12 2023 at 10:55:04
27 Nov 2023 17:36:49.857 [140044799490240] INFO  gov.fnal.lenny01.p:2021 <> - core::ptfifo version: 04.04.00, compiled on Oct 12 2023 at 10:56:05
27 Nov 2023 17:36:49.858 [140044799490240] INFO  gov.fnal.lenny01.p:2021 <> - core::xrelay version: 04.02.00, compiled on Oct 12 2023 at 10:57:00
27 Nov 2023 17:36:49.860 [140044799490240] INFO  gov.fnal.lenny01.p:2021 <> - core::hyperdaq version: 05.04.01, compiled on Oct 12 2023 at 10:56:58
27 Nov 2023 17:36:49.860 [140044799490240] DEBUG gov.fnal.lenny01.p:2021 <> - Create application descriptor for class: executive::Application id: 0
27 Nov 2023 17:36:49.865 [140044799490240] INFO  gov.fnal.lenny01.p:2021.executive::Application.lid(0) <> - Log URL not set (was already console)
27 Nov 2023 17:36:49.865 [140044799490240] INFO  gov.fnal.lenny01.p:2021.executive::Application.lid(0) <> - Changed Log level to INFO
27 Nov 2023 17:36:49.868 [140044799490240] INFO  gov.fnal.lenny01.p:2021.pt::http::PeerTransportHTTP.lid(1) <> - No security policies on this server
|INFO:MetricManager:/scratch/workspace/artdaq-release-build/SLF7/s126-e28-prof/build/artdaq_utilities/v1_08_06-buildFW/src/artdaq-utilities/Plugins/MetricManager.cc [31] MetricManager CONSTRUCTOR
27 Nov 2023 17:36:49.983 [140044799490240] INFO  gov.fnal.lenny01.p:2021 <> - otsdaq::CoreSupervisors version: 02.07.00, compiled on Nov 27 2023 at 11:34:56
|DEBUG:MessageFacility.h:/home/modtest/Programming/otsdaq_develop_git/srcs/otsdaq/otsdaq/MessageFacility/MessageFacility.h [56] Configuring message facility with /home/modtest/Programming/otsdaq_develop_git/srcs/otsdaq_cmsburninbox/DataDefault/MessageFacilityConfigurations/MessageFacilityGen.fcl
otsConsole: {
	type: UDP
	threshold: DEBUG
	filename_delimit: "/src"
	port: 30000
	host: "127.0.0.1"
}
console: {
	type: "OTS"
	threshold: "DEBUG"
	filename_delimit: "/src"
	format_string: "|%L:%N: %f:%u |	%m"

}

file: ""

|Info:configureMessageFacility: configureMessageFacility.cc:274 |	Message Facility Application . configured with: destinations:{console:{filename_delimit:"/src" format_string:"|%L:%N: %f:%u |\t%m" threshold:"DEBUG" type:"OTS"} file:"" otsConsole:{filename_delimit:"/src" host:"127.0.0.1" port:30000 threshold:"DEBUG" type:"UDP"}}
|Info:_TCPConnect: TCPConnect.cc:345 |	Resolving host 127.0.0.1, on port 30000
|ERROR:UDP_mfPlugin:/scratch/workspace/artdaq-release-build/SLF7/s126-e28-prof/build/artdaq_mfextensions/v1_08_06-buildFW/src/mfextensions/Destinations/UDP_mfPlugin.cc [402] Error sending message 2 to 127.0.0.1, errno=17 (File exists)
|Info:_TCPConnect: TCPConnect.cc:372 |	Host resolved as 127.0.0.1
|Info:_TCPConnect: TCPConnect.cc:248 |	Resolving ip lenny01.fnal.gov
|Debug:CorePropertySupervisorBase.cc: otsdaq/otsdaq/CoreSupervisors/CorePropertySupervisorBase.cc:26 |	FESupervisor:UNINITIALIZED_supervisorApplicationUID	<> application->getApplicationContext()->getContextDescriptor()->getURL() = http://lenny01.fnal.gov:2021
|Debug:CorePropertySupervisorBase.cc: otsdaq/otsdaq/CoreSupervisors/CorePropertySupervisorBase.cc:27 |	FESupervisor:UNINITIALIZED_supervisorApplicationUID	<> application->getApplicationDescriptor()->getLocalId() = 400
|Debug:CorePropertySupervisorBase.cc: otsdaq/otsdaq/CoreSupervisors/CorePropertySupervisorBase.cc:28 |	FESupervisor:UNINITIALIZED_supervisorApplicationUID	<> supervisorClass_ = ots::FESupervisor
|Debug:CorePropertySupervisorBase.cc: otsdaq/otsdaq/CoreSupervisors/CorePropertySupervisorBase.cc:29 |	FESupervisor:UNINITIALIZED_supervisorApplicationUID	<> supervisorClassNoNamespace_ = FESupervisor
|Debug:AllSupervisorInfo.cc: otsdaq/otsdaq/SupervisorInfo/AllSupervisorInfo.cc:44 |	Initializing info based on XDAQ context...
|Debug:SupervisorDescriptorInfoBase.cc: otsdaq/otsdaq/SupervisorInfo/SupervisorDescriptorInfoBase.cc:33 |	Init
|Debug:AllSupervisorInfo.cc: otsdaq/otsdaq/SupervisorInfo/AllSupervisorInfo.cc:103 |	Initializing info for Normal mode XDAQ context...
|Debug:TableBase: otsdaq/otsdaq/TableCore/TableBase.cc:118 |	TableBase-TableGroupMetadata	<> Special table 'TableGroupMetadata' constructed. 1
|Debug:ConfigurationManager: otsdaq/otsdaq/ConfigurationInterface/ConfigurationManager.cc:104 |	READONLY_USER	<> runTimeSeconds() = 0.000260184
|Debug:ConfigurationManager: otsdaq/otsdaq/ConfigurationInterface/ConfigurationManager.cc:107 |	READONLY_USER	<> runTimeSeconds() = 0.0279826
|Debug:TableView: otsdaq/otsdaq/TableCore/TableView.cc:89 |	TABLE_GROUP_METADATAv-2	<>  'TABLE_GROUP_METADATA' vs GROUP_CACHE-
|Debug:ConfigurationManager: otsdaq/otsdaq/ConfigurationInterface/ConfigurationManager.cc:175 |	READONLY_USER	<> runTimeSeconds() = 0.028807
|Debug:ConfigurationManager: otsdaq/otsdaq/ConfigurationInterface/ConfigurationManager.cc:212 |	READONLY_USER	<> username_ = READONLY_USER
|Debug:ConfigurationManager: otsdaq/otsdaq/ConfigurationInterface/ConfigurationManager.cc:260 |	READONLY_USER	<> ACTIVE_GROUPS_FILENAME = /home/modtest/Programming/otsdaq_develop_git/srcs/otsdaq_cmsburninbox/DataDefault/ServiceData/ActiveTableGroups.cfg
|Debug:ConfigurationManager: otsdaq/otsdaq/ConfigurationInterface/ConfigurationManager.cc:261 |	READONLY_USER	<> ARTDAQ_DATABASE_URI = filesystemdb:///home/modtest/Programming/otsdaq_develop_git/srcs/otsdaq_cmsburninbox/databases/filesystemdb/2023_10_Default_db
|Debug:TableBase: otsdaq/otsdaq/TableCore/TableBase.cc:55 |	TableBase-GroupCache_DefaultContext	<> TableBase for 'GroupCache_DefaultContext' constructed.
|Debug:TableView: otsdaq/otsdaq/TableCore/TableView.cc:89 |	GROUP_CACHE-DEFAULT_CONTEXTv-2	<>  'GROUP_CACHE-DEFAULT_CONTEXT' vs GROUP_CACHE-
|Debug:TableView: otsdaq/otsdaq/TableCore/TableView.cc:93 |	GROUP_CACHE-DEFAULT_CONTEXTv-2	<> TableView copy for 'GROUP_CACHE-DEFAULT_CONTEXT' done.
|Debug:TableView: otsdaq/otsdaq/TableCore/TableView.cc:89 |	GROUP_CACHE-DEFAULT_CONTEXTv4	<>  'GROUP_CACHE-DEFAULT_CONTEXT' vs GROUP_CACHE-
|Debug:TableView: otsdaq/otsdaq/TableCore/TableView.cc:93 |	GROUP_CACHE-DEFAULT_CONTEXTv4	<> TableView copy for 'GROUP_CACHE-DEFAULT_CONTEXT' done.
|Debug:TableView: otsdaq/otsdaq/TableCore/TableView.cc:2076 |	GROUP_CACHE-DEFAULT_CONTEXTv4	<>  'GROUP_CACHE-DEFAULT_CONTEXT' vs GROUP_CACHE-
|Debug:ConfigurationManager: otsdaq/otsdaq/ConfigurationInterface/ConfigurationManager.cc:1571 |	READONLY_USER	<> ------------------------------------- init start    	 [for all plug-ins in Context group 'DefaultContext(4)']
|Debug:TableView: otsdaq/otsdaq/TableCore/TableView.cc:89 |	DESKTOP_ICON_TABLEv4	<>  'DESKTOP_ICON_TABLE' vs GROUP_CACHE-
|Debug:TableView: otsdaq/otsdaq/TableCore/TableView.cc:2076 |	DESKTOP_ICON_TABLEv4	<>  'DESKTOP_ICON_TABLE' vs GROUP_CACHE-
|Debug:TableView: otsdaq/otsdaq/TableCore/TableView.cc:89 |	DESKTOP_WINDOW_PARAMETER_TABLEv3	<>  'DESKTOP_WINDOW_PARAMETER_TABLE' vs GROUP_CACHE-
|Debug:TableView: otsdaq/otsdaq/TableCore/TableView.cc:2076 |	DESKTOP_WINDOW_PARAMETER_TABLEv3	<>  'DESKTOP_WINDOW_PARAMETER_TABLE' vs GROUP_CACHE-
|Debug:TableView: otsdaq/otsdaq/TableCore/TableView.cc:89 |	GATEWAY_SUPERVISOR_TABLEv4	<>  'GATEWAY_SUPERVISOR_TABLE' vs GROUP_CACHE-
|Debug:TableView: otsdaq/otsdaq/TableCore/TableView.cc:2076 |	GATEWAY_SUPERVISOR_TABLEv4	<>  'GATEWAY_SUPERVISOR_TABLE' vs GROUP_CACHE-
|Debug:TableView: otsdaq/otsdaq/TableCore/TableView.cc:89 |	MESSAGE_FACILITY_TABLEv3	<>  'MESSAGE_FACILITY_TABLE' vs GROUP_CACHE-
|Debug:TableView: otsdaq/otsdaq/TableCore/TableView.cc:2076 |	MESSAGE_FACILITY_TABLEv3	<>  'MESSAGE_FACILITY_TABLE' vs GROUP_CACHE-
|Debug:TableView: otsdaq/otsdaq/TableCore/TableView.cc:89 |	SLOW_CONTROLS_DASHBOARD_SUPERVISOR_TABLEv3	<>  'SLOW_CONTROLS_DASHBOARD_SUPERVISOR_TABLE' vs GROUP_CACHE-
|Debug:TableView: otsdaq/otsdaq/TableCore/TableView.cc:2076 |	SLOW_CONTROLS_DASHBOARD_SUPERVISOR_TABLEv3	<>  'SLOW_CONTROLS_DASHBOARD_SUPERVISOR_TABLE' vs GROUP_CACHE-
|Debug:TableView: otsdaq/otsdaq/TableCore/TableView.cc:89 |	STATE_MACHINE_TABLEv3	<>  'STATE_MACHINE_TABLE' vs GROUP_CACHE-
|Debug:TableView: otsdaq/otsdaq/TableCore/TableView.cc:2076 |	STATE_MACHINE_TABLEv3	<>  'STATE_MACHINE_TABLE' vs GROUP_CACHE-
|Debug:TableView: otsdaq/otsdaq/TableCore/TableView.cc:89 |	XDAQ_APPLICATION_PROPERTY_TABLEv3	<>  'XDAQ_APPLICATION_PROPERTY_TABLE' vs GROUP_CACHE-
|Debug:TableView: otsdaq/otsdaq/TableCore/TableView.cc:2076 |	XDAQ_APPLICATION_PROPERTY_TABLEv3	<>  'XDAQ_APPLICATION_PROPERTY_TABLE' vs GROUP_CACHE-
|Debug:TableView: otsdaq/otsdaq/TableCore/TableView.cc:89 |	XDAQ_APPLICATION_TABLEv4	<>  'XDAQ_APPLICATION_TABLE' vs GROUP_CACHE-
|Debug:TableView: otsdaq/otsdaq/TableCore/TableView.cc:2076 |	XDAQ_APPLICATION_TABLEv4	<>  'XDAQ_APPLICATION_TABLE' vs GROUP_CACHE-
|Debug:TableView: otsdaq/otsdaq/TableCore/TableView.cc:89 |	XDAQ_CONTEXT_TABLEv4	<>  'XDAQ_CONTEXT_TABLE' vs GROUP_CACHE-
|Debug:TableView: otsdaq/otsdaq/TableCore/TableView.cc:2076 |	XDAQ_CONTEXT_TABLEv4	<>  'XDAQ_CONTEXT_TABLE' vs GROUP_CACHE-
|Debug:ConfigurationManager: otsdaq/otsdaq/ConfigurationInterface/ConfigurationManager.cc:1632 |	READONLY_USER	<>  PROCESSOR_COUNT 64 ==> 32 threads for initializing tables.
|Debug:ConfigurationManager: otsdaq/otsdaq/ConfigurationInterface/ConfigurationManager.cc:1828 |	READONLY_USER	<> ------------------------------------- init complete 	 [for all plug-ins in Context group 'DefaultContext(4)']
|Debug:TableBase: otsdaq/otsdaq/TableCore/TableBase.cc:55 |	TableBase-GroupCache_GroupAliasTreeEditWizBackbone	<> TableBase for 'GroupCache_GroupAliasTreeEditWizBackbone' constructed.
|Debug:TableView: otsdaq/otsdaq/TableCore/TableView.cc:89 |	GROUP_CACHE-GROUP_ALIAS_TREE_EDIT_WIZ_BACKBONEv-2	<>  'GROUP_CACHE-GROUP_ALIAS_TREE_EDIT_WIZ_BACKBONE' vs GROUP_CACHE-
|Debug:TableView: otsdaq/otsdaq/TableCore/TableView.cc:93 |	GROUP_CACHE-GROUP_ALIAS_TREE_EDIT_WIZ_BACKBONEv-2	<> TableView copy for 'GROUP_CACHE-GROUP_ALIAS_TREE_EDIT_WIZ_BACKBONE' done.
|Debug:TableView: otsdaq/otsdaq/TableCore/TableView.cc:89 |	GROUP_CACHE-GROUP_ALIAS_TREE_EDIT_WIZ_BACKBONEv7	<>  'GROUP_CACHE-GROUP_ALIAS_TREE_EDIT_WIZ_BACKBONE' vs GROUP_CACHE-
|Debug:TableView: otsdaq/otsdaq/TableCore/TableView.cc:93 |	GROUP_CACHE-GROUP_ALIAS_TREE_EDIT_WIZ_BACKBONEv7	<> TableView copy for 'GROUP_CACHE-GROUP_ALIAS_TREE_EDIT_WIZ_BACKBONE' done.
|Debug:TableView: otsdaq/otsdaq/TableCore/TableView.cc:2076 |	GROUP_CACHE-GROUP_ALIAS_TREE_EDIT_WIZ_BACKBONEv7	<>  'GROUP_CACHE-GROUP_ALIAS_TREE_EDIT_WIZ_BACKBONE' vs GROUP_CACHE-
|Error:ConfigurationManager: otsdaq/otsdaq/ConfigurationInterface/ConfigurationManager.cc:1485 |	READONLY_USER	<> Ignoring that groupMetadataTable_ is missing for group 'GroupAliasTreeEditWizBackbone(7). Going with anonymous defaults.
|Debug:ConfigurationManager: otsdaq/otsdaq/ConfigurationInterface/ConfigurationManager.cc:1571 |	READONLY_USER	<> ------------------------------------- init start    	 [for all plug-ins in Backbone group 'GroupAliasTreeEditWizBackbone(7)']
|Debug:TableView: otsdaq/otsdaq/TableCore/TableView.cc:89 |	GROUP_ALIASES_TABLEv7	<>  'GROUP_ALIASES_TABLE' vs GROUP_CACHE-
|Debug:TableView: otsdaq/otsdaq/TableCore/TableView.cc:2076 |	GROUP_ALIASES_TABLEv7	<>  'GROUP_ALIASES_TABLE' vs GROUP_CACHE-
|Debug:TableView: otsdaq/otsdaq/TableCore/TableView.cc:89 |	VERSION_ALIASES_TABLEv7	<>  'VERSION_ALIASES_TABLE' vs GROUP_CACHE-
|Debug:TableView: otsdaq/otsdaq/TableCore/TableView.cc:2076 |	VERSION_ALIASES_TABLEv7	<>  'VERSION_ALIASES_TABLE' vs GROUP_CACHE-
|Debug:ConfigurationManager: otsdaq/otsdaq/ConfigurationInterface/ConfigurationManager.cc:1632 |	READONLY_USER	<>  PROCESSOR_COUNT 64 ==> 32 threads for initializing tables.
|Debug:ConfigurationManager: otsdaq/otsdaq/ConfigurationInterface/ConfigurationManager.cc:1828 |	READONLY_USER	<> ------------------------------------- init complete 	 [for all plug-ins in Backbone group 'GroupAliasTreeEditWizBackbone(7)']
|Debug:TableBase: otsdaq/otsdaq/TableCore/TableBase.cc:55 |	TableBase-GroupCache_BurninBoxConfiguration	<> TableBase for 'GroupCache_BurninBoxConfiguration' constructed.
|Debug:TableView: otsdaq/otsdaq/TableCore/TableView.cc:89 |	GROUP_CACHE-BURNIN_BOX_CONFIGURATIONv-2	<>  'GROUP_CACHE-BURNIN_BOX_CONFIGURATION' vs GROUP_CACHE-
|Debug:TableView: otsdaq/otsdaq/TableCore/TableView.cc:93 |	GROUP_CACHE-BURNIN_BOX_CONFIGURATIONv-2	<> TableView copy for 'GROUP_CACHE-BURNIN_BOX_CONFIGURATION' done.
|Debug:TableView: otsdaq/otsdaq/TableCore/TableView.cc:89 |	GROUP_CACHE-BURNIN_BOX_CONFIGURATIONv2	<>  'GROUP_CACHE-BURNIN_BOX_CONFIGURATION' vs GROUP_CACHE-
|Debug:TableView: otsdaq/otsdaq/TableCore/TableView.cc:93 |	GROUP_CACHE-BURNIN_BOX_CONFIGURATIONv2	<> TableView copy for 'GROUP_CACHE-BURNIN_BOX_CONFIGURATION' done.
|Debug:TableView: otsdaq/otsdaq/TableCore/TableView.cc:2076 |	GROUP_CACHE-BURNIN_BOX_CONFIGURATIONv2	<>  'GROUP_CACHE-BURNIN_BOX_CONFIGURATION' vs GROUP_CACHE-
|Debug:ConfigurationManager: otsdaq/otsdaq/ConfigurationInterface/ConfigurationManager.cc:1556 |	READONLY_USER	<> Not loading group because it is not of type Context or Backbone (it is type 'Configuration').
|Debug:TableBase: otsdaq/otsdaq/TableCore/TableBase.cc:55 |	TableBase-GroupCache_iterateDefaultGroup	<> TableBase for 'GroupCache_iterateDefaultGroup' constructed.
|Debug:TableView: otsdaq/otsdaq/TableCore/TableView.cc:89 |	GROUP_CACHE-ITERATE_DEFAULT_GROUPv-2	<>  'GROUP_CACHE-ITERATE_DEFAULT_GROUP' vs GROUP_CACHE-
|Debug:TableView: otsdaq/otsdaq/TableCore/TableView.cc:93 |	GROUP_CACHE-ITERATE_DEFAULT_GROUPv-2	<> TableView copy for 'GROUP_CACHE-ITERATE_DEFAULT_GROUP' done.
|Debug:TableView: otsdaq/otsdaq/TableCore/TableView.cc:89 |	GROUP_CACHE-ITERATE_DEFAULT_GROUPv6	<>  'GROUP_CACHE-ITERATE_DEFAULT_GROUP' vs GROUP_CACHE-
|Debug:TableView: otsdaq/otsdaq/TableCore/TableView.cc:93 |	GROUP_CACHE-ITERATE_DEFAULT_GROUPv6	<> TableView copy for 'GROUP_CACHE-ITERATE_DEFAULT_GROUP' done.
|Debug:TableView: otsdaq/otsdaq/TableCore/TableView.cc:2076 |	GROUP_CACHE-ITERATE_DEFAULT_GROUPv6	<>  'GROUP_CACHE-ITERATE_DEFAULT_GROUP' vs GROUP_CACHE-
|Debug:ConfigurationManager: otsdaq/otsdaq/ConfigurationInterface/ConfigurationManager.cc:1556 |	READONLY_USER	<> Not loading group because it is not of type Context or Backbone (it is type 'Iterate').
|Debug:ConfigurationManager: otsdaq/otsdaq/ConfigurationInterface/ConfigurationManager.cc:178 |	READONLY_USER	<> runTimeSeconds() = 0.086461
|Debug:AllSupervisorInfo.cc: otsdaq/otsdaq/SupervisorInfo/AllSupervisorInfo.cc:258 |	The TRACE-controller app for hostname 'lenny01.fnal.gov' is CLASS:LID = ots::ChatSupervisor:110 name = ChatSupervisor
|Debug:AllSupervisorInfo.cc: otsdaq/otsdaq/SupervisorInfo/AllSupervisorInfo.cc:266 |	TRACE-controller app count = 1
|Debug:AllSupervisorInfo.cc: otsdaq/otsdaq/SupervisorInfo/AllSupervisorInfo.cc:278 |	Supervisor Info initialization complete!
|Debug:ConfigurationManager: otsdaq/otsdaq/ConfigurationInterface/ConfigurationManager.cc:486 |	READONLY_USER	<> Destroying Backbone Key: 7
|Debug:ConfigurationManager: otsdaq/otsdaq/ConfigurationInterface/ConfigurationManager.cc:504 |	READONLY_USER	<> Destroying Context Key: 4
|Debug:CorePropertySupervisorBase.cc: otsdaq/otsdaq/CoreSupervisors/CorePropertySupervisorBase.cc:70 |	FESupervisor:UNINITIALIZED_supervisorApplicationUID	<> Getting configuration specific info for supervisor 'TrackerSupervisor0' of class ots::FESupervisor.
|Debug:TableBase: otsdaq/otsdaq/TableCore/TableBase.cc:118 |	TableBase-TableGroupMetadata	<> Special table 'TableGroupMetadata' constructed. 1
|Debug:ConfigurationManager: otsdaq/otsdaq/ConfigurationInterface/ConfigurationManager.cc:104 |	READONLY_USER	<> runTimeSeconds() = 3.3404e-05
|Debug:ConfigurationManager: otsdaq/otsdaq/ConfigurationInterface/ConfigurationManager.cc:107 |	READONLY_USER	<> runTimeSeconds() = 5.4704e-05
|Debug:TableView: otsdaq/otsdaq/TableCore/TableView.cc:89 |	TABLE_GROUP_METADATAv-2	<>  'TABLE_GROUP_METADATA' vs GROUP_CACHE-
|Debug:ConfigurationManager: otsdaq/otsdaq/ConfigurationInterface/ConfigurationManager.cc:175 |	READONLY_USER	<> runTimeSeconds() = 0.000238764
|Debug:ConfigurationManager: otsdaq/otsdaq/ConfigurationInterface/ConfigurationManager.cc:212 |	READONLY_USER	<> username_ = READONLY_USER
|Debug:ConfigurationManager: otsdaq/otsdaq/ConfigurationInterface/ConfigurationManager.cc:260 |	READONLY_USER	<> ACTIVE_GROUPS_FILENAME = /home/modtest/Programming/otsdaq_develop_git/srcs/otsdaq_cmsburninbox/DataDefault/ServiceData/ActiveTableGroups.cfg
|Debug:ConfigurationManager: otsdaq/otsdaq/ConfigurationInterface/ConfigurationManager.cc:261 |	READONLY_USER	<> ARTDAQ_DATABASE_URI = filesystemdb:///home/modtest/Programming/otsdaq_develop_git/srcs/otsdaq_cmsburninbox/databases/filesystemdb/2023_10_Default_db
|Debug:TableBase: otsdaq/otsdaq/TableCore/TableBase.cc:55 |	TableBase-GroupCache_DefaultContext	<> TableBase for 'GroupCache_DefaultContext' constructed.
|Debug:TableView: otsdaq/otsdaq/TableCore/TableView.cc:89 |	GROUP_CACHE-DEFAULT_CONTEXTv-2	<>  'GROUP_CACHE-DEFAULT_CONTEXT' vs GROUP_CACHE-
|Debug:TableView: otsdaq/otsdaq/TableCore/TableView.cc:93 |	GROUP_CACHE-DEFAULT_CONTEXTv-2	<> TableView copy for 'GROUP_CACHE-DEFAULT_CONTEXT' done.
|Debug:TableView: otsdaq/otsdaq/TableCore/TableView.cc:89 |	GROUP_CACHE-DEFAULT_CONTEXTv4	<>  'GROUP_CACHE-DEFAULT_CONTEXT' vs GROUP_CACHE-
|Debug:TableView: otsdaq/otsdaq/TableCore/TableView.cc:93 |	GROUP_CACHE-DEFAULT_CONTEXTv4	<> TableView copy for 'GROUP_CACHE-DEFAULT_CONTEXT' done.
|Debug:TableView: otsdaq/otsdaq/TableCore/TableView.cc:2076 |	GROUP_CACHE-DEFAULT_CONTEXTv4	<>  'GROUP_CACHE-DEFAULT_CONTEXT' vs GROUP_CACHE-
|Debug:ConfigurationManager: otsdaq/otsdaq/ConfigurationInterface/ConfigurationManager.cc:1571 |	READONLY_USER	<> ------------------------------------- init start    	 [for all plug-ins in Context group 'DefaultContext(4)']
|Debug:TableView: otsdaq/otsdaq/TableCore/TableView.cc:89 |	DESKTOP_ICON_TABLEv4	<>  'DESKTOP_ICON_TABLE' vs GROUP_CACHE-
|Debug:TableView: otsdaq/otsdaq/TableCore/TableView.cc:2076 |	DESKTOP_ICON_TABLEv4	<>  'DESKTOP_ICON_TABLE' vs GROUP_CACHE-
|Debug:TableView: otsdaq/otsdaq/TableCore/TableView.cc:89 |	DESKTOP_WINDOW_PARAMETER_TABLEv3	<>  'DESKTOP_WINDOW_PARAMETER_TABLE' vs GROUP_CACHE-
|Debug:TableView: otsdaq/otsdaq/TableCore/TableView.cc:2076 |	DESKTOP_WINDOW_PARAMETER_TABLEv3	<>  'DESKTOP_WINDOW_PARAMETER_TABLE' vs GROUP_CACHE-
|Debug:TableView: otsdaq/otsdaq/TableCore/TableView.cc:89 |	GATEWAY_SUPERVISOR_TABLEv4	<>  'GATEWAY_SUPERVISOR_TABLE' vs GROUP_CACHE-
|Debug:TableView: otsdaq/otsdaq/TableCore/TableView.cc:2076 |	GATEWAY_SUPERVISOR_TABLEv4	<>  'GATEWAY_SUPERVISOR_TABLE' vs GROUP_CACHE-
|Debug:TableView: otsdaq/otsdaq/TableCore/TableView.cc:89 |	MESSAGE_FACILITY_TABLEv3	<>  'MESSAGE_FACILITY_TABLE' vs GROUP_CACHE-
|Debug:TableView: otsdaq/otsdaq/TableCore/TableView.cc:2076 |	MESSAGE_FACILITY_TABLEv3	<>  'MESSAGE_FACILITY_TABLE' vs GROUP_CACHE-
|Debug:TableView: otsdaq/otsdaq/TableCore/TableView.cc:89 |	SLOW_CONTROLS_DASHBOARD_SUPERVISOR_TABLEv3	<>  'SLOW_CONTROLS_DASHBOARD_SUPERVISOR_TABLE' vs GROUP_CACHE-
|Debug:TableView: otsdaq/otsdaq/TableCore/TableView.cc:2076 |	SLOW_CONTROLS_DASHBOARD_SUPERVISOR_TABLEv3	<>  'SLOW_CONTROLS_DASHBOARD_SUPERVISOR_TABLE' vs GROUP_CACHE-
|Debug:TableView: otsdaq/otsdaq/TableCore/TableView.cc:89 |	STATE_MACHINE_TABLEv3	<>  'STATE_MACHINE_TABLE' vs GROUP_CACHE-
|Debug:TableView: otsdaq/otsdaq/TableCore/TableView.cc:2076 |	STATE_MACHINE_TABLEv3	<>  'STATE_MACHINE_TABLE' vs GROUP_CACHE-
|Debug:TableView: otsdaq/otsdaq/TableCore/TableView.cc:89 |	XDAQ_APPLICATION_PROPERTY_TABLEv3	<>  'XDAQ_APPLICATION_PROPERTY_TABLE' vs GROUP_CACHE-
|Debug:TableView: otsdaq/otsdaq/TableCore/TableView.cc:2076 |	XDAQ_APPLICATION_PROPERTY_TABLEv3	<>  'XDAQ_APPLICATION_PROPERTY_TABLE' vs GROUP_CACHE-
|Debug:TableView: otsdaq/otsdaq/TableCore/TableView.cc:89 |	XDAQ_APPLICATION_TABLEv4	<>  'XDAQ_APPLICATION_TABLE' vs GROUP_CACHE-
|Debug:TableView: otsdaq/otsdaq/TableCore/TableView.cc:2076 |	XDAQ_APPLICATION_TABLEv4	<>  'XDAQ_APPLICATION_TABLE' vs GROUP_CACHE-
|Debug:TableView: otsdaq/otsdaq/TableCore/TableView.cc:89 |	XDAQ_CONTEXT_TABLEv4	<>  'XDAQ_CONTEXT_TABLE' vs GROUP_CACHE-
|Debug:TableView: otsdaq/otsdaq/TableCore/TableView.cc:2076 |	XDAQ_CONTEXT_TABLEv4	<>  'XDAQ_CONTEXT_TABLE' vs GROUP_CACHE-
|Debug:ConfigurationManager: otsdaq/otsdaq/ConfigurationInterface/ConfigurationManager.cc:1632 |	READONLY_USER	<>  PROCESSOR_COUNT 64 ==> 32 threads for initializing tables.
|Debug:ConfigurationManager: otsdaq/otsdaq/ConfigurationInterface/ConfigurationManager.cc:1828 |	READONLY_USER	<> ------------------------------------- init complete 	 [for all plug-ins in Context group 'DefaultContext(4)']
|Debug:TableBase: otsdaq/otsdaq/TableCore/TableBase.cc:55 |	TableBase-GroupCache_GroupAliasTreeEditWizBackbone	<> TableBase for 'GroupCache_GroupAliasTreeEditWizBackbone' constructed.
|Debug:TableView: otsdaq/otsdaq/TableCore/TableView.cc:89 |	GROUP_CACHE-GROUP_ALIAS_TREE_EDIT_WIZ_BACKBONEv-2	<>  'GROUP_CACHE-GROUP_ALIAS_TREE_EDIT_WIZ_BACKBONE' vs GROUP_CACHE-
|Debug:TableView: otsdaq/otsdaq/TableCore/TableView.cc:93 |	GROUP_CACHE-GROUP_ALIAS_TREE_EDIT_WIZ_BACKBONEv-2	<> TableView copy for 'GROUP_CACHE-GROUP_ALIAS_TREE_EDIT_WIZ_BACKBONE' done.
|Debug:TableView: otsdaq/otsdaq/TableCore/TableView.cc:89 |	GROUP_CACHE-GROUP_ALIAS_TREE_EDIT_WIZ_BACKBONEv7	<>  'GROUP_CACHE-GROUP_ALIAS_TREE_EDIT_WIZ_BACKBONE' vs GROUP_CACHE-
|Debug:TableView: otsdaq/otsdaq/TableCore/TableView.cc:93 |	GROUP_CACHE-GROUP_ALIAS_TREE_EDIT_WIZ_BACKBONEv7	<> TableView copy for 'GROUP_CACHE-GROUP_ALIAS_TREE_EDIT_WIZ_BACKBONE' done.
|Debug:TableView: otsdaq/otsdaq/TableCore/TableView.cc:2076 |	GROUP_CACHE-GROUP_ALIAS_TREE_EDIT_WIZ_BACKBONEv7	<>  'GROUP_CACHE-GROUP_ALIAS_TREE_EDIT_WIZ_BACKBONE' vs GROUP_CACHE-
|Error:ConfigurationManager: otsdaq/otsdaq/ConfigurationInterface/ConfigurationManager.cc:1485 |	READONLY_USER	<> Ignoring that groupMetadataTable_ is missing for group 'GroupAliasTreeEditWizBackbone(7). Going with anonymous defaults.
|Debug:ConfigurationManager: otsdaq/otsdaq/ConfigurationInterface/ConfigurationManager.cc:1571 |	READONLY_USER	<> ------------------------------------- init start    	 [for all plug-ins in Backbone group 'GroupAliasTreeEditWizBackbone(7)']
|Debug:TableView: otsdaq/otsdaq/TableCore/TableView.cc:89 |	GROUP_ALIASES_TABLEv7	<>  'GROUP_ALIASES_TABLE' vs GROUP_CACHE-
|Debug:TableView: otsdaq/otsdaq/TableCore/TableView.cc:2076 |	GROUP_ALIASES_TABLEv7	<>  'GROUP_ALIASES_TABLE' vs GROUP_CACHE-
|Debug:TableView: otsdaq/otsdaq/TableCore/TableView.cc:89 |	VERSION_ALIASES_TABLEv7	<>  'VERSION_ALIASES_TABLE' vs GROUP_CACHE-
|Debug:TableView: otsdaq/otsdaq/TableCore/TableView.cc:2076 |	VERSION_ALIASES_TABLEv7	<>  'VERSION_ALIASES_TABLE' vs GROUP_CACHE-
|Debug:ConfigurationManager: otsdaq/otsdaq/ConfigurationInterface/ConfigurationManager.cc:1632 |	READONLY_USER	<>  PROCESSOR_COUNT 64 ==> 32 threads for initializing tables.
|Debug:ConfigurationManager: otsdaq/otsdaq/ConfigurationInterface/ConfigurationManager.cc:1828 |	READONLY_USER	<> ------------------------------------- init complete 	 [for all plug-ins in Backbone group 'GroupAliasTreeEditWizBackbone(7)']
|Debug:TableBase: otsdaq/otsdaq/TableCore/TableBase.cc:55 |	TableBase-GroupCache_BurninBoxConfiguration	<> TableBase for 'GroupCache_BurninBoxConfiguration' constructed.
|Debug:TableView: otsdaq/otsdaq/TableCore/TableView.cc:89 |	GROUP_CACHE-BURNIN_BOX_CONFIGURATIONv-2	<>  'GROUP_CACHE-BURNIN_BOX_CONFIGURATION' vs GROUP_CACHE-
|Debug:TableView: otsdaq/otsdaq/TableCore/TableView.cc:93 |	GROUP_CACHE-BURNIN_BOX_CONFIGURATIONv-2	<> TableView copy for 'GROUP_CACHE-BURNIN_BOX_CONFIGURATION' done.
|Debug:TableView: otsdaq/otsdaq/TableCore/TableView.cc:89 |	GROUP_CACHE-BURNIN_BOX_CONFIGURATIONv2	<>  'GROUP_CACHE-BURNIN_BOX_CONFIGURATION' vs GROUP_CACHE-
|Debug:TableView: otsdaq/otsdaq/TableCore/TableView.cc:93 |	GROUP_CACHE-BURNIN_BOX_CONFIGURATIONv2	<> TableView copy for 'GROUP_CACHE-BURNIN_BOX_CONFIGURATION' done.
|Debug:TableView: otsdaq/otsdaq/TableCore/TableView.cc:2076 |	GROUP_CACHE-BURNIN_BOX_CONFIGURATIONv2	<>  'GROUP_CACHE-BURNIN_BOX_CONFIGURATION' vs GROUP_CACHE-
|Debug:ConfigurationManager: otsdaq/otsdaq/ConfigurationInterface/ConfigurationManager.cc:1556 |	READONLY_USER	<> Not loading group because it is not of type Context or Backbone (it is type 'Configuration').
|Debug:TableBase: otsdaq/otsdaq/TableCore/TableBase.cc:55 |	TableBase-GroupCache_iterateDefaultGroup	<> TableBase for 'GroupCache_iterateDefaultGroup' constructed.
|Debug:TableView: otsdaq/otsdaq/TableCore/TableView.cc:89 |	GROUP_CACHE-ITERATE_DEFAULT_GROUPv-2	<>  'GROUP_CACHE-ITERATE_DEFAULT_GROUP' vs GROUP_CACHE-
|Debug:TableView: otsdaq/otsdaq/TableCore/TableView.cc:93 |	GROUP_CACHE-ITERATE_DEFAULT_GROUPv-2	<> TableView copy for 'GROUP_CACHE-ITERATE_DEFAULT_GROUP' done.
|Debug:TableView: otsdaq/otsdaq/TableCore/TableView.cc:89 |	GROUP_CACHE-ITERATE_DEFAULT_GROUPv6	<>  'GROUP_CACHE-ITERATE_DEFAULT_GROUP' vs GROUP_CACHE-
|Debug:TableView: otsdaq/otsdaq/TableCore/TableView.cc:93 |	GROUP_CACHE-ITERATE_DEFAULT_GROUPv6	<> TableView copy for 'GROUP_CACHE-ITERATE_DEFAULT_GROUP' done.
|Debug:TableView: otsdaq/otsdaq/TableCore/TableView.cc:2076 |	GROUP_CACHE-ITERATE_DEFAULT_GROUPv6	<>  'GROUP_CACHE-ITERATE_DEFAULT_GROUP' vs GROUP_CACHE-
|Debug:ConfigurationManager: otsdaq/otsdaq/ConfigurationInterface/ConfigurationManager.cc:1556 |	READONLY_USER	<> Not loading group because it is not of type Context or Backbone (it is type 'Iterate').
|Debug:ConfigurationManager: otsdaq/otsdaq/ConfigurationInterface/ConfigurationManager.cc:178 |	READONLY_USER	<> runTimeSeconds() = 0.0437645
|Debug:CorePropertySupervisorBase.cc: otsdaq/otsdaq/CoreSupervisors/CorePropertySupervisorBase.cc:108 |	FESupervisor:TrackerSupervisor0	<> CorePropertySupervisorBase::supervisorContextUID_ = TrackerContext
|Debug:CorePropertySupervisorBase.cc: otsdaq/otsdaq/CoreSupervisors/CorePropertySupervisorBase.cc:109 |	FESupervisor:TrackerSupervisor0	<> CorePropertySupervisorBase::supervisorApplicationUID_ = TrackerSupervisor0
|Debug:CorePropertySupervisorBase.cc: otsdaq/otsdaq/CoreSupervisors/CorePropertySupervisorBase.cc:110 |	FESupervisor:TrackerSupervisor0	<> CorePropertySupervisorBase::supervisorConfigurationPath_ = /TrackerContext/LinkToApplicationTable/TrackerSupervisor0/LinkToSupervisorTable
|Debug:CorePropertySupervisorBase.cc: otsdaq/otsdaq/CoreSupervisors/CorePropertySupervisorBase.cc:177 |	hostname = lenny01.fnal.gov
|Debug:CorePropertySupervisorBase.cc: otsdaq/otsdaq/CoreSupervisors/CorePropertySupervisorBase.cc:191 |	Marked alive: /home/modtest/Programming/otsdaq_develop_git/srcs/otsdaq_cmsburninbox/DataDefault/Logs/otsdaq_is_alive-lenny01.fnal.gov-2021.dat
|Debug:FSM: otsdaq/otsdaq/FiniteStateMachine/FiniteStateMachine.cc:21 |	FSM-FESupervisor:TrackerSupervisor0	<> Constructing FiniteStateMachine
|Debug:FSM: otsdaq/otsdaq/FiniteStateMachine/RunControlStateMachine.cc:114 |	FSM-FESupervisor:TrackerSupervisor0	<> Resetting RunControlStateMachine with name 'FESupervisor:TrackerSupervisor0'...
|Debug:WorkLoopManager.cc: otsdaq/otsdaq/WorkLoopManager/WorkLoopManager.cc:19 |	Request name: StateMachine jobName: StateMachine
|Debug:CoreSupervisorBase.cc: otsdaq/otsdaq/CoreSupervisors/CoreSupervisorBase.cc:25 |	FESupervisor:TrackerSupervisor0	<> Constructor.
|Debug:CoreSupervisorBase.cc: otsdaq/otsdaq/CoreSupervisors/CoreSupervisorBase.cc:40 |	FESupervisor:TrackerSupervisor0	<> Constructed.
|Debug:FESupervisor.cc: otsdaq/otsdaq/CoreSupervisors/FESupervisor.cc:39 |	FESupervisor:TrackerSupervisor0	<> Constructing...
|Debug:Configurable.cc: otsdaq/otsdaq/Configurable/Configurable.cc:16 |	FETrackerSupervisor0	<>  Configurable class constructed. 
|Debug:FEVInterfacesManager.cc: otsdaq/otsdaq/FECore/FEVInterfacesManager.cc:23 |	FETrackerSupervisor0	<> Constructed.
|Debug:FESupervisor.cc: otsdaq/otsdaq/CoreSupervisors/FESupervisor.cc:958 |	FESupervisor:TrackerSupervisor0	<> State Machine 0 WAS of type FEVInterfacesManager
|Debug:FESupervisor.cc: otsdaq/otsdaq/CoreSupervisors/FESupervisor.cc:968 |	FESupervisor:TrackerSupervisor0	<> theFEInterfacesManager pointer = 0x1d87030
|Debug:FESupervisor.cc: otsdaq/otsdaq/CoreSupervisors/FESupervisor.cc:76 |	FESupervisor:TrackerSupervisor0	<> Constructed.
27 Nov 2023 17:36:50.157 [140044799490240] INFO  gov.fnal.lenny01.p:2021 <> - Ready.
