{
"document" : {
"data" : {
"NAME" : "BURNIN_BOX_CYCLE_TABLE",
"COMMENT" : "No comment.",
"AUTHOR" : "admin",
"CREATION_TIME" : 1684520569,
"COL_TYPES" : {
"BURNIN_BOX_CYCLE_GROUP_ID" : "STRING",
"TARGET_ID" : "STRING",
"IN_USE" : "STRING",
"SEQUENCE" : "NUMBER",
"TEMPERATURE" : "NUMBER",
"TIME_AT_TARGET" : "NUMBER",
"COMMENT_DESCRIPTION" : "STRING",
"AUTHOR" : "STRING",
"RECORD_INSERTION_TIME" : "TIMESTAMP WITH TIMEZONE"
},
"DATA_SET" : [
{
"BURNIN_BOX_CYCLE_GROUP_ID" : "ModuleTestingCycle",
"TARGET_ID" : "StartTemperature",
"IN_USE" : "Yes",
"SEQUENCE" : "10",
"TEMPERATURE" : "20",
"TIME_AT_TARGET" : "60",
"COMMENT_DESCRIPTION" : "No Comment",
"AUTHOR" : "admin",
"RECORD_INSERTION_TIME" : "1684515443"
},
{
"BURNIN_BOX_CYCLE_GROUP_ID" : "ModuleTestingCycle",
"TARGET_ID" : "LowTemperature",
"IN_USE" : "Yes",
"SEQUENCE" : "20",
"TEMPERATURE" : "20",
"TIME_AT_TARGET" : "-1",
"COMMENT_DESCRIPTION" : "No Comment",
"AUTHOR" : "admin",
"RECORD_INSERTION_TIME" : "1684520569"
},
{
"BURNIN_BOX_CYCLE_GROUP_ID" : "ModuleTestingCycle",
"TARGET_ID" : "HighTemperature",
"IN_USE" : "Yes",
"SEQUENCE" : "30",
"TEMPERATURE" : "20",
"TIME_AT_TARGET" : "-1",
"COMMENT_DESCRIPTION" : "No Comment",
"AUTHOR" : "admin",
"RECORD_INSERTION_TIME" : "1684515443"
},
{
"BURNIN_BOX_CYCLE_GROUP_ID" : "ModuleTestingCycle",
"TARGET_ID" : "StopTemperature",
"IN_USE" : "Yes",
"SEQUENCE" : "40",
"TEMPERATURE" : "20",
"TIME_AT_TARGET" : "60",
"COMMENT_DESCRIPTION" : "No Comment",
"AUTHOR" : "admin",
"RECORD_INSERTION_TIME" : "1684515443"
}
]
},
"metadata" : {

},
"search" : [

]
},
"comments" : [

],
"origin" : {
"source" : "template",
"name" : "notprovided",
"format" : "json",
"created" : "2023-05-19T13:22:49.792-0500",
"rawdata" : [

]
},
"version" : "62",
"entities" : [
{
"name" : "OTSROOT",
"assigned" : "2023-05-19T13:22:49.793-0500"
}
],
"configurations" : [
{
"name" : "notprovided",
"assigned" : "2023-05-19T13:22:49.792-0500"
},
{
"name" : "BurninBoxConfiguration_v155",
"assigned" : "2023-05-19T13:22:52.541-0500"
},
{
"name" : "BurninBoxConfiguration_v156",
"assigned" : "2023-06-01T14:54:08.800-0500"
}
],
"changelog" : "notprovided",
"bookkeeping" : {
"isdeleted" : false,
"isreadonly" : false,
"updates" : [
{
"event" : "addConfiguration",
"timestamp" : "2023-05-19T13:22:49.792-0500",
"value" : {
"name" : "notprovided",
"assigned" : "2023-05-19T13:22:49.792-0500"
}
},
{
"event" : "setVersion",
"timestamp" : "2023-05-19T13:22:49.793-0500",
"value" : {
"name" : "62",
"assigned" : "2023-05-19T13:22:49.793-0500"
}
},
{
"event" : "setCollection",
"timestamp" : "2023-05-19T13:22:49.793-0500",
"value" : {
"name" : "BurninBoxCycleTable",
"assigned" : "2023-05-19T13:22:49.793-0500"
}
},
{
"event" : "addEntity",
"timestamp" : "2023-05-19T13:22:49.793-0500",
"value" : {
"name" : "OTSROOT",
"assigned" : "2023-05-19T13:22:49.793-0500"
}
},
{
"event" : "addConfiguration",
"timestamp" : "2023-05-19T13:22:52.541-0500",
"value" : {
"name" : "BurninBoxConfiguration_v155",
"assigned" : "2023-05-19T13:22:52.541-0500"
}
},
{
"event" : "addConfiguration",
"timestamp" : "2023-06-01T14:54:08.800-0500",
"value" : {
"name" : "BurninBoxConfiguration_v156",
"assigned" : "2023-06-01T14:54:08.800-0500"
}
}
],
"created" : "2023-05-19T13:22:49.792-0500"
},
"_id" : {
"$oid" : "2d78a49944204d0d946d3a61"
},
"collection" : "BurninBoxCycleTable",
"aliases" : {
"active" : [

],
"history" : [

]
},
"runs" : [

],
"attachments" : [

],
"configtype" : "notprovided"
}