{
"document" : {
"data" : {
"NAME" : "BURNIN_BOX_CYCLE_TABLE",
"COMMENT" : "1 1/2 day thermal cycle (30 mins at ea. temp., 14 cycles -> ~28 hours)",
"AUTHOR" : "admin",
"CREATION_TIME" : 1632332885,
"COL_TYPES" : {
"BURNIN_BOX_CYCLE_GROUP_ID" : "STRING",
"TARGET_ID" : "STRING",
"IN_USE" : "STRING",
"SEQUENCE" : "NUMBER",
"TEMPERATURE" : "NUMBER",
"TIME_AT_TARGET" : "NUMBER",
"COMMENT_DESCRIPTION" : "STRING",
"AUTHOR" : "STRING",
"RECORD_INSERTION_TIME" : "TIMESTAMP WITH TIMEZONE"
},
"DATA_SET" : [
{
"BURNIN_BOX_CYCLE_GROUP_ID" : "ModuleTestingCycle",
"TARGET_ID" : "LowTemperature",
"IN_USE" : "Yes",
"SEQUENCE" : "1",
"TEMPERATURE" : "-33",
"TIME_AT_TARGET" : "1800",
"COMMENT_DESCRIPTION" : "No Comment",
"AUTHOR" : "admin",
"RECORD_INSERTION_TIME" : "1630516626"
},
{
"BURNIN_BOX_CYCLE_GROUP_ID" : "ModuleTestingCycle",
"TARGET_ID" : "HighTemperature",
"IN_USE" : "Yes",
"SEQUENCE" : "2",
"TEMPERATURE" : "20",
"TIME_AT_TARGET" : "1800",
"COMMENT_DESCRIPTION" : "No Comment",
"AUTHOR" : "admin",
"RECORD_INSERTION_TIME" : "1630516626"
},
{
"BURNIN_BOX_CYCLE_GROUP_ID" : "ModuleTestingCycle",
"TARGET_ID" : "LowTemperature1",
"IN_USE" : "Yes",
"SEQUENCE" : "3",
"TEMPERATURE" : "-33",
"TIME_AT_TARGET" : "1800",
"COMMENT_DESCRIPTION" : "No Comment",
"AUTHOR" : "admin",
"RECORD_INSERTION_TIME" : "1630516626"
},
{
"BURNIN_BOX_CYCLE_GROUP_ID" : "ModuleTestingCycle",
"TARGET_ID" : "HighTemperature1",
"IN_USE" : "Yes",
"SEQUENCE" : "4",
"TEMPERATURE" : "20",
"TIME_AT_TARGET" : "1800",
"COMMENT_DESCRIPTION" : "No Comment",
"AUTHOR" : "admin",
"RECORD_INSERTION_TIME" : "1630516626"
},
{
"BURNIN_BOX_CYCLE_GROUP_ID" : "ModuleTestingCycle",
"TARGET_ID" : "LowTemperature2",
"IN_USE" : "Yes",
"SEQUENCE" : "5",
"TEMPERATURE" : "-33",
"TIME_AT_TARGET" : "1800",
"COMMENT_DESCRIPTION" : "No Comment",
"AUTHOR" : "admin",
"RECORD_INSERTION_TIME" : "1630516626"
},
{
"BURNIN_BOX_CYCLE_GROUP_ID" : "ModuleTestingCycle",
"TARGET_ID" : "HighTemperature2",
"IN_USE" : "Yes",
"SEQUENCE" : "6",
"TEMPERATURE" : "20",
"TIME_AT_TARGET" : "1800",
"COMMENT_DESCRIPTION" : "No Comment",
"AUTHOR" : "admin",
"RECORD_INSERTION_TIME" : "1630516626"
},
{
"BURNIN_BOX_CYCLE_GROUP_ID" : "ModuleTestingCycle",
"TARGET_ID" : "LowTemperature3",
"IN_USE" : "Yes",
"SEQUENCE" : "7",
"TEMPERATURE" : "-33",
"TIME_AT_TARGET" : "1800",
"COMMENT_DESCRIPTION" : "No Comment",
"AUTHOR" : "admin",
"RECORD_INSERTION_TIME" : "1630516626"
},
{
"BURNIN_BOX_CYCLE_GROUP_ID" : "ModuleTestingCycle",
"TARGET_ID" : "HighTemperature3",
"IN_USE" : "Yes",
"SEQUENCE" : "8",
"TEMPERATURE" : "20",
"TIME_AT_TARGET" : "1800",
"COMMENT_DESCRIPTION" : "No Comment",
"AUTHOR" : "admin",
"RECORD_INSERTION_TIME" : "1630516626"
},
{
"BURNIN_BOX_CYCLE_GROUP_ID" : "ModuleTestingCycle",
"TARGET_ID" : "LowTemperature4",
"IN_USE" : "Yes",
"SEQUENCE" : "9",
"TEMPERATURE" : "-33",
"TIME_AT_TARGET" : "1800",
"COMMENT_DESCRIPTION" : "No Comment",
"AUTHOR" : "admin",
"RECORD_INSERTION_TIME" : "1630516626"
},
{
"BURNIN_BOX_CYCLE_GROUP_ID" : "ModuleTestingCycle",
"TARGET_ID" : "HighTemperature4",
"IN_USE" : "Yes",
"SEQUENCE" : "10",
"TEMPERATURE" : "20",
"TIME_AT_TARGET" : "1800",
"COMMENT_DESCRIPTION" : "No Comment",
"AUTHOR" : "admin",
"RECORD_INSERTION_TIME" : "1630516626"
},
{
"BURNIN_BOX_CYCLE_GROUP_ID" : "ModuleTestingCycle",
"TARGET_ID" : "LowTemperature5",
"IN_USE" : "Yes",
"SEQUENCE" : "11",
"TEMPERATURE" : "-33",
"TIME_AT_TARGET" : "1800",
"COMMENT_DESCRIPTION" : "No Comment",
"AUTHOR" : "admin",
"RECORD_INSERTION_TIME" : "1630516626"
},
{
"BURNIN_BOX_CYCLE_GROUP_ID" : "ModuleTestingCycle",
"TARGET_ID" : "HighTemperature5",
"IN_USE" : "Yes",
"SEQUENCE" : "12",
"TEMPERATURE" : "20",
"TIME_AT_TARGET" : "1800",
"COMMENT_DESCRIPTION" : "No Comment",
"AUTHOR" : "admin",
"RECORD_INSERTION_TIME" : "1630516626"
},
{
"BURNIN_BOX_CYCLE_GROUP_ID" : "ModuleTestingCycle",
"TARGET_ID" : "LowTemperature6",
"IN_USE" : "Yes",
"SEQUENCE" : "13",
"TEMPERATURE" : "-33",
"TIME_AT_TARGET" : "1800",
"COMMENT_DESCRIPTION" : "No Comment",
"AUTHOR" : "admin",
"RECORD_INSERTION_TIME" : "1630516626"
},
{
"BURNIN_BOX_CYCLE_GROUP_ID" : "ModuleTestingCycle",
"TARGET_ID" : "HighTemperature6",
"IN_USE" : "Yes",
"SEQUENCE" : "14",
"TEMPERATURE" : "20",
"TIME_AT_TARGET" : "1800",
"COMMENT_DESCRIPTION" : "No Comment",
"AUTHOR" : "admin",
"RECORD_INSERTION_TIME" : "1630516626"
},
{
"BURNIN_BOX_CYCLE_GROUP_ID" : "ModuleTestingCycle",
"TARGET_ID" : "LowTemperature7",
"IN_USE" : "Yes",
"SEQUENCE" : "15",
"TEMPERATURE" : "-33",
"TIME_AT_TARGET" : "1800",
"COMMENT_DESCRIPTION" : "No Comment",
"AUTHOR" : "admin",
"RECORD_INSERTION_TIME" : "1630516626"
},
{
"BURNIN_BOX_CYCLE_GROUP_ID" : "ModuleTestingCycle",
"TARGET_ID" : "HighTemperature7",
"IN_USE" : "Yes",
"SEQUENCE" : "16",
"TEMPERATURE" : "20",
"TIME_AT_TARGET" : "1800",
"COMMENT_DESCRIPTION" : "No Comment",
"AUTHOR" : "admin",
"RECORD_INSERTION_TIME" : "1630516626"
},
{
"BURNIN_BOX_CYCLE_GROUP_ID" : "ModuleTestingCycle",
"TARGET_ID" : "LowTemperature8",
"IN_USE" : "Yes",
"SEQUENCE" : "17",
"TEMPERATURE" : "-33",
"TIME_AT_TARGET" : "1800",
"COMMENT_DESCRIPTION" : "No Comment",
"AUTHOR" : "admin",
"RECORD_INSERTION_TIME" : "1630516626"
},
{
"BURNIN_BOX_CYCLE_GROUP_ID" : "ModuleTestingCycle",
"TARGET_ID" : "HighTemperature8",
"IN_USE" : "Yes",
"SEQUENCE" : "18",
"TEMPERATURE" : "20",
"TIME_AT_TARGET" : "1800",
"COMMENT_DESCRIPTION" : "No Comment",
"AUTHOR" : "admin",
"RECORD_INSERTION_TIME" : "1630516626"
},
{
"BURNIN_BOX_CYCLE_GROUP_ID" : "ModuleTestingCycle",
"TARGET_ID" : "LowTemperature9",
"IN_USE" : "Yes",
"SEQUENCE" : "19",
"TEMPERATURE" : "-33",
"TIME_AT_TARGET" : "1800",
"COMMENT_DESCRIPTION" : "No Comment",
"AUTHOR" : "admin",
"RECORD_INSERTION_TIME" : "1632332885"
},
{
"BURNIN_BOX_CYCLE_GROUP_ID" : "ModuleTestingCycle",
"TARGET_ID" : "HighTemperature9",
"IN_USE" : "Yes",
"SEQUENCE" : "20",
"TEMPERATURE" : "20",
"TIME_AT_TARGET" : "1800",
"COMMENT_DESCRIPTION" : "No Comment",
"AUTHOR" : "admin",
"RECORD_INSERTION_TIME" : "1632332885"
},
{
"BURNIN_BOX_CYCLE_GROUP_ID" : "ModuleTestingCycle",
"TARGET_ID" : "LowTemperature10",
"IN_USE" : "Yes",
"SEQUENCE" : "21",
"TEMPERATURE" : "-33",
"TIME_AT_TARGET" : "1800",
"COMMENT_DESCRIPTION" : "No Comment",
"AUTHOR" : "admin",
"RECORD_INSERTION_TIME" : "1632332885"
},
{
"BURNIN_BOX_CYCLE_GROUP_ID" : "ModuleTestingCycle",
"TARGET_ID" : "HighTemperature10",
"IN_USE" : "Yes",
"SEQUENCE" : "22",
"TEMPERATURE" : "20",
"TIME_AT_TARGET" : "1800",
"COMMENT_DESCRIPTION" : "No Comment",
"AUTHOR" : "admin",
"RECORD_INSERTION_TIME" : "1632332885"
},
{
"BURNIN_BOX_CYCLE_GROUP_ID" : "ModuleTestingCycle",
"TARGET_ID" : "LowTemperature11",
"IN_USE" : "Yes",
"SEQUENCE" : "23",
"TEMPERATURE" : "-33",
"TIME_AT_TARGET" : "1800",
"COMMENT_DESCRIPTION" : "No Comment",
"AUTHOR" : "admin",
"RECORD_INSERTION_TIME" : "1632332885"
},
{
"BURNIN_BOX_CYCLE_GROUP_ID" : "ModuleTestingCycle",
"TARGET_ID" : "HighTemperature11",
"IN_USE" : "Yes",
"SEQUENCE" : "24",
"TEMPERATURE" : "20",
"TIME_AT_TARGET" : "1800",
"COMMENT_DESCRIPTION" : "No Comment",
"AUTHOR" : "admin",
"RECORD_INSERTION_TIME" : "1632332885"
},
{
"BURNIN_BOX_CYCLE_GROUP_ID" : "ModuleTestingCycle",
"TARGET_ID" : "LowTemperature12",
"IN_USE" : "Yes",
"SEQUENCE" : "25",
"TEMPERATURE" : "-33",
"TIME_AT_TARGET" : "1800",
"COMMENT_DESCRIPTION" : "No Comment",
"AUTHOR" : "admin",
"RECORD_INSERTION_TIME" : "1632332885"
},
{
"BURNIN_BOX_CYCLE_GROUP_ID" : "ModuleTestingCycle",
"TARGET_ID" : "HighTemperature12",
"IN_USE" : "Yes",
"SEQUENCE" : "26",
"TEMPERATURE" : "20",
"TIME_AT_TARGET" : "1800",
"COMMENT_DESCRIPTION" : "No Comment",
"AUTHOR" : "admin",
"RECORD_INSERTION_TIME" : "1632332885"
},
{
"BURNIN_BOX_CYCLE_GROUP_ID" : "ModuleTestingCycle",
"TARGET_ID" : "LowTemperature13",
"IN_USE" : "Yes",
"SEQUENCE" : "27",
"TEMPERATURE" : "-33",
"TIME_AT_TARGET" : "1800",
"COMMENT_DESCRIPTION" : "No Comment",
"AUTHOR" : "admin",
"RECORD_INSERTION_TIME" : "1632332885"
},
{
"BURNIN_BOX_CYCLE_GROUP_ID" : "ModuleTestingCycle",
"TARGET_ID" : "HighTemperature13",
"IN_USE" : "Yes",
"SEQUENCE" : "28",
"TEMPERATURE" : "20",
"TIME_AT_TARGET" : "1800",
"COMMENT_DESCRIPTION" : "No Comment",
"AUTHOR" : "admin",
"RECORD_INSERTION_TIME" : "1632332885"
},
{
"BURNIN_BOX_CYCLE_GROUP_ID" : "ModuleTestingCycle",
"TARGET_ID" : "StopTemperature",
"IN_USE" : "Yes",
"SEQUENCE" : "29",
"TEMPERATURE" : "20",
"TIME_AT_TARGET" : "0",
"COMMENT_DESCRIPTION" : "No Comment",
"AUTHOR" : "admin",
"RECORD_INSERTION_TIME" : "1632332885"
}
]
},
"metadata" : {

},
"search" : [

]
},
"comments" : [

],
"origin" : {
"source" : "template",
"name" : "notprovided",
"format" : "json",
"created" : "2021-09-22T13:48:05.765-0400",
"rawdata" : [

]
},
"version" : "33",
"entities" : [
{
"name" : "OTSROOT",
"assigned" : "2021-09-22T13:48:05.766-0400"
}
],
"configurations" : [
{
"name" : "notprovided",
"assigned" : "2021-09-22T13:48:05.765-0400"
},
{
"name" : "BurninBoxConfiguration_v81",
"assigned" : "2021-09-22T13:48:08.192-0400"
}
],
"changelog" : "notprovided",
"bookkeeping" : {
"isdeleted" : false,
"isreadonly" : false,
"updates" : [
{
"event" : "addConfiguration",
"timestamp" : "2021-09-22T13:48:05.765-0400",
"value" : {
"name" : "notprovided",
"assigned" : "2021-09-22T13:48:05.765-0400"
}
},
{
"event" : "setVersion",
"timestamp" : "2021-09-22T13:48:05.766-0400",
"value" : {
"name" : "33",
"assigned" : "2021-09-22T13:48:05.766-0400"
}
},
{
"event" : "setCollection",
"timestamp" : "2021-09-22T13:48:05.766-0400",
"value" : {
"name" : "BurninBoxCycleTable",
"assigned" : "2021-09-22T13:48:05.766-0400"
}
},
{
"event" : "addEntity",
"timestamp" : "2021-09-22T13:48:05.766-0400",
"value" : {
"name" : "OTSROOT",
"assigned" : "2021-09-22T13:48:05.766-0400"
}
},
{
"event" : "addConfiguration",
"timestamp" : "2021-09-22T13:48:08.192-0400",
"value" : {
"name" : "BurninBoxConfiguration_v81",
"assigned" : "2021-09-22T13:48:08.192-0400"
}
}
],
"created" : "2021-09-22T13:48:05.765-0400"
},
"_id" : {
"$oid" : "bbc43f844019497683283c76"
},
"collection" : "BurninBoxCycleTable",
"aliases" : {
"active" : [

],
"history" : [

]
},
"runs" : [

],
"attachments" : [

],
"configtype" : "notprovided"
}