{
"document" : {
"data" : {
"NAME" : "BURNIN_BOX_CYCLE_TABLE",
"COMMENT" : "No comment.",
"AUTHOR" : "admin",
"CREATION_TIME" : 1628805699,
"COL_TYPES" : {
"BURNIN_BOX_CYCLE_GROUP_ID" : "STRING",
"TARGET_ID" : "STRING",
"IN_USE" : "STRING",
"SEQUENCE" : "NUMBER",
"TEMPERATURE" : "NUMBER",
"TIME_AT_TARGET" : "NUMBER",
"COMMENT_DESCRIPTION" : "STRING",
"AUTHOR" : "STRING",
"RECORD_INSERTION_TIME" : "TIMESTAMP WITH TIMEZONE"
},
"DATA_SET" : [
{
"BURNIN_BOX_CYCLE_GROUP_ID" : "ModuleTestingCycle",
"TARGET_ID" : "LowTemperature",
"IN_USE" : "Yes",
"SEQUENCE" : "1",
"TEMPERATURE" : "-33",
"TIME_AT_TARGET" : "600",
"COMMENT_DESCRIPTION" : "No Comment",
"AUTHOR" : "admin",
"RECORD_INSERTION_TIME" : "1628805699"
},
{
"BURNIN_BOX_CYCLE_GROUP_ID" : "ModuleTestingCycle",
"TARGET_ID" : "HighTemperature",
"IN_USE" : "Yes",
"SEQUENCE" : "2",
"TEMPERATURE" : "20",
"TIME_AT_TARGET" : "600",
"COMMENT_DESCRIPTION" : "No Comment",
"AUTHOR" : "admin",
"RECORD_INSERTION_TIME" : "1628805699"
},
{
"BURNIN_BOX_CYCLE_GROUP_ID" : "ModuleTestingCycle",
"TARGET_ID" : "LowTemperature1",
"IN_USE" : "Yes",
"SEQUENCE" : "3",
"TEMPERATURE" : "-33",
"TIME_AT_TARGET" : "600",
"COMMENT_DESCRIPTION" : "No Comment",
"AUTHOR" : "admin",
"RECORD_INSERTION_TIME" : "1628805699"
},
{
"BURNIN_BOX_CYCLE_GROUP_ID" : "ModuleTestingCycle",
"TARGET_ID" : "HighTemperature1",
"IN_USE" : "Yes",
"SEQUENCE" : "4",
"TEMPERATURE" : "20",
"TIME_AT_TARGET" : "600",
"COMMENT_DESCRIPTION" : "No Comment",
"AUTHOR" : "admin",
"RECORD_INSERTION_TIME" : "1628805699"
},
{
"BURNIN_BOX_CYCLE_GROUP_ID" : "ModuleTestingCycle",
"TARGET_ID" : "StopTemperature",
"IN_USE" : "Yes",
"SEQUENCE" : "5",
"TEMPERATURE" : "20",
"TIME_AT_TARGET" : "0",
"COMMENT_DESCRIPTION" : "No Comment",
"AUTHOR" : "admin",
"RECORD_INSERTION_TIME" : "1628805699"
}
]
},
"metadata" : {

},
"search" : [

]
},
"comments" : [

],
"origin" : {
"source" : "template",
"name" : "notprovided",
"format" : "json",
"created" : "2021-08-12T18:01:39.907-0400",
"rawdata" : [

]
},
"version" : "22",
"entities" : [
{
"name" : "OTSROOT",
"assigned" : "2021-08-12T18:01:39.908-0400"
}
],
"configurations" : [
{
"name" : "notprovided",
"assigned" : "2021-08-12T18:01:39.908-0400"
},
{
"name" : "BurninBoxConfiguration_v70",
"assigned" : "2021-08-12T18:01:44.312-0400"
}
],
"changelog" : "notprovided",
"bookkeeping" : {
"isdeleted" : false,
"isreadonly" : false,
"updates" : [
{
"event" : "addConfiguration",
"timestamp" : "2021-08-12T18:01:39.908-0400",
"value" : {
"name" : "notprovided",
"assigned" : "2021-08-12T18:01:39.908-0400"
}
},
{
"event" : "setVersion",
"timestamp" : "2021-08-12T18:01:39.908-0400",
"value" : {
"name" : "22",
"assigned" : "2021-08-12T18:01:39.908-0400"
}
},
{
"event" : "setCollection",
"timestamp" : "2021-08-12T18:01:39.908-0400",
"value" : {
"name" : "BurninBoxCycleTable",
"assigned" : "2021-08-12T18:01:39.908-0400"
}
},
{
"event" : "addEntity",
"timestamp" : "2021-08-12T18:01:39.908-0400",
"value" : {
"name" : "OTSROOT",
"assigned" : "2021-08-12T18:01:39.908-0400"
}
},
{
"event" : "addConfiguration",
"timestamp" : "2021-08-12T18:01:44.312-0400",
"value" : {
"name" : "BurninBoxConfiguration_v70",
"assigned" : "2021-08-12T18:01:44.312-0400"
}
}
],
"created" : "2021-08-12T18:01:39.907-0400"
},
"_id" : {
"$oid" : "fb5964f992054bdeaf76f00d"
},
"collection" : "BurninBoxCycleTable",
"aliases" : {
"active" : [

],
"history" : [

]
},
"runs" : [

],
"attachments" : [

],
"configtype" : "notprovided"
}