{
"document" : {
"data" : {
"NAME" : "TABLE_GROUP_METADATA",
"COMMENT" : "",
"AUTHOR" : "",
"CREATION_TIME" : 1528236848,
"COL_TYPES" : {
"UNUSED_UID" : "NUMBER",
"GROUP_ALIASES" : "STRING",
"COMMENT_DESCRIPTION" : "STRING",
"AUTHOR" : "STRING",
"GROUP_CREATION_TIME" : "TIMESTAMP WITH TIMEZONE"
},
"DATA_SET" : [
{
"UNUSED_UID" : "0",
"GROUP_ALIASES" : "",
"COMMENT_DESCRIPTION" : "No%20comment.",
"AUTHOR" : "admin",
"GROUP_CREATION_TIME" : "1675098944"
}
]
},
"metadata" : {

},
"search" : [

]
},
"comments" : [

],
"origin" : {
"source" : "template",
"name" : "notprovided",
"format" : "json",
"created" : "2023-01-30T11:15:44.927-0600",
"rawdata" : [

]
},
"version" : "532",
"entities" : [
{
"name" : "OTSROOT",
"assigned" : "2023-01-30T11:15:44.928-0600"
}
],
"configurations" : [
{
"name" : "notprovided",
"assigned" : "2023-01-30T11:15:44.928-0600"
},
{
"name" : "BurninBoxConfiguration_v114",
"assigned" : "2023-01-30T11:15:46.737-0600"
}
],
"changelog" : "notprovided",
"bookkeeping" : {
"isdeleted" : false,
"isreadonly" : false,
"updates" : [
{
"event" : "addConfiguration",
"timestamp" : "2023-01-30T11:15:44.928-0600",
"value" : {
"name" : "notprovided",
"assigned" : "2023-01-30T11:15:44.928-0600"
}
},
{
"event" : "setVersion",
"timestamp" : "2023-01-30T11:15:44.928-0600",
"value" : {
"name" : "532",
"assigned" : "2023-01-30T11:15:44.928-0600"
}
},
{
"event" : "setCollection",
"timestamp" : "2023-01-30T11:15:44.928-0600",
"value" : {
"name" : "TableGroupMetadata",
"assigned" : "2023-01-30T11:15:44.928-0600"
}
},
{
"event" : "addEntity",
"timestamp" : "2023-01-30T11:15:44.928-0600",
"value" : {
"name" : "OTSROOT",
"assigned" : "2023-01-30T11:15:44.928-0600"
}
},
{
"event" : "addConfiguration",
"timestamp" : "2023-01-30T11:15:46.737-0600",
"value" : {
"name" : "BurninBoxConfiguration_v114",
"assigned" : "2023-01-30T11:15:46.737-0600"
}
}
],
"created" : "2023-01-30T11:15:44.927-0600"
},
"_id" : {
"$oid" : "a25746d9ade349038fcb62ba"
},
"collection" : "TableGroupMetadata",
"aliases" : {
"active" : [

],
"history" : [

]
},
"runs" : [

],
"attachments" : [

],
"configtype" : "notprovided"
}