{
"document" : {
"data" : {
"NAME" : "GROUP_ALIASES_TABLE",
"COMMENT" : "Default Backbone.",
"AUTHOR" : "admin",
"CREATION_TIME" : 1605568204,
"COL_TYPES" : {
"GROUP_KEY_ALIAS" : "STRING",
"GROUP_NAME" : "STRING",
"GROUP_KEY" : "STRING",
"COMMENT_DESCRIPTION" : "STRING",
"AUTHOR" : "STRING",
"RECORD_INSERTION_TIME" : "TIMESTAMP WITH TIMEZONE"
},
"DATA_SET" : [
{
"GROUP_KEY_ALIAS" : "DefaultContext",
"GROUP_NAME" : "DefaultContext",
"GROUP_KEY" : "32",
"COMMENT_DESCRIPTION" : "This Group Alias was automatically setup by the server.",
"AUTHOR" : "admin",
"RECORD_INSERTION_TIME" : "1605568204"
},
{
"GROUP_KEY_ALIAS" : "BurninBoxConfiguration",
"GROUP_NAME" : "BurninBoxConfiguration",
"GROUP_KEY" : "32",
"COMMENT_DESCRIPTION" : "This Group Alias was automatically setup by the server.",
"AUTHOR" : "admin",
"RECORD_INSERTION_TIME" : "1604000369"
}
]
},
"metadata" : {

},
"search" : [

]
},
"comments" : [

],
"origin" : {
"source" : "template",
"name" : "notprovided",
"format" : "json",
"created" : "2020-11-16T17:10:04.360-0600",
"rawdata" : [

]
},
"version" : "114",
"entities" : [
{
"name" : "OTSROOT",
"assigned" : "2020-11-16T17:10:04.361-0600"
}
],
"configurations" : [
{
"name" : "notprovided",
"assigned" : "2020-11-16T17:10:04.361-0600"
},
{
"name" : "TableEditWizBackbone_v74",
"assigned" : "2020-11-16T17:10:05.445-0600"
}
],
"changelog" : "notprovided",
"bookkeeping" : {
"isdeleted" : false,
"isreadonly" : false,
"updates" : [
{
"event" : "addConfiguration",
"timestamp" : "2020-11-16T17:10:04.361-0600",
"value" : {
"name" : "notprovided",
"assigned" : "2020-11-16T17:10:04.361-0600"
}
},
{
"event" : "setVersion",
"timestamp" : "2020-11-16T17:10:04.361-0600",
"value" : {
"name" : "114",
"assigned" : "2020-11-16T17:10:04.361-0600"
}
},
{
"event" : "setCollection",
"timestamp" : "2020-11-16T17:10:04.361-0600",
"value" : {
"name" : "GroupAliasesTable",
"assigned" : "2020-11-16T17:10:04.361-0600"
}
},
{
"event" : "addEntity",
"timestamp" : "2020-11-16T17:10:04.361-0600",
"value" : {
"name" : "OTSROOT",
"assigned" : "2020-11-16T17:10:04.361-0600"
}
},
{
"event" : "addConfiguration",
"timestamp" : "2020-11-16T17:10:05.445-0600",
"value" : {
"name" : "TableEditWizBackbone_v74",
"assigned" : "2020-11-16T17:10:05.445-0600"
}
}
],
"created" : "2020-11-16T17:10:04.360-0600"
},
"_id" : {
"$oid" : "9f37e195ed17405c98daa6fa"
},
"collection" : "GroupAliasesTable",
"aliases" : {
"active" : [

],
"history" : [

]
},
"runs" : [

],
"attachments" : [

],
"configtype" : "notprovided"
}