{
"document" : {
"data" : {
"NAME" : "RAW_DATA_SAVER_CONSUMER_TABLE",
"COMMENT" : "Records for raw data savers.",
"AUTHOR" : "admin",
"CREATION_TIME" : 1536269469,
"COL_TYPES" : {
"PROCESSOR_UID" : "VARCHAR2",
"FILE_PATH" : "VARCHAR2",
"RADIX_FILE_NAME" : "VARCHAR2",
"MAX_FILE_SIZE" : "NUMBER",
"COMMENT_DESCRIPTION" : "VARCHAR2",
"AUTHOR" : "VARCHAR2",
"RECORD_INSERTION_TIME" : "TIMESTAMP WITH TIMEZONE"
},
"DATA_SET" : [
{
"PROCESSOR_UID" : "BurninBox0_DB0_RawDataSaver0",
"FILE_PATH" : "${OTSDAQ_DATA}/BurninBoxData",
"RADIX_FILE_NAME" : "RawDataSaver0BurninBox0",
"MAX_FILE_SIZE" : "1000",
"COMMENT_DESCRIPTION" : "",
"AUTHOR" : "admin",
"RECORD_INSERTION_TIME" : "1536269469"
}
]
},
"metadata" : {

},
"search" : [

]
},
"comments" : [

],
"origin" : {
"source" : "template",
"name" : "notprovided",
"format" : "json",
"created" : "2018-09-06T17:34:14.206-0500",
"rawdata" : [

]
},
"version" : "0",
"entities" : [
{
"name" : "OTSROOT",
"assigned" : "2018-09-06T17:34:14.208-0500"
}
],
"tables" : [
{
"name" : "notprovided",
"assigned" : "2018-09-06T17:34:14.207-0500"
},
{
"name" : "BurninBoxConfig_v0",
"assigned" : "2018-09-06T17:34:14.700-0500"
},
{
"name" : "BurninBoxConfig_v1",
"assigned" : "2018-09-10T10:45:51.271-0500"
},
{
"name" : "BurninBoxConfig_v2",
"assigned" : "2018-09-10T11:24:18.686-0500"
},
{
"name" : "BurninBoxConfig_v3",
"assigned" : "2018-09-11T09:59:56.304-0500"
},
{
"name" : "BurninBoxConfig_v4",
"assigned" : "2018-09-11T10:01:19.395-0500"
},
{
"name" : "BurninBoxConfig_v5",
"assigned" : "2018-09-11T10:11:15.990-0500"
},
{
"name" : "BurninBoxConfig_v6",
"assigned" : "2018-09-12T12:16:43.733-0500"
},
{
"name" : "BurninBoxConfig_v7",
"assigned" : "2018-09-17T11:12:09.407-0500"
},
{
"name" : "BurninBoxConfig_v8",
"assigned" : "2018-09-17T13:53:33.417-0500"
},
{
"name" : "BurninBoxConfig_v9",
"assigned" : "2018-09-17T14:03:58.092-0500"
},
{
"name" : "BurninBoxConfig_v10",
"assigned" : "2018-09-18T15:31:02.442-0500"
},
{
"name" : "BurninBoxConfig_v11",
"assigned" : "2018-09-19T09:27:02.177-0500"
},
{
"name" : "BurninBoxConfig_v12",
"assigned" : "2018-09-19T10:08:02.069-0500"
},
{
"name" : "BurninBoxConfig_v13",
"assigned" : "2018-09-19T10:23:22.002-0500"
},
{
"name" : "BurninBoxConfig_v14",
"assigned" : "2018-09-19T11:22:21.395-0500"
},
{
"name" : "BurninBoxConfig_v15",
"assigned" : "2018-09-19T12:26:55.244-0500"
},
{
"name" : "BurninBoxConfig_v16",
"assigned" : "2018-09-20T14:22:27.289-0500"
},
{
"name" : "BurninBoxConfig_v17",
"assigned" : "2018-09-20T15:42:03.097-0500"
},
{
"name" : "BurninBoxConfig_v18",
"assigned" : "2018-09-21T11:16:29.159-0500"
},
{
"name" : "BurninBoxConfig_v19",
"assigned" : "2018-09-21T13:39:25.309-0500"
},
{
"name" : "BurninBoxConfig_v20",
"assigned" : "2018-09-21T13:39:49.240-0500"
},
{
"name" : "BurninBoxConfig_v21",
"assigned" : "2019-02-28T12:04:25.758-0600"
},
{
"name" : "BurninBoxConfig_v22",
"assigned" : "2019-02-28T12:05:08.191-0600"
},
{
"name" : "BurninBoxConfig_v23",
"assigned" : "2019-02-28T13:57:09.797-0600"
}
],
"changelog" : "notprovided",
"bookkeeping" : {
"isdeleted" : false,
"isreadonly" : false,
"updates" : [
{
"event" : "addTable",
"timestamp" : "2018-09-06T17:34:14.207-0500",
"value" : {
"name" : "notprovided",
"assigned" : "2018-09-06T17:34:14.207-0500"
}
},
{
"event" : "setVersion",
"timestamp" : "2018-09-06T17:34:14.207-0500",
"value" : {
"name" : "0",
"assigned" : "2018-09-06T17:34:14.207-0500"
}
},
{
"event" : "setCollection",
"timestamp" : "2018-09-06T17:34:14.208-0500",
"value" : {
"name" : "RawDataSaverConsumerTable",
"assigned" : "2018-09-06T17:34:14.208-0500"
}
},
{
"event" : "addEntity",
"timestamp" : "2018-09-06T17:34:14.208-0500",
"value" : {
"name" : "OTSROOT",
"assigned" : "2018-09-06T17:34:14.208-0500"
}
},
{
"event" : "addTable",
"timestamp" : "2018-09-06T17:34:14.700-0500",
"value" : {
"name" : "BurninBoxConfig_v0",
"assigned" : "2018-09-06T17:34:14.700-0500"
}
},
{
"event" : "addTable",
"timestamp" : "2018-09-10T10:45:51.271-0500",
"value" : {
"name" : "BurninBoxConfig_v1",
"assigned" : "2018-09-10T10:45:51.271-0500"
}
},
{
"event" : "addTable",
"timestamp" : "2018-09-10T11:24:18.686-0500",
"value" : {
"name" : "BurninBoxConfig_v2",
"assigned" : "2018-09-10T11:24:18.686-0500"
}
},
{
"event" : "addTable",
"timestamp" : "2018-09-11T09:59:56.304-0500",
"value" : {
"name" : "BurninBoxConfig_v3",
"assigned" : "2018-09-11T09:59:56.304-0500"
}
},
{
"event" : "addTable",
"timestamp" : "2018-09-11T10:01:19.395-0500",
"value" : {
"name" : "BurninBoxConfig_v4",
"assigned" : "2018-09-11T10:01:19.395-0500"
}
},
{
"event" : "addTable",
"timestamp" : "2018-09-11T10:11:15.990-0500",
"value" : {
"name" : "BurninBoxConfig_v5",
"assigned" : "2018-09-11T10:11:15.990-0500"
}
},
{
"event" : "addTable",
"timestamp" : "2018-09-12T12:16:43.733-0500",
"value" : {
"name" : "BurninBoxConfig_v6",
"assigned" : "2018-09-12T12:16:43.733-0500"
}
},
{
"event" : "addTable",
"timestamp" : "2018-09-17T11:12:09.407-0500",
"value" : {
"name" : "BurninBoxConfig_v7",
"assigned" : "2018-09-17T11:12:09.407-0500"
}
},
{
"event" : "addTable",
"timestamp" : "2018-09-17T13:53:33.417-0500",
"value" : {
"name" : "BurninBoxConfig_v8",
"assigned" : "2018-09-17T13:53:33.417-0500"
}
},
{
"event" : "addTable",
"timestamp" : "2018-09-17T14:03:58.092-0500",
"value" : {
"name" : "BurninBoxConfig_v9",
"assigned" : "2018-09-17T14:03:58.092-0500"
}
},
{
"event" : "addTable",
"timestamp" : "2018-09-18T15:31:02.443-0500",
"value" : {
"name" : "BurninBoxConfig_v10",
"assigned" : "2018-09-18T15:31:02.442-0500"
}
},
{
"event" : "addTable",
"timestamp" : "2018-09-19T09:27:02.177-0500",
"value" : {
"name" : "BurninBoxConfig_v11",
"assigned" : "2018-09-19T09:27:02.177-0500"
}
},
{
"event" : "addTable",
"timestamp" : "2018-09-19T10:08:02.069-0500",
"value" : {
"name" : "BurninBoxConfig_v12",
"assigned" : "2018-09-19T10:08:02.069-0500"
}
},
{
"event" : "addTable",
"timestamp" : "2018-09-19T10:23:22.002-0500",
"value" : {
"name" : "BurninBoxConfig_v13",
"assigned" : "2018-09-19T10:23:22.002-0500"
}
},
{
"event" : "addTable",
"timestamp" : "2018-09-19T11:22:21.395-0500",
"value" : {
"name" : "BurninBoxConfig_v14",
"assigned" : "2018-09-19T11:22:21.395-0500"
}
},
{
"event" : "addTable",
"timestamp" : "2018-09-19T12:26:55.244-0500",
"value" : {
"name" : "BurninBoxConfig_v15",
"assigned" : "2018-09-19T12:26:55.244-0500"
}
},
{
"event" : "addTable",
"timestamp" : "2018-09-20T14:22:27.289-0500",
"value" : {
"name" : "BurninBoxConfig_v16",
"assigned" : "2018-09-20T14:22:27.289-0500"
}
},
{
"event" : "addTable",
"timestamp" : "2018-09-20T15:42:03.097-0500",
"value" : {
"name" : "BurninBoxConfig_v17",
"assigned" : "2018-09-20T15:42:03.097-0500"
}
},
{
"event" : "addTable",
"timestamp" : "2018-09-21T11:16:29.159-0500",
"value" : {
"name" : "BurninBoxConfig_v18",
"assigned" : "2018-09-21T11:16:29.159-0500"
}
},
{
"event" : "addTable",
"timestamp" : "2018-09-21T13:39:25.309-0500",
"value" : {
"name" : "BurninBoxConfig_v19",
"assigned" : "2018-09-21T13:39:25.309-0500"
}
},
{
"event" : "addTable",
"timestamp" : "2018-09-21T13:39:49.240-0500",
"value" : {
"name" : "BurninBoxConfig_v20",
"assigned" : "2018-09-21T13:39:49.240-0500"
}
},
{
"event" : "addTable",
"timestamp" : "2019-02-28T12:04:25.758-0600",
"value" : {
"name" : "BurninBoxConfig_v21",
"assigned" : "2019-02-28T12:04:25.758-0600"
}
},
{
"event" : "addTable",
"timestamp" : "2019-02-28T12:05:08.191-0600",
"value" : {
"name" : "BurninBoxConfig_v22",
"assigned" : "2019-02-28T12:05:08.191-0600"
}
},
{
"event" : "addTable",
"timestamp" : "2019-02-28T13:57:09.797-0600",
"value" : {
"name" : "BurninBoxConfig_v23",
"assigned" : "2019-02-28T13:57:09.797-0600"
}
},
{
"event" : "addConfiguration",
"timestamp" : "2019-07-19T15:24:15.928-0500",
"value" : {
"name" : "BurninBoxConfig_v24",
"assigned" : "2019-07-19T15:24:15.928-0500"
}
},
{
"event" : "addConfiguration",
"timestamp" : "2019-07-19T15:25:10.979-0500",
"value" : {
"name" : "BurninBoxConfig_v25",
"assigned" : "2019-07-19T15:25:10.979-0500"
}
},
{
"event" : "addConfiguration",
"timestamp" : "2019-07-24T14:34:10.459-0500",
"value" : {
"name" : "BurninBoxConfig_v26",
"assigned" : "2019-07-24T14:34:10.459-0500"
}
},
{
"event" : "addConfiguration",
"timestamp" : "2019-07-24T14:47:23.701-0500",
"value" : {
"name" : "BurninBoxConfig_v27",
"assigned" : "2019-07-24T14:47:23.701-0500"
}
},
{
"event" : "addConfiguration",
"timestamp" : "2019-07-24T14:48:41.194-0500",
"value" : {
"name" : "BurninBoxConfig_v28",
"assigned" : "2019-07-24T14:48:41.194-0500"
}
},
{
"event" : "addConfiguration",
"timestamp" : "2020-06-29T10:55:10.691-0500",
"value" : {
"name" : "BurninBoxConfig_v29",
"assigned" : "2020-06-29T10:55:10.691-0500"
}
},
{
"event" : "addConfiguration",
"timestamp" : "2020-06-29T11:05:39.985-0500",
"value" : {
"name" : "BurninBoxConfig_v30",
"assigned" : "2020-06-29T11:05:39.985-0500"
}
},
{
"event" : "addConfiguration",
"timestamp" : "2020-06-29T11:28:21.672-0500",
"value" : {
"name" : "BurninBoxConfig_v31",
"assigned" : "2020-06-29T11:28:21.672-0500"
}
},
{
"event" : "addConfiguration",
"timestamp" : "2020-07-24T10:58:17.913-0500",
"value" : {
"name" : "BurninBoxConfig_v32",
"assigned" : "2020-07-24T10:58:17.913-0500"
}
},
{
"event" : "addConfiguration",
"timestamp" : "2020-07-24T11:00:07.556-0500",
"value" : {
"name" : "BurninBoxConfig_v33",
"assigned" : "2020-07-24T11:00:07.556-0500"
}
},
{
"event" : "addConfiguration",
"timestamp" : "2020-07-24T11:56:06.268-0500",
"value" : {
"name" : "BurninBoxConfig_v34",
"assigned" : "2020-07-24T11:56:06.268-0500"
}
},
{
"event" : "addConfiguration",
"timestamp" : "2020-07-24T12:12:09.286-0500",
"value" : {
"name" : "BurninBoxConfig_v35",
"assigned" : "2020-07-24T12:12:09.286-0500"
}
},
{
"event" : "addConfiguration",
"timestamp" : "2020-07-24T12:16:35.787-0500",
"value" : {
"name" : "BurninBoxConfig_v36",
"assigned" : "2020-07-24T12:16:35.787-0500"
}
},
{
"event" : "addConfiguration",
"timestamp" : "2020-07-29T15:59:40.828-0500",
"value" : {
"name" : "BurninBoxConfiguration_v0",
"assigned" : "2020-07-29T15:59:40.828-0500"
}
},
{
"event" : "addConfiguration",
"timestamp" : "2020-07-30T11:42:27.460-0500",
"value" : {
"name" : "BurninBoxConfiguration_v1",
"assigned" : "2020-07-30T11:42:27.460-0500"
}
},
{
"event" : "addConfiguration",
"timestamp" : "2020-07-30T12:05:12.847-0500",
"value" : {
"name" : "BurninBoxConfiguration_v2",
"assigned" : "2020-07-30T12:05:12.847-0500"
}
},
{
"event" : "addConfiguration",
"timestamp" : "2020-09-02T11:30:04.552-0500",
"value" : {
"name" : "BurninBoxConfiguration_v3",
"assigned" : "2020-09-02T11:30:04.552-0500"
}
},
{
"event" : "addConfiguration",
"timestamp" : "2020-09-02T11:31:32.373-0500",
"value" : {
"name" : "BurninBoxConfiguration_v4",
"assigned" : "2020-09-02T11:31:32.373-0500"
}
},
{
"event" : "addConfiguration",
"timestamp" : "2020-09-02T15:08:51.330-0500",
"value" : {
"name" : "BurninBoxConfiguration_v5",
"assigned" : "2020-09-02T15:08:51.330-0500"
}
},
{
"event" : "addConfiguration",
"timestamp" : "2020-09-02T16:01:06.068-0500",
"value" : {
"name" : "BurninBoxConfiguration_v6",
"assigned" : "2020-09-02T16:01:06.068-0500"
}
},
{
"event" : "addConfiguration",
"timestamp" : "2020-09-02T16:05:19.482-0500",
"value" : {
"name" : "BurninBoxConfiguration_v7",
"assigned" : "2020-09-02T16:05:19.482-0500"
}
},
{
"event" : "addConfiguration",
"timestamp" : "2020-10-05T17:05:55.573-0500",
"value" : {
"name" : "BurninBoxConfiguration_v8",
"assigned" : "2020-10-05T17:05:55.573-0500"
}
},
{
"event" : "addConfiguration",
"timestamp" : "2020-10-05T17:09:48.615-0500",
"value" : {
"name" : "BurninBoxConfiguration_v9",
"assigned" : "2020-10-05T17:09:48.615-0500"
}
},
{
"event" : "addConfiguration",
"timestamp" : "2020-10-05T17:11:02.479-0500",
"value" : {
"name" : "BurninBoxConfiguration_v10",
"assigned" : "2020-10-05T17:11:02.479-0500"
}
},
{
"event" : "addConfiguration",
"timestamp" : "2020-10-05T17:39:04.128-0500",
"value" : {
"name" : "BurninBoxConfiguration_v11",
"assigned" : "2020-10-05T17:39:04.128-0500"
}
},
{
"event" : "addConfiguration",
"timestamp" : "2020-10-05T17:43:06.361-0500",
"value" : {
"name" : "BurninBoxConfiguration_v12",
"assigned" : "2020-10-05T17:43:06.361-0500"
}
},
{
"event" : "addConfiguration",
"timestamp" : "2020-10-09T14:43:40.302-0500",
"value" : {
"name" : "BurninBoxConfiguration_v13",
"assigned" : "2020-10-09T14:43:40.302-0500"
}
},
{
"event" : "addConfiguration",
"timestamp" : "2020-10-09T15:30:46.900-0500",
"value" : {
"name" : "BurninBoxConfiguration_v14",
"assigned" : "2020-10-09T15:30:46.900-0500"
}
},
{
"event" : "addConfiguration",
"timestamp" : "2020-10-12T10:14:43.790-0500",
"value" : {
"name" : "BurninBoxConfiguration_v15",
"assigned" : "2020-10-12T10:14:43.790-0500"
}
},
{
"event" : "addConfiguration",
"timestamp" : "2020-10-12T15:33:09.376-0500",
"value" : {
"name" : "BurninBoxConfiguration_v16",
"assigned" : "2020-10-12T15:33:09.376-0500"
}
},
{
"event" : "addConfiguration",
"timestamp" : "2020-10-19T16:16:02.921-0500",
"value" : {
"name" : "BurninBoxConfiguration_v17",
"assigned" : "2020-10-19T16:16:02.921-0500"
}
},
{
"event" : "addConfiguration",
"timestamp" : "2020-10-23T11:00:20.777-0500",
"value" : {
"name" : "BurninBoxConfiguration_v18",
"assigned" : "2020-10-23T11:00:20.777-0500"
}
},
{
"event" : "addConfiguration",
"timestamp" : "2020-10-26T11:51:21.761-0500",
"value" : {
"name" : "BurninBoxConfiguration_v19",
"assigned" : "2020-10-26T11:51:21.761-0500"
}
},
{
"event" : "addConfiguration",
"timestamp" : "2020-10-26T11:51:43.439-0500",
"value" : {
"name" : "BurninBoxConfiguration_v20",
"assigned" : "2020-10-26T11:51:43.439-0500"
}
},
{
"event" : "addConfiguration",
"timestamp" : "2020-10-26T11:56:42.871-0500",
"value" : {
"name" : "BurninBoxConfiguration_v21",
"assigned" : "2020-10-26T11:56:42.871-0500"
}
},
{
"event" : "addConfiguration",
"timestamp" : "2020-10-26T14:34:34.800-0500",
"value" : {
"name" : "BurninBoxConfiguration_v22",
"assigned" : "2020-10-26T14:34:34.800-0500"
}
},
{
"event" : "addConfiguration",
"timestamp" : "2020-10-26T14:53:01.721-0500",
"value" : {
"name" : "BurninBoxConfiguration_v23",
"assigned" : "2020-10-26T14:53:01.721-0500"
}
},
{
"event" : "addConfiguration",
"timestamp" : "2020-10-26T15:02:46.983-0500",
"value" : {
"name" : "BurninBoxConfiguration_v24",
"assigned" : "2020-10-26T15:02:46.983-0500"
}
},
{
"event" : "addConfiguration",
"timestamp" : "2020-10-27T17:42:10.787-0500",
"value" : {
"name" : "BurninBoxConfiguration_v25",
"assigned" : "2020-10-27T17:42:10.787-0500"
}
},
{
"event" : "addConfiguration",
"timestamp" : "2020-10-29T11:52:33.020-0500",
"value" : {
"name" : "BurninBoxConfiguration_v26",
"assigned" : "2020-10-29T11:52:33.020-0500"
}
},
{
"event" : "addConfiguration",
"timestamp" : "2020-10-29T11:54:26.743-0500",
"value" : {
"name" : "BurninBoxConfiguration_v27",
"assigned" : "2020-10-29T11:54:26.743-0500"
}
},
{
"event" : "addConfiguration",
"timestamp" : "2020-10-29T13:30:24.703-0500",
"value" : {
"name" : "BurninBoxConfiguration_v28",
"assigned" : "2020-10-29T13:30:24.703-0500"
}
},
{
"event" : "addConfiguration",
"timestamp" : "2020-10-29T13:45:56.097-0500",
"value" : {
"name" : "BurninBoxConfiguration_v29",
"assigned" : "2020-10-29T13:45:56.097-0500"
}
},
{
"event" : "addConfiguration",
"timestamp" : "2020-10-29T13:46:38.400-0500",
"value" : {
"name" : "BurninBoxConfiguration_v30",
"assigned" : "2020-10-29T13:46:38.400-0500"
}
},
{
"event" : "addConfiguration",
"timestamp" : "2020-10-29T13:48:03.013-0500",
"value" : {
"name" : "BurninBoxConfiguration_v31",
"assigned" : "2020-10-29T13:48:03.013-0500"
}
},
{
"event" : "addConfiguration",
"timestamp" : "2020-10-29T14:39:29.081-0500",
"value" : {
"name" : "BurninBoxConfiguration_v32",
"assigned" : "2020-10-29T14:39:29.080-0500"
}
},
{
"event" : "addConfiguration",
"timestamp" : "2021-06-30T16:17:52.045-0500",
"value" : {
"name" : "BurninBoxConfiguration_v33",
"assigned" : "2021-06-30T16:17:52.045-0500"
}
},
{
"event" : "addConfiguration",
"timestamp" : "2021-06-30T16:23:48.449-0500",
"value" : {
"name" : "BurninBoxConfiguration_v34",
"assigned" : "2021-06-30T16:23:48.449-0500"
}
},
{
"event" : "addConfiguration",
"timestamp" : "2021-07-08T14:06:14.298-0500",
"value" : {
"name" : "BurninBoxConfiguration_v35",
"assigned" : "2021-07-08T14:06:14.298-0500"
}
},
{
"event" : "addConfiguration",
"timestamp" : "2021-07-08T14:16:58.500-0500",
"value" : {
"name" : "BurninBoxConfiguration_v36",
"assigned" : "2021-07-08T14:16:58.500-0500"
}
},
{
"event" : "addConfiguration",
"timestamp" : "2021-07-08T16:20:45.088-0500",
"value" : {
"name" : "BurninBoxConfiguration_v37",
"assigned" : "2021-07-08T16:20:45.088-0500"
}
},
{
"event" : "addConfiguration",
"timestamp" : "2021-07-09T11:47:14.253-0500",
"value" : {
"name" : "BurninBoxConfiguration_v38",
"assigned" : "2021-07-09T11:47:14.253-0500"
}
},
{
"event" : "addConfiguration",
"timestamp" : "2021-07-09T11:48:46.356-0500",
"value" : {
"name" : "BurninBoxConfiguration_v39",
"assigned" : "2021-07-09T11:48:46.356-0500"
}
},
{
"event" : "addConfiguration",
"timestamp" : "2021-07-09T16:06:00.847-0500",
"value" : {
"name" : "BurninBoxConfiguration_v40",
"assigned" : "2021-07-09T16:06:00.847-0500"
}
},
{
"event" : "addConfiguration",
"timestamp" : "2021-07-12T11:04:55.825-0500",
"value" : {
"name" : "BurninBoxConfiguration_v41",
"assigned" : "2021-07-12T11:04:55.825-0500"
}
},
{
"event" : "addConfiguration",
"timestamp" : "2021-07-13T12:01:31.709-0500",
"value" : {
"name" : "BurninBoxConfiguration_v42",
"assigned" : "2021-07-13T12:01:31.709-0500"
}
},
{
"event" : "addConfiguration",
"timestamp" : "2021-07-13T12:22:06.180-0500",
"value" : {
"name" : "BurninBoxConfiguration_v43",
"assigned" : "2021-07-13T12:22:06.180-0500"
}
},
{
"event" : "addConfiguration",
"timestamp" : "2021-07-14T13:05:58.779-0500",
"value" : {
"name" : "BurninBoxConfiguration_v44",
"assigned" : "2021-07-14T13:05:58.779-0500"
}
},
{
"event" : "addConfiguration",
"timestamp" : "2021-07-14T14:26:04.964-0500",
"value" : {
"name" : "BurninBoxConfiguration_v45",
"assigned" : "2021-07-14T14:26:04.964-0500"
}
},
{
"event" : "addConfiguration",
"timestamp" : "2021-07-14T14:46:57.261-0500",
"value" : {
"name" : "BurninBoxConfiguration_v46",
"assigned" : "2021-07-14T14:46:57.261-0500"
}
},
{
"event" : "addConfiguration",
"timestamp" : "2021-07-14T15:24:34.151-0500",
"value" : {
"name" : "BurninBoxConfiguration_v47",
"assigned" : "2021-07-14T15:24:34.151-0500"
}
},
{
"event" : "addConfiguration",
"timestamp" : "2021-07-14T16:05:29.711-0500",
"value" : {
"name" : "BurninBoxConfiguration_v48",
"assigned" : "2021-07-14T16:05:29.711-0500"
}
},
{
"event" : "addConfiguration",
"timestamp" : "2021-07-14T16:15:41.401-0500",
"value" : {
"name" : "BurninBoxConfiguration_v49",
"assigned" : "2021-07-14T16:15:41.401-0500"
}
},
{
"event" : "addConfiguration",
"timestamp" : "2021-07-14T16:17:41.112-0500",
"value" : {
"name" : "BurninBoxConfiguration_v50",
"assigned" : "2021-07-14T16:17:41.112-0500"
}
},
{
"event" : "addConfiguration",
"timestamp" : "2021-07-15T11:50:34.157-0500",
"value" : {
"name" : "BurninBoxConfiguration_v51",
"assigned" : "2021-07-15T11:50:34.157-0500"
}
},
{
"event" : "addConfiguration",
"timestamp" : "2021-07-20T13:45:54.246-0500",
"value" : {
"name" : "BurninBoxConfiguration_v52",
"assigned" : "2021-07-20T13:45:54.246-0500"
}
},
{
"event" : "addConfiguration",
"timestamp" : "2021-07-20T16:41:42.481-0500",
"value" : {
"name" : "BurninBoxConfiguration_v53",
"assigned" : "2021-07-20T16:41:42.481-0500"
}
},
{
"event" : "addConfiguration",
"timestamp" : "2021-07-20T17:09:27.238-0500",
"value" : {
"name" : "BurninBoxConfiguration_v54",
"assigned" : "2021-07-20T17:09:27.238-0500"
}
},
{
"event" : "addConfiguration",
"timestamp" : "2021-07-20T17:28:40.402-0500",
"value" : {
"name" : "BurninBoxConfiguration_v55",
"assigned" : "2021-07-20T17:28:40.402-0500"
}
},
{
"event" : "addConfiguration",
"timestamp" : "2021-07-20T17:46:27.734-0500",
"value" : {
"name" : "BurninBoxConfiguration_v56",
"assigned" : "2021-07-20T17:46:27.734-0500"
}
},
{
"event" : "addConfiguration",
"timestamp" : "2021-07-21T11:50:02.252-0500",
"value" : {
"name" : "BurninBoxConfiguration_v57",
"assigned" : "2021-07-21T11:50:02.252-0500"
}
},
{
"event" : "addConfiguration",
"timestamp" : "2021-07-21T11:58:37.926-0500",
"value" : {
"name" : "BurninBoxConfiguration_v58",
"assigned" : "2021-07-21T11:58:37.926-0500"
}
},
{
"event" : "addConfiguration",
"timestamp" : "2021-07-21T11:59:33.699-0500",
"value" : {
"name" : "BurninBoxConfiguration_v59",
"assigned" : "2021-07-21T11:59:33.699-0500"
}
},
{
"event" : "addConfiguration",
"timestamp" : "2021-07-22T18:35:00.757-0500",
"value" : {
"name" : "BurninBoxConfiguration_v60",
"assigned" : "2021-07-22T18:35:00.757-0500"
}
},
{
"event" : "addConfiguration",
"timestamp" : "2021-07-23T12:33:57.048-0500",
"value" : {
"name" : "BurninBoxConfiguration_v61",
"assigned" : "2021-07-23T12:33:57.048-0500"
}
},
{
"event" : "addConfiguration",
"timestamp" : "2021-07-24T00:54:49.876-0500",
"value" : {
"name" : "BurninBoxConfiguration_v62",
"assigned" : "2021-07-24T00:54:49.876-0500"
}
},
{
"event" : "addConfiguration",
"timestamp" : "2021-07-24T12:12:51.413-0500",
"value" : {
"name" : "BurninBoxConfiguration_v63",
"assigned" : "2021-07-24T12:12:51.413-0500"
}
},
{
"event" : "addConfiguration",
"timestamp" : "2021-07-25T21:07:16.370-0500",
"value" : {
"name" : "BurninBoxConfiguration_v64",
"assigned" : "2021-07-25T21:07:16.370-0500"
}
},
{
"event" : "addConfiguration",
"timestamp" : "2021-07-26T07:43:12.273-0500",
"value" : {
"name" : "BurninBoxConfiguration_v65",
"assigned" : "2021-07-26T07:43:12.273-0500"
}
},
{
"event" : "addConfiguration",
"timestamp" : "2021-07-26T18:37:12.307-0500",
"value" : {
"name" : "BurninBoxConfiguration_v66",
"assigned" : "2021-07-26T18:37:12.307-0500"
}
},
{
"event" : "addConfiguration",
"timestamp" : "2021-07-27T08:25:41.084-0500",
"value" : {
"name" : "BurninBoxConfiguration_v67",
"assigned" : "2021-07-27T08:25:41.084-0500"
}
},
{
"event" : "addConfiguration",
"timestamp" : "2021-08-03T11:10:37.445-0500",
"value" : {
"name" : "BurninBoxConfiguration_v68",
"assigned" : "2021-08-03T11:10:37.445-0500"
}
},
{
"event" : "addConfiguration",
"timestamp" : "2021-08-04T12:21:57.890-0500",
"value" : {
"name" : "BurninBoxConfiguration_v69",
"assigned" : "2021-08-04T12:21:57.889-0500"
}
},
{
"event" : "addConfiguration",
"timestamp" : "2021-09-02T13:43:34.327-0500",
"value" : {
"name" : "BurninBoxConfiguration_v70",
"assigned" : "2021-09-02T13:43:34.327-0500"
}
},
{
"event" : "addConfiguration",
"timestamp" : "2021-09-02T14:03:37.197-0500",
"value" : {
"name" : "BurninBoxConfiguration_v71",
"assigned" : "2021-09-02T14:03:37.197-0500"
}
},
{
"event" : "addConfiguration",
"timestamp" : "2021-09-23T15:47:05.581-0500",
"value" : {
"name" : "BurninBoxConfiguration_v72",
"assigned" : "2021-09-23T15:47:05.581-0500"
}
},
{
"event" : "addConfiguration",
"timestamp" : "2021-09-23T15:47:42.511-0500",
"value" : {
"name" : "BurninBoxConfiguration_v73",
"assigned" : "2021-09-23T15:47:42.511-0500"
}
},
{
"event" : "addConfiguration",
"timestamp" : "2021-09-24T15:36:50.403-0500",
"value" : {
"name" : "BurninBoxConfiguration_v74",
"assigned" : "2021-09-24T15:36:50.402-0500"
}
},
{
"event" : "addConfiguration",
"timestamp" : "2021-09-24T15:53:23.406-0500",
"value" : {
"name" : "BurninBoxConfiguration_v75",
"assigned" : "2021-09-24T15:53:23.406-0500"
}
},
{
"event" : "addConfiguration",
"timestamp" : "2021-09-24T16:04:22.437-0500",
"value" : {
"name" : "BurninBoxConfiguration_v76",
"assigned" : "2021-09-24T16:04:22.437-0500"
}
},
{
"event" : "addConfiguration",
"timestamp" : "2021-09-24T16:28:07.209-0500",
"value" : {
"name" : "BurninBoxConfiguration_v77",
"assigned" : "2021-09-24T16:28:07.209-0500"
}
},
{
"event" : "addConfiguration",
"timestamp" : "2021-09-27T09:02:56.778-0500",
"value" : {
"name" : "BurninBoxConfiguration_v78",
"assigned" : "2021-09-27T09:02:56.778-0500"
}
},
{
"event" : "addConfiguration",
"timestamp" : "2021-09-27T14:22:25.054-0500",
"value" : {
"name" : "BurninBoxConfiguration_v79",
"assigned" : "2021-09-27T14:22:25.054-0500"
}
},
{
"event" : "addConfiguration",
"timestamp" : "2021-09-28T09:24:50.926-0500",
"value" : {
"name" : "BurninBoxConfiguration_v80",
"assigned" : "2021-09-28T09:24:50.926-0500"
}
},
{
"event" : "addConfiguration",
"timestamp" : "2021-09-30T09:14:51.278-0500",
"value" : {
"name" : "BurninBoxConfiguration_v81",
"assigned" : "2021-09-30T09:14:51.278-0500"
}
},
{
"event" : "addConfiguration",
"timestamp" : "2021-10-01T10:56:21.731-0500",
"value" : {
"name" : "BurninBoxConfiguration_v82",
"assigned" : "2021-10-01T10:56:21.730-0500"
}
},
{
"event" : "addConfiguration",
"timestamp" : "2021-10-01T11:01:41.352-0500",
"value" : {
"name" : "BurninBoxConfiguration_v83",
"assigned" : "2021-10-01T11:01:41.352-0500"
}
},
{
"event" : "addConfiguration",
"timestamp" : "2021-10-06T10:02:31.651-0500",
"value" : {
"name" : "BurninBoxConfiguration_v84",
"assigned" : "2021-10-06T10:02:31.650-0500"
}
},
{
"event" : "addConfiguration",
"timestamp" : "2021-10-07T16:32:40.783-0500",
"value" : {
"name" : "BurninBoxConfiguration_v85",
"assigned" : "2021-10-07T16:32:40.783-0500"
}
},
{
"event" : "addConfiguration",
"timestamp" : "2021-10-08T14:03:15.656-0500",
"value" : {
"name" : "BurninBoxConfiguration_v86",
"assigned" : "2021-10-08T14:03:15.656-0500"
}
},
{
"event" : "addConfiguration",
"timestamp" : "2021-10-11T16:00:56.637-0500",
"value" : {
"name" : "BurninBoxConfiguration_v87",
"assigned" : "2021-10-11T16:00:56.637-0500"
}
},
{
"event" : "addConfiguration",
"timestamp" : "2021-10-12T09:07:17.813-0500",
"value" : {
"name" : "BurninBoxConfiguration_v88",
"assigned" : "2021-10-12T09:07:17.813-0500"
}
},
{
"event" : "addConfiguration",
"timestamp" : "2021-10-12T11:11:23.525-0500",
"value" : {
"name" : "BurninBoxConfiguration_v89",
"assigned" : "2021-10-12T11:11:23.525-0500"
}
},
{
"event" : "addConfiguration",
"timestamp" : "2021-10-14T17:03:16.926-0500",
"value" : {
"name" : "BurninBoxConfiguration_v90",
"assigned" : "2021-10-14T17:03:16.926-0500"
}
},
{
"event" : "addConfiguration",
"timestamp" : "2021-10-15T10:48:31.649-0500",
"value" : {
"name" : "BurninBoxConfiguration_v91",
"assigned" : "2021-10-15T10:48:31.649-0500"
}
},
{
"event" : "addConfiguration",
"timestamp" : "2021-10-15T15:50:49.644-0500",
"value" : {
"name" : "BurninBoxConfiguration_v92",
"assigned" : "2021-10-15T15:50:49.644-0500"
}
},
{
"event" : "addConfiguration",
"timestamp" : "2021-11-03T16:30:20.466-0500",
"value" : {
"name" : "BurninBoxConfiguration_v93",
"assigned" : "2021-11-03T16:30:20.466-0500"
}
},
{
"event" : "addConfiguration",
"timestamp" : "2021-11-10T15:11:02.892-0600",
"value" : {
"name" : "BurninBoxConfiguration_v94",
"assigned" : "2021-11-10T15:11:02.892-0600"
}
},
{
"event" : "addConfiguration",
"timestamp" : "2022-04-19T14:35:56.753-0400",
"value" : {
"name" : "BurninBoxConfiguration_v95",
"assigned" : "2022-04-19T14:35:56.753-0400"
}
},
{
"event" : "addConfiguration",
"timestamp" : "2022-04-20T10:06:05.727-0400",
"value" : {
"name" : "BurninBoxConfiguration_v96",
"assigned" : "2022-04-20T10:06:05.727-0400"
}
},
{
"event" : "addConfiguration",
"timestamp" : "2022-04-20T11:23:52.454-0400",
"value" : {
"name" : "BurninBoxConfiguration_v97",
"assigned" : "2022-04-20T11:23:52.454-0400"
}
},
{
"event" : "addConfiguration",
"timestamp" : "2022-06-03T14:30:16.747-0500",
"value" : {
"name" : "BurninBoxConfiguration_v98",
"assigned" : "2022-06-03T14:30:16.747-0500"
}
},
{
"event" : "addConfiguration",
"timestamp" : "2022-06-03T14:34:09.610-0500",
"value" : {
"name" : "BurninBoxConfiguration_v99",
"assigned" : "2022-06-03T14:34:09.610-0500"
}
},
{
"event" : "addConfiguration",
"timestamp" : "2022-06-07T14:59:59.820-0500",
"value" : {
"name" : "BurninBoxConfiguration_v100",
"assigned" : "2022-06-07T14:59:59.820-0500"
}
},
{
"event" : "addConfiguration",
"timestamp" : "2022-06-07T15:05:54.072-0500",
"value" : {
"name" : "BurninBoxConfiguration_v101",
"assigned" : "2022-06-07T15:05:54.072-0500"
}
},
{
"event" : "addConfiguration",
"timestamp" : "2022-06-07T16:09:18.079-0500",
"value" : {
"name" : "BurninBoxConfiguration_v102",
"assigned" : "2022-06-07T16:09:18.079-0500"
}
},
{
"event" : "addConfiguration",
"timestamp" : "2022-06-10T10:17:26.340-0500",
"value" : {
"name" : "BurninBoxConfiguration_v103",
"assigned" : "2022-06-10T10:17:26.340-0500"
}
},
{
"event" : "addConfiguration",
"timestamp" : "2022-06-10T10:18:22.824-0500",
"value" : {
"name" : "BurninBoxConfiguration_v104",
"assigned" : "2022-06-10T10:18:22.824-0500"
}
},
{
"event" : "addConfiguration",
"timestamp" : "2022-06-13T14:13:01.555-0500",
"value" : {
"name" : "BurninBoxConfiguration_v105",
"assigned" : "2022-06-13T14:13:01.555-0500"
}
},
{
"event" : "addConfiguration",
"timestamp" : "2022-06-13T15:22:18.983-0500",
"value" : {
"name" : "BurninBoxConfiguration_v106",
"assigned" : "2022-06-13T15:22:18.983-0500"
}
},
{
"event" : "addConfiguration",
"timestamp" : "2022-06-21T15:37:15.109-0500",
"value" : {
"name" : "BurninBoxConfiguration_v107",
"assigned" : "2022-06-21T15:37:15.109-0500"
}
},
{
"event" : "addConfiguration",
"timestamp" : "2022-06-21T15:39:37.677-0500",
"value" : {
"name" : "BurninBoxConfiguration_v108",
"assigned" : "2022-06-21T15:39:37.677-0500"
}
},
{
"event" : "addConfiguration",
"timestamp" : "2022-06-30T12:02:32.153-0500",
"value" : {
"name" : "BurninBoxConfiguration_v109",
"assigned" : "2022-06-30T12:02:32.153-0500"
}
},
{
"event" : "addConfiguration",
"timestamp" : "2023-01-19T10:05:43.358-0600",
"value" : {
"name" : "BurninBoxConfiguration_v110",
"assigned" : "2023-01-19T10:05:43.358-0600"
}
},
{
"event" : "addConfiguration",
"timestamp" : "2023-01-19T10:08:20.259-0600",
"value" : {
"name" : "BurninBoxConfiguration_v111",
"assigned" : "2023-01-19T10:08:20.258-0600"
}
},
{
"event" : "addConfiguration",
"timestamp" : "2023-01-19T11:02:45.348-0600",
"value" : {
"name" : "BurninBoxConfiguration_v112",
"assigned" : "2023-01-19T11:02:45.347-0600"
}
},
{
"event" : "addConfiguration",
"timestamp" : "2023-01-20T11:51:31.355-0600",
"value" : {
"name" : "BurninBoxConfiguration_v113",
"assigned" : "2023-01-20T11:51:31.354-0600"
}
},
{
"event" : "addConfiguration",
"timestamp" : "2023-01-30T11:15:46.541-0600",
"value" : {
"name" : "BurninBoxConfiguration_v114",
"assigned" : "2023-01-30T11:15:46.540-0600"
}
},
{
"event" : "addConfiguration",
"timestamp" : "2023-03-01T10:10:34.331-0600",
"value" : {
"name" : "BurninBoxConfiguration_v115",
"assigned" : "2023-03-01T10:10:34.331-0600"
}
},
{
"event" : "addConfiguration",
"timestamp" : "2023-03-07T16:36:51.441-0600",
"value" : {
"name" : "BurninBoxConfiguration_v116",
"assigned" : "2023-03-07T16:36:51.441-0600"
}
},
{
"event" : "addConfiguration",
"timestamp" : "2023-03-09T15:31:32.279-0600",
"value" : {
"name" : "BurninBoxConfiguration_v117",
"assigned" : "2023-03-09T15:31:32.279-0600"
}
},
{
"event" : "addConfiguration",
"timestamp" : "2023-03-15T12:03:56.532-0500",
"value" : {
"name" : "BurninBoxConfiguration_v118",
"assigned" : "2023-03-15T12:03:56.532-0500"
}
},
{
"event" : "addConfiguration",
"timestamp" : "2023-03-16T14:10:41.406-0500",
"value" : {
"name" : "BurninBoxConfiguration_v119",
"assigned" : "2023-03-16T14:10:41.406-0500"
}
},
{
"event" : "addConfiguration",
"timestamp" : "2023-04-04T11:18:54.682-0500",
"value" : {
"name" : "BurninBoxConfiguration_v120",
"assigned" : "2023-04-04T11:18:54.682-0500"
}
},
{
"event" : "addConfiguration",
"timestamp" : "2023-04-04T11:19:17.771-0500",
"value" : {
"name" : "BurninBoxConfiguration_v121",
"assigned" : "2023-04-04T11:19:17.771-0500"
}
},
{
"event" : "addConfiguration",
"timestamp" : "2023-04-04T11:23:01.357-0500",
"value" : {
"name" : "BurninBoxConfiguration_v122",
"assigned" : "2023-04-04T11:23:01.357-0500"
}
},
{
"event" : "addConfiguration",
"timestamp" : "2023-04-04T13:48:52.284-0500",
"value" : {
"name" : "BurninBoxConfiguration_v123",
"assigned" : "2023-04-04T13:48:52.284-0500"
}
},
{
"event" : "addConfiguration",
"timestamp" : "2023-04-04T13:51:59.416-0500",
"value" : {
"name" : "BurninBoxConfiguration_v124",
"assigned" : "2023-04-04T13:51:59.416-0500"
}
},
{
"event" : "addConfiguration",
"timestamp" : "2023-04-04T14:31:01.204-0500",
"value" : {
"name" : "BurninBoxConfiguration_v125",
"assigned" : "2023-04-04T14:31:01.204-0500"
}
},
{
"event" : "addConfiguration",
"timestamp" : "2023-04-04T16:05:04.897-0500",
"value" : {
"name" : "BurninBoxConfiguration_v126",
"assigned" : "2023-04-04T16:05:04.897-0500"
}
},
{
"event" : "addConfiguration",
"timestamp" : "2023-04-07T10:09:32.822-0500",
"value" : {
"name" : "BurninBoxConfiguration_v127",
"assigned" : "2023-04-07T10:09:32.822-0500"
}
},
{
"event" : "addConfiguration",
"timestamp" : "2023-04-07T16:20:30.024-0500",
"value" : {
"name" : "BurninBoxConfiguration_v128",
"assigned" : "2023-04-07T16:20:30.024-0500"
}
},
{
"event" : "addConfiguration",
"timestamp" : "2023-04-14T10:53:44.338-0500",
"value" : {
"name" : "BurninBoxConfiguration_v129",
"assigned" : "2023-04-14T10:53:44.338-0500"
}
},
{
"event" : "addConfiguration",
"timestamp" : "2023-04-14T11:01:24.182-0500",
"value" : {
"name" : "BurninBoxConfiguration_v130",
"assigned" : "2023-04-14T11:01:24.182-0500"
}
},
{
"event" : "addConfiguration",
"timestamp" : "2023-04-14T11:05:26.241-0500",
"value" : {
"name" : "BurninBoxConfiguration_v131",
"assigned" : "2023-04-14T11:05:26.240-0500"
}
},
{
"event" : "addConfiguration",
"timestamp" : "2023-04-14T12:25:11.404-0500",
"value" : {
"name" : "BurninBoxConfiguration_v132",
"assigned" : "2023-04-14T12:25:11.404-0500"
}
},
{
"event" : "addConfiguration",
"timestamp" : "2023-04-14T14:03:27.293-0500",
"value" : {
"name" : "BurninBoxConfiguration_v133",
"assigned" : "2023-04-14T14:03:27.293-0500"
}
},
{
"event" : "addConfiguration",
"timestamp" : "2023-04-14T15:36:49.902-0500",
"value" : {
"name" : "BurninBoxConfiguration_v134",
"assigned" : "2023-04-14T15:36:49.902-0500"
}
},
{
"event" : "addConfiguration",
"timestamp" : "2023-04-14T15:57:04.579-0500",
"value" : {
"name" : "BurninBoxConfiguration_v135",
"assigned" : "2023-04-14T15:57:04.579-0500"
}
},
{
"event" : "addConfiguration",
"timestamp" : "2023-04-14T15:59:01.205-0500",
"value" : {
"name" : "BurninBoxConfiguration_v136",
"assigned" : "2023-04-14T15:59:01.205-0500"
}
},
{
"event" : "addConfiguration",
"timestamp" : "2023-04-14T16:18:33.068-0500",
"value" : {
"name" : "BurninBoxConfiguration_v137",
"assigned" : "2023-04-14T16:18:33.068-0500"
}
},
{
"event" : "addConfiguration",
"timestamp" : "2023-04-14T16:20:12.198-0500",
"value" : {
"name" : "BurninBoxConfiguration_v138",
"assigned" : "2023-04-14T16:20:12.198-0500"
}
},
{
"event" : "addConfiguration",
"timestamp" : "2023-04-17T15:51:49.312-0500",
"value" : {
"name" : "BurninBoxConfiguration_v139",
"assigned" : "2023-04-17T15:51:49.312-0500"
}
},
{
"event" : "addConfiguration",
"timestamp" : "2023-04-18T10:48:02.756-0500",
"value" : {
"name" : "BurninBoxConfiguration_v140",
"assigned" : "2023-04-18T10:48:02.756-0500"
}
},
{
"event" : "addConfiguration",
"timestamp" : "2023-04-18T12:02:41.821-0500",
"value" : {
"name" : "BurninBoxConfiguration_v141",
"assigned" : "2023-04-18T12:02:41.821-0500"
}
},
{
"event" : "addConfiguration",
"timestamp" : "2023-04-18T12:03:57.315-0500",
"value" : {
"name" : "BurninBoxConfiguration_v142",
"assigned" : "2023-04-18T12:03:57.315-0500"
}
},
{
"event" : "addConfiguration",
"timestamp" : "2023-04-18T13:48:32.309-0500",
"value" : {
"name" : "BurninBoxConfiguration_v143",
"assigned" : "2023-04-18T13:48:32.309-0500"
}
},
{
"event" : "addConfiguration",
"timestamp" : "2023-04-18T14:33:55.563-0500",
"value" : {
"name" : "BurninBoxConfiguration_v144",
"assigned" : "2023-04-18T14:33:55.563-0500"
}
},
{
"event" : "addConfiguration",
"timestamp" : "2023-04-18T16:14:32.028-0500",
"value" : {
"name" : "BurninBoxConfiguration_v145",
"assigned" : "2023-04-18T16:14:32.028-0500"
}
},
{
"event" : "addConfiguration",
"timestamp" : "2023-04-18T16:20:21.598-0500",
"value" : {
"name" : "BurninBoxConfiguration_v146",
"assigned" : "2023-04-18T16:20:21.598-0500"
}
},
{
"event" : "addConfiguration",
"timestamp" : "2023-04-21T15:02:48.491-0500",
"value" : {
"name" : "BurninBoxConfiguration_v147",
"assigned" : "2023-04-21T15:02:48.491-0500"
}
},
{
"event" : "addConfiguration",
"timestamp" : "2023-05-09T09:06:44.696-0500",
"value" : {
"name" : "BurninBoxConfiguration_v148",
"assigned" : "2023-05-09T09:06:44.696-0500"
}
},
{
"event" : "addConfiguration",
"timestamp" : "2023-05-11T08:26:02.811-0500",
"value" : {
"name" : "BurninBoxConfiguration_v149",
"assigned" : "2023-05-11T08:26:02.811-0500"
}
},
{
"event" : "addConfiguration",
"timestamp" : "2023-09-28T16:19:09.369+0200",
"value" : {
"name" : "BurninBoxConfiguration_v150",
"assigned" : "2023-09-28T16:19:09.368+0200"
}
}
],
"created" : "2018-09-06T17:34:14.206-0500"
},
"_id" : {
"$oid" : "3eb1340574b04303a974aa65"
},
"collection" : "RawDataSaverConsumerTable",
"aliases" : {
"active" : [

],
"history" : [

]
},
"runs" : [

],
"attachments" : [

],
"configtype" : "notprovided",
"configurations" : [
{
"name" : "BurninBoxConfig_v24",
"assigned" : "2019-07-19T15:24:15.928-0500"
},
{
"name" : "BurninBoxConfig_v25",
"assigned" : "2019-07-19T15:25:10.979-0500"
},
{
"name" : "BurninBoxConfig_v26",
"assigned" : "2019-07-24T14:34:10.459-0500"
},
{
"name" : "BurninBoxConfig_v27",
"assigned" : "2019-07-24T14:47:23.701-0500"
},
{
"name" : "BurninBoxConfig_v28",
"assigned" : "2019-07-24T14:48:41.194-0500"
},
{
"name" : "BurninBoxConfig_v29",
"assigned" : "2020-06-29T10:55:10.691-0500"
},
{
"name" : "BurninBoxConfig_v30",
"assigned" : "2020-06-29T11:05:39.985-0500"
},
{
"name" : "BurninBoxConfig_v31",
"assigned" : "2020-06-29T11:28:21.672-0500"
},
{
"name" : "BurninBoxConfig_v32",
"assigned" : "2020-07-24T10:58:17.913-0500"
},
{
"name" : "BurninBoxConfig_v33",
"assigned" : "2020-07-24T11:00:07.556-0500"
},
{
"name" : "BurninBoxConfig_v34",
"assigned" : "2020-07-24T11:56:06.268-0500"
},
{
"name" : "BurninBoxConfig_v35",
"assigned" : "2020-07-24T12:12:09.286-0500"
},
{
"name" : "BurninBoxConfig_v36",
"assigned" : "2020-07-24T12:16:35.787-0500"
},
{
"name" : "BurninBoxConfiguration_v0",
"assigned" : "2020-07-29T15:59:40.828-0500"
},
{
"name" : "BurninBoxConfiguration_v1",
"assigned" : "2020-07-30T11:42:27.460-0500"
},
{
"name" : "BurninBoxConfiguration_v2",
"assigned" : "2020-07-30T12:05:12.847-0500"
},
{
"name" : "BurninBoxConfiguration_v3",
"assigned" : "2020-09-02T11:30:04.552-0500"
},
{
"name" : "BurninBoxConfiguration_v4",
"assigned" : "2020-09-02T11:31:32.373-0500"
},
{
"name" : "BurninBoxConfiguration_v5",
"assigned" : "2020-09-02T15:08:51.330-0500"
},
{
"name" : "BurninBoxConfiguration_v6",
"assigned" : "2020-09-02T16:01:06.068-0500"
},
{
"name" : "BurninBoxConfiguration_v7",
"assigned" : "2020-09-02T16:05:19.482-0500"
},
{
"name" : "BurninBoxConfiguration_v8",
"assigned" : "2020-10-05T17:05:55.573-0500"
},
{
"name" : "BurninBoxConfiguration_v9",
"assigned" : "2020-10-05T17:09:48.615-0500"
},
{
"name" : "BurninBoxConfiguration_v10",
"assigned" : "2020-10-05T17:11:02.479-0500"
},
{
"name" : "BurninBoxConfiguration_v11",
"assigned" : "2020-10-05T17:39:04.128-0500"
},
{
"name" : "BurninBoxConfiguration_v12",
"assigned" : "2020-10-05T17:43:06.361-0500"
},
{
"name" : "BurninBoxConfiguration_v13",
"assigned" : "2020-10-09T14:43:40.302-0500"
},
{
"name" : "BurninBoxConfiguration_v14",
"assigned" : "2020-10-09T15:30:46.900-0500"
},
{
"name" : "BurninBoxConfiguration_v15",
"assigned" : "2020-10-12T10:14:43.790-0500"
},
{
"name" : "BurninBoxConfiguration_v16",
"assigned" : "2020-10-12T15:33:09.376-0500"
},
{
"name" : "BurninBoxConfiguration_v17",
"assigned" : "2020-10-19T16:16:02.921-0500"
},
{
"name" : "BurninBoxConfiguration_v18",
"assigned" : "2020-10-23T11:00:20.777-0500"
},
{
"name" : "BurninBoxConfiguration_v19",
"assigned" : "2020-10-26T11:51:21.761-0500"
},
{
"name" : "BurninBoxConfiguration_v20",
"assigned" : "2020-10-26T11:51:43.439-0500"
},
{
"name" : "BurninBoxConfiguration_v21",
"assigned" : "2020-10-26T11:56:42.871-0500"
},
{
"name" : "BurninBoxConfiguration_v22",
"assigned" : "2020-10-26T14:34:34.800-0500"
},
{
"name" : "BurninBoxConfiguration_v23",
"assigned" : "2020-10-26T14:53:01.721-0500"
},
{
"name" : "BurninBoxConfiguration_v24",
"assigned" : "2020-10-26T15:02:46.983-0500"
},
{
"name" : "BurninBoxConfiguration_v25",
"assigned" : "2020-10-27T17:42:10.787-0500"
},
{
"name" : "BurninBoxConfiguration_v26",
"assigned" : "2020-10-29T11:52:33.020-0500"
},
{
"name" : "BurninBoxConfiguration_v27",
"assigned" : "2020-10-29T11:54:26.743-0500"
},
{
"name" : "BurninBoxConfiguration_v28",
"assigned" : "2020-10-29T13:30:24.703-0500"
},
{
"name" : "BurninBoxConfiguration_v29",
"assigned" : "2020-10-29T13:45:56.097-0500"
},
{
"name" : "BurninBoxConfiguration_v30",
"assigned" : "2020-10-29T13:46:38.400-0500"
},
{
"name" : "BurninBoxConfiguration_v31",
"assigned" : "2020-10-29T13:48:03.013-0500"
},
{
"name" : "BurninBoxConfiguration_v32",
"assigned" : "2020-10-29T14:39:29.080-0500"
},
{
"name" : "BurninBoxConfiguration_v33",
"assigned" : "2021-06-30T16:17:52.045-0500"
},
{
"name" : "BurninBoxConfiguration_v34",
"assigned" : "2021-06-30T16:23:48.449-0500"
},
{
"name" : "BurninBoxConfiguration_v35",
"assigned" : "2021-07-08T14:06:14.298-0500"
},
{
"name" : "BurninBoxConfiguration_v36",
"assigned" : "2021-07-08T14:16:58.500-0500"
},
{
"name" : "BurninBoxConfiguration_v37",
"assigned" : "2021-07-08T16:20:45.088-0500"
},
{
"name" : "BurninBoxConfiguration_v38",
"assigned" : "2021-07-09T11:47:14.253-0500"
},
{
"name" : "BurninBoxConfiguration_v39",
"assigned" : "2021-07-09T11:48:46.356-0500"
},
{
"name" : "BurninBoxConfiguration_v40",
"assigned" : "2021-07-09T16:06:00.847-0500"
},
{
"name" : "BurninBoxConfiguration_v41",
"assigned" : "2021-07-12T11:04:55.825-0500"
},
{
"name" : "BurninBoxConfiguration_v42",
"assigned" : "2021-07-13T12:01:31.709-0500"
},
{
"name" : "BurninBoxConfiguration_v43",
"assigned" : "2021-07-13T12:22:06.180-0500"
},
{
"name" : "BurninBoxConfiguration_v44",
"assigned" : "2021-07-14T13:05:58.779-0500"
},
{
"name" : "BurninBoxConfiguration_v45",
"assigned" : "2021-07-14T14:26:04.964-0500"
},
{
"name" : "BurninBoxConfiguration_v46",
"assigned" : "2021-07-14T14:46:57.261-0500"
},
{
"name" : "BurninBoxConfiguration_v47",
"assigned" : "2021-07-14T15:24:34.151-0500"
},
{
"name" : "BurninBoxConfiguration_v48",
"assigned" : "2021-07-14T16:05:29.711-0500"
},
{
"name" : "BurninBoxConfiguration_v49",
"assigned" : "2021-07-14T16:15:41.401-0500"
},
{
"name" : "BurninBoxConfiguration_v50",
"assigned" : "2021-07-14T16:17:41.112-0500"
},
{
"name" : "BurninBoxConfiguration_v51",
"assigned" : "2021-07-15T11:50:34.157-0500"
},
{
"name" : "BurninBoxConfiguration_v52",
"assigned" : "2021-07-20T13:45:54.246-0500"
},
{
"name" : "BurninBoxConfiguration_v53",
"assigned" : "2021-07-20T16:41:42.481-0500"
},
{
"name" : "BurninBoxConfiguration_v54",
"assigned" : "2021-07-20T17:09:27.238-0500"
},
{
"name" : "BurninBoxConfiguration_v55",
"assigned" : "2021-07-20T17:28:40.402-0500"
},
{
"name" : "BurninBoxConfiguration_v56",
"assigned" : "2021-07-20T17:46:27.734-0500"
},
{
"name" : "BurninBoxConfiguration_v57",
"assigned" : "2021-07-21T11:50:02.252-0500"
},
{
"name" : "BurninBoxConfiguration_v58",
"assigned" : "2021-07-21T11:58:37.926-0500"
},
{
"name" : "BurninBoxConfiguration_v59",
"assigned" : "2021-07-21T11:59:33.699-0500"
},
{
"name" : "BurninBoxConfiguration_v60",
"assigned" : "2021-07-22T18:35:00.757-0500"
},
{
"name" : "BurninBoxConfiguration_v61",
"assigned" : "2021-07-23T12:33:57.048-0500"
},
{
"name" : "BurninBoxConfiguration_v62",
"assigned" : "2021-07-24T00:54:49.876-0500"
},
{
"name" : "BurninBoxConfiguration_v63",
"assigned" : "2021-07-24T12:12:51.413-0500"
},
{
"name" : "BurninBoxConfiguration_v64",
"assigned" : "2021-07-25T21:07:16.370-0500"
},
{
"name" : "BurninBoxConfiguration_v65",
"assigned" : "2021-07-26T07:43:12.273-0500"
},
{
"name" : "BurninBoxConfiguration_v66",
"assigned" : "2021-07-26T18:37:12.307-0500"
},
{
"name" : "BurninBoxConfiguration_v67",
"assigned" : "2021-07-27T08:25:41.084-0500"
},
{
"name" : "BurninBoxConfiguration_v68",
"assigned" : "2021-08-03T11:10:37.445-0500"
},
{
"name" : "BurninBoxConfiguration_v69",
"assigned" : "2021-08-04T12:21:57.889-0500"
},
{
"name" : "BurninBoxConfiguration_v70",
"assigned" : "2021-09-02T13:43:34.327-0500"
},
{
"name" : "BurninBoxConfiguration_v71",
"assigned" : "2021-09-02T14:03:37.197-0500"
},
{
"name" : "BurninBoxConfiguration_v72",
"assigned" : "2021-09-23T15:47:05.581-0500"
},
{
"name" : "BurninBoxConfiguration_v73",
"assigned" : "2021-09-23T15:47:42.511-0500"
},
{
"name" : "BurninBoxConfiguration_v74",
"assigned" : "2021-09-24T15:36:50.402-0500"
},
{
"name" : "BurninBoxConfiguration_v75",
"assigned" : "2021-09-24T15:53:23.406-0500"
},
{
"name" : "BurninBoxConfiguration_v76",
"assigned" : "2021-09-24T16:04:22.437-0500"
},
{
"name" : "BurninBoxConfiguration_v77",
"assigned" : "2021-09-24T16:28:07.209-0500"
},
{
"name" : "BurninBoxConfiguration_v78",
"assigned" : "2021-09-27T09:02:56.778-0500"
},
{
"name" : "BurninBoxConfiguration_v79",
"assigned" : "2021-09-27T14:22:25.054-0500"
},
{
"name" : "BurninBoxConfiguration_v80",
"assigned" : "2021-09-28T09:24:50.926-0500"
},
{
"name" : "BurninBoxConfiguration_v81",
"assigned" : "2021-09-30T09:14:51.278-0500"
},
{
"name" : "BurninBoxConfiguration_v82",
"assigned" : "2021-10-01T10:56:21.730-0500"
},
{
"name" : "BurninBoxConfiguration_v83",
"assigned" : "2021-10-01T11:01:41.352-0500"
},
{
"name" : "BurninBoxConfiguration_v84",
"assigned" : "2021-10-06T10:02:31.650-0500"
},
{
"name" : "BurninBoxConfiguration_v85",
"assigned" : "2021-10-07T16:32:40.783-0500"
},
{
"name" : "BurninBoxConfiguration_v86",
"assigned" : "2021-10-08T14:03:15.656-0500"
},
{
"name" : "BurninBoxConfiguration_v87",
"assigned" : "2021-10-11T16:00:56.637-0500"
},
{
"name" : "BurninBoxConfiguration_v88",
"assigned" : "2021-10-12T09:07:17.813-0500"
},
{
"name" : "BurninBoxConfiguration_v89",
"assigned" : "2021-10-12T11:11:23.525-0500"
},
{
"name" : "BurninBoxConfiguration_v90",
"assigned" : "2021-10-14T17:03:16.926-0500"
},
{
"name" : "BurninBoxConfiguration_v91",
"assigned" : "2021-10-15T10:48:31.649-0500"
},
{
"name" : "BurninBoxConfiguration_v92",
"assigned" : "2021-10-15T15:50:49.644-0500"
},
{
"name" : "BurninBoxConfiguration_v93",
"assigned" : "2021-11-03T16:30:20.466-0500"
},
{
"name" : "BurninBoxConfiguration_v94",
"assigned" : "2021-11-10T15:11:02.892-0600"
},
{
"name" : "BurninBoxConfiguration_v95",
"assigned" : "2022-04-19T14:35:56.753-0400"
},
{
"name" : "BurninBoxConfiguration_v96",
"assigned" : "2022-04-20T10:06:05.727-0400"
},
{
"name" : "BurninBoxConfiguration_v97",
"assigned" : "2022-04-20T11:23:52.454-0400"
},
{
"name" : "BurninBoxConfiguration_v98",
"assigned" : "2022-06-03T14:30:16.747-0500"
},
{
"name" : "BurninBoxConfiguration_v99",
"assigned" : "2022-06-03T14:34:09.610-0500"
},
{
"name" : "BurninBoxConfiguration_v100",
"assigned" : "2022-06-07T14:59:59.820-0500"
},
{
"name" : "BurninBoxConfiguration_v101",
"assigned" : "2022-06-07T15:05:54.072-0500"
},
{
"name" : "BurninBoxConfiguration_v102",
"assigned" : "2022-06-07T16:09:18.079-0500"
},
{
"name" : "BurninBoxConfiguration_v103",
"assigned" : "2022-06-10T10:17:26.340-0500"
},
{
"name" : "BurninBoxConfiguration_v104",
"assigned" : "2022-06-10T10:18:22.824-0500"
},
{
"name" : "BurninBoxConfiguration_v105",
"assigned" : "2022-06-13T14:13:01.555-0500"
},
{
"name" : "BurninBoxConfiguration_v106",
"assigned" : "2022-06-13T15:22:18.983-0500"
},
{
"name" : "BurninBoxConfiguration_v107",
"assigned" : "2022-06-21T15:37:15.109-0500"
},
{
"name" : "BurninBoxConfiguration_v108",
"assigned" : "2022-06-21T15:39:37.677-0500"
},
{
"name" : "BurninBoxConfiguration_v109",
"assigned" : "2022-06-30T12:02:32.153-0500"
},
{
"name" : "BurninBoxConfiguration_v110",
"assigned" : "2023-01-19T10:05:43.358-0600"
},
{
"name" : "BurninBoxConfiguration_v111",
"assigned" : "2023-01-19T10:08:20.258-0600"
},
{
"name" : "BurninBoxConfiguration_v112",
"assigned" : "2023-01-19T11:02:45.347-0600"
},
{
"name" : "BurninBoxConfiguration_v113",
"assigned" : "2023-01-20T11:51:31.354-0600"
},
{
"name" : "BurninBoxConfiguration_v114",
"assigned" : "2023-01-30T11:15:46.540-0600"
},
{
"name" : "BurninBoxConfiguration_v115",
"assigned" : "2023-03-01T10:10:34.331-0600"
},
{
"name" : "BurninBoxConfiguration_v116",
"assigned" : "2023-03-07T16:36:51.441-0600"
},
{
"name" : "BurninBoxConfiguration_v117",
"assigned" : "2023-03-09T15:31:32.279-0600"
},
{
"name" : "BurninBoxConfiguration_v118",
"assigned" : "2023-03-15T12:03:56.532-0500"
},
{
"name" : "BurninBoxConfiguration_v119",
"assigned" : "2023-03-16T14:10:41.406-0500"
},
{
"name" : "BurninBoxConfiguration_v120",
"assigned" : "2023-04-04T11:18:54.682-0500"
},
{
"name" : "BurninBoxConfiguration_v121",
"assigned" : "2023-04-04T11:19:17.771-0500"
},
{
"name" : "BurninBoxConfiguration_v122",
"assigned" : "2023-04-04T11:23:01.357-0500"
},
{
"name" : "BurninBoxConfiguration_v123",
"assigned" : "2023-04-04T13:48:52.284-0500"
},
{
"name" : "BurninBoxConfiguration_v124",
"assigned" : "2023-04-04T13:51:59.416-0500"
},
{
"name" : "BurninBoxConfiguration_v125",
"assigned" : "2023-04-04T14:31:01.204-0500"
},
{
"name" : "BurninBoxConfiguration_v126",
"assigned" : "2023-04-04T16:05:04.897-0500"
},
{
"name" : "BurninBoxConfiguration_v127",
"assigned" : "2023-04-07T10:09:32.822-0500"
},
{
"name" : "BurninBoxConfiguration_v128",
"assigned" : "2023-04-07T16:20:30.024-0500"
},
{
"name" : "BurninBoxConfiguration_v129",
"assigned" : "2023-04-14T10:53:44.338-0500"
},
{
"name" : "BurninBoxConfiguration_v130",
"assigned" : "2023-04-14T11:01:24.182-0500"
},
{
"name" : "BurninBoxConfiguration_v131",
"assigned" : "2023-04-14T11:05:26.240-0500"
},
{
"name" : "BurninBoxConfiguration_v132",
"assigned" : "2023-04-14T12:25:11.404-0500"
},
{
"name" : "BurninBoxConfiguration_v133",
"assigned" : "2023-04-14T14:03:27.293-0500"
},
{
"name" : "BurninBoxConfiguration_v134",
"assigned" : "2023-04-14T15:36:49.902-0500"
},
{
"name" : "BurninBoxConfiguration_v135",
"assigned" : "2023-04-14T15:57:04.579-0500"
},
{
"name" : "BurninBoxConfiguration_v136",
"assigned" : "2023-04-14T15:59:01.205-0500"
},
{
"name" : "BurninBoxConfiguration_v137",
"assigned" : "2023-04-14T16:18:33.068-0500"
},
{
"name" : "BurninBoxConfiguration_v138",
"assigned" : "2023-04-14T16:20:12.198-0500"
},
{
"name" : "BurninBoxConfiguration_v139",
"assigned" : "2023-04-17T15:51:49.312-0500"
},
{
"name" : "BurninBoxConfiguration_v140",
"assigned" : "2023-04-18T10:48:02.756-0500"
},
{
"name" : "BurninBoxConfiguration_v141",
"assigned" : "2023-04-18T12:02:41.821-0500"
},
{
"name" : "BurninBoxConfiguration_v142",
"assigned" : "2023-04-18T12:03:57.315-0500"
},
{
"name" : "BurninBoxConfiguration_v143",
"assigned" : "2023-04-18T13:48:32.309-0500"
},
{
"name" : "BurninBoxConfiguration_v144",
"assigned" : "2023-04-18T14:33:55.563-0500"
},
{
"name" : "BurninBoxConfiguration_v145",
"assigned" : "2023-04-18T16:14:32.028-0500"
},
{
"name" : "BurninBoxConfiguration_v146",
"assigned" : "2023-04-18T16:20:21.598-0500"
},
{
"name" : "BurninBoxConfiguration_v147",
"assigned" : "2023-04-21T15:02:48.491-0500"
},
{
"name" : "BurninBoxConfiguration_v148",
"assigned" : "2023-05-09T09:06:44.696-0500"
},
{
"name" : "BurninBoxConfiguration_v149",
"assigned" : "2023-05-11T08:26:02.811-0500"
},
{
"name" : "BurninBoxConfiguration_v150",
"assigned" : "2023-09-28T16:19:09.368+0200"
}
]
}