{
"ouid" : [
"8051000924a746fbb8285aa7",
"989854a1077446b084e93fda",
"aa9d5f21ed434dfa94856029"
],
"version" : {
"0" : [
"8051000924a746fbb8285aa7"
],
"1" : [
"aa9d5f21ed434dfa94856029"
],
"2" : [
"989854a1077446b084e93fda"
]
},
"configurations.name" : {
"notprovided" : [
"8051000924a746fbb8285aa7",
"989854a1077446b084e93fda",
"aa9d5f21ed434dfa94856029"
],
"BurninBoxConfiguration_v11" : [
"aa9d5f21ed434dfa94856029"
],
"BurninBoxConfiguration_v12" : [
"aa9d5f21ed434dfa94856029"
],
"BurninBoxConfiguration_v13" : [
"aa9d5f21ed434dfa94856029"
],
"BurninBoxConfiguration_v14" : [
"aa9d5f21ed434dfa94856029"
],
"BurninBoxConfiguration_v15" : [
"aa9d5f21ed434dfa94856029"
],
"BurninBoxConfiguration_v16" : [
"aa9d5f21ed434dfa94856029"
],
"BurninBoxConfiguration_v17" : [
"aa9d5f21ed434dfa94856029"
],
"BurninBoxConfiguration_v18" : [
"aa9d5f21ed434dfa94856029"
],
"BurninBoxConfiguration_v19" : [
"aa9d5f21ed434dfa94856029"
],
"BurninBoxConfiguration_v20" : [
"aa9d5f21ed434dfa94856029"
],
"BurninBoxConfiguration_v21" : [
"aa9d5f21ed434dfa94856029"
],
"BurninBoxConfiguration_v22" : [
"aa9d5f21ed434dfa94856029"
],
"BurninBoxConfiguration_v23" : [
"aa9d5f21ed434dfa94856029"
],
"BurninBoxConfiguration_v24" : [
"aa9d5f21ed434dfa94856029"
],
"BurninBoxConfiguration_v25" : [
"aa9d5f21ed434dfa94856029"
],
"BurninBoxConfiguration_v26" : [
"aa9d5f21ed434dfa94856029"
],
"BurninBoxConfiguration_v27" : [
"989854a1077446b084e93fda"
],
"BurninBoxConfiguration_v28" : [
"989854a1077446b084e93fda"
],
"BurninBoxConfiguration_v29" : [
"989854a1077446b084e93fda"
],
"BurninBoxConfiguration_v30" : [
"989854a1077446b084e93fda"
],
"BurninBoxConfiguration_v31" : [
"989854a1077446b084e93fda"
],
"BurninBoxConfiguration_v32" : [
"989854a1077446b084e93fda"
],
"BurninBoxConfiguration_v33" : [
"989854a1077446b084e93fda"
],
"BurninBoxConfiguration_v34" : [
"989854a1077446b084e93fda"
],
"BurninBoxConfiguration_v35" : [
"989854a1077446b084e93fda"
],
"BurninBoxConfiguration_v36" : [
"989854a1077446b084e93fda"
],
"BurninBoxConfiguration_v37" : [
"989854a1077446b084e93fda"
],
"BurninBoxConfiguration_v38" : [
"989854a1077446b084e93fda"
],
"BurninBoxConfiguration_v39" : [
"989854a1077446b084e93fda"
],
"BurninBoxConfiguration_v40" : [
"989854a1077446b084e93fda"
],
"BurninBoxConfiguration_v41" : [
"989854a1077446b084e93fda"
],
"BurninBoxConfiguration_v42" : [
"989854a1077446b084e93fda"
],
"BurninBoxConfiguration_v43" : [
"989854a1077446b084e93fda"
],
"BurninBoxConfiguration_v44" : [
"989854a1077446b084e93fda"
],
"BurninBoxConfiguration_v45" : [
"989854a1077446b084e93fda"
],
"BurninBoxConfiguration_v46" : [
"989854a1077446b084e93fda"
],
"BurninBoxConfiguration_v47" : [
"989854a1077446b084e93fda"
],
"BurninBoxConfiguration_v48" : [
"989854a1077446b084e93fda"
],
"BurninBoxConfiguration_v49" : [
"989854a1077446b084e93fda"
],
"BurninBoxConfiguration_v50" : [
"989854a1077446b084e93fda"
],
"BurninBoxConfiguration_v51" : [
"989854a1077446b084e93fda"
],
"BurninBoxConfiguration_v52" : [
"989854a1077446b084e93fda"
],
"BurninBoxConfiguration_v53" : [
"989854a1077446b084e93fda"
],
"BurninBoxConfiguration_v54" : [
"989854a1077446b084e93fda"
],
"BurninBoxConfiguration_v55" : [
"989854a1077446b084e93fda"
],
"BurninBoxConfiguration_v56" : [
"989854a1077446b084e93fda"
],
"BurninBoxConfiguration_v57" : [
"989854a1077446b084e93fda"
],
"BurninBoxConfiguration_v58" : [
"989854a1077446b084e93fda"
],
"BurninBoxConfiguration_v59" : [
"989854a1077446b084e93fda"
],
"BurninBoxConfiguration_v60" : [
"989854a1077446b084e93fda"
],
"BurninBoxConfiguration_v61" : [
"989854a1077446b084e93fda"
],
"BurninBoxConfiguration_v62" : [
"989854a1077446b084e93fda"
],
"BurninBoxConfiguration_v63" : [
"989854a1077446b084e93fda"
],
"BurninBoxConfiguration_v64" : [
"989854a1077446b084e93fda"
],
"BurninBoxConfiguration_v65" : [
"989854a1077446b084e93fda"
],
"BurninBoxConfiguration_v66" : [
"989854a1077446b084e93fda"
],
"BurninBoxConfiguration_v67" : [
"989854a1077446b084e93fda"
],
"BurninBoxConfiguration_v68" : [
"989854a1077446b084e93fda"
],
"BurninBoxConfiguration_v69" : [
"989854a1077446b084e93fda"
],
"BurninBoxConfiguration_v70" : [
"989854a1077446b084e93fda"
],
"BurninBoxConfiguration_v71" : [
"989854a1077446b084e93fda"
],
"BurninBoxConfiguration_v72" : [
"989854a1077446b084e93fda"
],
"BurninBoxConfiguration_v73" : [
"989854a1077446b084e93fda"
],
"BurninBoxConfiguration_v74" : [
"989854a1077446b084e93fda"
],
"BurninBoxConfiguration_v75" : [
"989854a1077446b084e93fda"
],
"BurninBoxConfiguration_v76" : [
"989854a1077446b084e93fda"
],
"BurninBoxConfiguration_v77" : [
"989854a1077446b084e93fda"
],
"BurninBoxConfiguration_v78" : [
"989854a1077446b084e93fda"
],
"BurninBoxConfiguration_v79" : [
"989854a1077446b084e93fda"
],
"BurninBoxConfiguration_v80" : [
"989854a1077446b084e93fda"
],
"BurninBoxConfiguration_v81" : [
"989854a1077446b084e93fda"
],
"BurninBoxConfiguration_v82" : [
"989854a1077446b084e93fda"
],
"BurninBoxConfiguration_v83" : [
"989854a1077446b084e93fda"
],
"BurninBoxConfiguration_v84" : [
"989854a1077446b084e93fda"
],
"BurninBoxConfiguration_v85" : [
"989854a1077446b084e93fda"
],
"BurninBoxConfiguration_v86" : [
"989854a1077446b084e93fda"
],
"BurninBoxConfiguration_v87" : [
"989854a1077446b084e93fda"
],
"BurninBoxConfiguration_v88" : [
"989854a1077446b084e93fda"
],
"BurninBoxConfiguration_v89" : [
"989854a1077446b084e93fda"
],
"BurninBoxConfiguration_v90" : [
"989854a1077446b084e93fda"
],
"BurninBoxConfiguration_v91" : [
"989854a1077446b084e93fda"
],
"BurninBoxConfiguration_v92" : [
"989854a1077446b084e93fda"
],
"BurninBoxConfiguration_v93" : [
"989854a1077446b084e93fda"
],
"BurninBoxConfiguration_v94" : [
"989854a1077446b084e93fda"
],
"BurninBoxConfiguration_v95" : [
"989854a1077446b084e93fda"
],
"BurninBoxConfiguration_v96" : [
"989854a1077446b084e93fda"
],
"BurninBoxConfiguration_v97" : [
"989854a1077446b084e93fda"
],
"BurninBoxConfiguration_v98" : [
"989854a1077446b084e93fda"
],
"BurninBoxConfiguration_v99" : [
"989854a1077446b084e93fda"
],
"BurninBoxConfiguration_v100" : [
"989854a1077446b084e93fda"
],
"BurninBoxConfiguration_v101" : [
"989854a1077446b084e93fda"
],
"BurninBoxConfiguration_v102" : [
"989854a1077446b084e93fda"
],
"BurninBoxConfiguration_v103" : [
"989854a1077446b084e93fda"
],
"BurninBoxConfiguration_v104" : [
"989854a1077446b084e93fda"
],
"BurninBoxConfiguration_v105" : [
"989854a1077446b084e93fda"
],
"BurninBoxConfiguration_v106" : [
"989854a1077446b084e93fda"
],
"BurninBoxConfiguration_v107" : [
"989854a1077446b084e93fda"
],
"BurninBoxConfiguration_v108" : [
"989854a1077446b084e93fda"
],
"BurninBoxConfiguration_v109" : [
"989854a1077446b084e93fda"
],
"BurninBoxConfiguration_v110" : [
"989854a1077446b084e93fda"
],
"BurninBoxConfiguration_v111" : [
"989854a1077446b084e93fda"
],
"BurninBoxConfiguration_v112" : [
"989854a1077446b084e93fda"
],
"BurninBoxConfiguration_v113" : [
"989854a1077446b084e93fda"
],
"BurninBoxConfiguration_v114" : [
"989854a1077446b084e93fda"
],
"BurninBoxConfiguration_v115" : [
"989854a1077446b084e93fda"
],
"BurninBoxConfiguration_v116" : [
"989854a1077446b084e93fda"
]
},
"entities.name" : {
"OTSROOT" : [
"8051000924a746fbb8285aa7",
"989854a1077446b084e93fda",
"aa9d5f21ed434dfa94856029"
]
},
"aliases.active.name" : {

},
"runs.name" : {

},
"configurations.assigned" : {
"notprovided" : [
"2020-10-05T17:29:41.665-0500",
"2020-10-05T17:37:46.960-0500",
"2020-10-29T11:54:24.487-0500"
],
"BurninBoxConfiguration_v11" : [
"2020-10-05T17:39:03.650-0500"
],
"BurninBoxConfiguration_v12" : [
"2020-10-05T17:43:05.886-0500"
],
"BurninBoxConfiguration_v13" : [
"2020-10-09T14:43:39.828-0500"
],
"BurninBoxConfiguration_v14" : [
"2020-10-09T15:30:46.384-0500"
],
"BurninBoxConfiguration_v15" : [
"2020-10-12T10:14:43.284-0500"
],
"BurninBoxConfiguration_v16" : [
"2020-10-12T15:33:08.868-0500"
],
"BurninBoxConfiguration_v17" : [
"2020-10-19T16:16:02.381-0500"
],
"BurninBoxConfiguration_v18" : [
"2020-10-23T11:00:20.206-0500"
],
"BurninBoxConfiguration_v19" : [
"2020-10-26T11:51:21.191-0500"
],
"BurninBoxConfiguration_v20" : [
"2020-10-26T11:51:42.828-0500"
],
"BurninBoxConfiguration_v21" : [
"2020-10-26T11:56:42.291-0500"
],
"BurninBoxConfiguration_v22" : [
"2020-10-26T14:34:34.191-0500"
],
"BurninBoxConfiguration_v23" : [
"2020-10-26T14:53:01.140-0500"
],
"BurninBoxConfiguration_v24" : [
"2020-10-26T15:02:46.390-0500"
],
"BurninBoxConfiguration_v25" : [
"2020-10-27T17:42:10.195-0500"
],
"BurninBoxConfiguration_v26" : [
"2020-10-29T11:52:32.369-0500"
],
"BurninBoxConfiguration_v27" : [
"2020-10-29T11:54:26.147-0500"
],
"BurninBoxConfiguration_v28" : [
"2020-10-29T13:30:24.110-0500"
],
"BurninBoxConfiguration_v29" : [
"2020-10-29T13:45:55.544-0500"
],
"BurninBoxConfiguration_v30" : [
"2020-10-29T13:46:37.816-0500"
],
"BurninBoxConfiguration_v31" : [
"2020-10-29T13:48:02.450-0500"
],
"BurninBoxConfiguration_v32" : [
"2020-10-29T14:39:28.471-0500"
],
"BurninBoxConfiguration_v33" : [
"2021-06-30T16:17:51.455-0500"
],
"BurninBoxConfiguration_v34" : [
"2021-06-30T16:23:47.810-0500"
],
"BurninBoxConfiguration_v35" : [
"2021-07-08T14:06:13.729-0500"
],
"BurninBoxConfiguration_v36" : [
"2021-07-08T14:16:57.922-0500"
],
"BurninBoxConfiguration_v37" : [
"2021-07-08T16:20:44.459-0500"
],
"BurninBoxConfiguration_v38" : [
"2021-07-09T11:47:13.611-0500"
],
"BurninBoxConfiguration_v39" : [
"2021-07-09T11:48:45.749-0500"
],
"BurninBoxConfiguration_v40" : [
"2021-07-09T16:06:00.188-0500"
],
"BurninBoxConfiguration_v41" : [
"2021-07-12T11:04:55.169-0500"
],
"BurninBoxConfiguration_v42" : [
"2021-07-13T12:01:30.984-0500"
],
"BurninBoxConfiguration_v43" : [
"2021-07-13T12:22:05.517-0500"
],
"BurninBoxConfiguration_v44" : [
"2021-07-14T13:05:58.094-0500"
],
"BurninBoxConfiguration_v45" : [
"2021-07-14T14:26:04.246-0500"
],
"BurninBoxConfiguration_v46" : [
"2021-07-14T14:46:56.579-0500"
],
"BurninBoxConfiguration_v47" : [
"2021-07-14T15:24:33.394-0500"
],
"BurninBoxConfiguration_v48" : [
"2021-07-14T16:05:28.967-0500"
],
"BurninBoxConfiguration_v49" : [
"2021-07-14T16:15:40.594-0500"
],
"BurninBoxConfiguration_v50" : [
"2021-07-14T16:17:40.453-0500"
],
"BurninBoxConfiguration_v51" : [
"2021-07-15T11:50:33.425-0500"
],
"BurninBoxConfiguration_v52" : [
"2021-07-20T13:45:53.566-0500"
],
"BurninBoxConfiguration_v53" : [
"2021-07-20T16:41:41.744-0500"
],
"BurninBoxConfiguration_v54" : [
"2021-07-20T17:09:26.443-0500"
],
"BurninBoxConfiguration_v55" : [
"2021-07-20T17:28:39.642-0500"
],
"BurninBoxConfiguration_v56" : [
"2021-07-20T17:46:26.986-0500"
],
"BurninBoxConfiguration_v57" : [
"2021-07-21T11:50:01.544-0500"
],
"BurninBoxConfiguration_v58" : [
"2021-07-21T11:58:37.195-0500"
],
"BurninBoxConfiguration_v59" : [
"2021-07-21T11:59:32.923-0500"
],
"BurninBoxConfiguration_v60" : [
"2021-07-22T18:34:59.929-0500"
],
"BurninBoxConfiguration_v61" : [
"2021-07-23T12:33:56.277-0500"
],
"BurninBoxConfiguration_v62" : [
"2021-07-24T00:54:49.079-0500"
],
"BurninBoxConfiguration_v63" : [
"2021-07-24T12:12:50.656-0500"
],
"BurninBoxConfiguration_v64" : [
"2021-07-25T21:07:15.611-0500"
],
"BurninBoxConfiguration_v65" : [
"2021-07-26T07:43:11.474-0500"
],
"BurninBoxConfiguration_v66" : [
"2021-07-26T18:37:11.567-0500"
],
"BurninBoxConfiguration_v67" : [
"2021-07-27T08:25:40.254-0500"
],
"BurninBoxConfiguration_v68" : [
"2021-08-03T11:10:36.707-0500"
],
"BurninBoxConfiguration_v69" : [
"2021-08-04T12:21:57.063-0500"
],
"BurninBoxConfiguration_v70" : [
"2021-09-02T13:43:33.452-0500"
],
"BurninBoxConfiguration_v71" : [
"2021-09-02T14:03:36.293-0500"
],
"BurninBoxConfiguration_v72" : [
"2021-09-23T15:47:04.686-0500"
],
"BurninBoxConfiguration_v73" : [
"2021-09-23T15:47:41.664-0500"
],
"BurninBoxConfiguration_v74" : [
"2021-09-24T15:36:49.559-0500"
],
"BurninBoxConfiguration_v75" : [
"2021-09-24T15:53:22.529-0500"
],
"BurninBoxConfiguration_v76" : [
"2021-09-24T16:04:21.474-0500"
],
"BurninBoxConfiguration_v77" : [
"2021-09-24T16:28:06.319-0500"
],
"BurninBoxConfiguration_v78" : [
"2021-09-27T09:02:55.930-0500"
],
"BurninBoxConfiguration_v79" : [
"2021-09-27T14:22:24.249-0500"
],
"BurninBoxConfiguration_v80" : [
"2021-09-28T09:24:50.104-0500"
],
"BurninBoxConfiguration_v81" : [
"2021-09-30T09:14:50.404-0500"
],
"BurninBoxConfiguration_v82" : [
"2021-10-01T10:56:20.902-0500"
],
"BurninBoxConfiguration_v83" : [
"2021-10-01T11:01:40.534-0500"
],
"BurninBoxConfiguration_v84" : [
"2021-10-06T10:02:30.807-0500"
],
"BurninBoxConfiguration_v85" : [
"2021-10-07T16:32:39.909-0500"
],
"BurninBoxConfiguration_v86" : [
"2021-10-08T14:03:14.731-0500"
],
"BurninBoxConfiguration_v87" : [
"2021-10-11T16:00:55.567-0500"
],
"BurninBoxConfiguration_v88" : [
"2021-10-12T09:07:16.883-0500"
],
"BurninBoxConfiguration_v89" : [
"2021-10-12T11:11:22.556-0500"
],
"BurninBoxConfiguration_v90" : [
"2021-10-14T17:03:15.974-0500"
],
"BurninBoxConfiguration_v91" : [
"2021-10-15T10:48:30.756-0500"
],
"BurninBoxConfiguration_v92" : [
"2021-10-15T15:50:48.606-0500"
],
"BurninBoxConfiguration_v93" : [
"2021-11-03T16:30:19.523-0500"
],
"BurninBoxConfiguration_v94" : [
"2021-11-10T15:11:01.916-0600"
],
"BurninBoxConfiguration_v95" : [
"2022-04-19T14:35:56.001-0400"
],
"BurninBoxConfiguration_v96" : [
"2022-04-20T10:06:05.032-0400"
],
"BurninBoxConfiguration_v97" : [
"2022-04-20T11:23:51.750-0400"
],
"BurninBoxConfiguration_v98" : [
"2022-06-03T14:30:15.825-0500"
],
"BurninBoxConfiguration_v99" : [
"2022-06-03T14:34:08.712-0500"
],
"BurninBoxConfiguration_v100" : [
"2022-06-07T14:59:58.841-0500"
],
"BurninBoxConfiguration_v101" : [
"2022-06-07T15:05:53.071-0500"
],
"BurninBoxConfiguration_v102" : [
"2022-06-07T16:09:17.034-0500"
],
"BurninBoxConfiguration_v103" : [
"2022-06-10T10:17:25.386-0500"
],
"BurninBoxConfiguration_v104" : [
"2022-06-10T10:18:21.813-0500"
],
"BurninBoxConfiguration_v105" : [
"2022-06-13T14:13:00.610-0500"
],
"BurninBoxConfiguration_v106" : [
"2022-06-13T15:22:17.965-0500"
],
"BurninBoxConfiguration_v107" : [
"2022-06-21T15:37:14.125-0500"
],
"BurninBoxConfiguration_v108" : [
"2022-06-21T15:39:36.707-0500"
],
"BurninBoxConfiguration_v109" : [
"2022-06-30T12:02:31.115-0500"
],
"BurninBoxConfiguration_v110" : [
"2023-01-19T10:05:42.549-0600"
],
"BurninBoxConfiguration_v111" : [
"2023-01-19T10:08:19.186-0600"
],
"BurninBoxConfiguration_v112" : [
"2023-01-19T11:02:44.331-0600"
],
"BurninBoxConfiguration_v113" : [
"2023-01-20T11:51:30.302-0600"
],
"BurninBoxConfiguration_v114" : [
"2023-01-30T11:15:45.394-0600"
],
"BurninBoxConfiguration_v115" : [
"2023-03-01T10:10:33.308-0600"
],
"BurninBoxConfiguration_v116" : [
"2023-03-10T16:58:22.077+0100"
]
}
}