{
"document" : {
"data" : {
"NAME" : "BURNIN_BOX_CYCLE_TABLE",
"COMMENT" : "No comment.",
"AUTHOR" : "admin",
"CREATION_TIME" : 1602534787,
"COL_TYPES" : {
"BURNIN_BOX_CYCLE_GROUP_ID" : "STRING",
"TARGET_ID" : "STRING",
"IN_USE" : "STRING",
"SEQUENCE" : "NUMBER",
"TEMPERATURE" : "NUMBER",
"TIME_AT_TARGET" : "NUMBER",
"COMMENT_DESCRIPTION" : "STRING",
"AUTHOR" : "STRING",
"RECORD_INSERTION_TIME" : "TIMESTAMP WITH TIMEZONE"
},
"DATA_SET" : [
{
"BURNIN_BOX_CYCLE_GROUP_ID" : "ModuleTestingCycle",
"TARGET_ID" : "LowTemperature",
"IN_USE" : "Yes",
"SEQUENCE" : "1",
"TEMPERATURE" : "15",
"TIME_AT_TARGET" : "60",
"COMMENT_DESCRIPTION" : "No Comment",
"AUTHOR" : "admin",
"RECORD_INSERTION_TIME" : "1602534787"
},
{
"BURNIN_BOX_CYCLE_GROUP_ID" : "ModuleTestingCycle",
"TARGET_ID" : "HighTemperature",
"IN_USE" : "Yes",
"SEQUENCE" : "2",
"TEMPERATURE" : "20",
"TIME_AT_TARGET" : "0",
"COMMENT_DESCRIPTION" : "No Comment",
"AUTHOR" : "admin",
"RECORD_INSERTION_TIME" : "1602534787"
}
]
},
"metadata" : {

},
"search" : [

]
},
"comments" : [

],
"origin" : {
"source" : "template",
"name" : "notprovided",
"format" : "json",
"created" : "2020-10-12T15:33:07.477-0500",
"rawdata" : [

]
},
"version" : "2",
"entities" : [
{
"name" : "OTSROOT",
"assigned" : "2020-10-12T15:33:07.478-0500"
}
],
"configurations" : [
{
"name" : "notprovided",
"assigned" : "2020-10-12T15:33:07.477-0500"
},
{
"name" : "BurninBoxConfiguration_v16",
"assigned" : "2020-10-12T15:33:08.696-0500"
},
{
"name" : "BurninBoxConfiguration_v17",
"assigned" : "2020-10-19T16:16:02.187-0500"
}
],
"changelog" : "notprovided",
"bookkeeping" : {
"isdeleted" : false,
"isreadonly" : false,
"updates" : [
{
"event" : "addConfiguration",
"timestamp" : "2020-10-12T15:33:07.477-0500",
"value" : {
"name" : "notprovided",
"assigned" : "2020-10-12T15:33:07.477-0500"
}
},
{
"event" : "setVersion",
"timestamp" : "2020-10-12T15:33:07.478-0500",
"value" : {
"name" : "2",
"assigned" : "2020-10-12T15:33:07.478-0500"
}
},
{
"event" : "setCollection",
"timestamp" : "2020-10-12T15:33:07.478-0500",
"value" : {
"name" : "BurninBoxCycleTable",
"assigned" : "2020-10-12T15:33:07.478-0500"
}
},
{
"event" : "addEntity",
"timestamp" : "2020-10-12T15:33:07.478-0500",
"value" : {
"name" : "OTSROOT",
"assigned" : "2020-10-12T15:33:07.478-0500"
}
},
{
"event" : "addConfiguration",
"timestamp" : "2020-10-12T15:33:08.696-0500",
"value" : {
"name" : "BurninBoxConfiguration_v16",
"assigned" : "2020-10-12T15:33:08.696-0500"
}
},
{
"event" : "addConfiguration",
"timestamp" : "2020-10-19T16:16:02.187-0500",
"value" : {
"name" : "BurninBoxConfiguration_v17",
"assigned" : "2020-10-19T16:16:02.187-0500"
}
}
],
"created" : "2020-10-12T15:33:07.477-0500"
},
"_id" : {
"$oid" : "4dec5bb2a5d447b28b125828"
},
"collection" : "BurninBoxCycleTable",
"aliases" : {
"active" : [

],
"history" : [

]
},
"runs" : [

],
"attachments" : [

],
"configtype" : "notprovided"
}