{
"document" : {
"data" : {
"NAME" : "BURNIN_BOX_CYCLE_TABLE",
"COMMENT" : "Test cycle (2 cycles)",
"AUTHOR" : "admin",
"CREATION_TIME" : 1637348821,
"COL_TYPES" : {
"BURNIN_BOX_CYCLE_GROUP_ID" : "STRING",
"TARGET_ID" : "STRING",
"IN_USE" : "STRING",
"SEQUENCE" : "NUMBER",
"TEMPERATURE" : "NUMBER",
"TIME_AT_TARGET" : "NUMBER",
"COMMENT_DESCRIPTION" : "STRING",
"AUTHOR" : "STRING",
"RECORD_INSERTION_TIME" : "TIMESTAMP WITH TIMEZONE"
},
"DATA_SET" : [
{
"BURNIN_BOX_CYCLE_GROUP_ID" : "ModuleTestingCycle",
"TARGET_ID" : "LowTemperature",
"IN_USE" : "Yes",
"SEQUENCE" : "1",
"TEMPERATURE" : "-33",
"TIME_AT_TARGET" : "1800",
"COMMENT_DESCRIPTION" : "No Comment",
"AUTHOR" : "admin",
"RECORD_INSERTION_TIME" : "1630516626"
},
{
"BURNIN_BOX_CYCLE_GROUP_ID" : "ModuleTestingCycle",
"TARGET_ID" : "HighTemperature",
"IN_USE" : "Yes",
"SEQUENCE" : "2",
"TEMPERATURE" : "20",
"TIME_AT_TARGET" : "1800",
"COMMENT_DESCRIPTION" : "No Comment",
"AUTHOR" : "admin",
"RECORD_INSERTION_TIME" : "1630516626"
},
{
"BURNIN_BOX_CYCLE_GROUP_ID" : "ModuleTestingCycle",
"TARGET_ID" : "LowTemperature1",
"IN_USE" : "Yes",
"SEQUENCE" : "3",
"TEMPERATURE" : "-33",
"TIME_AT_TARGET" : "1800",
"COMMENT_DESCRIPTION" : "No Comment",
"AUTHOR" : "admin",
"RECORD_INSERTION_TIME" : "1630516626"
},
{
"BURNIN_BOX_CYCLE_GROUP_ID" : "ModuleTestingCycle",
"TARGET_ID" : "HighTemperature1",
"IN_USE" : "Yes",
"SEQUENCE" : "4",
"TEMPERATURE" : "20",
"TIME_AT_TARGET" : "1800",
"COMMENT_DESCRIPTION" : "No Comment",
"AUTHOR" : "admin",
"RECORD_INSERTION_TIME" : "1630516626"
},
{
"BURNIN_BOX_CYCLE_GROUP_ID" : "ModuleTestingCycle",
"TARGET_ID" : "StopTemperature",
"IN_USE" : "Yes",
"SEQUENCE" : "5",
"TEMPERATURE" : "20",
"TIME_AT_TARGET" : "0",
"COMMENT_DESCRIPTION" : "No Comment",
"AUTHOR" : "admin",
"RECORD_INSERTION_TIME" : "1637348821"
}
]
},
"metadata" : {

},
"search" : [

]
},
"comments" : [

],
"origin" : {
"source" : "template",
"name" : "notprovided",
"format" : "json",
"created" : "2021-11-19T14:07:01.156-0500",
"rawdata" : [

]
},
"version" : "34",
"entities" : [
{
"name" : "OTSROOT",
"assigned" : "2021-11-19T14:07:01.157-0500"
}
],
"configurations" : [
{
"name" : "notprovided",
"assigned" : "2021-11-19T14:07:01.157-0500"
},
{
"name" : "BurninBoxConfiguration_v82",
"assigned" : "2021-11-19T14:07:03.387-0500"
}
],
"changelog" : "notprovided",
"bookkeeping" : {
"isdeleted" : false,
"isreadonly" : false,
"updates" : [
{
"event" : "addConfiguration",
"timestamp" : "2021-11-19T14:07:01.157-0500",
"value" : {
"name" : "notprovided",
"assigned" : "2021-11-19T14:07:01.157-0500"
}
},
{
"event" : "setVersion",
"timestamp" : "2021-11-19T14:07:01.157-0500",
"value" : {
"name" : "34",
"assigned" : "2021-11-19T14:07:01.157-0500"
}
},
{
"event" : "setCollection",
"timestamp" : "2021-11-19T14:07:01.157-0500",
"value" : {
"name" : "BurninBoxCycleTable",
"assigned" : "2021-11-19T14:07:01.157-0500"
}
},
{
"event" : "addEntity",
"timestamp" : "2021-11-19T14:07:01.157-0500",
"value" : {
"name" : "OTSROOT",
"assigned" : "2021-11-19T14:07:01.157-0500"
}
},
{
"event" : "addConfiguration",
"timestamp" : "2021-11-19T14:07:03.387-0500",
"value" : {
"name" : "BurninBoxConfiguration_v82",
"assigned" : "2021-11-19T14:07:03.387-0500"
}
}
],
"created" : "2021-11-19T14:07:01.156-0500"
},
"_id" : {
"$oid" : "aecb89e3e91c4051a5732d85"
},
"collection" : "BurninBoxCycleTable",
"aliases" : {
"active" : [

],
"history" : [

]
},
"runs" : [

],
"attachments" : [

],
"configtype" : "notprovided"
}