{
"document" : {
"data" : {
"NAME" : "DQM_HISTOS_CONSUMER_TABLE",
"COMMENT" : "DQM for HW emulator.",
"AUTHOR" : "eflumerf",
"CREATION_TIME" : 1509384202,
"COL_TYPES" : {
"PROCESSOR_ID" : "VARCHAR2",
"SAVE_DQM_FILE" : "VARCHAR2",
"DQM_FILE_PATH" : "VARCHAR2",
"DQM_FILE_NAME_PREFIX" : "VARCHAR2",
"COMMENT_DESCRIPTION" : "VARCHAR2",
"AUTHOR" : "VARCHAR2",
"RECORD_INSERTION_TIME" : "TIMESTAMP WITH TIMEZONE"
},
"DATA_SET" : [
{
"PROCESSOR_ID" : "DQMHistos0",
"SAVE_DQM_FILE" : "Yes",
"DQM_FILE_PATH" : "${OTSDAQ_DATA}",
"DQM_FILE_NAME_PREFIX" : "DQMHistosRun",
"COMMENT_DESCRIPTION" : "DQM for hw emulator",
"AUTHOR" : "admin",
"RECORD_INSERTION_TIME" : "1501087901"
},
{
"PROCESSOR_ID" : "DQMHistos1",
"SAVE_DQM_FILE" : "Yes",
"DQM_FILE_PATH" : "/data/otsdaq/OutputData",
"DQM_FILE_NAME_PREFIX" : "DAMHistosRun",
"COMMENT_DESCRIPTION" : "No Comment",
"AUTHOR" : "eflumerf",
"RECORD_INSERTION_TIME" : "1509384180"
}
]
},
"metadata" : {

},
"search" : [

]
},
"comments" : [

],
"origin" : {
"source" : "template",
"name" : "notprovided",
"format" : "json",
"created" : "2018-09-06T17:34:13.886-0500",
"rawdata" : [

]
},
"version" : "0",
"entities" : [
{
"name" : "OTSROOT",
"assigned" : "2018-09-06T17:34:13.889-0500"
}
],
"tables" : [
{
"name" : "notprovided",
"assigned" : "2018-09-06T17:34:13.888-0500"
},
{
"name" : "BurninBoxConfig_v0",
"assigned" : "2018-09-06T17:34:14.472-0500"
},
{
"name" : "BurninBoxConfig_v1",
"assigned" : "2018-09-10T10:45:50.992-0500"
},
{
"name" : "BurninBoxConfig_v2",
"assigned" : "2018-09-10T11:24:18.404-0500"
},
{
"name" : "BurninBoxConfig_v3",
"assigned" : "2018-09-11T09:59:56.014-0500"
},
{
"name" : "BurninBoxConfig_v4",
"assigned" : "2018-09-11T10:01:19.106-0500"
},
{
"name" : "BurninBoxConfig_v5",
"assigned" : "2018-09-11T10:11:15.655-0500"
},
{
"name" : "BurninBoxConfig_v6",
"assigned" : "2018-09-12T12:16:43.399-0500"
},
{
"name" : "BurninBoxConfig_v7",
"assigned" : "2018-09-17T11:12:09.030-0500"
},
{
"name" : "BurninBoxConfig_v8",
"assigned" : "2018-09-17T13:53:33.067-0500"
},
{
"name" : "BurninBoxConfig_v9",
"assigned" : "2018-09-17T14:03:57.795-0500"
},
{
"name" : "BurninBoxConfig_v10",
"assigned" : "2018-09-18T15:31:02.137-0500"
},
{
"name" : "BurninBoxConfig_v11",
"assigned" : "2018-09-19T09:27:01.877-0500"
},
{
"name" : "BurninBoxConfig_v12",
"assigned" : "2018-09-19T10:08:01.710-0500"
},
{
"name" : "BurninBoxConfig_v13",
"assigned" : "2018-09-19T10:23:21.648-0500"
},
{
"name" : "BurninBoxConfig_v14",
"assigned" : "2018-09-19T11:22:21.013-0500"
},
{
"name" : "BurninBoxConfig_v15",
"assigned" : "2018-09-19T12:26:54.897-0500"
},
{
"name" : "BurninBoxConfig_v16",
"assigned" : "2018-09-20T14:22:26.970-0500"
},
{
"name" : "BurninBoxConfig_v17",
"assigned" : "2018-09-20T15:42:02.761-0500"
},
{
"name" : "BurninBoxConfig_v18",
"assigned" : "2018-09-21T11:16:28.775-0500"
},
{
"name" : "BurninBoxConfig_v19",
"assigned" : "2018-09-21T13:39:24.909-0500"
},
{
"name" : "BurninBoxConfig_v20",
"assigned" : "2018-09-21T13:39:48.831-0500"
},
{
"name" : "BurninBoxConfig_v21",
"assigned" : "2019-02-28T12:04:25.537-0600"
},
{
"name" : "BurninBoxConfig_v22",
"assigned" : "2019-02-28T12:05:07.958-0600"
},
{
"name" : "BurninBoxConfig_v23",
"assigned" : "2019-02-28T13:57:09.567-0600"
}
],
"changelog" : "notprovided",
"bookkeeping" : {
"isdeleted" : false,
"isreadonly" : false,
"updates" : [
{
"event" : "addTable",
"timestamp" : "2018-09-06T17:34:13.888-0500",
"value" : {
"name" : "notprovided",
"assigned" : "2018-09-06T17:34:13.888-0500"
}
},
{
"event" : "setVersion",
"timestamp" : "2018-09-06T17:34:13.888-0500",
"value" : {
"name" : "0",
"assigned" : "2018-09-06T17:34:13.888-0500"
}
},
{
"event" : "setCollection",
"timestamp" : "2018-09-06T17:34:13.888-0500",
"value" : {
"name" : "DQMHistosConsumerTable",
"assigned" : "2018-09-06T17:34:13.888-0500"
}
},
{
"event" : "addEntity",
"timestamp" : "2018-09-06T17:34:13.889-0500",
"value" : {
"name" : "OTSROOT",
"assigned" : "2018-09-06T17:34:13.889-0500"
}
},
{
"event" : "addTable",
"timestamp" : "2018-09-06T17:34:14.472-0500",
"value" : {
"name" : "BurninBoxConfig_v0",
"assigned" : "2018-09-06T17:34:14.472-0500"
}
},
{
"event" : "addTable",
"timestamp" : "2018-09-10T10:45:50.992-0500",
"value" : {
"name" : "BurninBoxConfig_v1",
"assigned" : "2018-09-10T10:45:50.992-0500"
}
},
{
"event" : "addTable",
"timestamp" : "2018-09-10T11:24:18.404-0500",
"value" : {
"name" : "BurninBoxConfig_v2",
"assigned" : "2018-09-10T11:24:18.404-0500"
}
},
{
"event" : "addTable",
"timestamp" : "2018-09-11T09:59:56.014-0500",
"value" : {
"name" : "BurninBoxConfig_v3",
"assigned" : "2018-09-11T09:59:56.014-0500"
}
},
{
"event" : "addTable",
"timestamp" : "2018-09-11T10:01:19.106-0500",
"value" : {
"name" : "BurninBoxConfig_v4",
"assigned" : "2018-09-11T10:01:19.106-0500"
}
},
{
"event" : "addTable",
"timestamp" : "2018-09-11T10:11:15.655-0500",
"value" : {
"name" : "BurninBoxConfig_v5",
"assigned" : "2018-09-11T10:11:15.655-0500"
}
},
{
"event" : "addTable",
"timestamp" : "2018-09-12T12:16:43.399-0500",
"value" : {
"name" : "BurninBoxConfig_v6",
"assigned" : "2018-09-12T12:16:43.399-0500"
}
},
{
"event" : "addTable",
"timestamp" : "2018-09-17T11:12:09.030-0500",
"value" : {
"name" : "BurninBoxConfig_v7",
"assigned" : "2018-09-17T11:12:09.030-0500"
}
},
{
"event" : "addTable",
"timestamp" : "2018-09-17T13:53:33.067-0500",
"value" : {
"name" : "BurninBoxConfig_v8",
"assigned" : "2018-09-17T13:53:33.067-0500"
}
},
{
"event" : "addTable",
"timestamp" : "2018-09-17T14:03:57.795-0500",
"value" : {
"name" : "BurninBoxConfig_v9",
"assigned" : "2018-09-17T14:03:57.795-0500"
}
},
{
"event" : "addTable",
"timestamp" : "2018-09-18T15:31:02.137-0500",
"value" : {
"name" : "BurninBoxConfig_v10",
"assigned" : "2018-09-18T15:31:02.137-0500"
}
},
{
"event" : "addTable",
"timestamp" : "2018-09-19T09:27:01.877-0500",
"value" : {
"name" : "BurninBoxConfig_v11",
"assigned" : "2018-09-19T09:27:01.877-0500"
}
},
{
"event" : "addTable",
"timestamp" : "2018-09-19T10:08:01.710-0500",
"value" : {
"name" : "BurninBoxConfig_v12",
"assigned" : "2018-09-19T10:08:01.710-0500"
}
},
{
"event" : "addTable",
"timestamp" : "2018-09-19T10:23:21.648-0500",
"value" : {
"name" : "BurninBoxConfig_v13",
"assigned" : "2018-09-19T10:23:21.648-0500"
}
},
{
"event" : "addTable",
"timestamp" : "2018-09-19T11:22:21.013-0500",
"value" : {
"name" : "BurninBoxConfig_v14",
"assigned" : "2018-09-19T11:22:21.013-0500"
}
},
{
"event" : "addTable",
"timestamp" : "2018-09-19T12:26:54.897-0500",
"value" : {
"name" : "BurninBoxConfig_v15",
"assigned" : "2018-09-19T12:26:54.897-0500"
}
},
{
"event" : "addTable",
"timestamp" : "2018-09-20T14:22:26.970-0500",
"value" : {
"name" : "BurninBoxConfig_v16",
"assigned" : "2018-09-20T14:22:26.970-0500"
}
},
{
"event" : "addTable",
"timestamp" : "2018-09-20T15:42:02.761-0500",
"value" : {
"name" : "BurninBoxConfig_v17",
"assigned" : "2018-09-20T15:42:02.761-0500"
}
},
{
"event" : "addTable",
"timestamp" : "2018-09-21T11:16:28.775-0500",
"value" : {
"name" : "BurninBoxConfig_v18",
"assigned" : "2018-09-21T11:16:28.775-0500"
}
},
{
"event" : "addTable",
"timestamp" : "2018-09-21T13:39:24.909-0500",
"value" : {
"name" : "BurninBoxConfig_v19",
"assigned" : "2018-09-21T13:39:24.909-0500"
}
},
{
"event" : "addTable",
"timestamp" : "2018-09-21T13:39:48.831-0500",
"value" : {
"name" : "BurninBoxConfig_v20",
"assigned" : "2018-09-21T13:39:48.831-0500"
}
},
{
"event" : "addTable",
"timestamp" : "2019-02-28T12:04:25.537-0600",
"value" : {
"name" : "BurninBoxConfig_v21",
"assigned" : "2019-02-28T12:04:25.537-0600"
}
},
{
"event" : "addTable",
"timestamp" : "2019-02-28T12:05:07.958-0600",
"value" : {
"name" : "BurninBoxConfig_v22",
"assigned" : "2019-02-28T12:05:07.958-0600"
}
},
{
"event" : "addTable",
"timestamp" : "2019-02-28T13:57:09.567-0600",
"value" : {
"name" : "BurninBoxConfig_v23",
"assigned" : "2019-02-28T13:57:09.567-0600"
}
},
{
"event" : "addConfiguration",
"timestamp" : "2019-07-19T15:24:15.628-0500",
"value" : {
"name" : "BurninBoxConfig_v24",
"assigned" : "2019-07-19T15:24:15.628-0500"
}
},
{
"event" : "addConfiguration",
"timestamp" : "2019-07-19T15:25:10.762-0500",
"value" : {
"name" : "BurninBoxConfig_v25",
"assigned" : "2019-07-19T15:25:10.762-0500"
}
},
{
"event" : "addConfiguration",
"timestamp" : "2019-07-24T14:34:10.228-0500",
"value" : {
"name" : "BurninBoxConfig_v26",
"assigned" : "2019-07-24T14:34:10.228-0500"
}
},
{
"event" : "addConfiguration",
"timestamp" : "2019-07-24T14:47:23.445-0500",
"value" : {
"name" : "BurninBoxConfig_v27",
"assigned" : "2019-07-24T14:47:23.445-0500"
}
},
{
"event" : "addConfiguration",
"timestamp" : "2019-07-24T14:48:40.924-0500",
"value" : {
"name" : "BurninBoxConfig_v28",
"assigned" : "2019-07-24T14:48:40.923-0500"
}
},
{
"event" : "addConfiguration",
"timestamp" : "2020-06-29T10:55:10.452-0500",
"value" : {
"name" : "BurninBoxConfig_v29",
"assigned" : "2020-06-29T10:55:10.451-0500"
}
},
{
"event" : "addConfiguration",
"timestamp" : "2020-06-29T11:05:39.731-0500",
"value" : {
"name" : "BurninBoxConfig_v30",
"assigned" : "2020-06-29T11:05:39.731-0500"
}
},
{
"event" : "addConfiguration",
"timestamp" : "2020-06-29T11:28:21.413-0500",
"value" : {
"name" : "BurninBoxConfig_v31",
"assigned" : "2020-06-29T11:28:21.413-0500"
}
},
{
"event" : "addConfiguration",
"timestamp" : "2020-07-24T10:58:17.645-0500",
"value" : {
"name" : "BurninBoxConfig_v32",
"assigned" : "2020-07-24T10:58:17.645-0500"
}
},
{
"event" : "addConfiguration",
"timestamp" : "2020-07-24T11:00:07.282-0500",
"value" : {
"name" : "BurninBoxConfig_v33",
"assigned" : "2020-07-24T11:00:07.282-0500"
}
},
{
"event" : "addConfiguration",
"timestamp" : "2020-07-24T11:56:05.996-0500",
"value" : {
"name" : "BurninBoxConfig_v34",
"assigned" : "2020-07-24T11:56:05.996-0500"
}
},
{
"event" : "addConfiguration",
"timestamp" : "2020-07-24T12:12:09.018-0500",
"value" : {
"name" : "BurninBoxConfig_v35",
"assigned" : "2020-07-24T12:12:09.018-0500"
}
},
{
"event" : "addConfiguration",
"timestamp" : "2020-07-24T12:16:35.514-0500",
"value" : {
"name" : "BurninBoxConfig_v36",
"assigned" : "2020-07-24T12:16:35.514-0500"
}
},
{
"event" : "addConfiguration",
"timestamp" : "2020-07-29T15:59:40.525-0500",
"value" : {
"name" : "BurninBoxConfiguration_v0",
"assigned" : "2020-07-29T15:59:40.525-0500"
}
},
{
"event" : "addConfiguration",
"timestamp" : "2020-07-30T11:42:27.154-0500",
"value" : {
"name" : "BurninBoxConfiguration_v1",
"assigned" : "2020-07-30T11:42:27.154-0500"
}
},
{
"event" : "addConfiguration",
"timestamp" : "2020-07-30T12:05:12.529-0500",
"value" : {
"name" : "BurninBoxConfiguration_v2",
"assigned" : "2020-07-30T12:05:12.529-0500"
}
},
{
"event" : "addConfiguration",
"timestamp" : "2020-09-02T11:30:04.262-0500",
"value" : {
"name" : "BurninBoxConfiguration_v3",
"assigned" : "2020-09-02T11:30:04.262-0500"
}
},
{
"event" : "addConfiguration",
"timestamp" : "2020-09-02T11:31:32.082-0500",
"value" : {
"name" : "BurninBoxConfiguration_v4",
"assigned" : "2020-09-02T11:31:32.082-0500"
}
},
{
"event" : "addConfiguration",
"timestamp" : "2020-09-02T15:08:50.996-0500",
"value" : {
"name" : "BurninBoxConfiguration_v5",
"assigned" : "2020-09-02T15:08:50.996-0500"
}
},
{
"event" : "addConfiguration",
"timestamp" : "2020-09-02T16:01:05.755-0500",
"value" : {
"name" : "BurninBoxConfiguration_v6",
"assigned" : "2020-09-02T16:01:05.754-0500"
}
},
{
"event" : "addConfiguration",
"timestamp" : "2020-09-02T16:05:19.193-0500",
"value" : {
"name" : "BurninBoxConfiguration_v7",
"assigned" : "2020-09-02T16:05:19.193-0500"
}
},
{
"event" : "addConfiguration",
"timestamp" : "2020-10-05T17:05:55.239-0500",
"value" : {
"name" : "BurninBoxConfiguration_v8",
"assigned" : "2020-10-05T17:05:55.239-0500"
}
},
{
"event" : "addConfiguration",
"timestamp" : "2020-10-05T17:09:48.271-0500",
"value" : {
"name" : "BurninBoxConfiguration_v9",
"assigned" : "2020-10-05T17:09:48.271-0500"
}
},
{
"event" : "addConfiguration",
"timestamp" : "2020-10-05T17:11:02.132-0500",
"value" : {
"name" : "BurninBoxConfiguration_v10",
"assigned" : "2020-10-05T17:11:02.132-0500"
}
},
{
"event" : "addConfiguration",
"timestamp" : "2020-10-05T17:39:03.691-0500",
"value" : {
"name" : "BurninBoxConfiguration_v11",
"assigned" : "2020-10-05T17:39:03.691-0500"
}
},
{
"event" : "addConfiguration",
"timestamp" : "2020-10-05T17:43:05.924-0500",
"value" : {
"name" : "BurninBoxConfiguration_v12",
"assigned" : "2020-10-05T17:43:05.924-0500"
}
},
{
"event" : "addConfiguration",
"timestamp" : "2020-10-09T14:43:39.866-0500",
"value" : {
"name" : "BurninBoxConfiguration_v13",
"assigned" : "2020-10-09T14:43:39.866-0500"
}
},
{
"event" : "addConfiguration",
"timestamp" : "2020-10-09T15:30:46.425-0500",
"value" : {
"name" : "BurninBoxConfiguration_v14",
"assigned" : "2020-10-09T15:30:46.425-0500"
}
},
{
"event" : "addConfiguration",
"timestamp" : "2020-10-12T10:14:43.324-0500",
"value" : {
"name" : "BurninBoxConfiguration_v15",
"assigned" : "2020-10-12T10:14:43.324-0500"
}
},
{
"event" : "addConfiguration",
"timestamp" : "2020-10-12T15:33:08.909-0500",
"value" : {
"name" : "BurninBoxConfiguration_v16",
"assigned" : "2020-10-12T15:33:08.909-0500"
}
},
{
"event" : "addConfiguration",
"timestamp" : "2020-10-19T16:16:02.432-0500",
"value" : {
"name" : "BurninBoxConfiguration_v17",
"assigned" : "2020-10-19T16:16:02.432-0500"
}
},
{
"event" : "addConfiguration",
"timestamp" : "2020-10-23T11:00:20.257-0500",
"value" : {
"name" : "BurninBoxConfiguration_v18",
"assigned" : "2020-10-23T11:00:20.257-0500"
}
},
{
"event" : "addConfiguration",
"timestamp" : "2020-10-26T11:51:21.245-0500",
"value" : {
"name" : "BurninBoxConfiguration_v19",
"assigned" : "2020-10-26T11:51:21.245-0500"
}
},
{
"event" : "addConfiguration",
"timestamp" : "2020-10-26T11:51:42.882-0500",
"value" : {
"name" : "BurninBoxConfiguration_v20",
"assigned" : "2020-10-26T11:51:42.882-0500"
}
},
{
"event" : "addConfiguration",
"timestamp" : "2020-10-26T11:56:42.331-0500",
"value" : {
"name" : "BurninBoxConfiguration_v21",
"assigned" : "2020-10-26T11:56:42.331-0500"
}
},
{
"event" : "addConfiguration",
"timestamp" : "2020-10-26T14:34:34.234-0500",
"value" : {
"name" : "BurninBoxConfiguration_v22",
"assigned" : "2020-10-26T14:34:34.234-0500"
}
},
{
"event" : "addConfiguration",
"timestamp" : "2020-10-26T14:53:01.190-0500",
"value" : {
"name" : "BurninBoxConfiguration_v23",
"assigned" : "2020-10-26T14:53:01.190-0500"
}
},
{
"event" : "addConfiguration",
"timestamp" : "2020-10-26T15:02:46.440-0500",
"value" : {
"name" : "BurninBoxConfiguration_v24",
"assigned" : "2020-10-26T15:02:46.440-0500"
}
},
{
"event" : "addConfiguration",
"timestamp" : "2020-10-27T17:42:10.245-0500",
"value" : {
"name" : "BurninBoxConfiguration_v25",
"assigned" : "2020-10-27T17:42:10.244-0500"
}
},
{
"event" : "addConfiguration",
"timestamp" : "2020-10-29T11:52:32.415-0500",
"value" : {
"name" : "BurninBoxConfiguration_v26",
"assigned" : "2020-10-29T11:52:32.415-0500"
}
},
{
"event" : "addConfiguration",
"timestamp" : "2020-10-29T11:54:26.202-0500",
"value" : {
"name" : "BurninBoxConfiguration_v27",
"assigned" : "2020-10-29T11:54:26.202-0500"
}
},
{
"event" : "addConfiguration",
"timestamp" : "2020-10-29T13:30:24.163-0500",
"value" : {
"name" : "BurninBoxConfiguration_v28",
"assigned" : "2020-10-29T13:30:24.163-0500"
}
}
],
"created" : "2018-09-06T17:34:13.886-0500"
},
"_id" : {
"$oid" : "f66f6984ef4144deae37506d"
},
"collection" : "DQMHistosConsumerTable",
"aliases" : {
"active" : [

],
"history" : [

]
},
"runs" : [

],
"attachments" : [

],
"configtype" : "notprovided",
"configurations" : [
{
"name" : "BurninBoxConfig_v24",
"assigned" : "2019-07-19T15:24:15.628-0500"
},
{
"name" : "BurninBoxConfig_v25",
"assigned" : "2019-07-19T15:25:10.762-0500"
},
{
"name" : "BurninBoxConfig_v26",
"assigned" : "2019-07-24T14:34:10.228-0500"
},
{
"name" : "BurninBoxConfig_v27",
"assigned" : "2019-07-24T14:47:23.445-0500"
},
{
"name" : "BurninBoxConfig_v28",
"assigned" : "2019-07-24T14:48:40.923-0500"
},
{
"name" : "BurninBoxConfig_v29",
"assigned" : "2020-06-29T10:55:10.451-0500"
},
{
"name" : "BurninBoxConfig_v30",
"assigned" : "2020-06-29T11:05:39.731-0500"
},
{
"name" : "BurninBoxConfig_v31",
"assigned" : "2020-06-29T11:28:21.413-0500"
},
{
"name" : "BurninBoxConfig_v32",
"assigned" : "2020-07-24T10:58:17.645-0500"
},
{
"name" : "BurninBoxConfig_v33",
"assigned" : "2020-07-24T11:00:07.282-0500"
},
{
"name" : "BurninBoxConfig_v34",
"assigned" : "2020-07-24T11:56:05.996-0500"
},
{
"name" : "BurninBoxConfig_v35",
"assigned" : "2020-07-24T12:12:09.018-0500"
},
{
"name" : "BurninBoxConfig_v36",
"assigned" : "2020-07-24T12:16:35.514-0500"
},
{
"name" : "BurninBoxConfiguration_v0",
"assigned" : "2020-07-29T15:59:40.525-0500"
},
{
"name" : "BurninBoxConfiguration_v1",
"assigned" : "2020-07-30T11:42:27.154-0500"
},
{
"name" : "BurninBoxConfiguration_v2",
"assigned" : "2020-07-30T12:05:12.529-0500"
},
{
"name" : "BurninBoxConfiguration_v3",
"assigned" : "2020-09-02T11:30:04.262-0500"
},
{
"name" : "BurninBoxConfiguration_v4",
"assigned" : "2020-09-02T11:31:32.082-0500"
},
{
"name" : "BurninBoxConfiguration_v5",
"assigned" : "2020-09-02T15:08:50.996-0500"
},
{
"name" : "BurninBoxConfiguration_v6",
"assigned" : "2020-09-02T16:01:05.754-0500"
},
{
"name" : "BurninBoxConfiguration_v7",
"assigned" : "2020-09-02T16:05:19.193-0500"
},
{
"name" : "BurninBoxConfiguration_v8",
"assigned" : "2020-10-05T17:05:55.239-0500"
},
{
"name" : "BurninBoxConfiguration_v9",
"assigned" : "2020-10-05T17:09:48.271-0500"
},
{
"name" : "BurninBoxConfiguration_v10",
"assigned" : "2020-10-05T17:11:02.132-0500"
},
{
"name" : "BurninBoxConfiguration_v11",
"assigned" : "2020-10-05T17:39:03.691-0500"
},
{
"name" : "BurninBoxConfiguration_v12",
"assigned" : "2020-10-05T17:43:05.924-0500"
},
{
"name" : "BurninBoxConfiguration_v13",
"assigned" : "2020-10-09T14:43:39.866-0500"
},
{
"name" : "BurninBoxConfiguration_v14",
"assigned" : "2020-10-09T15:30:46.425-0500"
},
{
"name" : "BurninBoxConfiguration_v15",
"assigned" : "2020-10-12T10:14:43.324-0500"
},
{
"name" : "BurninBoxConfiguration_v16",
"assigned" : "2020-10-12T15:33:08.909-0500"
},
{
"name" : "BurninBoxConfiguration_v17",
"assigned" : "2020-10-19T16:16:02.432-0500"
},
{
"name" : "BurninBoxConfiguration_v18",
"assigned" : "2020-10-23T11:00:20.257-0500"
},
{
"name" : "BurninBoxConfiguration_v19",
"assigned" : "2020-10-26T11:51:21.245-0500"
},
{
"name" : "BurninBoxConfiguration_v20",
"assigned" : "2020-10-26T11:51:42.882-0500"
},
{
"name" : "BurninBoxConfiguration_v21",
"assigned" : "2020-10-26T11:56:42.331-0500"
},
{
"name" : "BurninBoxConfiguration_v22",
"assigned" : "2020-10-26T14:34:34.234-0500"
},
{
"name" : "BurninBoxConfiguration_v23",
"assigned" : "2020-10-26T14:53:01.190-0500"
},
{
"name" : "BurninBoxConfiguration_v24",
"assigned" : "2020-10-26T15:02:46.440-0500"
},
{
"name" : "BurninBoxConfiguration_v25",
"assigned" : "2020-10-27T17:42:10.244-0500"
},
{
"name" : "BurninBoxConfiguration_v26",
"assigned" : "2020-10-29T11:52:32.415-0500"
},
{
"name" : "BurninBoxConfiguration_v27",
"assigned" : "2020-10-29T11:54:26.202-0500"
},
{
"name" : "BurninBoxConfiguration_v28",
"assigned" : "2020-10-29T13:30:24.163-0500"
}
]
}