{
"document" : {
"data" : {
"NAME" : "FECMS_BURNIN_BOX_INTERFACE_TABLE",
"COMMENT" : "No comment.",
"AUTHOR" : "admin",
"CREATION_TIME" : 1599080344,
"COL_TYPES" : {
"INTERFACE_ID" : "STRING",
"STATUS" : "STRING",
"INTERFACE_IP_ADDRESS" : "STRING",
"INTERFACE_PORT" : "NUMBER",
"HOST_IP_ADDRESS" : "STRING",
"HOST_PORT" : "NUMBER",
"DATA_PUBLISHER_PORT" : "NUMBER",
"LINK_TO_BURNIN_BOX_CYCLE_TABLE" : "STRING",
"LINK_TO_BURNIN_BOX_CYCLE_GROUP_ID" : "STRING",
"COMMENT_DESCRIPTION" : "STRING",
"AUTHOR" : "STRING",
"RECORD_INSERTION_TIME" : "TIMESTAMP WITH TIMEZONE"
},
"DATA_SET" : [
{
"INTERFACE_ID" : "FEBurninBoxInterface0",
"STATUS" : "On",
"INTERFACE_IP_ADDRESS" : "192.168.0.101",
"INTERFACE_PORT" : "5001",
"HOST_IP_ADDRESS" : "127.0.0.1",
"HOST_PORT" : "10000",
"DATA_PUBLISHER_PORT" : "50000",
"LINK_TO_BURNIN_BOX_CYCLE_TABLE" : "BurninBoxCycleTable",
"LINK_TO_BURNIN_BOX_CYCLE_GROUP_ID" : "ModuleTestingCycle",
"COMMENT_DESCRIPTION" : "No Comment",
"AUTHOR" : "admin",
"RECORD_INSERTION_TIME" : "1599080344"
}
]
},
"metadata" : {

},
"search" : [

]
},
"comments" : [

],
"origin" : {
"source" : "template",
"name" : "notprovided",
"format" : "json",
"created" : "2020-09-02T15:59:04.323-0500",
"rawdata" : [

]
},
"version" : "30",
"entities" : [
{
"name" : "OTSROOT",
"assigned" : "2020-09-02T15:59:04.324-0500"
}
],
"configurations" : [
{
"name" : "notprovided",
"assigned" : "2020-09-02T15:59:04.323-0500"
},
{
"name" : "BurninBoxConfiguration_v6",
"assigned" : "2020-09-02T16:01:05.912-0500"
},
{
"name" : "BurninBoxConfiguration_v7",
"assigned" : "2020-09-02T16:05:19.340-0500"
}
],
"changelog" : "notprovided",
"bookkeeping" : {
"isdeleted" : false,
"isreadonly" : false,
"updates" : [
{
"event" : "addConfiguration",
"timestamp" : "2020-09-02T15:59:04.323-0500",
"value" : {
"name" : "notprovided",
"assigned" : "2020-09-02T15:59:04.323-0500"
}
},
{
"event" : "setVersion",
"timestamp" : "2020-09-02T15:59:04.323-0500",
"value" : {
"name" : "30",
"assigned" : "2020-09-02T15:59:04.323-0500"
}
},
{
"event" : "setCollection",
"timestamp" : "2020-09-02T15:59:04.323-0500",
"value" : {
"name" : "FECMSBurninBoxInterfaceTable",
"assigned" : "2020-09-02T15:59:04.323-0500"
}
},
{
"event" : "addEntity",
"timestamp" : "2020-09-02T15:59:04.324-0500",
"value" : {
"name" : "OTSROOT",
"assigned" : "2020-09-02T15:59:04.324-0500"
}
},
{
"event" : "addConfiguration",
"timestamp" : "2020-09-02T16:01:05.912-0500",
"value" : {
"name" : "BurninBoxConfiguration_v6",
"assigned" : "2020-09-02T16:01:05.912-0500"
}
},
{
"event" : "addConfiguration",
"timestamp" : "2020-09-02T16:05:19.340-0500",
"value" : {
"name" : "BurninBoxConfiguration_v7",
"assigned" : "2020-09-02T16:05:19.340-0500"
}
}
],
"created" : "2020-09-02T15:59:04.323-0500"
},
"_id" : {
"$oid" : "1b8e1d8f96b54e9a9ee91eb4"
},
"collection" : "FECMSBurninBoxInterfaceTable",
"aliases" : {
"active" : [

],
"history" : [

]
},
"runs" : [

],
"attachments" : [

],
"configtype" : "notprovided"
}