{
"document" : {
"data" : {
"NAME" : "BURNIN_BOX_CYCLE_TABLE",
"COMMENT" : "Debugging of thermal cycle error by going +20C to 0C.",
"AUTHOR" : "admin",
"CREATION_TIME" : 1629231370,
"COL_TYPES" : {
"BURNIN_BOX_CYCLE_GROUP_ID" : "STRING",
"TARGET_ID" : "STRING",
"IN_USE" : "STRING",
"SEQUENCE" : "NUMBER",
"TEMPERATURE" : "NUMBER",
"TIME_AT_TARGET" : "NUMBER",
"COMMENT_DESCRIPTION" : "STRING",
"AUTHOR" : "STRING",
"RECORD_INSERTION_TIME" : "TIMESTAMP WITH TIMEZONE"
},
"DATA_SET" : [
{
"BURNIN_BOX_CYCLE_GROUP_ID" : "ModuleTestingCycle",
"TARGET_ID" : "LowTemperature",
"IN_USE" : "Yes",
"SEQUENCE" : "1",
"TEMPERATURE" : "0",
"TIME_AT_TARGET" : "1800",
"COMMENT_DESCRIPTION" : "No Comment",
"AUTHOR" : "admin",
"RECORD_INSERTION_TIME" : "1629231370"
},
{
"BURNIN_BOX_CYCLE_GROUP_ID" : "ModuleTestingCycle",
"TARGET_ID" : "HighTemperature",
"IN_USE" : "Yes",
"SEQUENCE" : "2",
"TEMPERATURE" : "20",
"TIME_AT_TARGET" : "1800",
"COMMENT_DESCRIPTION" : "No Comment",
"AUTHOR" : "admin",
"RECORD_INSERTION_TIME" : "1629123741"
},
{
"BURNIN_BOX_CYCLE_GROUP_ID" : "ModuleTestingCycle",
"TARGET_ID" : "LowTemperature1",
"IN_USE" : "Yes",
"SEQUENCE" : "3",
"TEMPERATURE" : "0",
"TIME_AT_TARGET" : "1800",
"COMMENT_DESCRIPTION" : "No Comment",
"AUTHOR" : "admin",
"RECORD_INSERTION_TIME" : "1629231370"
},
{
"BURNIN_BOX_CYCLE_GROUP_ID" : "ModuleTestingCycle",
"TARGET_ID" : "HighTemperature1",
"IN_USE" : "Yes",
"SEQUENCE" : "4",
"TEMPERATURE" : "20",
"TIME_AT_TARGET" : "1800",
"COMMENT_DESCRIPTION" : "No Comment",
"AUTHOR" : "admin",
"RECORD_INSERTION_TIME" : "1629123741"
},
{
"BURNIN_BOX_CYCLE_GROUP_ID" : "ModuleTestingCycle",
"TARGET_ID" : "LowTemperature2",
"IN_USE" : "Yes",
"SEQUENCE" : "5",
"TEMPERATURE" : "0",
"TIME_AT_TARGET" : "1800",
"COMMENT_DESCRIPTION" : "No Comment",
"AUTHOR" : "admin",
"RECORD_INSERTION_TIME" : "1629231370"
},
{
"BURNIN_BOX_CYCLE_GROUP_ID" : "ModuleTestingCycle",
"TARGET_ID" : "HighTemperature2",
"IN_USE" : "Yes",
"SEQUENCE" : "6",
"TEMPERATURE" : "20",
"TIME_AT_TARGET" : "1800",
"COMMENT_DESCRIPTION" : "No Comment",
"AUTHOR" : "admin",
"RECORD_INSERTION_TIME" : "1629123741"
},
{
"BURNIN_BOX_CYCLE_GROUP_ID" : "ModuleTestingCycle",
"TARGET_ID" : "LowTemperature3",
"IN_USE" : "Yes",
"SEQUENCE" : "7",
"TEMPERATURE" : "0",
"TIME_AT_TARGET" : "1800",
"COMMENT_DESCRIPTION" : "No Comment",
"AUTHOR" : "admin",
"RECORD_INSERTION_TIME" : "1629231370"
},
{
"BURNIN_BOX_CYCLE_GROUP_ID" : "ModuleTestingCycle",
"TARGET_ID" : "HighTemperature3",
"IN_USE" : "Yes",
"SEQUENCE" : "8",
"TEMPERATURE" : "20",
"TIME_AT_TARGET" : "1800",
"COMMENT_DESCRIPTION" : "No Comment",
"AUTHOR" : "admin",
"RECORD_INSERTION_TIME" : "1629123741"
},
{
"BURNIN_BOX_CYCLE_GROUP_ID" : "ModuleTestingCycle",
"TARGET_ID" : "LowTemperature4",
"IN_USE" : "Yes",
"SEQUENCE" : "9",
"TEMPERATURE" : "0",
"TIME_AT_TARGET" : "1800",
"COMMENT_DESCRIPTION" : "No Comment",
"AUTHOR" : "admin",
"RECORD_INSERTION_TIME" : "1629231370"
},
{
"BURNIN_BOX_CYCLE_GROUP_ID" : "ModuleTestingCycle",
"TARGET_ID" : "HighTemperature4",
"IN_USE" : "Yes",
"SEQUENCE" : "10",
"TEMPERATURE" : "20",
"TIME_AT_TARGET" : "1800",
"COMMENT_DESCRIPTION" : "No Comment",
"AUTHOR" : "admin",
"RECORD_INSERTION_TIME" : "1629123741"
},
{
"BURNIN_BOX_CYCLE_GROUP_ID" : "ModuleTestingCycle",
"TARGET_ID" : "StopTemperature",
"IN_USE" : "Yes",
"SEQUENCE" : "11",
"TEMPERATURE" : "20",
"TIME_AT_TARGET" : "0",
"COMMENT_DESCRIPTION" : "No Comment",
"AUTHOR" : "admin",
"RECORD_INSERTION_TIME" : "1629123741"
}
]
},
"metadata" : {

},
"search" : [

]
},
"comments" : [

],
"origin" : {
"source" : "template",
"name" : "notprovided",
"format" : "json",
"created" : "2021-08-17T16:16:10.120-0400",
"rawdata" : [

]
},
"version" : "24",
"entities" : [
{
"name" : "OTSROOT",
"assigned" : "2021-08-17T16:16:10.122-0400"
}
],
"configurations" : [
{
"name" : "notprovided",
"assigned" : "2021-08-17T16:16:10.121-0400"
},
{
"name" : "BurninBoxConfiguration_v72",
"assigned" : "2021-08-17T16:16:14.799-0400"
}
],
"changelog" : "notprovided",
"bookkeeping" : {
"isdeleted" : false,
"isreadonly" : false,
"updates" : [
{
"event" : "addConfiguration",
"timestamp" : "2021-08-17T16:16:10.121-0400",
"value" : {
"name" : "notprovided",
"assigned" : "2021-08-17T16:16:10.121-0400"
}
},
{
"event" : "setVersion",
"timestamp" : "2021-08-17T16:16:10.122-0400",
"value" : {
"name" : "24",
"assigned" : "2021-08-17T16:16:10.122-0400"
}
},
{
"event" : "setCollection",
"timestamp" : "2021-08-17T16:16:10.122-0400",
"value" : {
"name" : "BurninBoxCycleTable",
"assigned" : "2021-08-17T16:16:10.122-0400"
}
},
{
"event" : "addEntity",
"timestamp" : "2021-08-17T16:16:10.122-0400",
"value" : {
"name" : "OTSROOT",
"assigned" : "2021-08-17T16:16:10.122-0400"
}
},
{
"event" : "addConfiguration",
"timestamp" : "2021-08-17T16:16:14.799-0400",
"value" : {
"name" : "BurninBoxConfiguration_v72",
"assigned" : "2021-08-17T16:16:14.799-0400"
}
}
],
"created" : "2021-08-17T16:16:10.120-0400"
},
"_id" : {
"$oid" : "70ccede7477a40c8bab59f6b"
},
"collection" : "BurninBoxCycleTable",
"aliases" : {
"active" : [

],
"history" : [

]
},
"runs" : [

],
"attachments" : [

],
"configtype" : "notprovided"
}