{
"document" : {
"data" : {
"NAME" : "BURNIN_BOX_CYCLE_TABLE",
"COMMENT" : "No comment.",
"AUTHOR" : "admin",
"CREATION_TIME" : 1680625153,
"COL_TYPES" : {
"BURNIN_BOX_CYCLE_GROUP_ID" : "STRING",
"TARGET_ID" : "STRING",
"IN_USE" : "STRING",
"SEQUENCE" : "NUMBER",
"TEMPERATURE" : "NUMBER",
"TIME_AT_TARGET" : "NUMBER",
"COMMENT_DESCRIPTION" : "STRING",
"AUTHOR" : "STRING",
"RECORD_INSERTION_TIME" : "TIMESTAMP WITH TIMEZONE"
},
"DATA_SET" : [
{
"BURNIN_BOX_CYCLE_GROUP_ID" : "ModuleTestingCycle",
"TARGET_ID" : "LowTemperature",
"IN_USE" : "Yes",
"SEQUENCE" : "1",
"TEMPERATURE" : "20",
"TIME_AT_TARGET" : "300",
"COMMENT_DESCRIPTION" : "No Comment",
"AUTHOR" : "admin",
"RECORD_INSERTION_TIME" : "1678899832"
},
{
"BURNIN_BOX_CYCLE_GROUP_ID" : "ModuleTestingCycle",
"TARGET_ID" : "HighTemperature",
"IN_USE" : "Yes",
"SEQUENCE" : "2",
"TEMPERATURE" : "20",
"TIME_AT_TARGET" : "5",
"COMMENT_DESCRIPTION" : "No Comment",
"AUTHOR" : "admin",
"RECORD_INSERTION_TIME" : "1654284613"
},
{
"BURNIN_BOX_CYCLE_GROUP_ID" : "ModuleTestingCycle",
"TARGET_ID" : "StopTemperature",
"IN_USE" : "Yes",
"SEQUENCE" : "3",
"TEMPERATURE" : "20",
"TIME_AT_TARGET" : "-1",
"COMMENT_DESCRIPTION" : "No Comment",
"AUTHOR" : "admin",
"RECORD_INSERTION_TIME" : "1654284846"
},
{
"BURNIN_BOX_CYCLE_GROUP_ID" : "DEFAULT",
"TARGET_ID" : "StartTemperature",
"IN_USE" : "No",
"SEQUENCE" : "DEFAULT",
"TEMPERATURE" : "21",
"TIME_AT_TARGET" : "0",
"COMMENT_DESCRIPTION" : "No Comment",
"AUTHOR" : "admin",
"RECORD_INSERTION_TIME" : "1680625153"
}
]
},
"metadata" : {

},
"search" : [

]
},
"comments" : [

],
"origin" : {
"source" : "template",
"name" : "notprovided",
"format" : "json",
"created" : "2023-04-04T11:19:13.759-0500",
"rawdata" : [

]
},
"version" : "52",
"entities" : [
{
"name" : "OTSROOT",
"assigned" : "2023-04-04T11:19:13.760-0500"
}
],
"configurations" : [
{
"name" : "notprovided",
"assigned" : "2023-04-04T11:19:13.760-0500"
},
{
"name" : "BurninBoxConfiguration_v121",
"assigned" : "2023-04-04T11:19:16.436-0500"
}
],
"changelog" : "notprovided",
"bookkeeping" : {
"isdeleted" : false,
"isreadonly" : false,
"updates" : [
{
"event" : "addConfiguration",
"timestamp" : "2023-04-04T11:19:13.760-0500",
"value" : {
"name" : "notprovided",
"assigned" : "2023-04-04T11:19:13.760-0500"
}
},
{
"event" : "setVersion",
"timestamp" : "2023-04-04T11:19:13.760-0500",
"value" : {
"name" : "52",
"assigned" : "2023-04-04T11:19:13.760-0500"
}
},
{
"event" : "setCollection",
"timestamp" : "2023-04-04T11:19:13.760-0500",
"value" : {
"name" : "BurninBoxCycleTable",
"assigned" : "2023-04-04T11:19:13.760-0500"
}
},
{
"event" : "addEntity",
"timestamp" : "2023-04-04T11:19:13.760-0500",
"value" : {
"name" : "OTSROOT",
"assigned" : "2023-04-04T11:19:13.760-0500"
}
},
{
"event" : "addConfiguration",
"timestamp" : "2023-04-04T11:19:16.436-0500",
"value" : {
"name" : "BurninBoxConfiguration_v121",
"assigned" : "2023-04-04T11:19:16.436-0500"
}
}
],
"created" : "2023-04-04T11:19:13.759-0500"
},
"_id" : {
"$oid" : "a79a811de72e47a8b0a1d31c"
},
"collection" : "BurninBoxCycleTable",
"aliases" : {
"active" : [

],
"history" : [

]
},
"runs" : [

],
"attachments" : [

],
"configtype" : "notprovided"
}