{
"document" : {
"data" : {
"NAME" : "BURNIN_BOX_CYCLE_TABLE",
"COMMENT" : "No comment.",
"AUTHOR" : "admin",
"CREATION_TIME" : 1681507208,
"COL_TYPES" : {
"BURNIN_BOX_CYCLE_GROUP_ID" : "STRING",
"TARGET_ID" : "STRING",
"IN_USE" : "STRING",
"SEQUENCE" : "NUMBER",
"TEMPERATURE" : "NUMBER",
"TIME_AT_TARGET" : "NUMBER",
"COMMENT_DESCRIPTION" : "STRING",
"AUTHOR" : "STRING",
"RECORD_INSERTION_TIME" : "TIMESTAMP WITH TIMEZONE"
},
"DATA_SET" : [
{
"BURNIN_BOX_CYCLE_GROUP_ID" : "ModuleTestingCycle",
"TARGET_ID" : "StartTemperature",
"IN_USE" : "Yes",
"SEQUENCE" : "10",
"TEMPERATURE" : "20",
"TIME_AT_TARGET" : "900",
"COMMENT_DESCRIPTION" : "No Comment",
"AUTHOR" : "admin",
"RECORD_INSERTION_TIME" : "1681507208"
},
{
"BURNIN_BOX_CYCLE_GROUP_ID" : "ModuleTestingCycle",
"TARGET_ID" : "LowTemperature",
"IN_USE" : "Yes",
"SEQUENCE" : "20",
"TEMPERATURE" : "-35",
"TIME_AT_TARGET" : "900",
"COMMENT_DESCRIPTION" : "No Comment",
"AUTHOR" : "admin",
"RECORD_INSERTION_TIME" : "1681507208"
},
{
"BURNIN_BOX_CYCLE_GROUP_ID" : "ModuleTestingCycle",
"TARGET_ID" : "HighTemperature",
"IN_USE" : "Yes",
"SEQUENCE" : "30",
"TEMPERATURE" : "20",
"TIME_AT_TARGET" : "900",
"COMMENT_DESCRIPTION" : "No Comment",
"AUTHOR" : "admin",
"RECORD_INSERTION_TIME" : "1681507208"
},
{
"BURNIN_BOX_CYCLE_GROUP_ID" : "ModuleTestingCycle",
"TARGET_ID" : "StopTemperature",
"IN_USE" : "Yes",
"SEQUENCE" : "40",
"TEMPERATURE" : "20",
"TIME_AT_TARGET" : "-1",
"COMMENT_DESCRIPTION" : "No Comment",
"AUTHOR" : "admin",
"RECORD_INSERTION_TIME" : "1680625376"
}
]
},
"metadata" : {

},
"search" : [

]
},
"comments" : [

],
"origin" : {
"source" : "template",
"name" : "notprovided",
"format" : "json",
"created" : "2023-04-14T16:20:08.071-0500",
"rawdata" : [

]
},
"version" : "55",
"entities" : [
{
"name" : "OTSROOT",
"assigned" : "2023-04-14T16:20:08.071-0500"
}
],
"configurations" : [
{
"name" : "notprovided",
"assigned" : "2023-04-14T16:20:08.071-0500"
},
{
"name" : "BurninBoxConfiguration_v138",
"assigned" : "2023-04-14T16:20:10.780-0500"
}
],
"changelog" : "notprovided",
"bookkeeping" : {
"isdeleted" : false,
"isreadonly" : false,
"updates" : [
{
"event" : "addConfiguration",
"timestamp" : "2023-04-14T16:20:08.071-0500",
"value" : {
"name" : "notprovided",
"assigned" : "2023-04-14T16:20:08.071-0500"
}
},
{
"event" : "setVersion",
"timestamp" : "2023-04-14T16:20:08.071-0500",
"value" : {
"name" : "55",
"assigned" : "2023-04-14T16:20:08.071-0500"
}
},
{
"event" : "setCollection",
"timestamp" : "2023-04-14T16:20:08.071-0500",
"value" : {
"name" : "BurninBoxCycleTable",
"assigned" : "2023-04-14T16:20:08.071-0500"
}
},
{
"event" : "addEntity",
"timestamp" : "2023-04-14T16:20:08.071-0500",
"value" : {
"name" : "OTSROOT",
"assigned" : "2023-04-14T16:20:08.071-0500"
}
},
{
"event" : "addConfiguration",
"timestamp" : "2023-04-14T16:20:10.780-0500",
"value" : {
"name" : "BurninBoxConfiguration_v138",
"assigned" : "2023-04-14T16:20:10.780-0500"
}
}
],
"created" : "2023-04-14T16:20:08.071-0500"
},
"_id" : {
"$oid" : "cc5958cb7ac0489ba3ec56c6"
},
"collection" : "BurninBoxCycleTable",
"aliases" : {
"active" : [

],
"history" : [

]
},
"runs" : [

],
"attachments" : [

],
"configtype" : "notprovided"
}