{
"document" : {
"data" : {
"NAME" : "TABLE_GROUP_METADATA",
"COMMENT" : "",
"AUTHOR" : "",
"CREATION_TIME" : 1528236848,
"COL_TYPES" : {
"UNUSED_UID" : "NUMBER",
"GROUP_ALIASES" : "STRING",
"COMMENT_DESCRIPTION" : "STRING",
"AUTHOR" : "STRING",
"GROUP_CREATION_TIME" : "TIMESTAMP WITH TIMEZONE"
},
"DATA_SET" : [
{
"UNUSED_UID" : "0",
"GROUP_ALIASES" : "",
"COMMENT_DESCRIPTION" : "",
"AUTHOR" : "admin",
"GROUP_CREATION_TIME" : "1677687042"
}
]
},
"metadata" : {

},
"search" : [

]
},
"comments" : [

],
"origin" : {
"source" : "template",
"name" : "notprovided",
"format" : "json",
"created" : "2023-03-01T10:10:42.663-0600",
"rawdata" : [

]
},
"version" : "577",
"entities" : [
{
"name" : "OTSROOT",
"assigned" : "2023-03-01T10:10:42.664-0600"
}
],
"configurations" : [
{
"name" : "notprovided",
"assigned" : "2023-03-01T10:10:42.664-0600"
},
{
"name" : "GroupAliasTreeEditWizBackbone_v116",
"assigned" : "2023-03-01T10:10:42.814-0600"
}
],
"changelog" : "notprovided",
"bookkeeping" : {
"isdeleted" : false,
"isreadonly" : false,
"updates" : [
{
"event" : "addConfiguration",
"timestamp" : "2023-03-01T10:10:42.664-0600",
"value" : {
"name" : "notprovided",
"assigned" : "2023-03-01T10:10:42.664-0600"
}
},
{
"event" : "setVersion",
"timestamp" : "2023-03-01T10:10:42.664-0600",
"value" : {
"name" : "577",
"assigned" : "2023-03-01T10:10:42.664-0600"
}
},
{
"event" : "setCollection",
"timestamp" : "2023-03-01T10:10:42.664-0600",
"value" : {
"name" : "TableGroupMetadata",
"assigned" : "2023-03-01T10:10:42.664-0600"
}
},
{
"event" : "addEntity",
"timestamp" : "2023-03-01T10:10:42.664-0600",
"value" : {
"name" : "OTSROOT",
"assigned" : "2023-03-01T10:10:42.664-0600"
}
},
{
"event" : "addConfiguration",
"timestamp" : "2023-03-01T10:10:42.814-0600",
"value" : {
"name" : "GroupAliasTreeEditWizBackbone_v116",
"assigned" : "2023-03-01T10:10:42.814-0600"
}
}
],
"created" : "2023-03-01T10:10:42.663-0600"
},
"_id" : {
"$oid" : "98788d31e3d84af3a3b9b917"
},
"collection" : "TableGroupMetadata",
"aliases" : {
"active" : [

],
"history" : [

]
},
"runs" : [

],
"attachments" : [

],
"configtype" : "notprovided"
}