{
"document" : {
"data" : {
"NAME" : "POWER_SUPPLY_TO_DETECTOR_TABLE",
"COMMENT" : "No comment.",
"AUTHOR" : "admin",
"CREATION_TIME" : 1626821185,
"COL_TYPES" : {
"FE_INTERFACE_GROUP_ID" : "STRING",
"CHANNEL_UID" : "STRING",
"LINK_TO_CHANNEL_TABLE" : "STRING",
"LINK_TO_CHANNEL_UID" : "STRING",
"CHANNEL_GROUP" : "STRING",
"CHANNEL_TYPE" : "STRING",
"TURN_ON_SEQUENCE" : "NUMBER",
"TURN_OFF_SEQUENCE" : "NUMBER",
"COMMENT_DESCRIPTION" : "STRING",
"AUTHOR" : "STRING",
"RECORD_INSERTION_TIME" : "TIMESTAMP WITH TIMEZONE"
},
"DATA_SET" : [
{
"FE_INTERFACE_GROUP_ID" : "BurninBox",
"CHANNEL_UID" : "Module1L_LV",
"LINK_TO_CHANNEL_TABLE" : "CAENPowerSupplyChannelTable",
"LINK_TO_CHANNEL_UID" : "Module1L_LV",
"CHANNEL_GROUP" : "Module1Left",
"CHANNEL_TYPE" : "LV",
"TURN_ON_SEQUENCE" : "1",
"TURN_OFF_SEQUENCE" : "0",
"COMMENT_DESCRIPTION" : "No Comment",
"AUTHOR" : "admin",
"RECORD_INSERTION_TIME" : "1626821185"
},
{
"FE_INTERFACE_GROUP_ID" : "BurninBox",
"CHANNEL_UID" : "Module1L_HV",
"LINK_TO_CHANNEL_TABLE" : "CAENPowerSupplyChannelTable",
"LINK_TO_CHANNEL_UID" : "Module1L_HV",
"CHANNEL_GROUP" : "Module1Left",
"CHANNEL_TYPE" : "HV",
"TURN_ON_SEQUENCE" : "0",
"TURN_OFF_SEQUENCE" : "1",
"COMMENT_DESCRIPTION" : "No Comment",
"AUTHOR" : "admin",
"RECORD_INSERTION_TIME" : "1626821185"
},
{
"FE_INTERFACE_GROUP_ID" : "BurninBox",
"CHANNEL_UID" : "Module2L_LV",
"LINK_TO_CHANNEL_TABLE" : "CAENPowerSupplyChannelTable",
"LINK_TO_CHANNEL_UID" : "Module2L_LV",
"CHANNEL_GROUP" : "Module2Left",
"CHANNEL_TYPE" : "LV",
"TURN_ON_SEQUENCE" : "1",
"TURN_OFF_SEQUENCE" : "0",
"COMMENT_DESCRIPTION" : "No Comment",
"AUTHOR" : "admin",
"RECORD_INSERTION_TIME" : "1626821185"
},
{
"FE_INTERFACE_GROUP_ID" : "BurninBox",
"CHANNEL_UID" : "Module2L_HV",
"LINK_TO_CHANNEL_TABLE" : "CAENPowerSupplyChannelTable",
"LINK_TO_CHANNEL_UID" : "Module2L_HV",
"CHANNEL_GROUP" : "Module2Left",
"CHANNEL_TYPE" : "HV",
"TURN_ON_SEQUENCE" : "0",
"TURN_OFF_SEQUENCE" : "1",
"COMMENT_DESCRIPTION" : "No Comment",
"AUTHOR" : "admin",
"RECORD_INSERTION_TIME" : "1626821185"
},
{
"FE_INTERFACE_GROUP_ID" : "BurninBox",
"CHANNEL_UID" : "Module3L_LV",
"LINK_TO_CHANNEL_TABLE" : "CAENPowerSupplyChannelTable",
"LINK_TO_CHANNEL_UID" : "Module3L_LV",
"CHANNEL_GROUP" : "Module3Left",
"CHANNEL_TYPE" : "LV",
"TURN_ON_SEQUENCE" : "1",
"TURN_OFF_SEQUENCE" : "0",
"COMMENT_DESCRIPTION" : "No Comment",
"AUTHOR" : "admin",
"RECORD_INSERTION_TIME" : "1626821185"
},
{
"FE_INTERFACE_GROUP_ID" : "BurninBox",
"CHANNEL_UID" : "Module3L_HV",
"LINK_TO_CHANNEL_TABLE" : "CAENPowerSupplyChannelTable",
"LINK_TO_CHANNEL_UID" : "Module3L_HV",
"CHANNEL_GROUP" : "Module3Left",
"CHANNEL_TYPE" : "HV",
"TURN_ON_SEQUENCE" : "0",
"TURN_OFF_SEQUENCE" : "1",
"COMMENT_DESCRIPTION" : "No Comment",
"AUTHOR" : "admin",
"RECORD_INSERTION_TIME" : "1626821185"
},
{
"FE_INTERFACE_GROUP_ID" : "BurninBox",
"CHANNEL_UID" : "Module4L_LV",
"LINK_TO_CHANNEL_TABLE" : "CAENPowerSupplyChannelTable",
"LINK_TO_CHANNEL_UID" : "Module4L_LV",
"CHANNEL_GROUP" : "Module4Left",
"CHANNEL_TYPE" : "LV",
"TURN_ON_SEQUENCE" : "1",
"TURN_OFF_SEQUENCE" : "0",
"COMMENT_DESCRIPTION" : "No Comment",
"AUTHOR" : "admin",
"RECORD_INSERTION_TIME" : "1626821185"
},
{
"FE_INTERFACE_GROUP_ID" : "BurninBox",
"CHANNEL_UID" : "Module4L_HV",
"LINK_TO_CHANNEL_TABLE" : "CAENPowerSupplyChannelTable",
"LINK_TO_CHANNEL_UID" : "Module4L_HV",
"CHANNEL_GROUP" : "Module4Left",
"CHANNEL_TYPE" : "HV",
"TURN_ON_SEQUENCE" : "0",
"TURN_OFF_SEQUENCE" : "1",
"COMMENT_DESCRIPTION" : "No Comment",
"AUTHOR" : "admin",
"RECORD_INSERTION_TIME" : "1626821185"
},
{
"FE_INTERFACE_GROUP_ID" : "BurninBox",
"CHANNEL_UID" : "Module5L_LV",
"LINK_TO_CHANNEL_TABLE" : "CAENPowerSupplyChannelTable",
"LINK_TO_CHANNEL_UID" : "Module5L_LV",
"CHANNEL_GROUP" : "Module5Left",
"CHANNEL_TYPE" : "LV",
"TURN_ON_SEQUENCE" : "1",
"TURN_OFF_SEQUENCE" : "0",
"COMMENT_DESCRIPTION" : "No Comment",
"AUTHOR" : "admin",
"RECORD_INSERTION_TIME" : "1626821185"
},
{
"FE_INTERFACE_GROUP_ID" : "BurninBox",
"CHANNEL_UID" : "Module5L_HV",
"LINK_TO_CHANNEL_TABLE" : "CAENPowerSupplyChannelTable",
"LINK_TO_CHANNEL_UID" : "Module5L_HV",
"CHANNEL_GROUP" : "Module5Left",
"CHANNEL_TYPE" : "HV",
"TURN_ON_SEQUENCE" : "0",
"TURN_OFF_SEQUENCE" : "1",
"COMMENT_DESCRIPTION" : "No Comment",
"AUTHOR" : "admin",
"RECORD_INSERTION_TIME" : "1626821185"
},
{
"FE_INTERFACE_GROUP_ID" : "BurninBox",
"CHANNEL_UID" : "Module1R_LV",
"LINK_TO_CHANNEL_TABLE" : "CAENPowerSupplyChannelTable",
"LINK_TO_CHANNEL_UID" : "Module1R_LV",
"CHANNEL_GROUP" : "Module1Right",
"CHANNEL_TYPE" : "LV",
"TURN_ON_SEQUENCE" : "1",
"TURN_OFF_SEQUENCE" : "0",
"COMMENT_DESCRIPTION" : "No Comment",
"AUTHOR" : "admin",
"RECORD_INSERTION_TIME" : "1626821185"
},
{
"FE_INTERFACE_GROUP_ID" : "BurninBox",
"CHANNEL_UID" : "Module1R_HV",
"LINK_TO_CHANNEL_TABLE" : "CAENPowerSupplyChannelTable",
"LINK_TO_CHANNEL_UID" : "Module1R_HV",
"CHANNEL_GROUP" : "Module1Right",
"CHANNEL_TYPE" : "HV",
"TURN_ON_SEQUENCE" : "0",
"TURN_OFF_SEQUENCE" : "1",
"COMMENT_DESCRIPTION" : "No Comment",
"AUTHOR" : "admin",
"RECORD_INSERTION_TIME" : "1626821185"
},
{
"FE_INTERFACE_GROUP_ID" : "BurninBox",
"CHANNEL_UID" : "Module2R_LV",
"LINK_TO_CHANNEL_TABLE" : "CAENPowerSupplyChannelTable",
"LINK_TO_CHANNEL_UID" : "Module2R_LV",
"CHANNEL_GROUP" : "Module2Right",
"CHANNEL_TYPE" : "LV",
"TURN_ON_SEQUENCE" : "1",
"TURN_OFF_SEQUENCE" : "0",
"COMMENT_DESCRIPTION" : "No Comment",
"AUTHOR" : "admin",
"RECORD_INSERTION_TIME" : "1626821185"
},
{
"FE_INTERFACE_GROUP_ID" : "BurninBox",
"CHANNEL_UID" : "Module2R_HV",
"LINK_TO_CHANNEL_TABLE" : "CAENPowerSupplyChannelTable",
"LINK_TO_CHANNEL_UID" : "Module2R_HV",
"CHANNEL_GROUP" : "Module2Right",
"CHANNEL_TYPE" : "HV",
"TURN_ON_SEQUENCE" : "0",
"TURN_OFF_SEQUENCE" : "1",
"COMMENT_DESCRIPTION" : "No Comment",
"AUTHOR" : "admin",
"RECORD_INSERTION_TIME" : "1626821185"
},
{
"FE_INTERFACE_GROUP_ID" : "BurninBox",
"CHANNEL_UID" : "Module3R_LV",
"LINK_TO_CHANNEL_TABLE" : "CAENPowerSupplyChannelTable",
"LINK_TO_CHANNEL_UID" : "Module3R_LV",
"CHANNEL_GROUP" : "Module3Right",
"CHANNEL_TYPE" : "LV",
"TURN_ON_SEQUENCE" : "1",
"TURN_OFF_SEQUENCE" : "0",
"COMMENT_DESCRIPTION" : "No Comment",
"AUTHOR" : "admin",
"RECORD_INSERTION_TIME" : "1626821185"
},
{
"FE_INTERFACE_GROUP_ID" : "BurninBox",
"CHANNEL_UID" : "Module3R_HV",
"LINK_TO_CHANNEL_TABLE" : "CAENPowerSupplyChannelTable",
"LINK_TO_CHANNEL_UID" : "Module3R_HV",
"CHANNEL_GROUP" : "Module3Right",
"CHANNEL_TYPE" : "HV",
"TURN_ON_SEQUENCE" : "0",
"TURN_OFF_SEQUENCE" : "1",
"COMMENT_DESCRIPTION" : "No Comment",
"AUTHOR" : "admin",
"RECORD_INSERTION_TIME" : "1626821185"
},
{
"FE_INTERFACE_GROUP_ID" : "BurninBox",
"CHANNEL_UID" : "Module4R_LV",
"LINK_TO_CHANNEL_TABLE" : "CAENPowerSupplyChannelTable",
"LINK_TO_CHANNEL_UID" : "Module4R_LV",
"CHANNEL_GROUP" : "Module4Right",
"CHANNEL_TYPE" : "LV",
"TURN_ON_SEQUENCE" : "1",
"TURN_OFF_SEQUENCE" : "0",
"COMMENT_DESCRIPTION" : "No Comment",
"AUTHOR" : "admin",
"RECORD_INSERTION_TIME" : "1626821185"
},
{
"FE_INTERFACE_GROUP_ID" : "BurninBox",
"CHANNEL_UID" : "Module4R_HV",
"LINK_TO_CHANNEL_TABLE" : "CAENPowerSupplyChannelTable",
"LINK_TO_CHANNEL_UID" : "Module4R_HV",
"CHANNEL_GROUP" : "Module4Right",
"CHANNEL_TYPE" : "HV",
"TURN_ON_SEQUENCE" : "0",
"TURN_OFF_SEQUENCE" : "1",
"COMMENT_DESCRIPTION" : "No Comment",
"AUTHOR" : "admin",
"RECORD_INSERTION_TIME" : "1626821185"
},
{
"FE_INTERFACE_GROUP_ID" : "BurninBox",
"CHANNEL_UID" : "Module5R_LV",
"LINK_TO_CHANNEL_TABLE" : "CAENPowerSupplyChannelTable",
"LINK_TO_CHANNEL_UID" : "Module5R_LV",
"CHANNEL_GROUP" : "Module5Right",
"CHANNEL_TYPE" : "LV",
"TURN_ON_SEQUENCE" : "1",
"TURN_OFF_SEQUENCE" : "0",
"COMMENT_DESCRIPTION" : "No Comment",
"AUTHOR" : "admin",
"RECORD_INSERTION_TIME" : "1626821185"
},
{
"FE_INTERFACE_GROUP_ID" : "BurninBox",
"CHANNEL_UID" : "Module5R_HV",
"LINK_TO_CHANNEL_TABLE" : "CAENPowerSupplyChannelTable",
"LINK_TO_CHANNEL_UID" : "Module5R_HV",
"CHANNEL_GROUP" : "Module5Right",
"CHANNEL_TYPE" : "HV",
"TURN_ON_SEQUENCE" : "0",
"TURN_OFF_SEQUENCE" : "1",
"COMMENT_DESCRIPTION" : "No Comment",
"AUTHOR" : "admin",
"RECORD_INSERTION_TIME" : "1626821185"
}
]
},
"metadata" : {

},
"search" : [

]
},
"comments" : [

],
"origin" : {
"source" : "template",
"name" : "notprovided",
"format" : "json",
"created" : "2021-07-20T17:46:25.176-0500",
"rawdata" : [

]
},
"version" : "3",
"entities" : [
{
"name" : "OTSROOT",
"assigned" : "2021-07-20T17:46:25.177-0500"
}
],
"configurations" : [
{
"name" : "notprovided",
"assigned" : "2021-07-20T17:46:25.177-0500"
},
{
"name" : "BurninBoxConfiguration_v56",
"assigned" : "2021-07-20T17:46:27.674-0500"
},
{
"name" : "BurninBoxConfiguration_v57",
"assigned" : "2021-07-21T11:50:02.206-0500"
},
{
"name" : "BurninBoxConfiguration_v58",
"assigned" : "2021-07-21T11:58:37.870-0500"
},
{
"name" : "BurninBoxConfiguration_v59",
"assigned" : "2021-07-21T11:59:33.640-0500"
},
{
"name" : "BurninBoxConfiguration_v60",
"assigned" : "2021-07-22T18:35:00.703-0500"
},
{
"name" : "BurninBoxConfiguration_v61",
"assigned" : "2021-07-23T12:33:56.993-0500"
},
{
"name" : "BurninBoxConfiguration_v62",
"assigned" : "2021-07-24T00:54:49.805-0500"
},
{
"name" : "BurninBoxConfiguration_v63",
"assigned" : "2021-07-24T12:12:51.339-0500"
},
{
"name" : "BurninBoxConfiguration_v64",
"assigned" : "2021-07-25T21:07:16.322-0500"
},
{
"name" : "BurninBoxConfiguration_v65",
"assigned" : "2021-07-26T07:43:12.226-0500"
},
{
"name" : "BurninBoxConfiguration_v66",
"assigned" : "2021-07-26T18:37:12.256-0500"
},
{
"name" : "BurninBoxConfiguration_v67",
"assigned" : "2021-07-27T08:25:41.011-0500"
},
{
"name" : "BurninBoxConfiguration_v68",
"assigned" : "2021-08-03T11:10:37.381-0500"
},
{
"name" : "BurninBoxConfiguration_v69",
"assigned" : "2021-08-04T12:21:57.828-0500"
},
{
"name" : "BurninBoxConfiguration_v70",
"assigned" : "2021-09-02T13:43:34.262-0500"
},
{
"name" : "BurninBoxConfiguration_v71",
"assigned" : "2021-09-02T14:03:37.127-0500"
},
{
"name" : "BurninBoxConfiguration_v72",
"assigned" : "2021-09-23T15:47:05.511-0500"
},
{
"name" : "BurninBoxConfiguration_v73",
"assigned" : "2021-09-23T15:47:42.442-0500"
},
{
"name" : "BurninBoxConfiguration_v74",
"assigned" : "2021-09-24T15:36:50.336-0500"
},
{
"name" : "BurninBoxConfiguration_v75",
"assigned" : "2021-09-24T15:53:23.351-0500"
},
{
"name" : "BurninBoxConfiguration_v76",
"assigned" : "2021-09-24T16:04:22.357-0500"
},
{
"name" : "BurninBoxConfiguration_v77",
"assigned" : "2021-09-24T16:28:07.136-0500"
},
{
"name" : "BurninBoxConfiguration_v78",
"assigned" : "2021-09-27T09:02:56.708-0500"
},
{
"name" : "BurninBoxConfiguration_v79",
"assigned" : "2021-09-27T14:22:24.998-0500"
},
{
"name" : "BurninBoxConfiguration_v80",
"assigned" : "2021-09-28T09:24:50.871-0500"
},
{
"name" : "BurninBoxConfiguration_v81",
"assigned" : "2021-09-30T09:14:51.211-0500"
},
{
"name" : "BurninBoxConfiguration_v82",
"assigned" : "2021-10-01T10:56:21.660-0500"
},
{
"name" : "BurninBoxConfiguration_v83",
"assigned" : "2021-10-01T11:01:41.280-0500"
},
{
"name" : "BurninBoxConfiguration_v84",
"assigned" : "2021-10-06T10:02:31.596-0500"
},
{
"name" : "BurninBoxConfiguration_v85",
"assigned" : "2021-10-07T16:32:40.707-0500"
},
{
"name" : "BurninBoxConfiguration_v86",
"assigned" : "2021-10-08T14:03:15.574-0500"
},
{
"name" : "BurninBoxConfiguration_v87",
"assigned" : "2021-10-11T16:00:56.570-0500"
},
{
"name" : "BurninBoxConfiguration_v88",
"assigned" : "2021-10-12T09:07:17.738-0500"
},
{
"name" : "BurninBoxConfiguration_v89",
"assigned" : "2021-10-12T11:11:23.451-0500"
},
{
"name" : "BurninBoxConfiguration_v90",
"assigned" : "2021-10-14T17:03:16.859-0500"
},
{
"name" : "BurninBoxConfiguration_v91",
"assigned" : "2021-10-15T10:48:31.588-0500"
},
{
"name" : "BurninBoxConfiguration_v92",
"assigned" : "2021-10-15T15:50:49.561-0500"
},
{
"name" : "BurninBoxConfiguration_v93",
"assigned" : "2021-11-03T16:30:20.401-0500"
},
{
"name" : "BurninBoxConfiguration_v94",
"assigned" : "2021-11-10T15:11:02.812-0600"
},
{
"name" : "BurninBoxConfiguration_v95",
"assigned" : "2022-04-19T14:35:56.695-0400"
},
{
"name" : "BurninBoxConfiguration_v96",
"assigned" : "2022-04-20T10:06:05.673-0400"
},
{
"name" : "BurninBoxConfiguration_v97",
"assigned" : "2022-04-20T11:23:52.399-0400"
}
],
"changelog" : "notprovided",
"bookkeeping" : {
"isdeleted" : false,
"isreadonly" : false,
"updates" : [
{
"event" : "addConfiguration",
"timestamp" : "2021-07-20T17:46:25.177-0500",
"value" : {
"name" : "notprovided",
"assigned" : "2021-07-20T17:46:25.177-0500"
}
},
{
"event" : "setVersion",
"timestamp" : "2021-07-20T17:46:25.177-0500",
"value" : {
"name" : "3",
"assigned" : "2021-07-20T17:46:25.177-0500"
}
},
{
"event" : "setCollection",
"timestamp" : "2021-07-20T17:46:25.177-0500",
"value" : {
"name" : "PowerSupplyToDetectorTable",
"assigned" : "2021-07-20T17:46:25.177-0500"
}
},
{
"event" : "addEntity",
"timestamp" : "2021-07-20T17:46:25.177-0500",
"value" : {
"name" : "OTSROOT",
"assigned" : "2021-07-20T17:46:25.177-0500"
}
},
{
"event" : "addConfiguration",
"timestamp" : "2021-07-20T17:46:27.674-0500",
"value" : {
"name" : "BurninBoxConfiguration_v56",
"assigned" : "2021-07-20T17:46:27.674-0500"
}
},
{
"event" : "addConfiguration",
"timestamp" : "2021-07-21T11:50:02.206-0500",
"value" : {
"name" : "BurninBoxConfiguration_v57",
"assigned" : "2021-07-21T11:50:02.206-0500"
}
},
{
"event" : "addConfiguration",
"timestamp" : "2021-07-21T11:58:37.870-0500",
"value" : {
"name" : "BurninBoxConfiguration_v58",
"assigned" : "2021-07-21T11:58:37.870-0500"
}
},
{
"event" : "addConfiguration",
"timestamp" : "2021-07-21T11:59:33.640-0500",
"value" : {
"name" : "BurninBoxConfiguration_v59",
"assigned" : "2021-07-21T11:59:33.640-0500"
}
},
{
"event" : "addConfiguration",
"timestamp" : "2021-07-22T18:35:00.703-0500",
"value" : {
"name" : "BurninBoxConfiguration_v60",
"assigned" : "2021-07-22T18:35:00.703-0500"
}
},
{
"event" : "addConfiguration",
"timestamp" : "2021-07-23T12:33:56.993-0500",
"value" : {
"name" : "BurninBoxConfiguration_v61",
"assigned" : "2021-07-23T12:33:56.993-0500"
}
},
{
"event" : "addConfiguration",
"timestamp" : "2021-07-24T00:54:49.806-0500",
"value" : {
"name" : "BurninBoxConfiguration_v62",
"assigned" : "2021-07-24T00:54:49.805-0500"
}
},
{
"event" : "addConfiguration",
"timestamp" : "2021-07-24T12:12:51.339-0500",
"value" : {
"name" : "BurninBoxConfiguration_v63",
"assigned" : "2021-07-24T12:12:51.339-0500"
}
},
{
"event" : "addConfiguration",
"timestamp" : "2021-07-25T21:07:16.322-0500",
"value" : {
"name" : "BurninBoxConfiguration_v64",
"assigned" : "2021-07-25T21:07:16.322-0500"
}
},
{
"event" : "addConfiguration",
"timestamp" : "2021-07-26T07:43:12.226-0500",
"value" : {
"name" : "BurninBoxConfiguration_v65",
"assigned" : "2021-07-26T07:43:12.226-0500"
}
},
{
"event" : "addConfiguration",
"timestamp" : "2021-07-26T18:37:12.256-0500",
"value" : {
"name" : "BurninBoxConfiguration_v66",
"assigned" : "2021-07-26T18:37:12.256-0500"
}
},
{
"event" : "addConfiguration",
"timestamp" : "2021-07-27T08:25:41.011-0500",
"value" : {
"name" : "BurninBoxConfiguration_v67",
"assigned" : "2021-07-27T08:25:41.011-0500"
}
},
{
"event" : "addConfiguration",
"timestamp" : "2021-08-03T11:10:37.381-0500",
"value" : {
"name" : "BurninBoxConfiguration_v68",
"assigned" : "2021-08-03T11:10:37.381-0500"
}
},
{
"event" : "addConfiguration",
"timestamp" : "2021-08-04T12:21:57.828-0500",
"value" : {
"name" : "BurninBoxConfiguration_v69",
"assigned" : "2021-08-04T12:21:57.828-0500"
}
},
{
"event" : "addConfiguration",
"timestamp" : "2021-09-02T13:43:34.262-0500",
"value" : {
"name" : "BurninBoxConfiguration_v70",
"assigned" : "2021-09-02T13:43:34.262-0500"
}
},
{
"event" : "addConfiguration",
"timestamp" : "2021-09-02T14:03:37.127-0500",
"value" : {
"name" : "BurninBoxConfiguration_v71",
"assigned" : "2021-09-02T14:03:37.127-0500"
}
},
{
"event" : "addConfiguration",
"timestamp" : "2021-09-23T15:47:05.512-0500",
"value" : {
"name" : "BurninBoxConfiguration_v72",
"assigned" : "2021-09-23T15:47:05.511-0500"
}
},
{
"event" : "addConfiguration",
"timestamp" : "2021-09-23T15:47:42.442-0500",
"value" : {
"name" : "BurninBoxConfiguration_v73",
"assigned" : "2021-09-23T15:47:42.442-0500"
}
},
{
"event" : "addConfiguration",
"timestamp" : "2021-09-24T15:36:50.336-0500",
"value" : {
"name" : "BurninBoxConfiguration_v74",
"assigned" : "2021-09-24T15:36:50.336-0500"
}
},
{
"event" : "addConfiguration",
"timestamp" : "2021-09-24T15:53:23.351-0500",
"value" : {
"name" : "BurninBoxConfiguration_v75",
"assigned" : "2021-09-24T15:53:23.351-0500"
}
},
{
"event" : "addConfiguration",
"timestamp" : "2021-09-24T16:04:22.357-0500",
"value" : {
"name" : "BurninBoxConfiguration_v76",
"assigned" : "2021-09-24T16:04:22.357-0500"
}
},
{
"event" : "addConfiguration",
"timestamp" : "2021-09-24T16:28:07.136-0500",
"value" : {
"name" : "BurninBoxConfiguration_v77",
"assigned" : "2021-09-24T16:28:07.136-0500"
}
},
{
"event" : "addConfiguration",
"timestamp" : "2021-09-27T09:02:56.708-0500",
"value" : {
"name" : "BurninBoxConfiguration_v78",
"assigned" : "2021-09-27T09:02:56.708-0500"
}
},
{
"event" : "addConfiguration",
"timestamp" : "2021-09-27T14:22:24.998-0500",
"value" : {
"name" : "BurninBoxConfiguration_v79",
"assigned" : "2021-09-27T14:22:24.998-0500"
}
},
{
"event" : "addConfiguration",
"timestamp" : "2021-09-28T09:24:50.871-0500",
"value" : {
"name" : "BurninBoxConfiguration_v80",
"assigned" : "2021-09-28T09:24:50.871-0500"
}
},
{
"event" : "addConfiguration",
"timestamp" : "2021-09-30T09:14:51.211-0500",
"value" : {
"name" : "BurninBoxConfiguration_v81",
"assigned" : "2021-09-30T09:14:51.211-0500"
}
},
{
"event" : "addConfiguration",
"timestamp" : "2021-10-01T10:56:21.660-0500",
"value" : {
"name" : "BurninBoxConfiguration_v82",
"assigned" : "2021-10-01T10:56:21.660-0500"
}
},
{
"event" : "addConfiguration",
"timestamp" : "2021-10-01T11:01:41.280-0500",
"value" : {
"name" : "BurninBoxConfiguration_v83",
"assigned" : "2021-10-01T11:01:41.280-0500"
}
},
{
"event" : "addConfiguration",
"timestamp" : "2021-10-06T10:02:31.596-0500",
"value" : {
"name" : "BurninBoxConfiguration_v84",
"assigned" : "2021-10-06T10:02:31.596-0500"
}
},
{
"event" : "addConfiguration",
"timestamp" : "2021-10-07T16:32:40.707-0500",
"value" : {
"name" : "BurninBoxConfiguration_v85",
"assigned" : "2021-10-07T16:32:40.707-0500"
}
},
{
"event" : "addConfiguration",
"timestamp" : "2021-10-08T14:03:15.574-0500",
"value" : {
"name" : "BurninBoxConfiguration_v86",
"assigned" : "2021-10-08T14:03:15.574-0500"
}
},
{
"event" : "addConfiguration",
"timestamp" : "2021-10-11T16:00:56.570-0500",
"value" : {
"name" : "BurninBoxConfiguration_v87",
"assigned" : "2021-10-11T16:00:56.570-0500"
}
},
{
"event" : "addConfiguration",
"timestamp" : "2021-10-12T09:07:17.738-0500",
"value" : {
"name" : "BurninBoxConfiguration_v88",
"assigned" : "2021-10-12T09:07:17.738-0500"
}
},
{
"event" : "addConfiguration",
"timestamp" : "2021-10-12T11:11:23.451-0500",
"value" : {
"name" : "BurninBoxConfiguration_v89",
"assigned" : "2021-10-12T11:11:23.451-0500"
}
},
{
"event" : "addConfiguration",
"timestamp" : "2021-10-14T17:03:16.859-0500",
"value" : {
"name" : "BurninBoxConfiguration_v90",
"assigned" : "2021-10-14T17:03:16.859-0500"
}
},
{
"event" : "addConfiguration",
"timestamp" : "2021-10-15T10:48:31.588-0500",
"value" : {
"name" : "BurninBoxConfiguration_v91",
"assigned" : "2021-10-15T10:48:31.588-0500"
}
},
{
"event" : "addConfiguration",
"timestamp" : "2021-10-15T15:50:49.562-0500",
"value" : {
"name" : "BurninBoxConfiguration_v92",
"assigned" : "2021-10-15T15:50:49.561-0500"
}
},
{
"event" : "addConfiguration",
"timestamp" : "2021-11-03T16:30:20.401-0500",
"value" : {
"name" : "BurninBoxConfiguration_v93",
"assigned" : "2021-11-03T16:30:20.401-0500"
}
},
{
"event" : "addConfiguration",
"timestamp" : "2021-11-10T15:11:02.812-0600",
"value" : {
"name" : "BurninBoxConfiguration_v94",
"assigned" : "2021-11-10T15:11:02.812-0600"
}
},
{
"event" : "addConfiguration",
"timestamp" : "2022-04-19T14:35:56.695-0400",
"value" : {
"name" : "BurninBoxConfiguration_v95",
"assigned" : "2022-04-19T14:35:56.695-0400"
}
},
{
"event" : "addConfiguration",
"timestamp" : "2022-04-20T10:06:05.673-0400",
"value" : {
"name" : "BurninBoxConfiguration_v96",
"assigned" : "2022-04-20T10:06:05.673-0400"
}
},
{
"event" : "addConfiguration",
"timestamp" : "2022-04-20T11:23:52.399-0400",
"value" : {
"name" : "BurninBoxConfiguration_v97",
"assigned" : "2022-04-20T11:23:52.399-0400"
}
}
],
"created" : "2021-07-20T17:46:25.176-0500"
},
"_id" : {
"$oid" : "9ceb852f786d41659719cc11"
},
"collection" : "PowerSupplyToDetectorTable",
"aliases" : {
"active" : [

],
"history" : [

]
},
"runs" : [

],
"attachments" : [

],
"configtype" : "notprovided"
}