{
"document" : {
"data" : {
"NAME" : "GROUP_ALIASES_TABLE",
"COMMENT" : "Default Backbone.",
"AUTHOR" : "admin",
"CREATION_TIME" : 1636578666,
"COL_TYPES" : {
"GROUP_KEY_ALIAS" : "STRING",
"GROUP_NAME" : "STRING",
"GROUP_KEY" : "STRING",
"COMMENT_DESCRIPTION" : "STRING",
"AUTHOR" : "STRING",
"RECORD_INSERTION_TIME" : "TIMESTAMP WITH TIMEZONE"
},
"DATA_SET" : [
{
"GROUP_KEY_ALIAS" : "DefaultContext",
"GROUP_NAME" : "DefaultContext",
"GROUP_KEY" : "43",
"COMMENT_DESCRIPTION" : "This Group Alias was automatically setup by the server.",
"AUTHOR" : "admin",
"RECORD_INSERTION_TIME" : "1632516595"
},
{
"GROUP_KEY_ALIAS" : "BurninBoxConfiguration",
"GROUP_NAME" : "BurninBoxConfiguration",
"GROUP_KEY" : "89",
"COMMENT_DESCRIPTION" : "This Group Alias was automatically setup by the server.",
"AUTHOR" : "admin",
"RECORD_INSERTION_TIME" : "1634055084"
},
{
"GROUP_KEY_ALIAS" : "BurninBoxOnlyContext",
"GROUP_NAME" : "DefaultContext",
"GROUP_KEY" : "43",
"COMMENT_DESCRIPTION" : "This Group Alias was automatically setup by the server.",
"AUTHOR" : "admin",
"RECORD_INSERTION_TIME" : "1632518780"
},
{
"GROUP_KEY_ALIAS" : "BurninBoxOnlyConfiguration",
"GROUP_NAME" : "BurninBoxConfiguration",
"GROUP_KEY" : "89",
"COMMENT_DESCRIPTION" : "This Group Alias was automatically setup by the server.",
"AUTHOR" : "admin",
"RECORD_INSERTION_TIME" : "1634055106"
},
{
"GROUP_KEY_ALIAS" : "TrackerOnlyConfiguration",
"GROUP_NAME" : "BurninBoxConfiguration",
"GROUP_KEY" : "89",
"COMMENT_DESCRIPTION" : "This Group Alias was automatically setup by the server.",
"AUTHOR" : "admin",
"RECORD_INSERTION_TIME" : "1636578408"
},
{
"GROUP_KEY_ALIAS" : "TrackerOnlyContext",
"GROUP_NAME" : "DefaultContext",
"GROUP_KEY" : "48",
"COMMENT_DESCRIPTION" : "This Group Alias was automatically setup by the server.",
"AUTHOR" : "admin",
"RECORD_INSERTION_TIME" : "1636578666"
}
]
},
"metadata" : {

},
"search" : [

]
},
"comments" : [

],
"origin" : {
"source" : "template",
"name" : "notprovided",
"format" : "json",
"created" : "2021-11-10T15:11:06.142-0600",
"rawdata" : [

]
},
"version" : "229",
"entities" : [
{
"name" : "OTSROOT",
"assigned" : "2021-11-10T15:11:06.142-0600"
}
],
"configurations" : [
{
"name" : "notprovided",
"assigned" : "2021-11-10T15:11:06.142-0600"
},
{
"name" : "GroupAliasTreeEditWizBackbone_v91",
"assigned" : "2021-11-10T15:11:07.822-0600"
}
],
"changelog" : "notprovided",
"bookkeeping" : {
"isdeleted" : false,
"isreadonly" : false,
"updates" : [
{
"event" : "addConfiguration",
"timestamp" : "2021-11-10T15:11:06.142-0600",
"value" : {
"name" : "notprovided",
"assigned" : "2021-11-10T15:11:06.142-0600"
}
},
{
"event" : "setVersion",
"timestamp" : "2021-11-10T15:11:06.142-0600",
"value" : {
"name" : "229",
"assigned" : "2021-11-10T15:11:06.142-0600"
}
},
{
"event" : "setCollection",
"timestamp" : "2021-11-10T15:11:06.142-0600",
"value" : {
"name" : "GroupAliasesTable",
"assigned" : "2021-11-10T15:11:06.142-0600"
}
},
{
"event" : "addEntity",
"timestamp" : "2021-11-10T15:11:06.142-0600",
"value" : {
"name" : "OTSROOT",
"assigned" : "2021-11-10T15:11:06.142-0600"
}
},
{
"event" : "addConfiguration",
"timestamp" : "2021-11-10T15:11:07.822-0600",
"value" : {
"name" : "GroupAliasTreeEditWizBackbone_v91",
"assigned" : "2021-11-10T15:11:07.822-0600"
}
}
],
"created" : "2021-11-10T15:11:06.142-0600"
},
"_id" : {
"$oid" : "afaeda1994194922a1a91d3b"
},
"collection" : "GroupAliasesTable",
"aliases" : {
"active" : [

],
"history" : [

]
},
"runs" : [

],
"attachments" : [

],
"configtype" : "notprovided"
}