{
"ouid" : [
"3a573e24a22d4de1b171abb6"
],
"version" : {
"0" : [
"3a573e24a22d4de1b171abb6"
]
},
"configurations.name" : {
"notprovided" : [
"3a573e24a22d4de1b171abb6"
],
"BurninBoxConfiguration_v0" : [
"3a573e24a22d4de1b171abb6"
],
"BurninBoxConfiguration_v1" : [
"3a573e24a22d4de1b171abb6"
],
"BurninBoxConfiguration_v2" : [
"3a573e24a22d4de1b171abb6"
]
},
"entities.name" : {
"OTSROOT" : [
"3a573e24a22d4de1b171abb6"
]
},
"aliases.active.name" : {

},
"runs.name" : {

},
"configurations.assigned" : {
"notprovided" : [
"2023-10-25T15:16:48.504-0500"
],
"BurninBoxConfiguration_v0" : [
"2023-10-25T15:16:49.478-0500"
],
"BurninBoxConfiguration_v1" : [
"2023-10-25T15:16:50.339-0500"
],
"BurninBoxConfiguration_v2" : [
"2023-10-25T15:16:51.568-0500"
]
}
}