{
"ouid" : [
"0df94f78797f442f95c2c012",
"15d2e32f91c14c5aa29e6d4b",
"1b115a4f413648feb3693379",
"204aa01b101a45a0bc807618",
"25503a1e3b7c4c85a9a26ef9",
"2896a20d2f364f84bc97eae9",
"299098afc74b415896810f6b",
"2bc32cd102094e40a4b7f870",
"2c7649b19c43445aa80e191e",
"344be54ff51041829fd9009e",
"46082104197e4cf08ff9bfbd",
"5a6b5d34f1e94eb29339e90a",
"9670fd7a260847af94f356ef",
"9c5ef985795d4b5e833cf58f",
"a55ccdc5a0d248cb9ecbac3c",
"bf35a65f402f499795e0cd66",
"c77a979c88b549a0ba257da6",
"e3c14544e4c7493d901bddcf",
"e8771b6783dd4aff825d924b",
"edb9b68943834d64b3880d54",
"f2aa86a4572449568ac644d4",
"f55da54f7a564c9bb19f46b3",
"ffd84b11148c4b61844f3692"
],
"version" : {
"1" : [
"46082104197e4cf08ff9bfbd"
],
"2" : [
"5a6b5d34f1e94eb29339e90a"
],
"3" : [
"2c7649b19c43445aa80e191e"
],
"4" : [
"204aa01b101a45a0bc807618"
],
"5" : [
"2bc32cd102094e40a4b7f870"
],
"6" : [
"344be54ff51041829fd9009e"
],
"7" : [
"a55ccdc5a0d248cb9ecbac3c"
],
"8" : [
"2896a20d2f364f84bc97eae9"
],
"9" : [
"25503a1e3b7c4c85a9a26ef9"
],
"10" : [
"0df94f78797f442f95c2c012"
],
"11" : [
"e3c14544e4c7493d901bddcf"
],
"12" : [
"ffd84b11148c4b61844f3692"
],
"13" : [
"edb9b68943834d64b3880d54"
],
"14" : [
"bf35a65f402f499795e0cd66"
],
"15" : [
"f55da54f7a564c9bb19f46b3"
],
"16" : [
"e8771b6783dd4aff825d924b"
],
"17" : [
"9c5ef985795d4b5e833cf58f"
],
"18" : [
"f2aa86a4572449568ac644d4"
],
"19" : [
"1b115a4f413648feb3693379"
],
"20" : [
"299098afc74b415896810f6b"
],
"21" : [
"9670fd7a260847af94f356ef"
],
"22" : [
"c77a979c88b549a0ba257da6"
],
"23" : [
"15d2e32f91c14c5aa29e6d4b"
]
},
"configurations.name" : {
"notprovided" : [
"0df94f78797f442f95c2c012",
"15d2e32f91c14c5aa29e6d4b",
"1b115a4f413648feb3693379",
"204aa01b101a45a0bc807618",
"25503a1e3b7c4c85a9a26ef9",
"2896a20d2f364f84bc97eae9",
"299098afc74b415896810f6b",
"2bc32cd102094e40a4b7f870",
"2c7649b19c43445aa80e191e",
"344be54ff51041829fd9009e",
"46082104197e4cf08ff9bfbd",
"5a6b5d34f1e94eb29339e90a",
"9670fd7a260847af94f356ef",
"9c5ef985795d4b5e833cf58f",
"a55ccdc5a0d248cb9ecbac3c",
"bf35a65f402f499795e0cd66",
"c77a979c88b549a0ba257da6",
"e3c14544e4c7493d901bddcf",
"e8771b6783dd4aff825d924b",
"edb9b68943834d64b3880d54",
"f2aa86a4572449568ac644d4",
"f55da54f7a564c9bb19f46b3",
"ffd84b11148c4b61844f3692"
],
"DefaultContext_v1" : [
"46082104197e4cf08ff9bfbd"
],
"DefaultContext_v2" : [
"46082104197e4cf08ff9bfbd"
],
"DefaultContext_v3" : [
"5a6b5d34f1e94eb29339e90a"
],
"DefaultContext_v4" : [
"5a6b5d34f1e94eb29339e90a"
],
"DefaultContext_v5" : [
"5a6b5d34f1e94eb29339e90a"
],
"DefaultContext_v6" : [
"2bc32cd102094e40a4b7f870"
],
"DefaultContext_v7" : [
"2bc32cd102094e40a4b7f870"
],
"DefaultContext_v8" : [
"344be54ff51041829fd9009e"
],
"DefaultContext_v9" : [
"a55ccdc5a0d248cb9ecbac3c"
],
"DefaultContext_v10" : [
"2896a20d2f364f84bc97eae9"
],
"DefaultContext_v11" : [
"2896a20d2f364f84bc97eae9"
],
"DefaultContext_v12" : [
"25503a1e3b7c4c85a9a26ef9"
],
"DefaultContext_v13" : [
"e3c14544e4c7493d901bddcf"
],
"DefaultContext_v14" : [
"e3c14544e4c7493d901bddcf"
],
"DefaultContext_v15" : [
"ffd84b11148c4b61844f3692"
],
"DefaultContext_v16" : [
"edb9b68943834d64b3880d54"
],
"DefaultContext_v17" : [
"bf35a65f402f499795e0cd66"
],
"DefaultContext_v18" : [
"f55da54f7a564c9bb19f46b3"
],
"DefaultContext_v19" : [
"f55da54f7a564c9bb19f46b3"
],
"DefaultContext_v20" : [
"f55da54f7a564c9bb19f46b3"
],
"DefaultContext_v21" : [
"e8771b6783dd4aff825d924b"
],
"DefaultContext_v22" : [
"e8771b6783dd4aff825d924b"
],
"DefaultContext_v23" : [
"e8771b6783dd4aff825d924b"
],
"DefaultContext_v24" : [
"e8771b6783dd4aff825d924b"
],
"DefaultContext_v25" : [
"e8771b6783dd4aff825d924b"
],
"DefaultContext_v26" : [
"e8771b6783dd4aff825d924b"
],
"DefaultContext_v27" : [
"e8771b6783dd4aff825d924b"
],
"DefaultContext_v28" : [
"e8771b6783dd4aff825d924b"
],
"DefaultContext_v29" : [
"9c5ef985795d4b5e833cf58f"
],
"DefaultContext_v30" : [
"f2aa86a4572449568ac644d4"
],
"DefaultContext_v31" : [
"1b115a4f413648feb3693379"
],
"DefaultContext_v32" : [
"299098afc74b415896810f6b"
],
"DefaultContext_v33" : [
"299098afc74b415896810f6b"
],
"DefaultContext_v34" : [
"299098afc74b415896810f6b"
],
"DefaultContext_v35" : [
"299098afc74b415896810f6b"
],
"DefaultContext_v36" : [
"299098afc74b415896810f6b"
],
"DefaultContext_v37" : [
"9c5ef985795d4b5e833cf58f"
],
"DefaultContext_v38" : [
"9c5ef985795d4b5e833cf58f"
],
"DefaultContext_v39" : [
"9c5ef985795d4b5e833cf58f"
],
"DefaultContext_v40" : [
"9c5ef985795d4b5e833cf58f"
],
"DefaultContext_v41" : [
"9c5ef985795d4b5e833cf58f"
],
"DefaultContext_v42" : [
"9c5ef985795d4b5e833cf58f"
],
"DefaultContext_v43" : [
"9670fd7a260847af94f356ef"
],
"DefaultContext_v44" : [
"9670fd7a260847af94f356ef"
],
"DefaultContext_v45" : [
"c77a979c88b549a0ba257da6"
],
"DefaultContext_v46" : [
"9670fd7a260847af94f356ef"
],
"DefaultContext_v47" : [
"9670fd7a260847af94f356ef"
],
"DefaultContext_v48" : [
"9670fd7a260847af94f356ef"
],
"DefaultContext_v49" : [
"15d2e32f91c14c5aa29e6d4b"
],
"DefaultContext_v50" : [
"15d2e32f91c14c5aa29e6d4b"
]
},
"entities.name" : {
"OTSROOT" : [
"0df94f78797f442f95c2c012",
"15d2e32f91c14c5aa29e6d4b",
"1b115a4f413648feb3693379",
"204aa01b101a45a0bc807618",
"25503a1e3b7c4c85a9a26ef9",
"2896a20d2f364f84bc97eae9",
"299098afc74b415896810f6b",
"2bc32cd102094e40a4b7f870",
"2c7649b19c43445aa80e191e",
"344be54ff51041829fd9009e",
"46082104197e4cf08ff9bfbd",
"5a6b5d34f1e94eb29339e90a",
"9670fd7a260847af94f356ef",
"9c5ef985795d4b5e833cf58f",
"a55ccdc5a0d248cb9ecbac3c",
"bf35a65f402f499795e0cd66",
"c77a979c88b549a0ba257da6",
"e3c14544e4c7493d901bddcf",
"e8771b6783dd4aff825d924b",
"edb9b68943834d64b3880d54",
"f2aa86a4572449568ac644d4",
"f55da54f7a564c9bb19f46b3",
"ffd84b11148c4b61844f3692"
]
},
"aliases.active.name" : {

},
"runs.name" : {

},
"configurations.assigned" : {
"notprovided" : [
"2018-09-06T17:34:15.089-0500",
"2018-09-11T09:57:31.831-0500",
"2020-07-29T15:41:55.869-0500",
"2020-07-29T15:46:57.478-0500",
"2020-07-29T16:01:21.540-0500",
"2020-07-29T16:39:52.755-0500",
"2020-07-29T16:40:43.331-0500",
"2020-07-29T16:45:00.557-0500",
"2020-09-02T15:22:08.494-0500",
"2020-10-05T16:42:44.727-0500",
"2020-10-05T16:46:20.884-0500",
"2020-10-05T17:42:05.332-0500",
"2020-10-05T17:51:28.902-0500",
"2020-10-09T11:58:08.954-0500",
"2020-10-09T12:53:52.375-0500",
"2020-10-09T15:30:45.047-0500",
"2020-10-29T13:33:29.705-0500",
"2020-11-16T17:04:41.996-0600",
"2020-11-16T17:07:48.231-0600",
"2020-11-16T17:10:02.480-0600",
"2021-07-21T12:08:20.956-0500",
"2021-09-02T14:07:59.035-0500",
"2022-04-18T12:55:29.831-0400"
],
"DefaultContext_v1" : [
"2018-09-06T17:34:15.497-0500"
],
"DefaultContext_v2" : [
"2018-09-10T09:24:24.194-0500"
],
"DefaultContext_v3" : [
"2018-09-11T10:00:20.506-0500"
],
"DefaultContext_v4" : [
"2019-10-22T14:55:21.389-0500"
],
"DefaultContext_v5" : [
"2020-06-29T11:00:05.426-0500"
],
"DefaultContext_v6" : [
"2020-07-29T16:01:22.545-0500"
],
"DefaultContext_v7" : [
"2020-07-29T16:34:42.912-0500"
],
"DefaultContext_v8" : [
"2020-07-29T16:39:53.743-0500"
],
"DefaultContext_v9" : [
"2020-07-29T16:40:44.359-0500"
],
"DefaultContext_v10" : [
"2020-07-29T16:45:01.656-0500"
],
"DefaultContext_v11" : [
"2020-07-29T16:49:16.468-0500"
],
"DefaultContext_v12" : [
"2020-09-02T15:22:09.646-0500"
],
"DefaultContext_v13" : [
"2020-10-05T17:04:58.377-0500"
],
"DefaultContext_v14" : [
"2020-10-05T17:07:06.892-0500"
],
"DefaultContext_v15" : [
"2020-10-05T17:43:27.317-0500"
],
"DefaultContext_v16" : [
"2020-10-05T17:51:30.269-0500"
],
"DefaultContext_v17" : [
"2020-10-09T11:58:10.378-0500"
],
"DefaultContext_v18" : [
"2020-10-09T12:53:54.091-0500"
],
"DefaultContext_v19" : [
"2020-10-09T12:57:06.855-0500"
],
"DefaultContext_v20" : [
"2020-10-09T13:00:58.164-0500"
],
"DefaultContext_v21" : [
"2020-10-09T15:30:48.622-0500"
],
"DefaultContext_v22" : [
"2020-10-09T15:32:24.296-0500"
],
"DefaultContext_v23" : [
"2020-10-09T15:32:58.665-0500"
],
"DefaultContext_v24" : [
"2020-10-09T16:47:19.253-0500"
],
"DefaultContext_v25" : [
"2020-10-12T09:37:50.135-0500"
],
"DefaultContext_v26" : [
"2020-10-12T09:41:39.660-0500"
],
"DefaultContext_v27" : [
"2020-10-29T11:54:28.551-0500"
],
"DefaultContext_v28" : [
"2020-10-29T11:54:56.540-0500"
],
"DefaultContext_v29" : [
"2020-10-29T13:33:31.296-0500"
],
"DefaultContext_v30" : [
"2020-11-16T17:04:43.550-0600"
],
"DefaultContext_v31" : [
"2020-11-16T17:07:49.911-0600"
],
"DefaultContext_v32" : [
"2020-11-16T17:10:04.061-0600"
],
"DefaultContext_v33" : [
"2021-07-07T14:45:52.462-0500"
],
"DefaultContext_v34" : [
"2021-07-07T16:02:04.581-0500"
],
"DefaultContext_v35" : [
"2021-07-07T16:05:38.110-0500"
],
"DefaultContext_v36" : [
"2021-07-08T14:00:20.650-0500"
],
"DefaultContext_v37" : [
"2021-07-08T14:17:00.340-0500"
],
"DefaultContext_v38" : [
"2021-07-08T16:21:56.471-0500"
],
"DefaultContext_v39" : [
"2021-07-08T16:24:39.628-0500"
],
"DefaultContext_v40" : [
"2021-07-14T13:02:14.411-0500"
],
"DefaultContext_v41" : [
"2021-07-14T13:03:01.564-0500"
],
"DefaultContext_v42" : [
"2021-07-14T14:39:32.023-0500"
],
"DefaultContext_v43" : [
"2021-07-21T12:08:22.866-0500"
],
"DefaultContext_v44" : [
"2021-08-03T11:10:39.856-0500"
],
"DefaultContext_v45" : [
"2021-09-02T14:08:01.232-0500"
],
"DefaultContext_v46" : [
"2021-09-24T15:36:52.860-0500"
],
"DefaultContext_v47" : [
"2021-09-28T10:22:57.902-0500"
],
"DefaultContext_v48" : [
"2021-11-10T15:11:05.597-0600"
],
"DefaultContext_v49" : [
"2022-04-18T12:56:04.544-0400"
],
"DefaultContext_v50" : [
"2022-04-20T10:06:52.462-0400"
]
}
}