{
"ouid" : [
"4e09c598100b4e27b595036d",
"702c638e9a15435d92e955c7"
],
"version" : {
"2" : [
"4e09c598100b4e27b595036d"
],
"0" : [
"702c638e9a15435d92e955c7"
]
},
"configurations.name" : {
"notprovided" : [
"4e09c598100b4e27b595036d",
"702c638e9a15435d92e955c7"
],
"BurninBoxConfiguration_v2" : [
"4e09c598100b4e27b595036d"
],
"BurninBoxConfiguration_v0" : [
"702c638e9a15435d92e955c7"
],
"BurninBoxConfiguration_v1" : [
"702c638e9a15435d92e955c7"
]
},
"entities.name" : {
"OTSROOT" : [
"4e09c598100b4e27b595036d",
"702c638e9a15435d92e955c7"
]
},
"aliases.active.name" : {

},
"runs.name" : {

},
"configurations.assigned" : {
"notprovided" : [
"2023-10-25T15:16:48.456-0500",
"2023-10-25T15:16:51.029-0500"
],
"BurninBoxConfiguration_v2" : [
"2023-10-25T15:16:51.495-0500"
],
"BurninBoxConfiguration_v0" : [
"2023-10-25T15:16:49.441-0500"
],
"BurninBoxConfiguration_v1" : [
"2023-10-25T15:16:50.302-0500"
]
}
}