{
"ouid" : [
"f66f6984ef4144deae37506d"
],
"version" : {
"0" : [
"f66f6984ef4144deae37506d"
]
},
"configurations.name" : {
"notprovided" : [
"f66f6984ef4144deae37506d"
],
"BurninBoxConfig_v0" : [
"f66f6984ef4144deae37506d"
],
"BurninBoxConfig_v1" : [
"f66f6984ef4144deae37506d"
],
"BurninBoxConfig_v2" : [
"f66f6984ef4144deae37506d"
],
"BurninBoxConfig_v3" : [
"f66f6984ef4144deae37506d"
],
"BurninBoxConfig_v4" : [
"f66f6984ef4144deae37506d"
],
"BurninBoxConfig_v5" : [
"f66f6984ef4144deae37506d"
],
"BurninBoxConfig_v6" : [
"f66f6984ef4144deae37506d"
],
"BurninBoxConfig_v7" : [
"f66f6984ef4144deae37506d"
],
"BurninBoxConfig_v8" : [
"f66f6984ef4144deae37506d"
],
"BurninBoxConfig_v9" : [
"f66f6984ef4144deae37506d"
],
"BurninBoxConfig_v10" : [
"f66f6984ef4144deae37506d"
],
"BurninBoxConfig_v11" : [
"f66f6984ef4144deae37506d"
],
"BurninBoxConfig_v12" : [
"f66f6984ef4144deae37506d"
],
"BurninBoxConfig_v13" : [
"f66f6984ef4144deae37506d"
],
"BurninBoxConfig_v14" : [
"f66f6984ef4144deae37506d"
],
"BurninBoxConfig_v15" : [
"f66f6984ef4144deae37506d"
],
"BurninBoxConfig_v16" : [
"f66f6984ef4144deae37506d"
],
"BurninBoxConfig_v17" : [
"f66f6984ef4144deae37506d"
],
"BurninBoxConfig_v18" : [
"f66f6984ef4144deae37506d"
],
"BurninBoxConfig_v19" : [
"f66f6984ef4144deae37506d"
],
"BurninBoxConfig_v20" : [
"f66f6984ef4144deae37506d"
],
"BurninBoxConfig_v21" : [
"f66f6984ef4144deae37506d"
],
"BurninBoxConfig_v22" : [
"f66f6984ef4144deae37506d"
],
"BurninBoxConfig_v23" : [
"f66f6984ef4144deae37506d"
],
"BurninBoxConfig_v24" : [
"f66f6984ef4144deae37506d"
],
"BurninBoxConfig_v25" : [
"f66f6984ef4144deae37506d"
],
"BurninBoxConfig_v26" : [
"f66f6984ef4144deae37506d"
],
"BurninBoxConfig_v27" : [
"f66f6984ef4144deae37506d"
],
"BurninBoxConfig_v28" : [
"f66f6984ef4144deae37506d"
],
"BurninBoxConfig_v29" : [
"f66f6984ef4144deae37506d"
],
"BurninBoxConfig_v30" : [
"f66f6984ef4144deae37506d"
],
"BurninBoxConfig_v31" : [
"f66f6984ef4144deae37506d"
],
"BurninBoxConfig_v32" : [
"f66f6984ef4144deae37506d"
],
"BurninBoxConfig_v33" : [
"f66f6984ef4144deae37506d"
],
"BurninBoxConfig_v34" : [
"f66f6984ef4144deae37506d"
],
"BurninBoxConfig_v35" : [
"f66f6984ef4144deae37506d"
],
"BurninBoxConfig_v36" : [
"f66f6984ef4144deae37506d"
],
"BurninBoxConfiguration_v0" : [
"f66f6984ef4144deae37506d"
],
"BurninBoxConfiguration_v1" : [
"f66f6984ef4144deae37506d"
],
"BurninBoxConfiguration_v2" : [
"f66f6984ef4144deae37506d"
],
"BurninBoxConfiguration_v3" : [
"f66f6984ef4144deae37506d"
],
"BurninBoxConfiguration_v4" : [
"f66f6984ef4144deae37506d"
],
"BurninBoxConfiguration_v5" : [
"f66f6984ef4144deae37506d"
],
"BurninBoxConfiguration_v6" : [
"f66f6984ef4144deae37506d"
],
"BurninBoxConfiguration_v7" : [
"f66f6984ef4144deae37506d"
],
"BurninBoxConfiguration_v8" : [
"f66f6984ef4144deae37506d"
],
"BurninBoxConfiguration_v9" : [
"f66f6984ef4144deae37506d"
],
"BurninBoxConfiguration_v10" : [
"f66f6984ef4144deae37506d"
],
"BurninBoxConfiguration_v11" : [
"f66f6984ef4144deae37506d"
],
"BurninBoxConfiguration_v12" : [
"f66f6984ef4144deae37506d"
],
"BurninBoxConfiguration_v13" : [
"f66f6984ef4144deae37506d"
],
"BurninBoxConfiguration_v14" : [
"f66f6984ef4144deae37506d"
],
"BurninBoxConfiguration_v15" : [
"f66f6984ef4144deae37506d"
],
"BurninBoxConfiguration_v16" : [
"f66f6984ef4144deae37506d"
],
"BurninBoxConfiguration_v17" : [
"f66f6984ef4144deae37506d"
],
"BurninBoxConfiguration_v18" : [
"f66f6984ef4144deae37506d"
],
"BurninBoxConfiguration_v19" : [
"f66f6984ef4144deae37506d"
],
"BurninBoxConfiguration_v20" : [
"f66f6984ef4144deae37506d"
],
"BurninBoxConfiguration_v21" : [
"f66f6984ef4144deae37506d"
],
"BurninBoxConfiguration_v22" : [
"f66f6984ef4144deae37506d"
],
"BurninBoxConfiguration_v23" : [
"f66f6984ef4144deae37506d"
],
"BurninBoxConfiguration_v24" : [
"f66f6984ef4144deae37506d"
],
"BurninBoxConfiguration_v25" : [
"f66f6984ef4144deae37506d"
],
"BurninBoxConfiguration_v26" : [
"f66f6984ef4144deae37506d"
],
"BurninBoxConfiguration_v27" : [
"f66f6984ef4144deae37506d"
],
"BurninBoxConfiguration_v28" : [
"f66f6984ef4144deae37506d"
]
},
"entities.name" : {
"OTSROOT" : [
"f66f6984ef4144deae37506d"
]
},
"aliases.active.name" : {

},
"runs.name" : {

},
"configurations.assigned" : {
"notprovided" : [
"2018-09-06T17:34:13.888-0500"
],
"BurninBoxConfig_v0" : [
"2018-09-06T17:34:14.472-0500"
],
"BurninBoxConfig_v1" : [
"2018-09-10T10:45:50.992-0500"
],
"BurninBoxConfig_v2" : [
"2018-09-10T11:24:18.404-0500"
],
"BurninBoxConfig_v3" : [
"2018-09-11T09:59:56.014-0500"
],
"BurninBoxConfig_v4" : [
"2018-09-11T10:01:19.106-0500"
],
"BurninBoxConfig_v5" : [
"2018-09-11T10:11:15.655-0500"
],
"BurninBoxConfig_v6" : [
"2018-09-12T12:16:43.399-0500"
],
"BurninBoxConfig_v7" : [
"2018-09-17T11:12:09.030-0500"
],
"BurninBoxConfig_v8" : [
"2018-09-17T13:53:33.067-0500"
],
"BurninBoxConfig_v9" : [
"2018-09-17T14:03:57.795-0500"
],
"BurninBoxConfig_v10" : [
"2018-09-18T15:31:02.137-0500"
],
"BurninBoxConfig_v11" : [
"2018-09-19T09:27:01.877-0500"
],
"BurninBoxConfig_v12" : [
"2018-09-19T10:08:01.710-0500"
],
"BurninBoxConfig_v13" : [
"2018-09-19T10:23:21.648-0500"
],
"BurninBoxConfig_v14" : [
"2018-09-19T11:22:21.013-0500"
],
"BurninBoxConfig_v15" : [
"2018-09-19T12:26:54.897-0500"
],
"BurninBoxConfig_v16" : [
"2018-09-20T14:22:26.970-0500"
],
"BurninBoxConfig_v17" : [
"2018-09-20T15:42:02.761-0500"
],
"BurninBoxConfig_v18" : [
"2018-09-21T11:16:28.775-0500"
],
"BurninBoxConfig_v19" : [
"2018-09-21T13:39:24.909-0500"
],
"BurninBoxConfig_v20" : [
"2018-09-21T13:39:48.831-0500"
],
"BurninBoxConfig_v21" : [
"2019-02-28T12:04:25.537-0600"
],
"BurninBoxConfig_v22" : [
"2019-02-28T12:05:07.958-0600"
],
"BurninBoxConfig_v23" : [
"2019-02-28T13:57:09.567-0600"
],
"BurninBoxConfig_v24" : [
"2019-07-19T15:24:15.628-0500"
],
"BurninBoxConfig_v25" : [
"2019-07-19T15:25:10.762-0500"
],
"BurninBoxConfig_v26" : [
"2019-07-24T14:34:10.228-0500"
],
"BurninBoxConfig_v27" : [
"2019-07-24T14:47:23.445-0500"
],
"BurninBoxConfig_v28" : [
"2019-07-24T14:48:40.923-0500"
],
"BurninBoxConfig_v29" : [
"2020-06-29T10:55:10.451-0500"
],
"BurninBoxConfig_v30" : [
"2020-06-29T11:05:39.731-0500"
],
"BurninBoxConfig_v31" : [
"2020-06-29T11:28:21.413-0500"
],
"BurninBoxConfig_v32" : [
"2020-07-24T10:58:17.645-0500"
],
"BurninBoxConfig_v33" : [
"2020-07-24T11:00:07.282-0500"
],
"BurninBoxConfig_v34" : [
"2020-07-24T11:56:05.996-0500"
],
"BurninBoxConfig_v35" : [
"2020-07-24T12:12:09.018-0500"
],
"BurninBoxConfig_v36" : [
"2020-07-24T12:16:35.514-0500"
],
"BurninBoxConfiguration_v0" : [
"2020-07-29T15:59:40.525-0500"
],
"BurninBoxConfiguration_v1" : [
"2020-07-30T11:42:27.154-0500"
],
"BurninBoxConfiguration_v2" : [
"2020-07-30T12:05:12.529-0500"
],
"BurninBoxConfiguration_v3" : [
"2020-09-02T11:30:04.262-0500"
],
"BurninBoxConfiguration_v4" : [
"2020-09-02T11:31:32.082-0500"
],
"BurninBoxConfiguration_v5" : [
"2020-09-02T15:08:50.996-0500"
],
"BurninBoxConfiguration_v6" : [
"2020-09-02T16:01:05.754-0500"
],
"BurninBoxConfiguration_v7" : [
"2020-09-02T16:05:19.193-0500"
],
"BurninBoxConfiguration_v8" : [
"2020-10-05T17:05:55.239-0500"
],
"BurninBoxConfiguration_v9" : [
"2020-10-05T17:09:48.271-0500"
],
"BurninBoxConfiguration_v10" : [
"2020-10-05T17:11:02.132-0500"
],
"BurninBoxConfiguration_v11" : [
"2020-10-05T17:39:03.691-0500"
],
"BurninBoxConfiguration_v12" : [
"2020-10-05T17:43:05.924-0500"
],
"BurninBoxConfiguration_v13" : [
"2020-10-09T14:43:39.866-0500"
],
"BurninBoxConfiguration_v14" : [
"2020-10-09T15:30:46.425-0500"
],
"BurninBoxConfiguration_v15" : [
"2020-10-12T10:14:43.324-0500"
],
"BurninBoxConfiguration_v16" : [
"2020-10-12T15:33:08.909-0500"
],
"BurninBoxConfiguration_v17" : [
"2020-10-19T16:16:02.432-0500"
],
"BurninBoxConfiguration_v18" : [
"2020-10-23T11:00:20.257-0500"
],
"BurninBoxConfiguration_v19" : [
"2020-10-26T11:51:21.245-0500"
],
"BurninBoxConfiguration_v20" : [
"2020-10-26T11:51:42.882-0500"
],
"BurninBoxConfiguration_v21" : [
"2020-10-26T11:56:42.331-0500"
],
"BurninBoxConfiguration_v22" : [
"2020-10-26T14:34:34.234-0500"
],
"BurninBoxConfiguration_v23" : [
"2020-10-26T14:53:01.190-0500"
],
"BurninBoxConfiguration_v24" : [
"2020-10-26T15:02:46.440-0500"
],
"BurninBoxConfiguration_v25" : [
"2020-10-27T17:42:10.244-0500"
],
"BurninBoxConfiguration_v26" : [
"2020-10-29T11:52:32.415-0500"
],
"BurninBoxConfiguration_v27" : [
"2020-10-29T11:54:26.202-0500"
],
"BurninBoxConfiguration_v28" : [
"2020-10-29T13:30:24.163-0500"
]
}
}