{
"document" : {
"data" : {
"NAME" : "FE_SUPERVISOR_TABLE",
"COMMENT" : "Front-end Supervisor records.",
"AUTHOR" : "admin",
"CREATION_TIME" : 1601934452,
"COL_TYPES" : {
"SUPERVISOR_UID" : "STRING",
"LINK_TO_FE_INTERFACE_TABLE" : "STRING",
"LINK_TO_FE_INTERFACE_GROUP_ID" : "STRING",
"COMMENT_DESCRIPTION" : "STRING",
"AUTHOR" : "STRING",
"RECORD_INSERTION_TIME" : "TIMESTAMP WITH TIMEZONE"
},
"DATA_SET" : [
{
"SUPERVISOR_UID" : "FETrackerSupervisor0",
"LINK_TO_FE_INTERFACE_TABLE" : "FEInterfaceTable",
"LINK_TO_FE_INTERFACE_GROUP_ID" : "FETrackerSupervisor0",
"COMMENT_DESCRIPTION" : "No Comment",
"AUTHOR" : "admin",
"RECORD_INSERTION_TIME" : "1601934289"
},
{
"SUPERVISOR_UID" : "FETrackerSupervisor1",
"LINK_TO_FE_INTERFACE_TABLE" : "FEInterfaceTable",
"LINK_TO_FE_INTERFACE_GROUP_ID" : "FETrackerSupervisor1",
"COMMENT_DESCRIPTION" : "No Comment",
"AUTHOR" : "admin",
"RECORD_INSERTION_TIME" : "1601934452"
},
{
"SUPERVISOR_UID" : "FEBurninBoxSupervisor",
"LINK_TO_FE_INTERFACE_TABLE" : "FEInterfaceTable",
"LINK_TO_FE_INTERFACE_GROUP_ID" : "FEBurninBoxSupervisor",
"COMMENT_DESCRIPTION" : "No Comment",
"AUTHOR" : "admin",
"RECORD_INSERTION_TIME" : "1601934452"
},
{
"SUPERVISOR_UID" : "FEPowerSupplySupervisor",
"LINK_TO_FE_INTERFACE_TABLE" : "FEInterfaceTable",
"LINK_TO_FE_INTERFACE_GROUP_ID" : "FEPowerSupplySupervisor",
"COMMENT_DESCRIPTION" : "No Comment",
"AUTHOR" : "admin",
"RECORD_INSERTION_TIME" : "1601934452"
}
]
},
"metadata" : {

},
"search" : [

]
},
"comments" : [

],
"origin" : {
"source" : "template",
"name" : "notprovided",
"format" : "json",
"created" : "2020-10-05T16:47:32.039-0500",
"rawdata" : [

]
},
"version" : "3",
"entities" : [
{
"name" : "OTSROOT",
"assigned" : "2020-10-05T16:47:32.039-0500"
}
],
"configurations" : [
{
"name" : "notprovided",
"assigned" : "2020-10-05T16:47:32.039-0500"
},
{
"name" : "BurninBoxConfiguration_v8",
"assigned" : "2020-10-05T17:05:55.531-0500"
},
{
"name" : "BurninBoxConfiguration_v9",
"assigned" : "2020-10-05T17:09:48.573-0500"
},
{
"name" : "BurninBoxConfiguration_v10",
"assigned" : "2020-10-05T17:11:02.434-0500"
},
{
"name" : "BurninBoxConfiguration_v11",
"assigned" : "2020-10-05T17:39:04.011-0500"
},
{
"name" : "BurninBoxConfiguration_v12",
"assigned" : "2020-10-05T17:43:06.241-0500"
},
{
"name" : "BurninBoxConfiguration_v13",
"assigned" : "2020-10-09T14:43:40.184-0500"
},
{
"name" : "BurninBoxConfiguration_v14",
"assigned" : "2020-10-09T15:30:46.776-0500"
},
{
"name" : "BurninBoxConfiguration_v15",
"assigned" : "2020-10-12T10:14:43.666-0500"
},
{
"name" : "BurninBoxConfiguration_v16",
"assigned" : "2020-10-12T15:33:09.252-0500"
},
{
"name" : "BurninBoxConfiguration_v17",
"assigned" : "2020-10-19T16:16:02.803-0500"
},
{
"name" : "BurninBoxConfiguration_v18",
"assigned" : "2020-10-23T11:00:20.634-0500"
},
{
"name" : "BurninBoxConfiguration_v19",
"assigned" : "2020-10-26T11:51:21.630-0500"
},
{
"name" : "BurninBoxConfiguration_v20",
"assigned" : "2020-10-26T11:51:43.292-0500"
},
{
"name" : "BurninBoxConfiguration_v21",
"assigned" : "2020-10-26T11:56:42.725-0500"
},
{
"name" : "BurninBoxConfiguration_v22",
"assigned" : "2020-10-26T14:34:34.654-0500"
},
{
"name" : "BurninBoxConfiguration_v23",
"assigned" : "2020-10-26T14:53:01.583-0500"
},
{
"name" : "BurninBoxConfiguration_v24",
"assigned" : "2020-10-26T15:02:46.842-0500"
},
{
"name" : "BurninBoxConfiguration_v25",
"assigned" : "2020-10-27T17:42:10.636-0500"
},
{
"name" : "BurninBoxConfiguration_v26",
"assigned" : "2020-10-29T11:52:32.855-0500"
},
{
"name" : "BurninBoxConfiguration_v27",
"assigned" : "2020-10-29T11:54:26.605-0500"
},
{
"name" : "BurninBoxConfiguration_v28",
"assigned" : "2020-10-29T13:30:24.570-0500"
},
{
"name" : "BurninBoxConfiguration_v29",
"assigned" : "2020-10-29T13:45:55.966-0500"
},
{
"name" : "BurninBoxConfiguration_v30",
"assigned" : "2020-10-29T13:46:38.251-0500"
},
{
"name" : "BurninBoxConfiguration_v31",
"assigned" : "2020-10-29T13:48:02.881-0500"
},
{
"name" : "BurninBoxConfiguration_v32",
"assigned" : "2020-10-29T14:39:28.928-0500"
},
{
"name" : "BurninBoxConfiguration_v33",
"assigned" : "2021-06-30T16:17:51.896-0500"
}
],
"changelog" : "notprovided",
"bookkeeping" : {
"isdeleted" : false,
"isreadonly" : false,
"updates" : [
{
"event" : "addConfiguration",
"timestamp" : "2020-10-05T16:47:32.039-0500",
"value" : {
"name" : "notprovided",
"assigned" : "2020-10-05T16:47:32.039-0500"
}
},
{
"event" : "setVersion",
"timestamp" : "2020-10-05T16:47:32.039-0500",
"value" : {
"name" : "3",
"assigned" : "2020-10-05T16:47:32.039-0500"
}
},
{
"event" : "setCollection",
"timestamp" : "2020-10-05T16:47:32.039-0500",
"value" : {
"name" : "FESupervisorTable",
"assigned" : "2020-10-05T16:47:32.039-0500"
}
},
{
"event" : "addEntity",
"timestamp" : "2020-10-05T16:47:32.039-0500",
"value" : {
"name" : "OTSROOT",
"assigned" : "2020-10-05T16:47:32.039-0500"
}
},
{
"event" : "addConfiguration",
"timestamp" : "2020-10-05T17:05:55.531-0500",
"value" : {
"name" : "BurninBoxConfiguration_v8",
"assigned" : "2020-10-05T17:05:55.531-0500"
}
},
{
"event" : "addConfiguration",
"timestamp" : "2020-10-05T17:09:48.573-0500",
"value" : {
"name" : "BurninBoxConfiguration_v9",
"assigned" : "2020-10-05T17:09:48.573-0500"
}
},
{
"event" : "addConfiguration",
"timestamp" : "2020-10-05T17:11:02.434-0500",
"value" : {
"name" : "BurninBoxConfiguration_v10",
"assigned" : "2020-10-05T17:11:02.434-0500"
}
},
{
"event" : "addConfiguration",
"timestamp" : "2020-10-05T17:39:04.011-0500",
"value" : {
"name" : "BurninBoxConfiguration_v11",
"assigned" : "2020-10-05T17:39:04.011-0500"
}
},
{
"event" : "addConfiguration",
"timestamp" : "2020-10-05T17:43:06.241-0500",
"value" : {
"name" : "BurninBoxConfiguration_v12",
"assigned" : "2020-10-05T17:43:06.241-0500"
}
},
{
"event" : "addConfiguration",
"timestamp" : "2020-10-09T14:43:40.184-0500",
"value" : {
"name" : "BurninBoxConfiguration_v13",
"assigned" : "2020-10-09T14:43:40.184-0500"
}
},
{
"event" : "addConfiguration",
"timestamp" : "2020-10-09T15:30:46.776-0500",
"value" : {
"name" : "BurninBoxConfiguration_v14",
"assigned" : "2020-10-09T15:30:46.776-0500"
}
},
{
"event" : "addConfiguration",
"timestamp" : "2020-10-12T10:14:43.666-0500",
"value" : {
"name" : "BurninBoxConfiguration_v15",
"assigned" : "2020-10-12T10:14:43.666-0500"
}
},
{
"event" : "addConfiguration",
"timestamp" : "2020-10-12T15:33:09.252-0500",
"value" : {
"name" : "BurninBoxConfiguration_v16",
"assigned" : "2020-10-12T15:33:09.252-0500"
}
},
{
"event" : "addConfiguration",
"timestamp" : "2020-10-19T16:16:02.803-0500",
"value" : {
"name" : "BurninBoxConfiguration_v17",
"assigned" : "2020-10-19T16:16:02.803-0500"
}
},
{
"event" : "addConfiguration",
"timestamp" : "2020-10-23T11:00:20.634-0500",
"value" : {
"name" : "BurninBoxConfiguration_v18",
"assigned" : "2020-10-23T11:00:20.634-0500"
}
},
{
"event" : "addConfiguration",
"timestamp" : "2020-10-26T11:51:21.630-0500",
"value" : {
"name" : "BurninBoxConfiguration_v19",
"assigned" : "2020-10-26T11:51:21.630-0500"
}
},
{
"event" : "addConfiguration",
"timestamp" : "2020-10-26T11:51:43.292-0500",
"value" : {
"name" : "BurninBoxConfiguration_v20",
"assigned" : "2020-10-26T11:51:43.292-0500"
}
},
{
"event" : "addConfiguration",
"timestamp" : "2020-10-26T11:56:42.725-0500",
"value" : {
"name" : "BurninBoxConfiguration_v21",
"assigned" : "2020-10-26T11:56:42.725-0500"
}
},
{
"event" : "addConfiguration",
"timestamp" : "2020-10-26T14:34:34.654-0500",
"value" : {
"name" : "BurninBoxConfiguration_v22",
"assigned" : "2020-10-26T14:34:34.654-0500"
}
},
{
"event" : "addConfiguration",
"timestamp" : "2020-10-26T14:53:01.583-0500",
"value" : {
"name" : "BurninBoxConfiguration_v23",
"assigned" : "2020-10-26T14:53:01.583-0500"
}
},
{
"event" : "addConfiguration",
"timestamp" : "2020-10-26T15:02:46.842-0500",
"value" : {
"name" : "BurninBoxConfiguration_v24",
"assigned" : "2020-10-26T15:02:46.842-0500"
}
},
{
"event" : "addConfiguration",
"timestamp" : "2020-10-27T17:42:10.636-0500",
"value" : {
"name" : "BurninBoxConfiguration_v25",
"assigned" : "2020-10-27T17:42:10.636-0500"
}
},
{
"event" : "addConfiguration",
"timestamp" : "2020-10-29T11:52:32.855-0500",
"value" : {
"name" : "BurninBoxConfiguration_v26",
"assigned" : "2020-10-29T11:52:32.855-0500"
}
},
{
"event" : "addConfiguration",
"timestamp" : "2020-10-29T11:54:26.605-0500",
"value" : {
"name" : "BurninBoxConfiguration_v27",
"assigned" : "2020-10-29T11:54:26.605-0500"
}
},
{
"event" : "addConfiguration",
"timestamp" : "2020-10-29T13:30:24.570-0500",
"value" : {
"name" : "BurninBoxConfiguration_v28",
"assigned" : "2020-10-29T13:30:24.570-0500"
}
},
{
"event" : "addConfiguration",
"timestamp" : "2020-10-29T13:45:55.966-0500",
"value" : {
"name" : "BurninBoxConfiguration_v29",
"assigned" : "2020-10-29T13:45:55.966-0500"
}
},
{
"event" : "addConfiguration",
"timestamp" : "2020-10-29T13:46:38.251-0500",
"value" : {
"name" : "BurninBoxConfiguration_v30",
"assigned" : "2020-10-29T13:46:38.251-0500"
}
},
{
"event" : "addConfiguration",
"timestamp" : "2020-10-29T13:48:02.881-0500",
"value" : {
"name" : "BurninBoxConfiguration_v31",
"assigned" : "2020-10-29T13:48:02.881-0500"
}
},
{
"event" : "addConfiguration",
"timestamp" : "2020-10-29T14:39:28.928-0500",
"value" : {
"name" : "BurninBoxConfiguration_v32",
"assigned" : "2020-10-29T14:39:28.928-0500"
}
},
{
"event" : "addConfiguration",
"timestamp" : "2021-06-30T16:17:51.896-0500",
"value" : {
"name" : "BurninBoxConfiguration_v33",
"assigned" : "2021-06-30T16:17:51.896-0500"
}
}
],
"created" : "2020-10-05T16:47:32.039-0500"
},
"_id" : {
"$oid" : "6aa7018092ff40eab4024dbe"
},
"collection" : "FESupervisorTable",
"aliases" : {
"active" : [

],
"history" : [

]
},
"runs" : [

],
"attachments" : [

],
"configtype" : "notprovided"
}