{
"document" : {
"data" : {
"NAME" : "FE_SUPERVISOR_TABLE",
"COMMENT" : "Front-end Supervisor records.",
"AUTHOR" : "admin",
"CREATION_TIME" : 1596055510,
"COL_TYPES" : {
"SUPERVISOR_UID" : "STRING",
"LINK_TO_FE_INTERFACE_TABLE" : "STRING",
"LINK_TO_FE_INTERFACE_GROUP_ID" : "STRING",
"COMMENT_DESCRIPTION" : "STRING",
"AUTHOR" : "STRING",
"RECORD_INSERTION_TIME" : "TIMESTAMP WITH TIMEZONE"
},
"DATA_SET" : [
{
"SUPERVISOR_UID" : "FEOuterTrackerSupervisor0",
"LINK_TO_FE_INTERFACE_TABLE" : "FEInterfaceTable",
"LINK_TO_FE_INTERFACE_GROUP_ID" : "FEOuterTrackerSupervisor0",
"COMMENT_DESCRIPTION" : "No Comment",
"AUTHOR" : "admin",
"RECORD_INSERTION_TIME" : "1596055510"
},
{
"SUPERVISOR_UID" : "FEBurninBoxSupervisor",
"LINK_TO_FE_INTERFACE_TABLE" : "FEInterfaceTable",
"LINK_TO_FE_INTERFACE_GROUP_ID" : "FEBurninBoxSupervisor0",
"COMMENT_DESCRIPTION" : "No Comment",
"AUTHOR" : "admin",
"RECORD_INSERTION_TIME" : "1596055510"
}
]
},
"metadata" : {

},
"search" : [

]
},
"comments" : [

],
"origin" : {
"source" : "template",
"name" : "notprovided",
"format" : "json",
"created" : "2020-07-29T15:45:10.769-0500",
"rawdata" : [

]
},
"version" : "1",
"entities" : [
{
"name" : "OTSROOT",
"assigned" : "2020-07-29T15:45:10.770-0500"
}
],
"configurations" : [
{
"name" : "notprovided",
"assigned" : "2020-07-29T15:45:10.770-0500"
},
{
"name" : "BurninBoxConfiguration_v0",
"assigned" : "2020-07-29T15:59:40.790-0500"
},
{
"name" : "BurninBoxConfiguration_v1",
"assigned" : "2020-07-30T11:42:27.423-0500"
},
{
"name" : "BurninBoxConfiguration_v2",
"assigned" : "2020-07-30T12:05:12.807-0500"
},
{
"name" : "BurninBoxConfiguration_v3",
"assigned" : "2020-09-02T11:30:04.515-0500"
},
{
"name" : "BurninBoxConfiguration_v4",
"assigned" : "2020-09-02T11:31:32.336-0500"
},
{
"name" : "BurninBoxConfiguration_v5",
"assigned" : "2020-09-02T15:08:51.288-0500"
},
{
"name" : "BurninBoxConfiguration_v6",
"assigned" : "2020-09-02T16:01:06.028-0500"
},
{
"name" : "BurninBoxConfiguration_v7",
"assigned" : "2020-09-02T16:05:19.447-0500"
}
],
"changelog" : "notprovided",
"bookkeeping" : {
"isdeleted" : false,
"isreadonly" : false,
"updates" : [
{
"event" : "addConfiguration",
"timestamp" : "2020-07-29T15:45:10.770-0500",
"value" : {
"name" : "notprovided",
"assigned" : "2020-07-29T15:45:10.770-0500"
}
},
{
"event" : "setVersion",
"timestamp" : "2020-07-29T15:45:10.770-0500",
"value" : {
"name" : "1",
"assigned" : "2020-07-29T15:45:10.770-0500"
}
},
{
"event" : "setCollection",
"timestamp" : "2020-07-29T15:45:10.770-0500",
"value" : {
"name" : "FESupervisorTable",
"assigned" : "2020-07-29T15:45:10.770-0500"
}
},
{
"event" : "addEntity",
"timestamp" : "2020-07-29T15:45:10.770-0500",
"value" : {
"name" : "OTSROOT",
"assigned" : "2020-07-29T15:45:10.770-0500"
}
},
{
"event" : "addConfiguration",
"timestamp" : "2020-07-29T15:59:40.790-0500",
"value" : {
"name" : "BurninBoxConfiguration_v0",
"assigned" : "2020-07-29T15:59:40.790-0500"
}
},
{
"event" : "addConfiguration",
"timestamp" : "2020-07-30T11:42:27.423-0500",
"value" : {
"name" : "BurninBoxConfiguration_v1",
"assigned" : "2020-07-30T11:42:27.423-0500"
}
},
{
"event" : "addConfiguration",
"timestamp" : "2020-07-30T12:05:12.807-0500",
"value" : {
"name" : "BurninBoxConfiguration_v2",
"assigned" : "2020-07-30T12:05:12.807-0500"
}
},
{
"event" : "addConfiguration",
"timestamp" : "2020-09-02T11:30:04.515-0500",
"value" : {
"name" : "BurninBoxConfiguration_v3",
"assigned" : "2020-09-02T11:30:04.515-0500"
}
},
{
"event" : "addConfiguration",
"timestamp" : "2020-09-02T11:31:32.336-0500",
"value" : {
"name" : "BurninBoxConfiguration_v4",
"assigned" : "2020-09-02T11:31:32.336-0500"
}
},
{
"event" : "addConfiguration",
"timestamp" : "2020-09-02T15:08:51.288-0500",
"value" : {
"name" : "BurninBoxConfiguration_v5",
"assigned" : "2020-09-02T15:08:51.288-0500"
}
},
{
"event" : "addConfiguration",
"timestamp" : "2020-09-02T16:01:06.028-0500",
"value" : {
"name" : "BurninBoxConfiguration_v6",
"assigned" : "2020-09-02T16:01:06.028-0500"
}
},
{
"event" : "addConfiguration",
"timestamp" : "2020-09-02T16:05:19.447-0500",
"value" : {
"name" : "BurninBoxConfiguration_v7",
"assigned" : "2020-09-02T16:05:19.447-0500"
}
}
],
"created" : "2020-07-29T15:45:10.769-0500"
},
"_id" : {
"$oid" : "28c9058b21c446d8aed001d6"
},
"collection" : "FESupervisorTable",
"aliases" : {
"active" : [

],
"history" : [

]
},
"runs" : [

],
"attachments" : [

],
"configtype" : "notprovided"
}