{
"ouid" : [
"28c9058b21c446d8aed001d6",
"5a607438130c4b28a6f81508",
"6aa7018092ff40eab4024dbe",
"7e7d2966c5a445ea8ec7210e",
"d7552e1054ec4ed69bafda4b"
],
"version" : {
"0" : [
"5a607438130c4b28a6f81508"
],
"1" : [
"28c9058b21c446d8aed001d6"
],
"2" : [
"d7552e1054ec4ed69bafda4b"
],
"3" : [
"6aa7018092ff40eab4024dbe"
],
"4" : [
"7e7d2966c5a445ea8ec7210e"
]
},
"configurations.name" : {
"notprovided" : [
"28c9058b21c446d8aed001d6",
"5a607438130c4b28a6f81508",
"6aa7018092ff40eab4024dbe",
"7e7d2966c5a445ea8ec7210e",
"d7552e1054ec4ed69bafda4b"
],
"BurninBoxConfig_v0" : [
"5a607438130c4b28a6f81508"
],
"BurninBoxConfig_v1" : [
"5a607438130c4b28a6f81508"
],
"BurninBoxConfig_v2" : [
"5a607438130c4b28a6f81508"
],
"BurninBoxConfig_v3" : [
"5a607438130c4b28a6f81508"
],
"BurninBoxConfig_v4" : [
"5a607438130c4b28a6f81508"
],
"BurninBoxConfig_v5" : [
"5a607438130c4b28a6f81508"
],
"BurninBoxConfig_v6" : [
"5a607438130c4b28a6f81508"
],
"BurninBoxConfig_v7" : [
"5a607438130c4b28a6f81508"
],
"BurninBoxConfig_v8" : [
"5a607438130c4b28a6f81508"
],
"BurninBoxConfig_v9" : [
"5a607438130c4b28a6f81508"
],
"BurninBoxConfig_v10" : [
"5a607438130c4b28a6f81508"
],
"BurninBoxConfig_v11" : [
"5a607438130c4b28a6f81508"
],
"BurninBoxConfig_v12" : [
"5a607438130c4b28a6f81508"
],
"BurninBoxConfig_v13" : [
"5a607438130c4b28a6f81508"
],
"BurninBoxConfig_v14" : [
"5a607438130c4b28a6f81508"
],
"BurninBoxConfig_v15" : [
"5a607438130c4b28a6f81508"
],
"BurninBoxConfig_v16" : [
"5a607438130c4b28a6f81508"
],
"BurninBoxConfig_v17" : [
"5a607438130c4b28a6f81508"
],
"BurninBoxConfig_v18" : [
"5a607438130c4b28a6f81508"
],
"BurninBoxConfig_v19" : [
"5a607438130c4b28a6f81508"
],
"BurninBoxConfig_v20" : [
"5a607438130c4b28a6f81508"
],
"BurninBoxConfig_v21" : [
"5a607438130c4b28a6f81508"
],
"BurninBoxConfig_v22" : [
"5a607438130c4b28a6f81508"
],
"BurninBoxConfig_v23" : [
"5a607438130c4b28a6f81508"
],
"BurninBoxConfig_v24" : [
"5a607438130c4b28a6f81508"
],
"BurninBoxConfig_v25" : [
"5a607438130c4b28a6f81508"
],
"BurninBoxConfig_v26" : [
"5a607438130c4b28a6f81508"
],
"BurninBoxConfig_v27" : [
"5a607438130c4b28a6f81508"
],
"BurninBoxConfig_v28" : [
"5a607438130c4b28a6f81508"
],
"BurninBoxConfig_v29" : [
"5a607438130c4b28a6f81508"
],
"BurninBoxConfig_v30" : [
"5a607438130c4b28a6f81508"
],
"BurninBoxConfig_v31" : [
"5a607438130c4b28a6f81508"
],
"BurninBoxConfig_v32" : [
"5a607438130c4b28a6f81508"
],
"BurninBoxConfig_v33" : [
"5a607438130c4b28a6f81508"
],
"BurninBoxConfig_v34" : [
"5a607438130c4b28a6f81508"
],
"BurninBoxConfig_v35" : [
"5a607438130c4b28a6f81508"
],
"BurninBoxConfig_v36" : [
"5a607438130c4b28a6f81508"
],
"BurninBoxConfiguration_v0" : [
"28c9058b21c446d8aed001d6"
],
"BurninBoxConfiguration_v1" : [
"28c9058b21c446d8aed001d6"
],
"BurninBoxConfiguration_v2" : [
"28c9058b21c446d8aed001d6"
],
"BurninBoxConfiguration_v3" : [
"28c9058b21c446d8aed001d6"
],
"BurninBoxConfiguration_v4" : [
"28c9058b21c446d8aed001d6"
],
"BurninBoxConfiguration_v5" : [
"28c9058b21c446d8aed001d6"
],
"BurninBoxConfiguration_v6" : [
"28c9058b21c446d8aed001d6"
],
"BurninBoxConfiguration_v7" : [
"28c9058b21c446d8aed001d6"
],
"BurninBoxConfiguration_v8" : [
"6aa7018092ff40eab4024dbe"
],
"BurninBoxConfiguration_v9" : [
"6aa7018092ff40eab4024dbe"
],
"BurninBoxConfiguration_v10" : [
"6aa7018092ff40eab4024dbe"
],
"BurninBoxConfiguration_v11" : [
"6aa7018092ff40eab4024dbe"
],
"BurninBoxConfiguration_v12" : [
"6aa7018092ff40eab4024dbe"
],
"BurninBoxConfiguration_v13" : [
"6aa7018092ff40eab4024dbe"
],
"BurninBoxConfiguration_v14" : [
"6aa7018092ff40eab4024dbe"
],
"BurninBoxConfiguration_v15" : [
"6aa7018092ff40eab4024dbe"
],
"BurninBoxConfiguration_v16" : [
"6aa7018092ff40eab4024dbe"
],
"BurninBoxConfiguration_v17" : [
"6aa7018092ff40eab4024dbe"
],
"BurninBoxConfiguration_v18" : [
"6aa7018092ff40eab4024dbe"
],
"BurninBoxConfiguration_v19" : [
"6aa7018092ff40eab4024dbe"
],
"BurninBoxConfiguration_v20" : [
"6aa7018092ff40eab4024dbe"
],
"BurninBoxConfiguration_v21" : [
"6aa7018092ff40eab4024dbe"
],
"BurninBoxConfiguration_v22" : [
"6aa7018092ff40eab4024dbe"
],
"BurninBoxConfiguration_v23" : [
"6aa7018092ff40eab4024dbe"
],
"BurninBoxConfiguration_v24" : [
"6aa7018092ff40eab4024dbe"
],
"BurninBoxConfiguration_v25" : [
"6aa7018092ff40eab4024dbe"
],
"BurninBoxConfiguration_v26" : [
"6aa7018092ff40eab4024dbe"
],
"BurninBoxConfiguration_v27" : [
"6aa7018092ff40eab4024dbe"
],
"BurninBoxConfiguration_v28" : [
"6aa7018092ff40eab4024dbe"
],
"BurninBoxConfiguration_v29" : [
"6aa7018092ff40eab4024dbe"
],
"BurninBoxConfiguration_v30" : [
"6aa7018092ff40eab4024dbe"
],
"BurninBoxConfiguration_v31" : [
"6aa7018092ff40eab4024dbe"
],
"BurninBoxConfiguration_v32" : [
"6aa7018092ff40eab4024dbe"
],
"BurninBoxConfiguration_v33" : [
"6aa7018092ff40eab4024dbe"
],
"BurninBoxConfiguration_v34" : [
"7e7d2966c5a445ea8ec7210e"
],
"BurninBoxConfiguration_v35" : [
"7e7d2966c5a445ea8ec7210e"
],
"BurninBoxConfiguration_v36" : [
"7e7d2966c5a445ea8ec7210e"
],
"BurninBoxConfiguration_v37" : [
"7e7d2966c5a445ea8ec7210e"
],
"BurninBoxConfiguration_v38" : [
"7e7d2966c5a445ea8ec7210e"
],
"BurninBoxConfiguration_v39" : [
"7e7d2966c5a445ea8ec7210e"
],
"BurninBoxConfiguration_v40" : [
"7e7d2966c5a445ea8ec7210e"
],
"BurninBoxConfiguration_v41" : [
"7e7d2966c5a445ea8ec7210e"
],
"BurninBoxConfiguration_v42" : [
"7e7d2966c5a445ea8ec7210e"
],
"BurninBoxConfiguration_v43" : [
"7e7d2966c5a445ea8ec7210e"
],
"BurninBoxConfiguration_v44" : [
"7e7d2966c5a445ea8ec7210e"
],
"BurninBoxConfiguration_v45" : [
"7e7d2966c5a445ea8ec7210e"
],
"BurninBoxConfiguration_v46" : [
"7e7d2966c5a445ea8ec7210e"
],
"BurninBoxConfiguration_v47" : [
"7e7d2966c5a445ea8ec7210e"
],
"BurninBoxConfiguration_v48" : [
"7e7d2966c5a445ea8ec7210e"
],
"BurninBoxConfiguration_v49" : [
"7e7d2966c5a445ea8ec7210e"
],
"BurninBoxConfiguration_v50" : [
"7e7d2966c5a445ea8ec7210e"
],
"BurninBoxConfiguration_v51" : [
"7e7d2966c5a445ea8ec7210e"
],
"BurninBoxConfiguration_v52" : [
"7e7d2966c5a445ea8ec7210e"
],
"BurninBoxConfiguration_v53" : [
"7e7d2966c5a445ea8ec7210e"
],
"BurninBoxConfiguration_v54" : [
"7e7d2966c5a445ea8ec7210e"
],
"BurninBoxConfiguration_v55" : [
"7e7d2966c5a445ea8ec7210e"
],
"BurninBoxConfiguration_v56" : [
"7e7d2966c5a445ea8ec7210e"
],
"BurninBoxConfiguration_v57" : [
"7e7d2966c5a445ea8ec7210e"
],
"BurninBoxConfiguration_v58" : [
"7e7d2966c5a445ea8ec7210e"
],
"BurninBoxConfiguration_v59" : [
"7e7d2966c5a445ea8ec7210e"
],
"BurninBoxConfiguration_v60" : [
"7e7d2966c5a445ea8ec7210e"
],
"BurninBoxConfiguration_v61" : [
"7e7d2966c5a445ea8ec7210e"
],
"BurninBoxConfiguration_v62" : [
"7e7d2966c5a445ea8ec7210e"
],
"BurninBoxConfiguration_v63" : [
"7e7d2966c5a445ea8ec7210e"
],
"BurninBoxConfiguration_v64" : [
"7e7d2966c5a445ea8ec7210e"
],
"BurninBoxConfiguration_v65" : [
"7e7d2966c5a445ea8ec7210e"
],
"BurninBoxConfiguration_v66" : [
"7e7d2966c5a445ea8ec7210e"
],
"BurninBoxConfiguration_v67" : [
"7e7d2966c5a445ea8ec7210e"
],
"BurninBoxConfiguration_v68" : [
"7e7d2966c5a445ea8ec7210e"
],
"BurninBoxConfiguration_v69" : [
"7e7d2966c5a445ea8ec7210e"
],
"BurninBoxConfiguration_v70" : [
"7e7d2966c5a445ea8ec7210e"
],
"BurninBoxConfiguration_v71" : [
"7e7d2966c5a445ea8ec7210e"
],
"BurninBoxConfiguration_v72" : [
"7e7d2966c5a445ea8ec7210e"
],
"BurninBoxConfiguration_v73" : [
"7e7d2966c5a445ea8ec7210e"
],
"BurninBoxConfiguration_v74" : [
"7e7d2966c5a445ea8ec7210e"
],
"BurninBoxConfiguration_v75" : [
"7e7d2966c5a445ea8ec7210e"
],
"BurninBoxConfiguration_v76" : [
"7e7d2966c5a445ea8ec7210e"
],
"BurninBoxConfiguration_v77" : [
"7e7d2966c5a445ea8ec7210e"
],
"BurninBoxConfiguration_v78" : [
"7e7d2966c5a445ea8ec7210e"
],
"BurninBoxConfiguration_v79" : [
"7e7d2966c5a445ea8ec7210e"
],
"BurninBoxConfiguration_v80" : [
"7e7d2966c5a445ea8ec7210e"
],
"BurninBoxConfiguration_v81" : [
"7e7d2966c5a445ea8ec7210e"
],
"BurninBoxConfiguration_v82" : [
"7e7d2966c5a445ea8ec7210e"
],
"BurninBoxConfiguration_v83" : [
"7e7d2966c5a445ea8ec7210e"
],
"BurninBoxConfiguration_v84" : [
"7e7d2966c5a445ea8ec7210e"
],
"BurninBoxConfiguration_v85" : [
"7e7d2966c5a445ea8ec7210e"
],
"BurninBoxConfiguration_v86" : [
"7e7d2966c5a445ea8ec7210e"
],
"BurninBoxConfiguration_v87" : [
"7e7d2966c5a445ea8ec7210e"
],
"BurninBoxConfiguration_v88" : [
"7e7d2966c5a445ea8ec7210e"
],
"BurninBoxConfiguration_v89" : [
"7e7d2966c5a445ea8ec7210e"
],
"BurninBoxConfiguration_v90" : [
"7e7d2966c5a445ea8ec7210e"
],
"BurninBoxConfiguration_v91" : [
"7e7d2966c5a445ea8ec7210e"
],
"BurninBoxConfiguration_v92" : [
"7e7d2966c5a445ea8ec7210e"
],
"BurninBoxConfiguration_v93" : [
"7e7d2966c5a445ea8ec7210e"
],
"BurninBoxConfiguration_v94" : [
"7e7d2966c5a445ea8ec7210e"
],
"BurninBoxConfiguration_v95" : [
"7e7d2966c5a445ea8ec7210e"
],
"BurninBoxConfiguration_v96" : [
"7e7d2966c5a445ea8ec7210e"
],
"BurninBoxConfiguration_v97" : [
"7e7d2966c5a445ea8ec7210e"
],
"BurninBoxConfiguration_v98" : [
"7e7d2966c5a445ea8ec7210e"
],
"BurninBoxConfiguration_v99" : [
"7e7d2966c5a445ea8ec7210e"
],
"BurninBoxConfiguration_v100" : [
"7e7d2966c5a445ea8ec7210e"
],
"BurninBoxConfiguration_v101" : [
"7e7d2966c5a445ea8ec7210e"
],
"BurninBoxConfiguration_v102" : [
"7e7d2966c5a445ea8ec7210e"
]
},
"entities.name" : {
"OTSROOT" : [
"28c9058b21c446d8aed001d6",
"5a607438130c4b28a6f81508",
"6aa7018092ff40eab4024dbe",
"7e7d2966c5a445ea8ec7210e",
"d7552e1054ec4ed69bafda4b"
]
},
"aliases.active.name" : {

},
"runs.name" : {

},
"configurations.assigned" : {
"notprovided" : [
"2018-09-06T17:34:14.158-0500",
"2020-07-29T15:45:10.770-0500",
"2020-10-05T16:44:49.109-0500",
"2020-10-05T16:47:32.039-0500",
"2021-06-30T16:23:46.254-0500"
],
"BurninBoxConfig_v0" : [
"2018-09-06T17:34:14.664-0500"
],
"BurninBoxConfig_v1" : [
"2018-09-10T10:45:51.232-0500"
],
"BurninBoxConfig_v2" : [
"2018-09-10T11:24:18.646-0500"
],
"BurninBoxConfig_v3" : [
"2018-09-11T09:59:56.266-0500"
],
"BurninBoxConfig_v4" : [
"2018-09-11T10:01:19.357-0500"
],
"BurninBoxConfig_v5" : [
"2018-09-11T10:11:15.941-0500"
],
"BurninBoxConfig_v6" : [
"2018-09-12T12:16:43.682-0500"
],
"BurninBoxConfig_v7" : [
"2018-09-17T11:12:09.352-0500"
],
"BurninBoxConfig_v8" : [
"2018-09-17T13:53:33.366-0500"
],
"BurninBoxConfig_v9" : [
"2018-09-17T14:03:58.052-0500"
],
"BurninBoxConfig_v10" : [
"2018-09-18T15:31:02.398-0500"
],
"BurninBoxConfig_v11" : [
"2018-09-19T09:27:02.130-0500"
],
"BurninBoxConfig_v12" : [
"2018-09-19T10:08:02.015-0500"
],
"BurninBoxConfig_v13" : [
"2018-09-19T10:23:21.955-0500"
],
"BurninBoxConfig_v14" : [
"2018-09-19T11:22:21.338-0500"
],
"BurninBoxConfig_v15" : [
"2018-09-19T12:26:55.191-0500"
],
"BurninBoxConfig_v16" : [
"2018-09-20T14:22:27.247-0500"
],
"BurninBoxConfig_v17" : [
"2018-09-20T15:42:03.042-0500"
],
"BurninBoxConfig_v18" : [
"2018-09-21T11:16:29.099-0500"
],
"BurninBoxConfig_v19" : [
"2018-09-21T13:39:25.249-0500"
],
"BurninBoxConfig_v20" : [
"2018-09-21T13:39:49.180-0500"
],
"BurninBoxConfig_v21" : [
"2019-02-28T12:04:25.726-0600"
],
"BurninBoxConfig_v22" : [
"2019-02-28T12:05:08.156-0600"
],
"BurninBoxConfig_v23" : [
"2019-02-28T13:57:09.764-0600"
],
"BurninBoxConfig_v24" : [
"2019-07-19T15:24:15.876-0500"
],
"BurninBoxConfig_v25" : [
"2019-07-19T15:25:10.947-0500"
],
"BurninBoxConfig_v26" : [
"2019-07-24T14:34:10.423-0500"
],
"BurninBoxConfig_v27" : [
"2019-07-24T14:47:23.661-0500"
],
"BurninBoxConfig_v28" : [
"2019-07-24T14:48:41.157-0500"
],
"BurninBoxConfig_v29" : [
"2020-06-29T10:55:10.655-0500"
],
"BurninBoxConfig_v30" : [
"2020-06-29T11:05:39.947-0500"
],
"BurninBoxConfig_v31" : [
"2020-06-29T11:28:21.632-0500"
],
"BurninBoxConfig_v32" : [
"2020-07-24T10:58:17.873-0500"
],
"BurninBoxConfig_v33" : [
"2020-07-24T11:00:07.515-0500"
],
"BurninBoxConfig_v34" : [
"2020-07-24T11:56:06.227-0500"
],
"BurninBoxConfig_v35" : [
"2020-07-24T12:12:09.246-0500"
],
"BurninBoxConfig_v36" : [
"2020-07-24T12:16:35.746-0500"
],
"BurninBoxConfiguration_v0" : [
"2020-07-29T15:59:40.790-0500"
],
"BurninBoxConfiguration_v1" : [
"2020-07-30T11:42:27.423-0500"
],
"BurninBoxConfiguration_v2" : [
"2020-07-30T12:05:12.807-0500"
],
"BurninBoxConfiguration_v3" : [
"2020-09-02T11:30:04.515-0500"
],
"BurninBoxConfiguration_v4" : [
"2020-09-02T11:31:32.336-0500"
],
"BurninBoxConfiguration_v5" : [
"2020-09-02T15:08:51.288-0500"
],
"BurninBoxConfiguration_v6" : [
"2020-09-02T16:01:06.028-0500"
],
"BurninBoxConfiguration_v7" : [
"2020-09-02T16:05:19.447-0500"
],
"BurninBoxConfiguration_v8" : [
"2020-10-05T17:05:55.531-0500"
],
"BurninBoxConfiguration_v9" : [
"2020-10-05T17:09:48.573-0500"
],
"BurninBoxConfiguration_v10" : [
"2020-10-05T17:11:02.434-0500"
],
"BurninBoxConfiguration_v11" : [
"2020-10-05T17:39:04.011-0500"
],
"BurninBoxConfiguration_v12" : [
"2020-10-05T17:43:06.241-0500"
],
"BurninBoxConfiguration_v13" : [
"2020-10-09T14:43:40.184-0500"
],
"BurninBoxConfiguration_v14" : [
"2020-10-09T15:30:46.776-0500"
],
"BurninBoxConfiguration_v15" : [
"2020-10-12T10:14:43.666-0500"
],
"BurninBoxConfiguration_v16" : [
"2020-10-12T15:33:09.252-0500"
],
"BurninBoxConfiguration_v17" : [
"2020-10-19T16:16:02.803-0500"
],
"BurninBoxConfiguration_v18" : [
"2020-10-23T11:00:20.634-0500"
],
"BurninBoxConfiguration_v19" : [
"2020-10-26T11:51:21.630-0500"
],
"BurninBoxConfiguration_v20" : [
"2020-10-26T11:51:43.292-0500"
],
"BurninBoxConfiguration_v21" : [
"2020-10-26T11:56:42.725-0500"
],
"BurninBoxConfiguration_v22" : [
"2020-10-26T14:34:34.654-0500"
],
"BurninBoxConfiguration_v23" : [
"2020-10-26T14:53:01.583-0500"
],
"BurninBoxConfiguration_v24" : [
"2020-10-26T15:02:46.842-0500"
],
"BurninBoxConfiguration_v25" : [
"2020-10-27T17:42:10.636-0500"
],
"BurninBoxConfiguration_v26" : [
"2020-10-29T11:52:32.855-0500"
],
"BurninBoxConfiguration_v27" : [
"2020-10-29T11:54:26.605-0500"
],
"BurninBoxConfiguration_v28" : [
"2020-10-29T13:30:24.570-0500"
],
"BurninBoxConfiguration_v29" : [
"2020-10-29T13:45:55.966-0500"
],
"BurninBoxConfiguration_v30" : [
"2020-10-29T13:46:38.251-0500"
],
"BurninBoxConfiguration_v31" : [
"2020-10-29T13:48:02.881-0500"
],
"BurninBoxConfiguration_v32" : [
"2020-10-29T14:39:28.928-0500"
],
"BurninBoxConfiguration_v33" : [
"2021-06-30T16:17:51.896-0500"
],
"BurninBoxConfiguration_v34" : [
"2021-06-30T16:23:48.292-0500"
],
"BurninBoxConfiguration_v35" : [
"2021-07-08T14:06:14.141-0500"
],
"BurninBoxConfiguration_v36" : [
"2021-07-08T14:16:58.354-0500"
],
"BurninBoxConfiguration_v37" : [
"2021-07-08T16:20:44.930-0500"
],
"BurninBoxConfiguration_v38" : [
"2021-07-09T11:47:14.113-0500"
],
"BurninBoxConfiguration_v39" : [
"2021-07-09T11:48:46.229-0500"
],
"BurninBoxConfiguration_v40" : [
"2021-07-09T16:06:00.707-0500"
],
"BurninBoxConfiguration_v41" : [
"2021-07-12T11:04:55.672-0500"
],
"BurninBoxConfiguration_v42" : [
"2021-07-13T12:01:31.550-0500"
],
"BurninBoxConfiguration_v43" : [
"2021-07-13T12:22:06.030-0500"
],
"BurninBoxConfiguration_v44" : [
"2021-07-14T13:05:58.630-0500"
],
"BurninBoxConfiguration_v45" : [
"2021-07-14T14:26:04.800-0500"
],
"BurninBoxConfiguration_v46" : [
"2021-07-14T14:46:57.075-0500"
],
"BurninBoxConfiguration_v47" : [
"2021-07-14T15:24:33.966-0500"
],
"BurninBoxConfiguration_v48" : [
"2021-07-14T16:05:29.520-0500"
],
"BurninBoxConfiguration_v49" : [
"2021-07-14T16:15:41.209-0500"
],
"BurninBoxConfiguration_v50" : [
"2021-07-14T16:17:40.959-0500"
],
"BurninBoxConfiguration_v51" : [
"2021-07-15T11:50:33.979-0500"
],
"BurninBoxConfiguration_v52" : [
"2021-07-20T13:45:54.093-0500"
],
"BurninBoxConfiguration_v53" : [
"2021-07-20T16:41:42.316-0500"
],
"BurninBoxConfiguration_v54" : [
"2021-07-20T17:09:27.058-0500"
],
"BurninBoxConfiguration_v55" : [
"2021-07-20T17:28:40.218-0500"
],
"BurninBoxConfiguration_v56" : [
"2021-07-20T17:46:27.555-0500"
],
"BurninBoxConfiguration_v57" : [
"2021-07-21T11:50:02.110-0500"
],
"BurninBoxConfiguration_v58" : [
"2021-07-21T11:58:37.777-0500"
],
"BurninBoxConfiguration_v59" : [
"2021-07-21T11:59:33.532-0500"
],
"BurninBoxConfiguration_v60" : [
"2021-07-22T18:35:00.573-0500"
],
"BurninBoxConfiguration_v61" : [
"2021-07-23T12:33:56.882-0500"
],
"BurninBoxConfiguration_v62" : [
"2021-07-24T00:54:49.697-0500"
],
"BurninBoxConfiguration_v63" : [
"2021-07-24T12:12:51.229-0500"
],
"BurninBoxConfiguration_v64" : [
"2021-07-25T21:07:16.195-0500"
],
"BurninBoxConfiguration_v65" : [
"2021-07-26T07:43:12.117-0500"
],
"BurninBoxConfiguration_v66" : [
"2021-07-26T18:37:12.122-0500"
],
"BurninBoxConfiguration_v67" : [
"2021-07-27T08:25:40.895-0500"
],
"BurninBoxConfiguration_v68" : [
"2021-08-03T11:10:37.290-0500"
],
"BurninBoxConfiguration_v69" : [
"2021-08-04T12:21:57.710-0500"
],
"BurninBoxConfiguration_v70" : [
"2021-09-02T13:43:34.128-0500"
],
"BurninBoxConfiguration_v71" : [
"2021-09-02T14:03:36.980-0500"
],
"BurninBoxConfiguration_v72" : [
"2021-09-23T15:47:05.394-0500"
],
"BurninBoxConfiguration_v73" : [
"2021-09-23T15:47:42.314-0500"
],
"BurninBoxConfiguration_v74" : [
"2021-09-24T15:36:50.202-0500"
],
"BurninBoxConfiguration_v75" : [
"2021-09-24T15:53:23.231-0500"
],
"BurninBoxConfiguration_v76" : [
"2021-09-24T16:04:22.195-0500"
],
"BurninBoxConfiguration_v77" : [
"2021-09-24T16:28:07.020-0500"
],
"BurninBoxConfiguration_v78" : [
"2021-09-27T09:02:56.592-0500"
],
"BurninBoxConfiguration_v79" : [
"2021-09-27T14:22:24.872-0500"
],
"BurninBoxConfiguration_v80" : [
"2021-09-28T09:24:50.742-0500"
],
"BurninBoxConfiguration_v81" : [
"2021-09-30T09:14:51.052-0500"
],
"BurninBoxConfiguration_v82" : [
"2021-10-01T10:56:21.540-0500"
],
"BurninBoxConfiguration_v83" : [
"2021-10-01T11:01:41.175-0500"
],
"BurninBoxConfiguration_v84" : [
"2021-10-06T10:02:31.470-0500"
],
"BurninBoxConfiguration_v85" : [
"2021-10-07T16:32:40.575-0500"
],
"BurninBoxConfiguration_v86" : [
"2021-10-08T14:03:15.441-0500"
],
"BurninBoxConfiguration_v87" : [
"2021-10-11T16:00:56.400-0500"
],
"BurninBoxConfiguration_v88" : [
"2021-10-12T09:07:17.617-0500"
],
"BurninBoxConfiguration_v89" : [
"2021-10-12T11:11:23.315-0500"
],
"BurninBoxConfiguration_v90" : [
"2021-10-14T17:03:16.711-0500"
],
"BurninBoxConfiguration_v91" : [
"2021-10-15T10:48:31.445-0500"
],
"BurninBoxConfiguration_v92" : [
"2021-10-15T15:50:49.404-0500"
],
"BurninBoxConfiguration_v93" : [
"2021-11-03T16:30:20.272-0500"
],
"BurninBoxConfiguration_v94" : [
"2021-11-10T15:11:02.659-0600"
],
"BurninBoxConfiguration_v95" : [
"2022-04-19T14:35:56.579-0400"
],
"BurninBoxConfiguration_v96" : [
"2022-04-20T10:06:05.565-0400"
],
"BurninBoxConfiguration_v97" : [
"2022-04-20T11:23:52.289-0400"
],
"BurninBoxConfiguration_v98" : [
"2022-04-22T09:34:09.722-0400"
],
"BurninBoxConfiguration_v99" : [
"2022-07-19T15:18:24.018-0400"
],
"BurninBoxConfiguration_v100" : [
"2022-07-22T10:08:27.262-0400"
],
"BurninBoxConfiguration_v101" : [
"2022-07-25T10:59:57.996-0400"
],
"BurninBoxConfiguration_v102" : [
"2022-07-25T11:05:52.648-0400"
]
}
}