{
"document" : {
"data" : {
"NAME" : "GROUP_ALIASES_TABLE",
"COMMENT" : "Default Backbone.",
"AUTHOR" : "admin",
"CREATION_TIME" : 1654874836,
"COL_TYPES" : {
"GROUP_KEY_ALIAS" : "STRING",
"GROUP_NAME" : "STRING",
"GROUP_KEY" : "STRING",
"COMMENT_DESCRIPTION" : "STRING",
"AUTHOR" : "STRING",
"RECORD_INSERTION_TIME" : "TIMESTAMP WITH TIMEZONE"
},
"DATA_SET" : [
{
"GROUP_KEY_ALIAS" : "DefaultContext",
"GROUP_NAME" : "DefaultContext",
"GROUP_KEY" : "50",
"COMMENT_DESCRIPTION" : "This Group Alias was automatically setup by the server.",
"AUTHOR" : "admin",
"RECORD_INSERTION_TIME" : "1653600843"
},
{
"GROUP_KEY_ALIAS" : "BurninBoxConfiguration",
"GROUP_NAME" : "BurninBoxConfiguration",
"GROUP_KEY" : "102",
"COMMENT_DESCRIPTION" : "This Group Alias was automatically setup by the server.",
"AUTHOR" : "admin",
"RECORD_INSERTION_TIME" : "1654874836"
},
{
"GROUP_KEY_ALIAS" : "BurninBoxOnlyContext",
"GROUP_NAME" : "DefaultContext",
"GROUP_KEY" : "43",
"COMMENT_DESCRIPTION" : "This Group Alias was automatically setup by the server.",
"AUTHOR" : "admin",
"RECORD_INSERTION_TIME" : "1632518780"
},
{
"GROUP_KEY_ALIAS" : "BurninBoxOnlyConfiguration",
"GROUP_NAME" : "BurninBoxConfiguration",
"GROUP_KEY" : "102",
"COMMENT_DESCRIPTION" : "This Group Alias was automatically setup by the server.",
"AUTHOR" : "admin",
"RECORD_INSERTION_TIME" : "1654636158"
},
{
"GROUP_KEY_ALIAS" : "TrackerOnlyConfiguration",
"GROUP_NAME" : "BurninBoxConfiguration",
"GROUP_KEY" : "89",
"COMMENT_DESCRIPTION" : "This Group Alias was automatically setup by the server.",
"AUTHOR" : "admin",
"RECORD_INSERTION_TIME" : "1650482925"
},
{
"GROUP_KEY_ALIAS" : "TrackerOnlyContext",
"GROUP_NAME" : "DefaultContext",
"GROUP_KEY" : "43",
"COMMENT_DESCRIPTION" : "This Group Alias was automatically setup by the server.",
"AUTHOR" : "admin",
"RECORD_INSERTION_TIME" : "1636583603"
}
]
},
"metadata" : {

},
"search" : [

]
},
"comments" : [

],
"origin" : {
"source" : "template",
"name" : "notprovided",
"format" : "json",
"created" : "2022-06-10T10:27:16.957-0500",
"rawdata" : [

]
},
"version" : "249",
"entities" : [
{
"name" : "OTSROOT",
"assigned" : "2022-06-10T10:27:16.957-0500"
}
],
"configurations" : [
{
"name" : "notprovided",
"assigned" : "2022-06-10T10:27:16.957-0500"
},
{
"name" : "GroupAliasWizBackbone_v8",
"assigned" : "2022-06-10T10:27:18.365-0500"
}
],
"changelog" : "notprovided",
"bookkeeping" : {
"isdeleted" : false,
"isreadonly" : false,
"updates" : [
{
"event" : "addConfiguration",
"timestamp" : "2022-06-10T10:27:16.957-0500",
"value" : {
"name" : "notprovided",
"assigned" : "2022-06-10T10:27:16.957-0500"
}
},
{
"event" : "setVersion",
"timestamp" : "2022-06-10T10:27:16.957-0500",
"value" : {
"name" : "249",
"assigned" : "2022-06-10T10:27:16.957-0500"
}
},
{
"event" : "setCollection",
"timestamp" : "2022-06-10T10:27:16.957-0500",
"value" : {
"name" : "GroupAliasesTable",
"assigned" : "2022-06-10T10:27:16.957-0500"
}
},
{
"event" : "addEntity",
"timestamp" : "2022-06-10T10:27:16.957-0500",
"value" : {
"name" : "OTSROOT",
"assigned" : "2022-06-10T10:27:16.957-0500"
}
},
{
"event" : "addConfiguration",
"timestamp" : "2022-06-10T10:27:18.365-0500",
"value" : {
"name" : "GroupAliasWizBackbone_v8",
"assigned" : "2022-06-10T10:27:18.365-0500"
}
}
],
"created" : "2022-06-10T10:27:16.957-0500"
},
"_id" : {
"$oid" : "ad8c520dba3346f9a97a2f63"
},
"collection" : "GroupAliasesTable",
"aliases" : {
"active" : [

],
"history" : [

]
},
"runs" : [

],
"attachments" : [

],
"configtype" : "notprovided"
}