{
"document" : {
"data" : {
"NAME" : "FECMS_BURNIN_BOX_INTERFACE_TABLE",
"COMMENT" : "No comment.",
"AUTHOR" : "admin",
"CREATION_TIME" : 1536678060,
"COL_TYPES" : {
"INTERFACE_ID" : "VARCHAR2",
"STATUS" : "VARCHAR2",
"INTERFACE_IP_ADDRESS" : "VARCHAR2",
"INTERFACE_PORT" : "NUMBER",
"HOST_IP_ADDRESS" : "VARCHAR2",
"HOST_PORT" : "NUMBER",
"STREAM_TO_IP_ADDRESS" : "VARCHAR2",
"STREAM_TO_PORT" : "NUMBER",
"SET_TEMPERATURE" : "NUMBER",
"TOLERANCE" : "NUMBER",
"STOP_TEMPERATURE" : "NUMBER",
"COMMENT_DESCRIPTION" : "VARCHAR2",
"AUTHOR" : "VARCHAR2",
"RECORD_INSERTION_TIME" : "TIMESTAMP WITH TIMEZONE"
},
"DATA_SET" : [
{
"INTERFACE_ID" : "FEBurninBox0",
"STATUS" : "On",
"INTERFACE_IP_ADDRESS" : "192.168.133.241",
"INTERFACE_PORT" : "5000",
"HOST_IP_ADDRESS" : "127.0.0.1",
"HOST_PORT" : "10000",
"STREAM_TO_IP_ADDRESS" : "192.168.133.100",
"STREAM_TO_PORT" : "50000",
"SET_TEMPERATURE" : "10",
"TOLERANCE" : "0.2",
"STOP_TEMPERATURE" : "25",
"COMMENT_DESCRIPTION" : "No Comment",
"AUTHOR" : "admin",
"RECORD_INSERTION_TIME" : "1536678060"
}
]
},
"metadata" : {

},
"search" : [

]
},
"comments" : [

],
"origin" : {
"source" : "template",
"name" : "notprovided",
"format" : "json",
"created" : "2018-09-11T10:01:00.404-0500",
"rawdata" : [

]
},
"version" : "3",
"entities" : [
{
"name" : "OTSROOT",
"assigned" : "2018-09-11T10:01:00.406-0500"
}
],
"tables" : [
{
"name" : "notprovided",
"assigned" : "2018-09-11T10:01:00.405-0500"
},
{
"name" : "BurninBoxConfig_v4",
"assigned" : "2018-09-11T10:01:19.280-0500"
},
{
"name" : "BurninBoxConfig_v5",
"assigned" : "2018-09-11T10:11:15.846-0500"
}
],
"changelog" : "notprovided",
"bookkeeping" : {
"isdeleted" : false,
"isreadonly" : false,
"updates" : [
{
"event" : "addTable",
"timestamp" : "2018-09-11T10:01:00.405-0500",
"value" : {
"name" : "notprovided",
"assigned" : "2018-09-11T10:01:00.405-0500"
}
},
{
"event" : "setVersion",
"timestamp" : "2018-09-11T10:01:00.405-0500",
"value" : {
"name" : "3",
"assigned" : "2018-09-11T10:01:00.405-0500"
}
},
{
"event" : "setCollection",
"timestamp" : "2018-09-11T10:01:00.405-0500",
"value" : {
"name" : "FECMSBurninBoxInterfaceTable",
"assigned" : "2018-09-11T10:01:00.405-0500"
}
},
{
"event" : "addEntity",
"timestamp" : "2018-09-11T10:01:00.406-0500",
"value" : {
"name" : "OTSROOT",
"assigned" : "2018-09-11T10:01:00.406-0500"
}
},
{
"event" : "addTable",
"timestamp" : "2018-09-11T10:01:19.280-0500",
"value" : {
"name" : "BurninBoxConfig_v4",
"assigned" : "2018-09-11T10:01:19.280-0500"
}
},
{
"event" : "addTable",
"timestamp" : "2018-09-11T10:11:15.846-0500",
"value" : {
"name" : "BurninBoxConfig_v5",
"assigned" : "2018-09-11T10:11:15.846-0500"
}
}
],
"created" : "2018-09-11T10:01:00.404-0500"
},
"_id" : {
"$oid" : "795b2875095446889b5d733e"
},
"collection" : "FECMSBurninBoxInterfaceTable",
"aliases" : {
"active" : [

],
"history" : [

]
},
"runs" : [

],
"attachments" : [

],
"configtype" : "notprovided"
}