{
"ouid" : [
"d7eac573bf5949f1af801ac6"
],
"version" : {
"0" : [
"d7eac573bf5949f1af801ac6"
]
},
"configurations.name" : {
"notprovided" : [
"d7eac573bf5949f1af801ac6"
],
"BurninBoxConfiguration_v123" : [
"d7eac573bf5949f1af801ac6"
],
"BurninBoxConfiguration_v124" : [
"d7eac573bf5949f1af801ac6"
],
"BurninBoxConfiguration_v125" : [
"d7eac573bf5949f1af801ac6"
],
"BurninBoxConfiguration_v126" : [
"d7eac573bf5949f1af801ac6"
],
"BurninBoxConfiguration_v127" : [
"d7eac573bf5949f1af801ac6"
],
"BurninBoxConfiguration_v128" : [
"d7eac573bf5949f1af801ac6"
],
"BurninBoxConfiguration_v129" : [
"d7eac573bf5949f1af801ac6"
],
"BurninBoxConfiguration_v130" : [
"d7eac573bf5949f1af801ac6"
],
"BurninBoxConfiguration_v131" : [
"d7eac573bf5949f1af801ac6"
],
"BurninBoxConfiguration_v132" : [
"d7eac573bf5949f1af801ac6"
],
"BurninBoxConfiguration_v133" : [
"d7eac573bf5949f1af801ac6"
],
"BurninBoxConfiguration_v134" : [
"d7eac573bf5949f1af801ac6"
],
"BurninBoxConfiguration_v135" : [
"d7eac573bf5949f1af801ac6"
],
"BurninBoxConfiguration_v136" : [
"d7eac573bf5949f1af801ac6"
],
"BurninBoxConfiguration_v137" : [
"d7eac573bf5949f1af801ac6"
],
"BurninBoxConfiguration_v138" : [
"d7eac573bf5949f1af801ac6"
],
"BurninBoxConfiguration_v139" : [
"d7eac573bf5949f1af801ac6"
],
"BurninBoxConfiguration_v140" : [
"d7eac573bf5949f1af801ac6"
],
"BurninBoxConfiguration_v141" : [
"d7eac573bf5949f1af801ac6"
],
"BurninBoxConfiguration_v142" : [
"d7eac573bf5949f1af801ac6"
],
"BurninBoxConfiguration_v143" : [
"d7eac573bf5949f1af801ac6"
],
"BurninBoxConfiguration_v144" : [
"d7eac573bf5949f1af801ac6"
],
"BurninBoxConfiguration_v145" : [
"d7eac573bf5949f1af801ac6"
],
"BurninBoxConfiguration_v146" : [
"d7eac573bf5949f1af801ac6"
],
"BurninBoxConfiguration_v147" : [
"d7eac573bf5949f1af801ac6"
],
"BurninBoxConfiguration_v148" : [
"d7eac573bf5949f1af801ac6"
],
"BurninBoxConfiguration_v149" : [
"d7eac573bf5949f1af801ac6"
],
"BurninBoxConfiguration_v150" : [
"d7eac573bf5949f1af801ac6"
]
},
"entities.name" : {
"OTSROOT" : [
"d7eac573bf5949f1af801ac6"
]
},
"aliases.active.name" : {

},
"runs.name" : {

},
"configurations.assigned" : {
"notprovided" : [
"2023-04-04T13:42:24.514-0500"
],
"BurninBoxConfiguration_v123" : [
"2023-04-04T13:48:51.145-0500"
],
"BurninBoxConfiguration_v124" : [
"2023-04-04T13:51:58.303-0500"
],
"BurninBoxConfiguration_v125" : [
"2023-04-04T14:30:59.640-0500"
],
"BurninBoxConfiguration_v126" : [
"2023-04-04T16:05:03.818-0500"
],
"BurninBoxConfiguration_v127" : [
"2023-04-07T10:09:31.674-0500"
],
"BurninBoxConfiguration_v128" : [
"2023-04-07T16:20:28.997-0500"
],
"BurninBoxConfiguration_v129" : [
"2023-04-14T10:53:43.190-0500"
],
"BurninBoxConfiguration_v130" : [
"2023-04-14T11:01:22.848-0500"
],
"BurninBoxConfiguration_v131" : [
"2023-04-14T11:05:24.906-0500"
],
"BurninBoxConfiguration_v132" : [
"2023-04-14T12:25:10.061-0500"
],
"BurninBoxConfiguration_v133" : [
"2023-04-14T14:03:26.120-0500"
],
"BurninBoxConfiguration_v134" : [
"2023-04-14T15:36:48.738-0500"
],
"BurninBoxConfiguration_v135" : [
"2023-04-14T15:57:03.302-0500"
],
"BurninBoxConfiguration_v136" : [
"2023-04-14T15:58:59.794-0500"
],
"BurninBoxConfiguration_v137" : [
"2023-04-14T16:18:31.932-0500"
],
"BurninBoxConfiguration_v138" : [
"2023-04-14T16:20:11.143-0500"
],
"BurninBoxConfiguration_v139" : [
"2023-04-17T15:51:48.019-0500"
],
"BurninBoxConfiguration_v140" : [
"2023-04-18T10:48:01.428-0500"
],
"BurninBoxConfiguration_v141" : [
"2023-04-18T12:02:40.528-0500"
],
"BurninBoxConfiguration_v142" : [
"2023-04-18T12:03:56.039-0500"
],
"BurninBoxConfiguration_v143" : [
"2023-04-18T13:48:30.962-0500"
],
"BurninBoxConfiguration_v144" : [
"2023-04-18T14:33:54.307-0500"
],
"BurninBoxConfiguration_v145" : [
"2023-04-18T16:14:30.801-0500"
],
"BurninBoxConfiguration_v146" : [
"2023-04-18T16:20:20.385-0500"
],
"BurninBoxConfiguration_v147" : [
"2023-04-21T15:02:47.297-0500"
],
"BurninBoxConfiguration_v148" : [
"2023-05-09T09:06:43.514-0500"
],
"BurninBoxConfiguration_v149" : [
"2023-05-11T08:26:01.668-0500"
],
"BurninBoxConfiguration_v150" : [
"2023-09-28T16:19:06.505+0200"
]
}
}