{
"document" : {
"data" : {
"NAME" : "XDAQ_APPLICATION_PROPERTY_TABLE",
"COMMENT" : "No comment.",
"AUTHOR" : "admin",
"CREATION_TIME" : 1534971676,
"COL_TYPES" : {
"PROPERTY_GROUP_ID" : "VARCHAR2",
"UID" : "VARCHAR2",
"STATUS" : "VARCHAR2",
"PROPERTY_NAME" : "VARCHAR2",
"PROPERTY_TYPE" : "VARCHAR2",
"PROPERTY_VALUE" : "VARCHAR2",
"COMMENT_DESCRIPTION" : "VARCHAR2",
"AUTHOR" : "VARCHAR2",
"RECORD_INSERTION_TIME" : "TIMESTAMP WITH TIMEZONE"
},
"DATA_SET" : [
{
"PROPERTY_GROUP_ID" : "ACFSupervisor0",
"UID" : "FedID",
"STATUS" : "On",
"PROPERTY_NAME" : "FedID",
"PROPERTY_TYPE" : "xsd:unsignedShort",
"PROPERTY_VALUE" : "51",
"COMMENT_DESCRIPTION" : "No Comment",
"AUTHOR" : "admin",
"RECORD_INSERTION_TIME" : "1534954759"
},
{
"PROPERTY_GROUP_ID" : "ACFSupervisor0",
"UID" : "HWDescriptionFile",
"STATUS" : "On",
"PROPERTY_NAME" : "HWDescriptionFile",
"PROPERTY_TYPE" : "xsd:string",
"PROPERTY_VALUE" : "${PH2ACF_BASE_DIR}/settings/Commissioning_MiniModule_SiDet.xml",
"COMMENT_DESCRIPTION" : "No Comment",
"AUTHOR" : "admin",
"RECORD_INSERTION_TIME" : "1534971639"
},
{
"PROPERTY_GROUP_ID" : "ACFSupervisor0",
"UID" : "DataDirectory",
"STATUS" : "On",
"PROPERTY_NAME" : "DataDirectory",
"PROPERTY_TYPE" : "xsd:string",
"PROPERTY_VALUE" : "${OTSDAQ_DATA}",
"COMMENT_DESCRIPTION" : "No Comment",
"AUTHOR" : "admin",
"RECORD_INSERTION_TIME" : "1534954997"
},
{
"PROPERTY_GROUP_ID" : "ACFSupervisor0",
"UID" : "ResultDirectory",
"STATUS" : "On",
"PROPERTY_NAME" : "ResultDirectory",
"PROPERTY_TYPE" : "xsd:string",
"PROPERTY_VALUE" : "${OTSDAQ_DATA}/Result",
"COMMENT_DESCRIPTION" : "No Comment",
"AUTHOR" : "admin",
"RECORD_INSERTION_TIME" : "1534954997"
},
{
"PROPERTY_GROUP_ID" : "ACFSupervisor0",
"UID" : "runNumber",
"STATUS" : "On",
"PROPERTY_NAME" : "runNumber",
"PROPERTY_TYPE" : "xsd:integer",
"PROPERTY_VALUE" : "-1",
"COMMENT_DESCRIPTION" : "No Comment",
"AUTHOR" : "admin",
"RECORD_INSERTION_TIME" : "1534954997"
},
{
"PROPERTY_GROUP_ID" : "ACFSupervisor0",
"UID" : "NEvents",
"STATUS" : "On",
"PROPERTY_NAME" : "NEvents",
"PROPERTY_TYPE" : "xsd:unsignedInt",
"PROPERTY_VALUE" : "0",
"COMMENT_DESCRIPTION" : "No Comment",
"AUTHOR" : "admin",
"RECORD_INSERTION_TIME" : "1534954997"
},
{
"PROPERTY_GROUP_ID" : "ACFSupervisor0",
"UID" : "WriteRAW",
"STATUS" : "On",
"PROPERTY_NAME" : "WriteRAW",
"PROPERTY_TYPE" : "xsd:boolean",
"PROPERTY_VALUE" : "true",
"COMMENT_DESCRIPTION" : "No Comment",
"AUTHOR" : "admin",
"RECORD_INSERTION_TIME" : "1534954997"
},
{
"PROPERTY_GROUP_ID" : "ACFSupervisor0",
"UID" : "WriteDAQ",
"STATUS" : "On",
"PROPERTY_NAME" : "WriteDAQ",
"PROPERTY_TYPE" : "xsd:boolean",
"PROPERTY_VALUE" : "true",
"COMMENT_DESCRIPTION" : "No Comment",
"AUTHOR" : "admin",
"RECORD_INSERTION_TIME" : "1534954997"
},
{
"PROPERTY_GROUP_ID" : "ACFSupervisor0",
"UID" : "ShortPause",
"STATUS" : "On",
"PROPERTY_NAME" : "ShortPause",
"PROPERTY_TYPE" : "xsd:integer",
"PROPERTY_VALUE" : "10",
"COMMENT_DESCRIPTION" : "No Comment",
"AUTHOR" : "admin",
"RECORD_INSERTION_TIME" : "1534954997"
},
{
"PROPERTY_GROUP_ID" : "ACFSupervisor0",
"UID" : "THttpServerPort",
"STATUS" : "On",
"PROPERTY_NAME" : "THttpServerPort",
"PROPERTY_TYPE" : "xsd:integer",
"PROPERTY_VALUE" : "9090",
"COMMENT_DESCRIPTION" : "No Comment",
"AUTHOR" : "admin",
"RECORD_INSERTION_TIME" : "1534954997"
},
{
"PROPERTY_GROUP_ID" : "ACFSupervisor0",
"UID" : "SendData",
"STATUS" : "On",
"PROPERTY_NAME" : "SendData",
"PROPERTY_TYPE" : "xsd:boolean",
"PROPERTY_VALUE" : "false",
"COMMENT_DESCRIPTION" : "No Comment",
"AUTHOR" : "admin",
"RECORD_INSERTION_TIME" : "1534954997"
},
{
"PROPERTY_GROUP_ID" : "ACFSupervisor0",
"UID" : "DataDestination",
"STATUS" : "On",
"PROPERTY_NAME" : "DataDestination",
"PROPERTY_TYPE" : "xsd:string",
"PROPERTY_VALUE" : "DQM",
"COMMENT_DESCRIPTION" : "No Comment",
"AUTHOR" : "admin",
"RECORD_INSERTION_TIME" : "1534954997"
},
{
"PROPERTY_GROUP_ID" : "ACFSupervisor0",
"UID" : "DQMPostScale",
"STATUS" : "On",
"PROPERTY_NAME" : "DQMPostScale",
"PROPERTY_TYPE" : "xsd:integer",
"PROPERTY_VALUE" : "1",
"COMMENT_DESCRIPTION" : "No Comment",
"AUTHOR" : "admin",
"RECORD_INSERTION_TIME" : "1534954997"
},
{
"PROPERTY_GROUP_ID" : "ACFSupervisor0",
"UID" : "DataSourceHost",
"STATUS" : "On",
"PROPERTY_NAME" : "DataSourceHost",
"PROPERTY_TYPE" : "xsd:string",
"PROPERTY_VALUE" : "localhost",
"COMMENT_DESCRIPTION" : "No Comment",
"AUTHOR" : "admin",
"RECORD_INSERTION_TIME" : "1534954997"
},
{
"PROPERTY_GROUP_ID" : "ACFSupervisor0",
"UID" : "DataSourcePort",
"STATUS" : "On",
"PROPERTY_NAME" : "DataSourcePort",
"PROPERTY_TYPE" : "xsd:integer",
"PROPERTY_VALUE" : "60000",
"COMMENT_DESCRIPTION" : "No Comment",
"AUTHOR" : "admin",
"RECORD_INSERTION_TIME" : "1534954997"
},
{
"PROPERTY_GROUP_ID" : "ACFSupervisor0",
"UID" : "DataSinkHost",
"STATUS" : "On",
"PROPERTY_NAME" : "DataSinkHost",
"PROPERTY_TYPE" : "xsd:string",
"PROPERTY_VALUE" : "localhost",
"COMMENT_DESCRIPTION" : "No Comment",
"AUTHOR" : "admin",
"RECORD_INSERTION_TIME" : "1534954997"
},
{
"PROPERTY_GROUP_ID" : "ACFSupervisor0",
"UID" : "DataSinkPort",
"STATUS" : "On",
"PROPERTY_NAME" : "DataSinkPort",
"PROPERTY_TYPE" : "xsd:integer",
"PROPERTY_VALUE" : "50000",
"COMMENT_DESCRIPTION" : "No Comment",
"AUTHOR" : "admin",
"RECORD_INSERTION_TIME" : "1534954997"
},
{
"PROPERTY_GROUP_ID" : "ACFSupervisor0",
"UID" : "PlaybackMode",
"STATUS" : "On",
"PROPERTY_NAME" : "PlaybackMode",
"PROPERTY_TYPE" : "xsd:boolean",
"PROPERTY_VALUE" : "false",
"COMMENT_DESCRIPTION" : "No Comment",
"AUTHOR" : "admin",
"RECORD_INSERTION_TIME" : "1534954997"
},
{
"PROPERTY_GROUP_ID" : "ACFSupervisor0",
"UID" : "PlaybackFile",
"STATUS" : "On",
"PROPERTY_NAME" : "PlaybackFile",
"PROPERTY_TYPE" : "xsd:string",
"PROPERTY_VALUE" : "",
"COMMENT_DESCRIPTION" : "No Comment",
"AUTHOR" : "admin",
"RECORD_INSERTION_TIME" : "1534954997"
}
]
},
"metadata" : {

},
"search" : [

]
},
"comments" : [

],
"origin" : {
"source" : "template",
"name" : "notprovided",
"format" : "json",
"created" : "2018-09-06T17:34:15.139-0500",
"rawdata" : [

]
},
"version" : "1",
"entities" : [
{
"name" : "OTSROOT",
"assigned" : "2018-09-06T17:34:15.146-0500"
}
],
"tables" : [
{
"name" : "notprovided",
"assigned" : "2018-09-06T17:34:15.142-0500"
},
{
"name" : "DefaultContext_v1",
"assigned" : "2018-09-06T17:34:15.539-0500"
},
{
"name" : "DefaultContext_v2",
"assigned" : "2018-09-10T09:24:24.239-0500"
},
{
"name" : "DefaultContext_v3",
"assigned" : "2018-09-11T10:00:20.550-0500"
}
],
"changelog" : "notprovided",
"bookkeeping" : {
"isdeleted" : false,
"isreadonly" : false,
"updates" : [
{
"event" : "addTable",
"timestamp" : "2018-09-06T17:34:15.142-0500",
"value" : {
"name" : "notprovided",
"assigned" : "2018-09-06T17:34:15.142-0500"
}
},
{
"event" : "setVersion",
"timestamp" : "2018-09-06T17:34:15.144-0500",
"value" : {
"name" : "1",
"assigned" : "2018-09-06T17:34:15.144-0500"
}
},
{
"event" : "setCollection",
"timestamp" : "2018-09-06T17:34:15.145-0500",
"value" : {
"name" : "XDAQApplicationPropertyTable",
"assigned" : "2018-09-06T17:34:15.145-0500"
}
},
{
"event" : "addEntity",
"timestamp" : "2018-09-06T17:34:15.146-0500",
"value" : {
"name" : "OTSROOT",
"assigned" : "2018-09-06T17:34:15.146-0500"
}
},
{
"event" : "addTable",
"timestamp" : "2018-09-06T17:34:15.539-0500",
"value" : {
"name" : "DefaultContext_v1",
"assigned" : "2018-09-06T17:34:15.539-0500"
}
},
{
"event" : "addTable",
"timestamp" : "2018-09-10T09:24:24.239-0500",
"value" : {
"name" : "DefaultContext_v2",
"assigned" : "2018-09-10T09:24:24.239-0500"
}
},
{
"event" : "addTable",
"timestamp" : "2018-09-11T10:00:20.550-0500",
"value" : {
"name" : "DefaultContext_v3",
"assigned" : "2018-09-11T10:00:20.550-0500"
}
},
{
"event" : "addConfiguration",
"timestamp" : "2019-10-22T14:55:21.356-0500",
"value" : {
"name" : "DefaultContext_v4",
"assigned" : "2019-10-22T14:55:21.356-0500"
}
},
{
"event" : "addConfiguration",
"timestamp" : "2020-06-29T11:00:05.390-0500",
"value" : {
"name" : "DefaultContext_v5",
"assigned" : "2020-06-29T11:00:05.390-0500"
}
},
{
"event" : "addConfiguration",
"timestamp" : "2020-07-29T16:01:22.507-0500",
"value" : {
"name" : "DefaultContext_v6",
"assigned" : "2020-07-29T16:01:22.507-0500"
}
},
{
"event" : "addConfiguration",
"timestamp" : "2020-07-29T16:34:42.871-0500",
"value" : {
"name" : "DefaultContext_v7",
"assigned" : "2020-07-29T16:34:42.871-0500"
}
},
{
"event" : "addConfiguration",
"timestamp" : "2020-07-29T16:39:53.703-0500",
"value" : {
"name" : "DefaultContext_v8",
"assigned" : "2020-07-29T16:39:53.703-0500"
}
},
{
"event" : "addConfiguration",
"timestamp" : "2020-07-29T16:40:44.320-0500",
"value" : {
"name" : "DefaultContext_v9",
"assigned" : "2020-07-29T16:40:44.320-0500"
}
},
{
"event" : "addConfiguration",
"timestamp" : "2020-07-29T16:45:01.615-0500",
"value" : {
"name" : "DefaultContext_v10",
"assigned" : "2020-07-29T16:45:01.615-0500"
}
},
{
"event" : "addConfiguration",
"timestamp" : "2020-07-29T16:49:16.426-0500",
"value" : {
"name" : "DefaultContext_v11",
"assigned" : "2020-07-29T16:49:16.426-0500"
}
},
{
"event" : "addConfiguration",
"timestamp" : "2020-09-02T15:22:09.601-0500",
"value" : {
"name" : "DefaultContext_v12",
"assigned" : "2020-09-02T15:22:09.601-0500"
}
},
{
"event" : "addConfiguration",
"timestamp" : "2020-10-05T17:04:58.334-0500",
"value" : {
"name" : "DefaultContext_v13",
"assigned" : "2020-10-05T17:04:58.334-0500"
}
},
{
"event" : "addConfiguration",
"timestamp" : "2020-10-05T17:07:06.847-0500",
"value" : {
"name" : "DefaultContext_v14",
"assigned" : "2020-10-05T17:07:06.847-0500"
}
},
{
"event" : "addConfiguration",
"timestamp" : "2020-10-05T17:43:27.275-0500",
"value" : {
"name" : "DefaultContext_v15",
"assigned" : "2020-10-05T17:43:27.275-0500"
}
},
{
"event" : "addConfiguration",
"timestamp" : "2020-10-05T17:51:30.225-0500",
"value" : {
"name" : "DefaultContext_v16",
"assigned" : "2020-10-05T17:51:30.225-0500"
}
},
{
"event" : "addConfiguration",
"timestamp" : "2020-10-09T11:58:10.331-0500",
"value" : {
"name" : "DefaultContext_v17",
"assigned" : "2020-10-09T11:58:10.331-0500"
}
},
{
"event" : "addConfiguration",
"timestamp" : "2020-10-09T12:53:54.044-0500",
"value" : {
"name" : "DefaultContext_v18",
"assigned" : "2020-10-09T12:53:54.044-0500"
}
},
{
"event" : "addConfiguration",
"timestamp" : "2020-10-09T12:57:06.805-0500",
"value" : {
"name" : "DefaultContext_v19",
"assigned" : "2020-10-09T12:57:06.805-0500"
}
},
{
"event" : "addConfiguration",
"timestamp" : "2020-10-09T13:00:58.123-0500",
"value" : {
"name" : "DefaultContext_v20",
"assigned" : "2020-10-09T13:00:58.123-0500"
}
},
{
"event" : "addConfiguration",
"timestamp" : "2020-10-09T15:30:48.578-0500",
"value" : {
"name" : "DefaultContext_v21",
"assigned" : "2020-10-09T15:30:48.578-0500"
}
},
{
"event" : "addConfiguration",
"timestamp" : "2020-10-09T15:32:24.253-0500",
"value" : {
"name" : "DefaultContext_v22",
"assigned" : "2020-10-09T15:32:24.253-0500"
}
},
{
"event" : "addConfiguration",
"timestamp" : "2020-10-09T15:32:58.623-0500",
"value" : {
"name" : "DefaultContext_v23",
"assigned" : "2020-10-09T15:32:58.623-0500"
}
},
{
"event" : "addConfiguration",
"timestamp" : "2020-10-09T16:47:19.208-0500",
"value" : {
"name" : "DefaultContext_v24",
"assigned" : "2020-10-09T16:47:19.208-0500"
}
},
{
"event" : "addConfiguration",
"timestamp" : "2020-10-12T09:37:50.090-0500",
"value" : {
"name" : "DefaultContext_v25",
"assigned" : "2020-10-12T09:37:50.090-0500"
}
},
{
"event" : "addConfiguration",
"timestamp" : "2020-10-12T09:41:39.607-0500",
"value" : {
"name" : "DefaultContext_v26",
"assigned" : "2020-10-12T09:41:39.607-0500"
}
},
{
"event" : "addConfiguration",
"timestamp" : "2020-10-29T11:54:28.508-0500",
"value" : {
"name" : "DefaultContext_v27",
"assigned" : "2020-10-29T11:54:28.508-0500"
}
},
{
"event" : "addConfiguration",
"timestamp" : "2020-10-29T11:54:56.494-0500",
"value" : {
"name" : "DefaultContext_v28",
"assigned" : "2020-10-29T11:54:56.494-0500"
}
},
{
"event" : "addConfiguration",
"timestamp" : "2020-10-29T13:33:31.232-0500",
"value" : {
"name" : "DefaultContext_v29",
"assigned" : "2020-10-29T13:33:31.232-0500"
}
},
{
"event" : "addConfiguration",
"timestamp" : "2020-11-16T17:04:43.497-0600",
"value" : {
"name" : "DefaultContext_v30",
"assigned" : "2020-11-16T17:04:43.497-0600"
}
},
{
"event" : "addConfiguration",
"timestamp" : "2020-11-16T17:07:49.856-0600",
"value" : {
"name" : "DefaultContext_v31",
"assigned" : "2020-11-16T17:07:49.856-0600"
}
},
{
"event" : "addConfiguration",
"timestamp" : "2020-11-16T17:10:04.000-0600",
"value" : {
"name" : "DefaultContext_v32",
"assigned" : "2020-11-16T17:10:04.000-0600"
}
},
{
"event" : "addConfiguration",
"timestamp" : "2021-07-07T14:45:52.417-0500",
"value" : {
"name" : "DefaultContext_v33",
"assigned" : "2021-07-07T14:45:52.416-0500"
}
},
{
"event" : "addConfiguration",
"timestamp" : "2021-07-07T16:02:04.520-0500",
"value" : {
"name" : "DefaultContext_v34",
"assigned" : "2021-07-07T16:02:04.520-0500"
}
},
{
"event" : "addConfiguration",
"timestamp" : "2021-07-07T16:05:38.064-0500",
"value" : {
"name" : "DefaultContext_v35",
"assigned" : "2021-07-07T16:05:38.064-0500"
}
},
{
"event" : "addConfiguration",
"timestamp" : "2021-07-08T14:00:20.597-0500",
"value" : {
"name" : "DefaultContext_v36",
"assigned" : "2021-07-08T14:00:20.597-0500"
}
},
{
"event" : "addConfiguration",
"timestamp" : "2021-07-08T14:17:00.296-0500",
"value" : {
"name" : "DefaultContext_v37",
"assigned" : "2021-07-08T14:17:00.296-0500"
}
},
{
"event" : "addConfiguration",
"timestamp" : "2021-07-08T16:21:56.410-0500",
"value" : {
"name" : "DefaultContext_v38",
"assigned" : "2021-07-08T16:21:56.410-0500"
}
},
{
"event" : "addConfiguration",
"timestamp" : "2021-07-08T16:24:39.567-0500",
"value" : {
"name" : "DefaultContext_v39",
"assigned" : "2021-07-08T16:24:39.567-0500"
}
},
{
"event" : "addConfiguration",
"timestamp" : "2021-07-14T13:02:14.370-0500",
"value" : {
"name" : "DefaultContext_v40",
"assigned" : "2021-07-14T13:02:14.370-0500"
}
},
{
"event" : "addConfiguration",
"timestamp" : "2021-07-14T13:03:01.507-0500",
"value" : {
"name" : "DefaultContext_v41",
"assigned" : "2021-07-14T13:03:01.507-0500"
}
},
{
"event" : "addConfiguration",
"timestamp" : "2021-07-14T14:39:31.968-0500",
"value" : {
"name" : "DefaultContext_v42",
"assigned" : "2021-07-14T14:39:31.968-0500"
}
},
{
"event" : "addConfiguration",
"timestamp" : "2021-07-21T12:08:22.803-0500",
"value" : {
"name" : "DefaultContext_v43",
"assigned" : "2021-07-21T12:08:22.803-0500"
}
},
{
"event" : "addConfiguration",
"timestamp" : "2021-08-03T11:10:39.784-0500",
"value" : {
"name" : "DefaultContext_v44",
"assigned" : "2021-08-03T11:10:39.784-0500"
}
},
{
"event" : "addConfiguration",
"timestamp" : "2021-09-02T14:08:01.152-0500",
"value" : {
"name" : "DefaultContext_v45",
"assigned" : "2021-09-02T14:08:01.152-0500"
}
},
{
"event" : "addConfiguration",
"timestamp" : "2021-09-24T15:36:52.792-0500",
"value" : {
"name" : "DefaultContext_v46",
"assigned" : "2021-09-24T15:36:52.792-0500"
}
},
{
"event" : "addConfiguration",
"timestamp" : "2021-09-28T10:22:57.832-0500",
"value" : {
"name" : "DefaultContext_v47",
"assigned" : "2021-09-28T10:22:57.832-0500"
}
},
{
"event" : "addConfiguration",
"timestamp" : "2021-11-10T15:11:05.519-0600",
"value" : {
"name" : "DefaultContext_v48",
"assigned" : "2021-11-10T15:11:05.519-0600"
}
},
{
"event" : "addConfiguration",
"timestamp" : "2022-04-18T12:56:04.492-0400",
"value" : {
"name" : "DefaultContext_v49",
"assigned" : "2022-04-18T12:56:04.492-0400"
}
},
{
"event" : "addConfiguration",
"timestamp" : "2022-04-20T10:06:52.409-0400",
"value" : {
"name" : "DefaultContext_v50",
"assigned" : "2022-04-20T10:06:52.409-0400"
}
}
],
"created" : "2018-09-06T17:34:15.139-0500"
},
"_id" : {
"$oid" : "8407e3c724ca428ca6e11045"
},
"collection" : "XDAQApplicationPropertyTable",
"aliases" : {
"active" : [

],
"history" : [

]
},
"runs" : [

],
"attachments" : [

],
"configtype" : "notprovided",
"configurations" : [
{
"name" : "DefaultContext_v4",
"assigned" : "2019-10-22T14:55:21.356-0500"
},
{
"name" : "DefaultContext_v5",
"assigned" : "2020-06-29T11:00:05.390-0500"
},
{
"name" : "DefaultContext_v6",
"assigned" : "2020-07-29T16:01:22.507-0500"
},
{
"name" : "DefaultContext_v7",
"assigned" : "2020-07-29T16:34:42.871-0500"
},
{
"name" : "DefaultContext_v8",
"assigned" : "2020-07-29T16:39:53.703-0500"
},
{
"name" : "DefaultContext_v9",
"assigned" : "2020-07-29T16:40:44.320-0500"
},
{
"name" : "DefaultContext_v10",
"assigned" : "2020-07-29T16:45:01.615-0500"
},
{
"name" : "DefaultContext_v11",
"assigned" : "2020-07-29T16:49:16.426-0500"
},
{
"name" : "DefaultContext_v12",
"assigned" : "2020-09-02T15:22:09.601-0500"
},
{
"name" : "DefaultContext_v13",
"assigned" : "2020-10-05T17:04:58.334-0500"
},
{
"name" : "DefaultContext_v14",
"assigned" : "2020-10-05T17:07:06.847-0500"
},
{
"name" : "DefaultContext_v15",
"assigned" : "2020-10-05T17:43:27.275-0500"
},
{
"name" : "DefaultContext_v16",
"assigned" : "2020-10-05T17:51:30.225-0500"
},
{
"name" : "DefaultContext_v17",
"assigned" : "2020-10-09T11:58:10.331-0500"
},
{
"name" : "DefaultContext_v18",
"assigned" : "2020-10-09T12:53:54.044-0500"
},
{
"name" : "DefaultContext_v19",
"assigned" : "2020-10-09T12:57:06.805-0500"
},
{
"name" : "DefaultContext_v20",
"assigned" : "2020-10-09T13:00:58.123-0500"
},
{
"name" : "DefaultContext_v21",
"assigned" : "2020-10-09T15:30:48.578-0500"
},
{
"name" : "DefaultContext_v22",
"assigned" : "2020-10-09T15:32:24.253-0500"
},
{
"name" : "DefaultContext_v23",
"assigned" : "2020-10-09T15:32:58.623-0500"
},
{
"name" : "DefaultContext_v24",
"assigned" : "2020-10-09T16:47:19.208-0500"
},
{
"name" : "DefaultContext_v25",
"assigned" : "2020-10-12T09:37:50.090-0500"
},
{
"name" : "DefaultContext_v26",
"assigned" : "2020-10-12T09:41:39.607-0500"
},
{
"name" : "DefaultContext_v27",
"assigned" : "2020-10-29T11:54:28.508-0500"
},
{
"name" : "DefaultContext_v28",
"assigned" : "2020-10-29T11:54:56.494-0500"
},
{
"name" : "DefaultContext_v29",
"assigned" : "2020-10-29T13:33:31.232-0500"
},
{
"name" : "DefaultContext_v30",
"assigned" : "2020-11-16T17:04:43.497-0600"
},
{
"name" : "DefaultContext_v31",
"assigned" : "2020-11-16T17:07:49.856-0600"
},
{
"name" : "DefaultContext_v32",
"assigned" : "2020-11-16T17:10:04.000-0600"
},
{
"name" : "DefaultContext_v33",
"assigned" : "2021-07-07T14:45:52.416-0500"
},
{
"name" : "DefaultContext_v34",
"assigned" : "2021-07-07T16:02:04.520-0500"
},
{
"name" : "DefaultContext_v35",
"assigned" : "2021-07-07T16:05:38.064-0500"
},
{
"name" : "DefaultContext_v36",
"assigned" : "2021-07-08T14:00:20.597-0500"
},
{
"name" : "DefaultContext_v37",
"assigned" : "2021-07-08T14:17:00.296-0500"
},
{
"name" : "DefaultContext_v38",
"assigned" : "2021-07-08T16:21:56.410-0500"
},
{
"name" : "DefaultContext_v39",
"assigned" : "2021-07-08T16:24:39.567-0500"
},
{
"name" : "DefaultContext_v40",
"assigned" : "2021-07-14T13:02:14.370-0500"
},
{
"name" : "DefaultContext_v41",
"assigned" : "2021-07-14T13:03:01.507-0500"
},
{
"name" : "DefaultContext_v42",
"assigned" : "2021-07-14T14:39:31.968-0500"
},
{
"name" : "DefaultContext_v43",
"assigned" : "2021-07-21T12:08:22.803-0500"
},
{
"name" : "DefaultContext_v44",
"assigned" : "2021-08-03T11:10:39.784-0500"
},
{
"name" : "DefaultContext_v45",
"assigned" : "2021-09-02T14:08:01.152-0500"
},
{
"name" : "DefaultContext_v46",
"assigned" : "2021-09-24T15:36:52.792-0500"
},
{
"name" : "DefaultContext_v47",
"assigned" : "2021-09-28T10:22:57.832-0500"
},
{
"name" : "DefaultContext_v48",
"assigned" : "2021-11-10T15:11:05.519-0600"
},
{
"name" : "DefaultContext_v49",
"assigned" : "2022-04-18T12:56:04.492-0400"
},
{
"name" : "DefaultContext_v50",
"assigned" : "2022-04-20T10:06:52.409-0400"
}
]
}