{
"ouid" : [
"1232e5c914ff4af88a57c715"
],
"version" : {
"1" : [
"1232e5c914ff4af88a57c715"
]
},
"configurations.name" : {
"notprovided" : [
"1232e5c914ff4af88a57c715"
],
"DefaultContext_v1" : [
"1232e5c914ff4af88a57c715"
],
"DefaultContext_v2" : [
"1232e5c914ff4af88a57c715"
],
"DefaultContext_v3" : [
"1232e5c914ff4af88a57c715"
],
"DefaultContext_v4" : [
"1232e5c914ff4af88a57c715"
],
"DefaultContext_v5" : [
"1232e5c914ff4af88a57c715"
],
"DefaultContext_v6" : [
"1232e5c914ff4af88a57c715"
],
"DefaultContext_v7" : [
"1232e5c914ff4af88a57c715"
],
"DefaultContext_v8" : [
"1232e5c914ff4af88a57c715"
],
"DefaultContext_v9" : [
"1232e5c914ff4af88a57c715"
],
"DefaultContext_v10" : [
"1232e5c914ff4af88a57c715"
],
"DefaultContext_v11" : [
"1232e5c914ff4af88a57c715"
],
"DefaultContext_v12" : [
"1232e5c914ff4af88a57c715"
],
"DefaultContext_v13" : [
"1232e5c914ff4af88a57c715"
],
"DefaultContext_v14" : [
"1232e5c914ff4af88a57c715"
],
"DefaultContext_v15" : [
"1232e5c914ff4af88a57c715"
],
"DefaultContext_v16" : [
"1232e5c914ff4af88a57c715"
],
"DefaultContext_v17" : [
"1232e5c914ff4af88a57c715"
],
"DefaultContext_v18" : [
"1232e5c914ff4af88a57c715"
],
"DefaultContext_v19" : [
"1232e5c914ff4af88a57c715"
],
"DefaultContext_v20" : [
"1232e5c914ff4af88a57c715"
],
"DefaultContext_v21" : [
"1232e5c914ff4af88a57c715"
],
"DefaultContext_v22" : [
"1232e5c914ff4af88a57c715"
],
"DefaultContext_v23" : [
"1232e5c914ff4af88a57c715"
],
"DefaultContext_v24" : [
"1232e5c914ff4af88a57c715"
],
"DefaultContext_v25" : [
"1232e5c914ff4af88a57c715"
],
"DefaultContext_v26" : [
"1232e5c914ff4af88a57c715"
],
"DefaultContext_v27" : [
"1232e5c914ff4af88a57c715"
],
"DefaultContext_v28" : [
"1232e5c914ff4af88a57c715"
],
"DefaultContext_v29" : [
"1232e5c914ff4af88a57c715"
],
"DefaultContext_v30" : [
"1232e5c914ff4af88a57c715"
],
"DefaultContext_v31" : [
"1232e5c914ff4af88a57c715"
],
"DefaultContext_v32" : [
"1232e5c914ff4af88a57c715"
],
"DefaultContext_v33" : [
"1232e5c914ff4af88a57c715"
],
"DefaultContext_v34" : [
"1232e5c914ff4af88a57c715"
],
"DefaultContext_v35" : [
"1232e5c914ff4af88a57c715"
],
"DefaultContext_v36" : [
"1232e5c914ff4af88a57c715"
],
"DefaultContext_v37" : [
"1232e5c914ff4af88a57c715"
],
"DefaultContext_v38" : [
"1232e5c914ff4af88a57c715"
],
"DefaultContext_v39" : [
"1232e5c914ff4af88a57c715"
],
"DefaultContext_v40" : [
"1232e5c914ff4af88a57c715"
],
"DefaultContext_v41" : [
"1232e5c914ff4af88a57c715"
],
"DefaultContext_v42" : [
"1232e5c914ff4af88a57c715"
],
"DefaultContext_v43" : [
"1232e5c914ff4af88a57c715"
],
"DefaultContext_v44" : [
"1232e5c914ff4af88a57c715"
],
"DefaultContext_v45" : [
"1232e5c914ff4af88a57c715"
],
"DefaultContext_v46" : [
"1232e5c914ff4af88a57c715"
],
"DefaultContext_v47" : [
"1232e5c914ff4af88a57c715"
],
"DefaultContext_v48" : [
"1232e5c914ff4af88a57c715"
],
"DefaultContext_v49" : [
"1232e5c914ff4af88a57c715"
],
"DefaultContext_v50" : [
"1232e5c914ff4af88a57c715"
],
"DefaultContext_v51" : [
"1232e5c914ff4af88a57c715"
],
"DefaultContext_v52" : [
"1232e5c914ff4af88a57c715"
],
"DefaultContext_v53" : [
"1232e5c914ff4af88a57c715"
],
"DefaultContext_v54" : [
"1232e5c914ff4af88a57c715"
],
"DefaultContext_v55" : [
"1232e5c914ff4af88a57c715"
],
"DefaultContext_v56" : [
"1232e5c914ff4af88a57c715"
],
"DefaultContext_v57" : [
"1232e5c914ff4af88a57c715"
],
"DefaultContext_v58" : [
"1232e5c914ff4af88a57c715"
],
"DefaultContext_v59" : [
"1232e5c914ff4af88a57c715"
],
"DefaultContext_v60" : [
"1232e5c914ff4af88a57c715"
],
"DefaultContext_v61" : [
"1232e5c914ff4af88a57c715"
],
"DefaultContext_v62" : [
"1232e5c914ff4af88a57c715"
],
"DefaultContext_v63" : [
"1232e5c914ff4af88a57c715"
],
"DefaultContext_v64" : [
"1232e5c914ff4af88a57c715"
],
"DefaultContext_v65" : [
"1232e5c914ff4af88a57c715"
],
"DefaultContext_v66" : [
"1232e5c914ff4af88a57c715"
],
"DefaultContext_v67" : [
"1232e5c914ff4af88a57c715"
],
"DefaultContext_v68" : [
"1232e5c914ff4af88a57c715"
],
"DefaultContext_v69" : [
"1232e5c914ff4af88a57c715"
],
"DefaultContext_v70" : [
"1232e5c914ff4af88a57c715"
],
"DefaultContext_v71" : [
"1232e5c914ff4af88a57c715"
],
"DefaultContext_v72" : [
"1232e5c914ff4af88a57c715"
],
"DefaultContext_v73" : [
"1232e5c914ff4af88a57c715"
],
"DefaultContext_v74" : [
"1232e5c914ff4af88a57c715"
],
"DefaultContext_v75" : [
"1232e5c914ff4af88a57c715"
],
"DefaultContext_v76" : [
"1232e5c914ff4af88a57c715"
],
"DefaultContext_v77" : [
"1232e5c914ff4af88a57c715"
],
"DefaultContext_v78" : [
"1232e5c914ff4af88a57c715"
],
"DefaultContext_v79" : [
"1232e5c914ff4af88a57c715"
],
"DefaultContext_v80" : [
"1232e5c914ff4af88a57c715"
],
"DefaultContext_v81" : [
"1232e5c914ff4af88a57c715"
]
},
"entities.name" : {
"OTSROOT" : [
"1232e5c914ff4af88a57c715"
]
},
"aliases.active.name" : {

},
"runs.name" : {

},
"configurations.assigned" : {
"notprovided" : [
"2018-09-06T17:34:14.945-0500"
],
"DefaultContext_v1" : [
"2018-09-06T17:34:15.385-0500"
],
"DefaultContext_v2" : [
"2018-09-10T09:24:24.076-0500"
],
"DefaultContext_v3" : [
"2018-09-11T10:00:20.393-0500"
],
"DefaultContext_v4" : [
"2019-10-22T14:55:21.262-0500"
],
"DefaultContext_v5" : [
"2020-06-29T11:00:05.253-0500"
],
"DefaultContext_v6" : [
"2020-07-29T16:01:22.355-0500"
],
"DefaultContext_v7" : [
"2020-07-29T16:34:42.711-0500"
],
"DefaultContext_v8" : [
"2020-07-29T16:39:53.550-0500"
],
"DefaultContext_v9" : [
"2020-07-29T16:40:44.167-0500"
],
"DefaultContext_v10" : [
"2020-07-29T16:45:01.456-0500"
],
"DefaultContext_v11" : [
"2020-07-29T16:49:16.264-0500"
],
"DefaultContext_v12" : [
"2020-09-02T15:22:09.426-0500"
],
"DefaultContext_v13" : [
"2020-10-05T17:04:58.166-0500"
],
"DefaultContext_v14" : [
"2020-10-05T17:07:06.664-0500"
],
"DefaultContext_v15" : [
"2020-10-05T17:43:27.110-0500"
],
"DefaultContext_v16" : [
"2020-10-05T17:51:30.053-0500"
],
"DefaultContext_v17" : [
"2020-10-09T11:58:10.148-0500"
],
"DefaultContext_v18" : [
"2020-10-09T12:53:53.859-0500"
],
"DefaultContext_v19" : [
"2020-10-09T12:57:06.617-0500"
],
"DefaultContext_v20" : [
"2020-10-09T13:00:57.962-0500"
],
"DefaultContext_v21" : [
"2020-10-09T15:30:48.405-0500"
],
"DefaultContext_v22" : [
"2020-10-09T15:32:24.087-0500"
],
"DefaultContext_v23" : [
"2020-10-09T15:32:58.457-0500"
],
"DefaultContext_v24" : [
"2020-10-09T16:47:19.035-0500"
],
"DefaultContext_v25" : [
"2020-10-12T09:37:49.901-0500"
],
"DefaultContext_v26" : [
"2020-10-12T09:41:39.412-0500"
],
"DefaultContext_v27" : [
"2020-10-29T11:54:28.311-0500"
],
"DefaultContext_v28" : [
"2020-10-29T11:54:56.290-0500"
],
"DefaultContext_v29" : [
"2020-10-29T13:33:30.996-0500"
],
"DefaultContext_v30" : [
"2020-11-16T17:04:43.294-0600"
],
"DefaultContext_v31" : [
"2020-11-16T17:07:49.631-0600"
],
"DefaultContext_v32" : [
"2020-11-16T17:10:03.759-0600"
],
"DefaultContext_v33" : [
"2021-07-07T14:45:52.179-0500"
],
"DefaultContext_v34" : [
"2021-07-07T16:02:04.296-0500"
],
"DefaultContext_v35" : [
"2021-07-07T16:05:37.879-0500"
],
"DefaultContext_v36" : [
"2021-07-08T14:00:20.377-0500"
],
"DefaultContext_v37" : [
"2021-07-08T14:17:00.113-0500"
],
"DefaultContext_v38" : [
"2021-07-08T16:21:56.208-0500"
],
"DefaultContext_v39" : [
"2021-07-08T16:24:39.341-0500"
],
"DefaultContext_v40" : [
"2021-07-14T13:02:14.148-0500"
],
"DefaultContext_v41" : [
"2021-07-14T13:03:01.292-0500"
],
"DefaultContext_v42" : [
"2021-07-14T14:39:31.740-0500"
],
"DefaultContext_v43" : [
"2021-07-21T12:08:22.562-0500"
],
"DefaultContext_v44" : [
"2021-08-03T11:10:39.516-0500"
],
"DefaultContext_v45" : [
"2021-09-02T14:08:00.903-0500"
],
"DefaultContext_v46" : [
"2021-09-24T15:36:52.553-0500"
],
"DefaultContext_v47" : [
"2021-09-28T10:22:57.549-0500"
],
"DefaultContext_v48" : [
"2021-11-10T15:11:05.225-0600"
],
"DefaultContext_v49" : [
"2022-04-18T12:56:04.280-0400"
],
"DefaultContext_v50" : [
"2022-04-20T10:06:52.194-0400"
],
"DefaultContext_v51" : [
"2023-01-19T10:05:01.467-0600"
],
"DefaultContext_v52" : [
"2023-01-19T11:02:48.089-0600"
],
"DefaultContext_v53" : [
"2023-01-19T12:09:17.969-0600"
],
"DefaultContext_v54" : [
"2023-01-23T15:11:58.117-0600"
],
"DefaultContext_v55" : [
"2023-01-30T13:43:40.791-0600"
],
"DefaultContext_v56" : [
"2023-02-13T14:11:45.787-0600"
],
"DefaultContext_v57" : [
"2023-02-13T14:13:00.326-0600"
],
"DefaultContext_v58" : [
"2023-02-13T14:20:59.506-0600"
],
"DefaultContext_v59" : [
"2023-02-13T14:33:43.422-0600"
],
"DefaultContext_v60" : [
"2023-02-13T14:58:14.624-0600"
],
"DefaultContext_v61" : [
"2023-02-16T12:29:02.279-0600"
],
"DefaultContext_v62" : [
"2023-02-16T14:03:00.698-0600"
],
"DefaultContext_v63" : [
"2023-02-16T14:04:39.814-0600"
],
"DefaultContext_v64" : [
"2023-02-16T14:42:26.922-0600"
],
"DefaultContext_v65" : [
"2023-02-16T14:49:46.963-0600"
],
"DefaultContext_v66" : [
"2023-02-16T14:53:11.713-0600"
],
"DefaultContext_v67" : [
"2023-02-16T14:55:43.289-0600"
],
"DefaultContext_v68" : [
"2023-02-17T08:58:42.419-0600"
],
"DefaultContext_v69" : [
"2023-02-17T09:04:54.212-0600"
],
"DefaultContext_v70" : [
"2023-02-17T09:06:41.225-0600"
],
"DefaultContext_v71" : [
"2023-02-17T09:07:48.074-0600"
],
"DefaultContext_v72" : [
"2023-02-23T08:41:50.261-0600"
],
"DefaultContext_v73" : [
"2023-02-28T13:19:24.028-0600"
],
"DefaultContext_v74" : [
"2023-02-28T13:20:44.902-0600"
],
"DefaultContext_v75" : [
"2023-03-01T10:10:37.102-0600"
],
"DefaultContext_v76" : [
"2023-04-14T11:05:29.319-0500"
],
"DefaultContext_v77" : [
"2023-04-14T11:09:59.481-0500"
],
"DefaultContext_v78" : [
"2023-04-14T14:03:30.285-0500"
],
"DefaultContext_v79" : [
"2023-04-14T15:36:53.079-0500"
],
"DefaultContext_v80" : [
"2023-09-18T14:48:51.394-0500"
],
"DefaultContext_v81" : [
"2023-09-18T14:49:35.228-0500"
]
}
}