{
"ouid" : [
"38c96ba670a54280900135e3",
"fb9311b390bc4581a61f3dc7"
],
"version" : {
"0" : [
"38c96ba670a54280900135e3"
],
"2" : [
"fb9311b390bc4581a61f3dc7"
]
},
"configurations.name" : {
"notprovided" : [
"38c96ba670a54280900135e3",
"fb9311b390bc4581a61f3dc7"
],
"BurninBoxConfiguration_v0" : [
"38c96ba670a54280900135e3"
],
"BurninBoxConfiguration_v1" : [
"38c96ba670a54280900135e3"
],
"BurninBoxConfiguration_v2" : [
"fb9311b390bc4581a61f3dc7"
]
},
"entities.name" : {
"OTSROOT" : [
"38c96ba670a54280900135e3",
"fb9311b390bc4581a61f3dc7"
]
},
"aliases.active.name" : {

},
"runs.name" : {

},
"configurations.assigned" : {
"notprovided" : [
"2023-10-25T15:16:49.103-0500",
"2023-10-25T15:16:51.246-0500"
],
"BurninBoxConfiguration_v0" : [
"2023-10-25T15:16:49.893-0500"
],
"BurninBoxConfiguration_v1" : [
"2023-10-25T15:16:50.766-0500"
],
"BurninBoxConfiguration_v2" : [
"2023-10-25T15:16:52.003-0500"
]
}
}