The local date and time is: Fri Jul 19 14:50:44 2019
CONFIGURATION:{HighTolerance:1.000000,LowTolerance:1.000000,SetTemperature:1.000000,StopTemperature:1.000000,StreamToIPAddress:,StreamToPort:}; 
CONFIGURATION -> 
HighTolerance :        1.000000
LowTolerance :         1.000000
SetTemperature :       1.000000
StopTemperature :      1.000000
StreamToIPAddress :    
StreamToPort :         

The local date and time is: Fri Jul 19 14:51:02 2019
CONFIGURATION:{HighTolerance:1.000000,LowTolerance:1.000000,SetTemperature:20.000000,StopTemperature:20.000000,StreamToIPAddress:,StreamToPort:}; 
CONFIGURATION -> 
HighTolerance :        1.000000
LowTolerance :         1.000000
SetTemperature :       20.000000
StopTemperature :      20.000000
StreamToIPAddress :    
StreamToPort :         

The local date and time is: Fri Jul 19 14:51:22 2019
CONFIGURATION:{HighTolerance:1.000000,LowTolerance:1.000000,SetTemperature:20.000000,StopTemperature:2.000000,StreamToIPAddress:,StreamToPort:}; 
CONFIGURATION -> 
HighTolerance :        1.000000
LowTolerance :         1.000000
SetTemperature :       20.000000
StopTemperature :      2.000000
StreamToIPAddress :    
StreamToPort :         

The local date and time is: Fri Jul 19 15:06:42 2019
CONFIGURATION:{HighTolerance:1.000000,LowTolerance:1.000000,SetTemperature:1.000000,StopTemperature:1.000000,StreamToIPAddress:,StreamToPort:}; 
CONFIGURATION -> 
HighTolerance :        1.000000
LowTolerance :         1.000000
SetTemperature :       1.000000
StopTemperature :      1.000000
StreamToIPAddress :    
StreamToPort :         

The local date and time is: Fri Jul 19 15:07:06 2019
CONFIGURATION:{HighTolerance:1.000000,LowTolerance:1.000000,SetTemperature:20.000000,StopTemperature:20.000000,StreamToIPAddress:,StreamToPort:}; 
CONFIGURATION -> 
HighTolerance :        1.000000
LowTolerance :         1.000000
SetTemperature :       20.000000
StopTemperature :      20.000000
StreamToIPAddress :    
StreamToPort :         

The local date and time is: Fri Jul 19 15:07:30 2019
CONFIGURATION:{HighTolerance:1.000000,LowTolerance:1.000000,SetTemperature:20.000000,StopTemperature:20.000000,StreamToIPAddress:,StreamToPort:}; 
CONFIGURATION -> 
HighTolerance :        1.000000
LowTolerance :         1.000000
SetTemperature :       20.000000
StopTemperature :      20.000000
StreamToIPAddress :    
StreamToPort :         

The local date and time is: Fri Jul 19 15:07:43 2019
CONFIGURATION:{HighTolerance:1.000000,LowTolerance:1.000000,SetTemperature:20.000000,StopTemperature:20.000000,StreamToIPAddress:,StreamToPort:}; 
CONFIGURATION -> 
HighTolerance :        1.000000
LowTolerance :         1.000000
SetTemperature :       20.000000
StopTemperature :      20.000000
StreamToIPAddress :    
StreamToPort :         

The local date and time is: Wed Jul 24 10:12:55 2019
CONFIGURATION:{HighTolerance:1.000000,LowTolerance:1.000000,SetTemperature:1.000000,StopTemperature:1.000000,StreamToIPAddress:,StreamToPort:}; 
CONFIGURATION -> 
HighTolerance :        1.000000
LowTolerance :         1.000000
SetTemperature :       1.000000
StopTemperature :      1.000000
StreamToIPAddress :    
StreamToPort :         

The local date and time is: Wed Jul 24 10:43:11 2019
CONFIGURATION:{HighTolerance:1.000000,LowTolerance:1.000000,SetTemperature:1.000000,StopTemperature:1.000000,StreamToIPAddress:,StreamToPort:}; 
CONFIGURATION -> 
HighTolerance :        1.000000
LowTolerance :         1.000000
SetTemperature :       1.000000
StopTemperature :      1.000000
StreamToIPAddress :    
StreamToPort :         

The local date and time is: Wed Jul 24 10:46:46 2019
CONFIGURATION:{HighTolerance:1.000000,LowTolerance:1.000000,SetTemperature:1.000000,StopTemperature:1.000000,StreamToIPAddress:,StreamToPort:}; 
CONFIGURATION -> 
HighTolerance :        1.000000
LowTolerance :         1.000000
SetTemperature :       1.000000
StopTemperature :      1.000000
StreamToIPAddress :    
StreamToPort :         

The local date and time is: Wed Jul 24 10:48:06 2019
CONFIGURATION:{HighTolerance:1.000000,LowTolerance:1.000000,SetTemperature:1.000000,StopTemperature:1.000000,StreamToIPAddress:,StreamToPort:}; 
CONFIGURATION -> 
HighTolerance :        1.000000
LowTolerance :         1.000000
SetTemperature :       1.000000
StopTemperature :      1.000000
StreamToIPAddress :    
StreamToPort :         

The local date and time is: Wed Jul 24 10:49:31 2019
CONFIGURATION:{HighTolerance:1.000000,LowTolerance:1.000000,SetTemperature:1.000000,StopTemperature:1.000000,StreamToIPAddress:,StreamToPort:}; 
CONFIGURATION -> 
HighTolerance :        1.000000
LowTolerance :         1.000000
SetTemperature :       1.000000
StopTemperature :      1.000000
StreamToIPAddress :    
StreamToPort :         

