{
"ouid" : [
"8cf86a076aca4eeaba9a571e",
"dbc82e82bdcb4b39b6e6a500"
],
"version" : {
"0" : [
"8cf86a076aca4eeaba9a571e"
],
"1" : [
"dbc82e82bdcb4b39b6e6a500"
]
},
"configurations.name" : {
"notprovided" : [
"8cf86a076aca4eeaba9a571e",
"dbc82e82bdcb4b39b6e6a500"
],
"BurninBoxConfiguration_v38" : [
"dbc82e82bdcb4b39b6e6a500"
],
"BurninBoxConfiguration_v39" : [
"dbc82e82bdcb4b39b6e6a500"
],
"BurninBoxConfiguration_v40" : [
"dbc82e82bdcb4b39b6e6a500"
],
"BurninBoxConfiguration_v41" : [
"dbc82e82bdcb4b39b6e6a500"
],
"BurninBoxConfiguration_v42" : [
"dbc82e82bdcb4b39b6e6a500"
],
"BurninBoxConfiguration_v43" : [
"dbc82e82bdcb4b39b6e6a500"
],
"BurninBoxConfiguration_v44" : [
"dbc82e82bdcb4b39b6e6a500"
],
"BurninBoxConfiguration_v45" : [
"dbc82e82bdcb4b39b6e6a500"
],
"BurninBoxConfiguration_v46" : [
"dbc82e82bdcb4b39b6e6a500"
],
"BurninBoxConfiguration_v47" : [
"dbc82e82bdcb4b39b6e6a500"
],
"BurninBoxConfiguration_v48" : [
"dbc82e82bdcb4b39b6e6a500"
],
"BurninBoxConfiguration_v49" : [
"dbc82e82bdcb4b39b6e6a500"
],
"BurninBoxConfiguration_v50" : [
"dbc82e82bdcb4b39b6e6a500"
],
"BurninBoxConfiguration_v51" : [
"dbc82e82bdcb4b39b6e6a500"
],
"BurninBoxConfiguration_v52" : [
"dbc82e82bdcb4b39b6e6a500"
],
"BurninBoxConfiguration_v53" : [
"dbc82e82bdcb4b39b6e6a500"
],
"BurninBoxConfiguration_v54" : [
"dbc82e82bdcb4b39b6e6a500"
],
"BurninBoxConfiguration_v55" : [
"dbc82e82bdcb4b39b6e6a500"
],
"BurninBoxConfiguration_v56" : [
"dbc82e82bdcb4b39b6e6a500"
],
"BurninBoxConfiguration_v57" : [
"dbc82e82bdcb4b39b6e6a500"
],
"BurninBoxConfiguration_v58" : [
"dbc82e82bdcb4b39b6e6a500"
],
"BurninBoxConfiguration_v59" : [
"dbc82e82bdcb4b39b6e6a500"
],
"BurninBoxConfiguration_v60" : [
"dbc82e82bdcb4b39b6e6a500"
],
"BurninBoxConfiguration_v61" : [
"dbc82e82bdcb4b39b6e6a500"
],
"BurninBoxConfiguration_v62" : [
"dbc82e82bdcb4b39b6e6a500"
],
"BurninBoxConfiguration_v63" : [
"dbc82e82bdcb4b39b6e6a500"
],
"BurninBoxConfiguration_v64" : [
"dbc82e82bdcb4b39b6e6a500"
],
"BurninBoxConfiguration_v65" : [
"dbc82e82bdcb4b39b6e6a500"
],
"BurninBoxConfiguration_v66" : [
"dbc82e82bdcb4b39b6e6a500"
],
"BurninBoxConfiguration_v67" : [
"dbc82e82bdcb4b39b6e6a500"
],
"BurninBoxConfiguration_v68" : [
"dbc82e82bdcb4b39b6e6a500"
],
"BurninBoxConfiguration_v69" : [
"dbc82e82bdcb4b39b6e6a500"
],
"BurninBoxConfiguration_v70" : [
"dbc82e82bdcb4b39b6e6a500"
],
"BurninBoxConfiguration_v71" : [
"dbc82e82bdcb4b39b6e6a500"
],
"BurninBoxConfiguration_v72" : [
"dbc82e82bdcb4b39b6e6a500"
],
"BurninBoxConfiguration_v73" : [
"dbc82e82bdcb4b39b6e6a500"
],
"BurninBoxConfiguration_v74" : [
"dbc82e82bdcb4b39b6e6a500"
],
"BurninBoxConfiguration_v75" : [
"dbc82e82bdcb4b39b6e6a500"
],
"BurninBoxConfiguration_v76" : [
"dbc82e82bdcb4b39b6e6a500"
],
"BurninBoxConfiguration_v77" : [
"dbc82e82bdcb4b39b6e6a500"
],
"BurninBoxConfiguration_v78" : [
"dbc82e82bdcb4b39b6e6a500"
],
"BurninBoxConfiguration_v79" : [
"dbc82e82bdcb4b39b6e6a500"
],
"BurninBoxConfiguration_v80" : [
"dbc82e82bdcb4b39b6e6a500"
],
"BurninBoxConfiguration_v81" : [
"dbc82e82bdcb4b39b6e6a500"
],
"BurninBoxConfiguration_v82" : [
"dbc82e82bdcb4b39b6e6a500"
],
"BurninBoxConfiguration_v83" : [
"dbc82e82bdcb4b39b6e6a500"
],
"BurninBoxConfiguration_v84" : [
"dbc82e82bdcb4b39b6e6a500"
],
"BurninBoxConfiguration_v85" : [
"dbc82e82bdcb4b39b6e6a500"
],
"BurninBoxConfiguration_v86" : [
"dbc82e82bdcb4b39b6e6a500"
],
"BurninBoxConfiguration_v87" : [
"dbc82e82bdcb4b39b6e6a500"
],
"BurninBoxConfiguration_v88" : [
"dbc82e82bdcb4b39b6e6a500"
],
"BurninBoxConfiguration_v89" : [
"dbc82e82bdcb4b39b6e6a500"
],
"BurninBoxConfiguration_v90" : [
"dbc82e82bdcb4b39b6e6a500"
],
"BurninBoxConfiguration_v91" : [
"dbc82e82bdcb4b39b6e6a500"
],
"BurninBoxConfiguration_v92" : [
"dbc82e82bdcb4b39b6e6a500"
],
"BurninBoxConfiguration_v93" : [
"dbc82e82bdcb4b39b6e6a500"
],
"BurninBoxConfiguration_v94" : [
"dbc82e82bdcb4b39b6e6a500"
],
"BurninBoxConfiguration_v95" : [
"dbc82e82bdcb4b39b6e6a500"
],
"BurninBoxConfiguration_v96" : [
"dbc82e82bdcb4b39b6e6a500"
],
"BurninBoxConfiguration_v97" : [
"dbc82e82bdcb4b39b6e6a500"
],
"BurninBoxConfiguration_v98" : [
"dbc82e82bdcb4b39b6e6a500"
],
"BurninBoxConfiguration_v99" : [
"dbc82e82bdcb4b39b6e6a500"
],
"BurninBoxConfiguration_v100" : [
"dbc82e82bdcb4b39b6e6a500"
],
"BurninBoxConfiguration_v101" : [
"dbc82e82bdcb4b39b6e6a500"
],
"BurninBoxConfiguration_v102" : [
"dbc82e82bdcb4b39b6e6a500"
]
},
"entities.name" : {
"OTSROOT" : [
"8cf86a076aca4eeaba9a571e",
"dbc82e82bdcb4b39b6e6a500"
]
},
"aliases.active.name" : {

},
"runs.name" : {

},
"configurations.assigned" : {
"notprovided" : [
"2021-07-09T11:40:40.438-0500",
"2021-07-09T11:43:31.485-0500"
],
"BurninBoxConfiguration_v38" : [
"2021-07-09T11:47:13.666-0500"
],
"BurninBoxConfiguration_v39" : [
"2021-07-09T11:48:45.801-0500"
],
"BurninBoxConfiguration_v40" : [
"2021-07-09T16:06:00.239-0500"
],
"BurninBoxConfiguration_v41" : [
"2021-07-12T11:04:55.216-0500"
],
"BurninBoxConfiguration_v42" : [
"2021-07-13T12:01:31.043-0500"
],
"BurninBoxConfiguration_v43" : [
"2021-07-13T12:22:05.571-0500"
],
"BurninBoxConfiguration_v44" : [
"2021-07-14T13:05:58.147-0500"
],
"BurninBoxConfiguration_v45" : [
"2021-07-14T14:26:04.304-0500"
],
"BurninBoxConfiguration_v46" : [
"2021-07-14T14:46:56.631-0500"
],
"BurninBoxConfiguration_v47" : [
"2021-07-14T15:24:33.447-0500"
],
"BurninBoxConfiguration_v48" : [
"2021-07-14T16:05:29.029-0500"
],
"BurninBoxConfiguration_v49" : [
"2021-07-14T16:15:40.653-0500"
],
"BurninBoxConfiguration_v50" : [
"2021-07-14T16:17:40.507-0500"
],
"BurninBoxConfiguration_v51" : [
"2021-07-15T11:50:33.474-0500"
],
"BurninBoxConfiguration_v52" : [
"2021-07-20T13:45:53.631-0500"
],
"BurninBoxConfiguration_v53" : [
"2021-07-20T16:41:41.806-0500"
],
"BurninBoxConfiguration_v54" : [
"2021-07-20T17:09:26.506-0500"
],
"BurninBoxConfiguration_v55" : [
"2021-07-20T17:28:39.700-0500"
],
"BurninBoxConfiguration_v56" : [
"2021-07-20T17:46:27.029-0500"
],
"BurninBoxConfiguration_v57" : [
"2021-07-21T11:50:01.606-0500"
],
"BurninBoxConfiguration_v58" : [
"2021-07-21T11:58:37.255-0500"
],
"BurninBoxConfiguration_v59" : [
"2021-07-21T11:59:32.996-0500"
],
"BurninBoxConfiguration_v60" : [
"2021-07-22T18:34:59.995-0500"
],
"BurninBoxConfiguration_v61" : [
"2021-07-23T12:33:56.336-0500"
],
"BurninBoxConfiguration_v62" : [
"2021-07-24T00:54:49.139-0500"
],
"BurninBoxConfiguration_v63" : [
"2021-07-24T12:12:50.710-0500"
],
"BurninBoxConfiguration_v64" : [
"2021-07-25T21:07:15.656-0500"
],
"BurninBoxConfiguration_v65" : [
"2021-07-26T07:43:11.542-0500"
],
"BurninBoxConfiguration_v66" : [
"2021-07-26T18:37:11.623-0500"
],
"BurninBoxConfiguration_v67" : [
"2021-07-27T08:25:40.323-0500"
],
"BurninBoxConfiguration_v68" : [
"2021-08-03T11:10:36.777-0500"
],
"BurninBoxConfiguration_v69" : [
"2021-08-04T12:21:57.121-0500"
],
"BurninBoxConfiguration_v70" : [
"2021-09-02T13:43:33.518-0500"
],
"BurninBoxConfiguration_v71" : [
"2021-09-02T14:03:36.361-0500"
],
"BurninBoxConfiguration_v72" : [
"2021-09-23T15:47:04.737-0500"
],
"BurninBoxConfiguration_v73" : [
"2021-09-23T15:47:41.733-0500"
],
"BurninBoxConfiguration_v74" : [
"2021-09-24T15:36:49.619-0500"
],
"BurninBoxConfiguration_v75" : [
"2021-09-24T15:53:22.606-0500"
],
"BurninBoxConfiguration_v76" : [
"2021-09-24T16:04:21.555-0500"
],
"BurninBoxConfiguration_v77" : [
"2021-09-24T16:28:06.379-0500"
],
"BurninBoxConfiguration_v78" : [
"2021-09-27T09:02:55.990-0500"
],
"BurninBoxConfiguration_v79" : [
"2021-09-27T14:22:24.302-0500"
],
"BurninBoxConfiguration_v80" : [
"2021-09-28T09:24:50.157-0500"
],
"BurninBoxConfiguration_v81" : [
"2021-09-30T09:14:50.460-0500"
],
"BurninBoxConfiguration_v82" : [
"2021-10-01T10:56:20.973-0500"
],
"BurninBoxConfiguration_v83" : [
"2021-10-01T11:01:40.590-0500"
],
"BurninBoxConfiguration_v84" : [
"2021-10-06T10:02:30.860-0500"
],
"BurninBoxConfiguration_v85" : [
"2021-10-07T16:32:39.975-0500"
],
"BurninBoxConfiguration_v86" : [
"2021-10-08T14:03:14.808-0500"
],
"BurninBoxConfiguration_v87" : [
"2021-10-11T16:00:55.650-0500"
],
"BurninBoxConfiguration_v88" : [
"2021-10-12T09:07:16.952-0500"
],
"BurninBoxConfiguration_v89" : [
"2021-10-12T11:11:22.642-0500"
],
"BurninBoxConfiguration_v90" : [
"2021-10-14T17:03:16.036-0500"
],
"BurninBoxConfiguration_v91" : [
"2021-10-15T10:48:30.829-0500"
],
"BurninBoxConfiguration_v92" : [
"2021-10-15T15:50:48.690-0500"
],
"BurninBoxConfiguration_v93" : [
"2021-11-03T16:30:19.601-0500"
],
"BurninBoxConfiguration_v94" : [
"2021-11-10T15:11:01.992-0600"
],
"BurninBoxConfiguration_v95" : [
"2022-04-19T14:35:56.059-0400"
],
"BurninBoxConfiguration_v96" : [
"2022-04-20T10:06:05.085-0400"
],
"BurninBoxConfiguration_v97" : [
"2022-04-20T11:23:51.804-0400"
],
"BurninBoxConfiguration_v98" : [
"2022-04-22T09:34:09.225-0400"
],
"BurninBoxConfiguration_v99" : [
"2022-07-19T15:18:23.495-0400"
],
"BurninBoxConfiguration_v100" : [
"2022-07-22T10:08:26.766-0400"
],
"BurninBoxConfiguration_v101" : [
"2022-07-25T10:59:57.481-0400"
],
"BurninBoxConfiguration_v102" : [
"2022-07-25T11:05:52.140-0400"
]
}
}