{
"document" : {
"data" : {
"NAME" : "FE_MIDDLEWARE_INTERFACE_TABLE",
"COMMENT" : "No comment.",
"AUTHOR" : "admin",
"CREATION_TIME" : 1625771172,
"COL_TYPES" : {
"INTERFACE_ID" : "STRING",
"INTERFACE_IP_ADDRESS" : "STRING",
"INTERFACE_PORT" : "NUMBER",
"CALIBRATION_NAME" : "STRING",
"CONFIGURATION_DIR" : "STRING",
"CONFIGURATION_NAME" : "STRING",
"COMMENT_DESCRIPTION" : "STRING",
"AUTHOR" : "STRING",
"RECORD_INSERTION_TIME" : "TIMESTAMP WITH TIMEZONE"
},
"DATA_SET" : [
{
"INTERFACE_ID" : "FETrackerInterface0",
"INTERFACE_IP_ADDRESS" : "localhost",
"INTERFACE_PORT" : "5000",
"CALIBRATION_NAME" : "calibrationandpedenoise",
"CONFIGURATION_DIR" : "${PH2ACF_BASE_DIR}/settings",
"CONFIGURATION_NAME" : "D19CDescription_OpticalReadout.xml",
"COMMENT_DESCRIPTION" : "No Comment",
"AUTHOR" : "admin",
"RECORD_INSERTION_TIME" : "1625771168"
},
{
"INTERFACE_ID" : "FETrackerInterface1",
"INTERFACE_IP_ADDRESS" : "localhost.localdomain",
"INTERFACE_PORT" : "5000",
"CALIBRATION_NAME" : "calibrationandpedenoise",
"CONFIGURATION_DIR" : "settings",
"CONFIGURATION_NAME" : "D19CDescription_2CBC3_Feynman.xml",
"COMMENT_DESCRIPTION" : "No Comment",
"AUTHOR" : "admin",
"RECORD_INSERTION_TIME" : "1601935854"
}
]
},
"metadata" : {

},
"search" : [

]
},
"comments" : [

],
"origin" : {
"source" : "template",
"name" : "notprovided",
"format" : "json",
"created" : "2023-10-25T15:16:48.785-0500",
"rawdata" : [

]
},
"version" : "0",
"entities" : [
{
"name" : "OTSROOT",
"assigned" : "2023-10-25T15:16:48.785-0500"
}
],
"configurations" : [
{
"name" : "notprovided",
"assigned" : "2023-10-25T15:16:48.785-0500"
},
{
"name" : "BurninBoxConfiguration_v0",
"assigned" : "2023-10-25T15:16:49.685-0500"
},
{
"name" : "BurninBoxConfiguration_v1",
"assigned" : "2023-10-25T15:16:50.538-0500"
}
],
"changelog" : "notprovided",
"bookkeeping" : {
"isdeleted" : false,
"isreadonly" : false,
"updates" : [
{
"event" : "addConfiguration",
"timestamp" : "2023-10-25T15:16:48.785-0500",
"value" : {
"name" : "notprovided",
"assigned" : "2023-10-25T15:16:48.785-0500"
}
},
{
"event" : "setVersion",
"timestamp" : "2023-10-25T15:16:48.785-0500",
"value" : {
"name" : "0",
"assigned" : "2023-10-25T15:16:48.785-0500"
}
},
{
"event" : "setCollection",
"timestamp" : "2023-10-25T15:16:48.785-0500",
"value" : {
"name" : "FEMiddlewareInterfaceTable",
"assigned" : "2023-10-25T15:16:48.785-0500"
}
},
{
"event" : "addEntity",
"timestamp" : "2023-10-25T15:16:48.785-0500",
"value" : {
"name" : "OTSROOT",
"assigned" : "2023-10-25T15:16:48.785-0500"
}
},
{
"event" : "addConfiguration",
"timestamp" : "2023-10-25T15:16:49.685-0500",
"value" : {
"name" : "BurninBoxConfiguration_v0",
"assigned" : "2023-10-25T15:16:49.685-0500"
}
},
{
"event" : "addConfiguration",
"timestamp" : "2023-10-25T15:16:50.538-0500",
"value" : {
"name" : "BurninBoxConfiguration_v1",
"assigned" : "2023-10-25T15:16:50.538-0500"
}
}
],
"created" : "2023-10-25T15:16:48.785-0500"
},
"_id" : {
"$oid" : "f114a8f32f0142f5a203bb0c"
},
"collection" : "FEMiddlewareInterfaceTable",
"aliases" : {
"active" : [

],
"history" : [

]
},
"runs" : [

],
"attachments" : [

],
"configtype" : "notprovided"
}