{
"ouid" : [
"ce522899b49841818c3f0290"
],
"version" : {
"6" : [
"ce522899b49841818c3f0290"
]
},
"configurations.name" : {
"notprovided" : [
"ce522899b49841818c3f0290"
],
"iterateDefaultGroup_v6" : [
"ce522899b49841818c3f0290"
]
},
"entities.name" : {
"OTSROOT" : [
"ce522899b49841818c3f0290"
]
},
"aliases.active.name" : {

},
"runs.name" : {

},
"configurations.assigned" : {
"notprovided" : [
"2023-10-25T15:16:54.386-0500"
],
"iterateDefaultGroup_v6" : [
"2023-10-25T15:16:54.956-0500"
]
}
}