{
"document" : {
"data" : {
"NAME" : "DATA_BUFFER_TABLE",
"COMMENT" : "Records for data buffer Producers and Consumers.",
"AUTHOR" : "admin",
"CREATION_TIME" : 1626285956,
"COL_TYPES" : {
"DATA_BUFFER_GROUP_ID" : "STRING",
"DATA_BUFFER_UID" : "STRING",
"LINK_TO_DATA_PROCESSOR_TABLE" : "STRING",
"LINK_TO_DATA_PROCESSOR_GROUP_ID" : "STRING",
"STATUS" : "STRING",
"COMMENT_DESCRIPTION" : "STRING",
"AUTHOR" : "STRING",
"RECORD_INSERTION_TIME" : "TIMESTAMP WITH TIMEZONE"
},
"DATA_SET" : [
{
"DATA_BUFFER_GROUP_ID" : "VisualizerDataBuffer",
"DATA_BUFFER_UID" : "VisualizerBurninBoxBuffer",
"LINK_TO_DATA_PROCESSOR_TABLE" : "DataProcessorTable",
"LINK_TO_DATA_PROCESSOR_GROUP_ID" : "VisualizerBurninBoxBuffer",
"STATUS" : "Off",
"COMMENT_DESCRIPTION" : "DEFAULT",
"AUTHOR" : "admin",
"RECORD_INSERTION_TIME" : "1626285952"
},
{
"DATA_BUFFER_GROUP_ID" : "VisualizerDataBuffer",
"DATA_BUFFER_UID" : "VisualizerPowerSupplyBuffer",
"LINK_TO_DATA_PROCESSOR_TABLE" : "DataProcessorTable",
"LINK_TO_DATA_PROCESSOR_GROUP_ID" : "VisualizerPowerSupplyBuffer",
"STATUS" : "On",
"COMMENT_DESCRIPTION" : "DEFAULT",
"AUTHOR" : "admin",
"RECORD_INSERTION_TIME" : "1625849278"
},
{
"DATA_BUFFER_GROUP_ID" : "VisualizerDataBuffer",
"DATA_BUFFER_UID" : "TrackerBuffer",
"LINK_TO_DATA_PROCESSOR_TABLE" : "DataProcessorTable",
"LINK_TO_DATA_PROCESSOR_GROUP_ID" : "VisualizerTrackerBuffer",
"STATUS" : "On",
"COMMENT_DESCRIPTION" : "DEFAULT",
"AUTHOR" : "admin",
"RECORD_INSERTION_TIME" : "1625849283"
}
]
},
"metadata" : {

},
"search" : [

]
},
"comments" : [

],
"origin" : {
"source" : "template",
"name" : "notprovided",
"format" : "json",
"created" : "2021-07-14T13:05:56.366-0500",
"rawdata" : [

]
},
"version" : "9",
"entities" : [
{
"name" : "OTSROOT",
"assigned" : "2021-07-14T13:05:56.367-0500"
}
],
"configurations" : [
{
"name" : "notprovided",
"assigned" : "2021-07-14T13:05:56.367-0500"
},
{
"name" : "BurninBoxConfiguration_v44",
"assigned" : "2021-07-14T13:05:58.243-0500"
},
{
"name" : "BurninBoxConfiguration_v94",
"assigned" : "2021-11-10T15:11:02.133-0600"
}
],
"changelog" : "notprovided",
"bookkeeping" : {
"isdeleted" : false,
"isreadonly" : false,
"updates" : [
{
"event" : "addConfiguration",
"timestamp" : "2021-07-14T13:05:56.367-0500",
"value" : {
"name" : "notprovided",
"assigned" : "2021-07-14T13:05:56.367-0500"
}
},
{
"event" : "setVersion",
"timestamp" : "2021-07-14T13:05:56.367-0500",
"value" : {
"name" : "9",
"assigned" : "2021-07-14T13:05:56.367-0500"
}
},
{
"event" : "setCollection",
"timestamp" : "2021-07-14T13:05:56.367-0500",
"value" : {
"name" : "DataBufferTable",
"assigned" : "2021-07-14T13:05:56.367-0500"
}
},
{
"event" : "addEntity",
"timestamp" : "2021-07-14T13:05:56.368-0500",
"value" : {
"name" : "OTSROOT",
"assigned" : "2021-07-14T13:05:56.367-0500"
}
},
{
"event" : "addConfiguration",
"timestamp" : "2021-07-14T13:05:58.243-0500",
"value" : {
"name" : "BurninBoxConfiguration_v44",
"assigned" : "2021-07-14T13:05:58.243-0500"
}
},
{
"event" : "addConfiguration",
"timestamp" : "2021-11-10T15:11:02.133-0600",
"value" : {
"name" : "BurninBoxConfiguration_v94",
"assigned" : "2021-11-10T15:11:02.133-0600"
}
}
],
"created" : "2021-07-14T13:05:56.366-0500"
},
"_id" : {
"$oid" : "c64912b14f07432ea3454c73"
},
"collection" : "DataBufferTable",
"aliases" : {
"active" : [

],
"history" : [

]
},
"runs" : [

],
"attachments" : [

],
"configtype" : "notprovided"
}