{
"ouid" : [
"0f2be41049634248859de4fa"
],
"version" : {
"6" : [
"0f2be41049634248859de4fa"
]
},
"configurations.name" : {
"notprovided" : [
"0f2be41049634248859de4fa"
],
"iterateDefaultGroup_v6" : [
"0f2be41049634248859de4fa"
]
},
"entities.name" : {
"OTSROOT" : [
"0f2be41049634248859de4fa"
]
},
"aliases.active.name" : {

},
"runs.name" : {

},
"configurations.assigned" : {
"notprovided" : [
"2023-10-25T15:16:54.290-0500"
],
"iterateDefaultGroup_v6" : [
"2023-10-25T15:16:54.885-0500"
]
}
}