{
"document" : {
"data" : {
"NAME" : "TABLE_GROUP_METADATA",
"COMMENT" : "",
"AUTHOR" : "",
"CREATION_TIME" : 1528236848,
"COL_TYPES" : {
"UNUSED_UID" : "NUMBER",
"GROUP_ALIASES" : "STRING",
"COMMENT_DESCRIPTION" : "STRING",
"AUTHOR" : "STRING",
"GROUP_CREATION_TIME" : "TIMESTAMP WITH TIMEZONE"
},
"DATA_SET" : [
{
"UNUSED_UID" : "0",
"GROUP_ALIASES" : "",
"COMMENT_DESCRIPTION" : "",
"AUTHOR" : "admin",
"GROUP_CREATION_TIME" : "1632934186"
}
]
},
"metadata" : {

},
"search" : [

]
},
"comments" : [

],
"origin" : {
"source" : "template",
"name" : "notprovided",
"format" : "json",
"created" : "2021-09-29T11:49:46.891-0500",
"rawdata" : [

]
},
"version" : "421",
"entities" : [
{
"name" : "OTSROOT",
"assigned" : "2021-09-29T11:49:46.892-0500"
}
],
"configurations" : [
{
"name" : "notprovided",
"assigned" : "2021-09-29T11:49:46.891-0500"
},
{
"name" : "GroupAliasTreeEditWizBackbone_v86",
"assigned" : "2021-09-29T11:49:46.997-0500"
}
],
"changelog" : "notprovided",
"bookkeeping" : {
"isdeleted" : false,
"isreadonly" : false,
"updates" : [
{
"event" : "addConfiguration",
"timestamp" : "2021-09-29T11:49:46.891-0500",
"value" : {
"name" : "notprovided",
"assigned" : "2021-09-29T11:49:46.891-0500"
}
},
{
"event" : "setVersion",
"timestamp" : "2021-09-29T11:49:46.891-0500",
"value" : {
"name" : "421",
"assigned" : "2021-09-29T11:49:46.891-0500"
}
},
{
"event" : "setCollection",
"timestamp" : "2021-09-29T11:49:46.891-0500",
"value" : {
"name" : "TableGroupMetadata",
"assigned" : "2021-09-29T11:49:46.891-0500"
}
},
{
"event" : "addEntity",
"timestamp" : "2021-09-29T11:49:46.892-0500",
"value" : {
"name" : "OTSROOT",
"assigned" : "2021-09-29T11:49:46.892-0500"
}
},
{
"event" : "addConfiguration",
"timestamp" : "2021-09-29T11:49:46.997-0500",
"value" : {
"name" : "GroupAliasTreeEditWizBackbone_v86",
"assigned" : "2021-09-29T11:49:46.997-0500"
}
}
],
"created" : "2021-09-29T11:49:46.891-0500"
},
"_id" : {
"$oid" : "c5cc383e28624f9ca8564223"
},
"collection" : "TableGroupMetadata",
"aliases" : {
"active" : [

],
"history" : [

]
},
"runs" : [

],
"attachments" : [

],
"configtype" : "notprovided"
}