{
"document" : {
"data" : {
"NAME" : "GROUP_ALIASES_TABLE",
"COMMENT" : "Default Backbone.",
"AUTHOR" : "admin",
"CREATION_TIME" : 1603736218,
"COL_TYPES" : {
"GROUP_KEY_ALIAS" : "STRING",
"GROUP_NAME" : "STRING",
"GROUP_KEY" : "STRING",
"COMMENT_DESCRIPTION" : "STRING",
"AUTHOR" : "STRING",
"RECORD_INSERTION_TIME" : "TIMESTAMP WITH TIMEZONE"
},
"DATA_SET" : [
{
"GROUP_KEY_ALIAS" : "DefaultContext",
"GROUP_NAME" : "DefaultContext",
"GROUP_KEY" : "24",
"COMMENT_DESCRIPTION" : "This Group Alias was automatically setup by the server.",
"AUTHOR" : "admin",
"RECORD_INSERTION_TIME" : "1603736218"
},
{
"GROUP_KEY_ALIAS" : "BurninBoxConfiguration",
"GROUP_NAME" : "BurninBoxConfiguration",
"GROUP_KEY" : "21",
"COMMENT_DESCRIPTION" : "This Group Alias was automatically setup by the server.",
"AUTHOR" : "admin",
"RECORD_INSERTION_TIME" : "1603731403"
}
]
},
"metadata" : {

},
"search" : [

]
},
"comments" : [

],
"origin" : {
"source" : "template",
"name" : "notprovided",
"format" : "json",
"created" : "2020-10-26T13:16:58.443-0500",
"rawdata" : [

]
},
"version" : "94",
"entities" : [
{
"name" : "OTSROOT",
"assigned" : "2020-10-26T13:16:58.443-0500"
}
],
"configurations" : [
{
"name" : "notprovided",
"assigned" : "2020-10-26T13:16:58.443-0500"
},
{
"name" : "GroupAliasTreeEditWizBackbone_v31",
"assigned" : "2020-10-26T13:16:59.353-0500"
}
],
"changelog" : "notprovided",
"bookkeeping" : {
"isdeleted" : false,
"isreadonly" : false,
"updates" : [
{
"event" : "addConfiguration",
"timestamp" : "2020-10-26T13:16:58.443-0500",
"value" : {
"name" : "notprovided",
"assigned" : "2020-10-26T13:16:58.443-0500"
}
},
{
"event" : "setVersion",
"timestamp" : "2020-10-26T13:16:58.443-0500",
"value" : {
"name" : "94",
"assigned" : "2020-10-26T13:16:58.443-0500"
}
},
{
"event" : "setCollection",
"timestamp" : "2020-10-26T13:16:58.443-0500",
"value" : {
"name" : "GroupAliasesTable",
"assigned" : "2020-10-26T13:16:58.443-0500"
}
},
{
"event" : "addEntity",
"timestamp" : "2020-10-26T13:16:58.444-0500",
"value" : {
"name" : "OTSROOT",
"assigned" : "2020-10-26T13:16:58.443-0500"
}
},
{
"event" : "addConfiguration",
"timestamp" : "2020-10-26T13:16:59.353-0500",
"value" : {
"name" : "GroupAliasTreeEditWizBackbone_v31",
"assigned" : "2020-10-26T13:16:59.353-0500"
}
}
],
"created" : "2020-10-26T13:16:58.443-0500"
},
"_id" : {
"$oid" : "70ddef937e174ba0b3edeb2c"
},
"collection" : "GroupAliasesTable",
"aliases" : {
"active" : [

],
"history" : [

]
},
"runs" : [

],
"attachments" : [

],
"configtype" : "notprovided"
}