{
"document" : {
"data" : {
"NAME" : "DATA_MANAGER_SUPERVISOR_TABLE",
"COMMENT" : "Data manager top-level records.",
"AUTHOR" : "admin",
"CREATION_TIME" : 1536269283,
"COL_TYPES" : {
"SUPERVISOR_UID" : "VARCHAR2",
"LINK_TO_DATA_MANAGER_TABLE" : "VARCHAR2",
"LINK_TO_DATA_MANAGER_GROUP_ID" : "VARCHAR2",
"COMMENT_DESCRIPTION" : "VARCHAR2",
"AUTHOR" : "VARCHAR2",
"RECORD_INSERTION_TIME" : "TIMESTAMP WITH TIMEZONE"
},
"DATA_SET" : [
{
"SUPERVISOR_UID" : "DataManagerSupervisorBurninBox0",
"LINK_TO_DATA_MANAGER_TABLE" : "DataManagerTable",
"LINK_TO_DATA_MANAGER_GROUP_ID" : "DMBurninBox0",
"COMMENT_DESCRIPTION" : "No Comment",
"AUTHOR" : "admin",
"RECORD_INSERTION_TIME" : "1536269283"
},
{
"SUPERVISOR_UID" : "VisualSupervisor0",
"LINK_TO_DATA_MANAGER_TABLE" : "DataManagerTable",
"LINK_TO_DATA_MANAGER_GROUP_ID" : "VisualDataManager",
"COMMENT_DESCRIPTION" : "",
"AUTHOR" : "admin",
"RECORD_INSERTION_TIME" : "1536269178"
}
]
},
"metadata" : {

},
"search" : [

]
},
"comments" : [

],
"origin" : {
"source" : "template",
"name" : "notprovided",
"format" : "json",
"created" : "2018-09-06T17:34:14.029-0500",
"rawdata" : [

]
},
"version" : "0",
"entities" : [
{
"name" : "OTSROOT",
"assigned" : "2018-09-06T17:34:14.032-0500"
}
],
"tables" : [
{
"name" : "notprovided",
"assigned" : "2018-09-06T17:34:14.030-0500"
},
{
"name" : "BurninBoxConfig_v0",
"assigned" : "2018-09-06T17:34:14.557-0500"
},
{
"name" : "BurninBoxConfig_v1",
"assigned" : "2018-09-10T10:45:51.112-0500"
},
{
"name" : "BurninBoxConfig_v2",
"assigned" : "2018-09-10T11:24:18.524-0500"
},
{
"name" : "BurninBoxConfig_v3",
"assigned" : "2018-09-11T09:59:56.143-0500"
},
{
"name" : "BurninBoxConfig_v4",
"assigned" : "2018-09-11T10:01:19.241-0500"
},
{
"name" : "BurninBoxConfig_v5",
"assigned" : "2018-09-11T10:11:15.799-0500"
},
{
"name" : "BurninBoxConfig_v6",
"assigned" : "2018-09-12T12:16:43.542-0500"
},
{
"name" : "BurninBoxConfig_v7",
"assigned" : "2018-09-17T11:12:09.185-0500"
},
{
"name" : "BurninBoxConfig_v8",
"assigned" : "2018-09-17T13:53:33.217-0500"
},
{
"name" : "BurninBoxConfig_v9",
"assigned" : "2018-09-17T14:03:57.928-0500"
},
{
"name" : "BurninBoxConfig_v10",
"assigned" : "2018-09-18T15:31:02.269-0500"
},
{
"name" : "BurninBoxConfig_v11",
"assigned" : "2018-09-19T09:27:02.008-0500"
},
{
"name" : "BurninBoxConfig_v12",
"assigned" : "2018-09-19T10:08:01.861-0500"
},
{
"name" : "BurninBoxConfig_v13",
"assigned" : "2018-09-19T10:23:21.806-0500"
},
{
"name" : "BurninBoxConfig_v14",
"assigned" : "2018-09-19T11:22:21.180-0500"
},
{
"name" : "BurninBoxConfig_v15",
"assigned" : "2018-09-19T12:26:55.049-0500"
},
{
"name" : "BurninBoxConfig_v16",
"assigned" : "2018-09-20T14:22:27.108-0500"
},
{
"name" : "BurninBoxConfig_v17",
"assigned" : "2018-09-20T15:42:02.907-0500"
},
{
"name" : "BurninBoxConfig_v18",
"assigned" : "2018-09-21T11:16:28.933-0500"
},
{
"name" : "BurninBoxConfig_v19",
"assigned" : "2018-09-21T13:39:25.082-0500"
},
{
"name" : "BurninBoxConfig_v20",
"assigned" : "2018-09-21T13:39:49.009-0500"
},
{
"name" : "BurninBoxConfig_v21",
"assigned" : "2019-02-28T12:04:25.633-0600"
},
{
"name" : "BurninBoxConfig_v22",
"assigned" : "2019-02-28T12:05:08.059-0600"
},
{
"name" : "BurninBoxConfig_v23",
"assigned" : "2019-02-28T13:57:09.667-0600"
}
],
"changelog" : "notprovided",
"bookkeeping" : {
"isdeleted" : false,
"isreadonly" : false,
"updates" : [
{
"event" : "addTable",
"timestamp" : "2018-09-06T17:34:14.030-0500",
"value" : {
"name" : "notprovided",
"assigned" : "2018-09-06T17:34:14.030-0500"
}
},
{
"event" : "setVersion",
"timestamp" : "2018-09-06T17:34:14.031-0500",
"value" : {
"name" : "0",
"assigned" : "2018-09-06T17:34:14.031-0500"
}
},
{
"event" : "setCollection",
"timestamp" : "2018-09-06T17:34:14.031-0500",
"value" : {
"name" : "DataManagerSupervisorTable",
"assigned" : "2018-09-06T17:34:14.031-0500"
}
},
{
"event" : "addEntity",
"timestamp" : "2018-09-06T17:34:14.032-0500",
"value" : {
"name" : "OTSROOT",
"assigned" : "2018-09-06T17:34:14.032-0500"
}
},
{
"event" : "addTable",
"timestamp" : "2018-09-06T17:34:14.557-0500",
"value" : {
"name" : "BurninBoxConfig_v0",
"assigned" : "2018-09-06T17:34:14.557-0500"
}
},
{
"event" : "addTable",
"timestamp" : "2018-09-10T10:45:51.112-0500",
"value" : {
"name" : "BurninBoxConfig_v1",
"assigned" : "2018-09-10T10:45:51.112-0500"
}
},
{
"event" : "addTable",
"timestamp" : "2018-09-10T11:24:18.524-0500",
"value" : {
"name" : "BurninBoxConfig_v2",
"assigned" : "2018-09-10T11:24:18.524-0500"
}
},
{
"event" : "addTable",
"timestamp" : "2018-09-11T09:59:56.143-0500",
"value" : {
"name" : "BurninBoxConfig_v3",
"assigned" : "2018-09-11T09:59:56.143-0500"
}
},
{
"event" : "addTable",
"timestamp" : "2018-09-11T10:01:19.241-0500",
"value" : {
"name" : "BurninBoxConfig_v4",
"assigned" : "2018-09-11T10:01:19.241-0500"
}
},
{
"event" : "addTable",
"timestamp" : "2018-09-11T10:11:15.799-0500",
"value" : {
"name" : "BurninBoxConfig_v5",
"assigned" : "2018-09-11T10:11:15.799-0500"
}
},
{
"event" : "addTable",
"timestamp" : "2018-09-12T12:16:43.542-0500",
"value" : {
"name" : "BurninBoxConfig_v6",
"assigned" : "2018-09-12T12:16:43.542-0500"
}
},
{
"event" : "addTable",
"timestamp" : "2018-09-17T11:12:09.185-0500",
"value" : {
"name" : "BurninBoxConfig_v7",
"assigned" : "2018-09-17T11:12:09.185-0500"
}
},
{
"event" : "addTable",
"timestamp" : "2018-09-17T13:53:33.217-0500",
"value" : {
"name" : "BurninBoxConfig_v8",
"assigned" : "2018-09-17T13:53:33.217-0500"
}
},
{
"event" : "addTable",
"timestamp" : "2018-09-17T14:03:57.928-0500",
"value" : {
"name" : "BurninBoxConfig_v9",
"assigned" : "2018-09-17T14:03:57.928-0500"
}
},
{
"event" : "addTable",
"timestamp" : "2018-09-18T15:31:02.269-0500",
"value" : {
"name" : "BurninBoxConfig_v10",
"assigned" : "2018-09-18T15:31:02.269-0500"
}
},
{
"event" : "addTable",
"timestamp" : "2018-09-19T09:27:02.008-0500",
"value" : {
"name" : "BurninBoxConfig_v11",
"assigned" : "2018-09-19T09:27:02.008-0500"
}
},
{
"event" : "addTable",
"timestamp" : "2018-09-19T10:08:01.861-0500",
"value" : {
"name" : "BurninBoxConfig_v12",
"assigned" : "2018-09-19T10:08:01.861-0500"
}
},
{
"event" : "addTable",
"timestamp" : "2018-09-19T10:23:21.806-0500",
"value" : {
"name" : "BurninBoxConfig_v13",
"assigned" : "2018-09-19T10:23:21.806-0500"
}
},
{
"event" : "addTable",
"timestamp" : "2018-09-19T11:22:21.180-0500",
"value" : {
"name" : "BurninBoxConfig_v14",
"assigned" : "2018-09-19T11:22:21.180-0500"
}
},
{
"event" : "addTable",
"timestamp" : "2018-09-19T12:26:55.049-0500",
"value" : {
"name" : "BurninBoxConfig_v15",
"assigned" : "2018-09-19T12:26:55.049-0500"
}
},
{
"event" : "addTable",
"timestamp" : "2018-09-20T14:22:27.108-0500",
"value" : {
"name" : "BurninBoxConfig_v16",
"assigned" : "2018-09-20T14:22:27.108-0500"
}
},
{
"event" : "addTable",
"timestamp" : "2018-09-20T15:42:02.907-0500",
"value" : {
"name" : "BurninBoxConfig_v17",
"assigned" : "2018-09-20T15:42:02.907-0500"
}
},
{
"event" : "addTable",
"timestamp" : "2018-09-21T11:16:28.933-0500",
"value" : {
"name" : "BurninBoxConfig_v18",
"assigned" : "2018-09-21T11:16:28.933-0500"
}
},
{
"event" : "addTable",
"timestamp" : "2018-09-21T13:39:25.082-0500",
"value" : {
"name" : "BurninBoxConfig_v19",
"assigned" : "2018-09-21T13:39:25.082-0500"
}
},
{
"event" : "addTable",
"timestamp" : "2018-09-21T13:39:49.009-0500",
"value" : {
"name" : "BurninBoxConfig_v20",
"assigned" : "2018-09-21T13:39:49.009-0500"
}
},
{
"event" : "addTable",
"timestamp" : "2019-02-28T12:04:25.633-0600",
"value" : {
"name" : "BurninBoxConfig_v21",
"assigned" : "2019-02-28T12:04:25.633-0600"
}
},
{
"event" : "addTable",
"timestamp" : "2019-02-28T12:05:08.059-0600",
"value" : {
"name" : "BurninBoxConfig_v22",
"assigned" : "2019-02-28T12:05:08.059-0600"
}
},
{
"event" : "addTable",
"timestamp" : "2019-02-28T13:57:09.667-0600",
"value" : {
"name" : "BurninBoxConfig_v23",
"assigned" : "2019-02-28T13:57:09.667-0600"
}
},
{
"event" : "addConfiguration",
"timestamp" : "2019-07-19T15:24:15.693-0500",
"value" : {
"name" : "BurninBoxConfig_v24",
"assigned" : "2019-07-19T15:24:15.693-0500"
}
},
{
"event" : "addConfiguration",
"timestamp" : "2019-07-19T15:25:10.826-0500",
"value" : {
"name" : "BurninBoxConfig_v25",
"assigned" : "2019-07-19T15:25:10.826-0500"
}
}
],
"created" : "2018-09-06T17:34:14.029-0500"
},
"_id" : {
"$oid" : "f6971fc3eeba46778280d9f6"
},
"collection" : "DataManagerSupervisorTable",
"aliases" : {
"active" : [

],
"history" : [

]
},
"runs" : [

],
"attachments" : [

],
"configtype" : "notprovided",
"configurations" : [
{
"name" : "BurninBoxConfig_v24",
"assigned" : "2019-07-19T15:24:15.693-0500"
},
{
"name" : "BurninBoxConfig_v25",
"assigned" : "2019-07-19T15:25:10.826-0500"
}
]
}