{
"document" : {
"data" : {
"NAME" : "BURNIN_BOX_CYCLE_TABLE",
"COMMENT" : "Testing new computer 3!",
"AUTHOR" : "admin",
"CREATION_TIME" : 1631567280,
"COL_TYPES" : {
"BURNIN_BOX_CYCLE_GROUP_ID" : "STRING",
"TARGET_ID" : "STRING",
"IN_USE" : "STRING",
"SEQUENCE" : "NUMBER",
"TEMPERATURE" : "NUMBER",
"TIME_AT_TARGET" : "NUMBER",
"COMMENT_DESCRIPTION" : "STRING",
"AUTHOR" : "STRING",
"RECORD_INSERTION_TIME" : "TIMESTAMP WITH TIMEZONE"
},
"DATA_SET" : [
{
"BURNIN_BOX_CYCLE_GROUP_ID" : "ModuleTestingCycle",
"TARGET_ID" : "LowTemperature",
"IN_USE" : "Yes",
"SEQUENCE" : "1",
"TEMPERATURE" : "-33",
"TIME_AT_TARGET" : "1800",
"COMMENT_DESCRIPTION" : "No Comment",
"AUTHOR" : "admin",
"RECORD_INSERTION_TIME" : "1630516626"
},
{
"BURNIN_BOX_CYCLE_GROUP_ID" : "ModuleTestingCycle",
"TARGET_ID" : "HighTemperature",
"IN_USE" : "Yes",
"SEQUENCE" : "2",
"TEMPERATURE" : "20",
"TIME_AT_TARGET" : "1800",
"COMMENT_DESCRIPTION" : "No Comment",
"AUTHOR" : "admin",
"RECORD_INSERTION_TIME" : "1630516626"
},
{
"BURNIN_BOX_CYCLE_GROUP_ID" : "ModuleTestingCycle",
"TARGET_ID" : "StopTemperature",
"IN_USE" : "Yes",
"SEQUENCE" : "7",
"TEMPERATURE" : "20",
"TIME_AT_TARGET" : "0",
"COMMENT_DESCRIPTION" : "No Comment",
"AUTHOR" : "admin",
"RECORD_INSERTION_TIME" : "1631567280"
}
]
},
"metadata" : {

},
"search" : [

]
},
"comments" : [

],
"origin" : {
"source" : "template",
"name" : "notprovided",
"format" : "json",
"created" : "2021-09-13T17:08:00.897-0400",
"rawdata" : [

]
},
"version" : "29",
"entities" : [
{
"name" : "OTSROOT",
"assigned" : "2021-09-13T17:08:00.898-0400"
}
],
"configurations" : [
{
"name" : "notprovided",
"assigned" : "2021-09-13T17:08:00.898-0400"
},
{
"name" : "BurninBoxConfiguration_v77",
"assigned" : "2021-09-13T17:08:03.260-0400"
}
],
"changelog" : "notprovided",
"bookkeeping" : {
"isdeleted" : false,
"isreadonly" : false,
"updates" : [
{
"event" : "addConfiguration",
"timestamp" : "2021-09-13T17:08:00.898-0400",
"value" : {
"name" : "notprovided",
"assigned" : "2021-09-13T17:08:00.898-0400"
}
},
{
"event" : "setVersion",
"timestamp" : "2021-09-13T17:08:00.898-0400",
"value" : {
"name" : "29",
"assigned" : "2021-09-13T17:08:00.898-0400"
}
},
{
"event" : "setCollection",
"timestamp" : "2021-09-13T17:08:00.898-0400",
"value" : {
"name" : "BurninBoxCycleTable",
"assigned" : "2021-09-13T17:08:00.898-0400"
}
},
{
"event" : "addEntity",
"timestamp" : "2021-09-13T17:08:00.898-0400",
"value" : {
"name" : "OTSROOT",
"assigned" : "2021-09-13T17:08:00.898-0400"
}
},
{
"event" : "addConfiguration",
"timestamp" : "2021-09-13T17:08:03.260-0400",
"value" : {
"name" : "BurninBoxConfiguration_v77",
"assigned" : "2021-09-13T17:08:03.260-0400"
}
}
],
"created" : "2021-09-13T17:08:00.897-0400"
},
"_id" : {
"$oid" : "1fe275e442c344908d0084de"
},
"collection" : "BurninBoxCycleTable",
"aliases" : {
"active" : [

],
"history" : [

]
},
"runs" : [

],
"attachments" : [

],
"configtype" : "notprovided"
}