{
"document" : {
"data" : {
"NAME" : "BURNIN_BOX_CYCLE_TABLE",
"COMMENT" : "Test for burnin system (4/19/22)",
"AUTHOR" : "admin",
"CREATION_TIME" : 1650393353,
"COL_TYPES" : {
"BURNIN_BOX_CYCLE_GROUP_ID" : "STRING",
"TARGET_ID" : "STRING",
"IN_USE" : "STRING",
"SEQUENCE" : "NUMBER",
"TEMPERATURE" : "NUMBER",
"TIME_AT_TARGET" : "NUMBER",
"COMMENT_DESCRIPTION" : "STRING",
"AUTHOR" : "STRING",
"RECORD_INSERTION_TIME" : "TIMESTAMP WITH TIMEZONE"
},
"DATA_SET" : [
{
"BURNIN_BOX_CYCLE_GROUP_ID" : "ModuleTestingCycle",
"TARGET_ID" : "LowTemperature",
"IN_USE" : "Yes",
"SEQUENCE" : "1",
"TEMPERATURE" : "-33",
"TIME_AT_TARGET" : "1800",
"COMMENT_DESCRIPTION" : "No Comment",
"AUTHOR" : "admin",
"RECORD_INSERTION_TIME" : "1650393353"
},
{
"BURNIN_BOX_CYCLE_GROUP_ID" : "ModuleTestingCycle",
"TARGET_ID" : "HighTemperature",
"IN_USE" : "Yes",
"SEQUENCE" : "2",
"TEMPERATURE" : "23",
"TIME_AT_TARGET" : "1200",
"COMMENT_DESCRIPTION" : "No Comment",
"AUTHOR" : "admin",
"RECORD_INSERTION_TIME" : "1650393353"
},
{
"BURNIN_BOX_CYCLE_GROUP_ID" : "ModuleTestingCycle",
"TARGET_ID" : "StopTemperature",
"IN_USE" : "Yes",
"SEQUENCE" : "3",
"TEMPERATURE" : "23",
"TIME_AT_TARGET" : "0",
"COMMENT_DESCRIPTION" : "No Comment",
"AUTHOR" : "admin",
"RECORD_INSERTION_TIME" : "1650393353"
}
]
},
"metadata" : {

},
"search" : [

]
},
"comments" : [

],
"origin" : {
"source" : "template",
"name" : "notprovided",
"format" : "json",
"created" : "2022-04-19T14:35:53.282-0400",
"rawdata" : [

]
},
"version" : "37",
"entities" : [
{
"name" : "OTSROOT",
"assigned" : "2022-04-19T14:35:53.283-0400"
}
],
"configurations" : [
{
"name" : "notprovided",
"assigned" : "2022-04-19T14:35:53.282-0400"
},
{
"name" : "BurninBoxConfiguration_v95",
"assigned" : "2022-04-19T14:35:55.771-0400"
},
{
"name" : "BurninBoxConfiguration_v103",
"assigned" : "2022-06-10T10:17:25.044-0500"
},
{
"name" : "BurninBoxConfiguration_v104",
"assigned" : "2022-06-10T10:18:21.457-0500"
}
],
"changelog" : "notprovided",
"bookkeeping" : {
"isdeleted" : false,
"isreadonly" : false,
"updates" : [
{
"event" : "addConfiguration",
"timestamp" : "2022-04-19T14:35:53.283-0400",
"value" : {
"name" : "notprovided",
"assigned" : "2022-04-19T14:35:53.282-0400"
}
},
{
"event" : "setVersion",
"timestamp" : "2022-04-19T14:35:53.283-0400",
"value" : {
"name" : "37",
"assigned" : "2022-04-19T14:35:53.283-0400"
}
},
{
"event" : "setCollection",
"timestamp" : "2022-04-19T14:35:53.283-0400",
"value" : {
"name" : "BurninBoxCycleTable",
"assigned" : "2022-04-19T14:35:53.283-0400"
}
},
{
"event" : "addEntity",
"timestamp" : "2022-04-19T14:35:53.283-0400",
"value" : {
"name" : "OTSROOT",
"assigned" : "2022-04-19T14:35:53.283-0400"
}
},
{
"event" : "addConfiguration",
"timestamp" : "2022-04-19T14:35:55.771-0400",
"value" : {
"name" : "BurninBoxConfiguration_v95",
"assigned" : "2022-04-19T14:35:55.771-0400"
}
},
{
"event" : "addConfiguration",
"timestamp" : "2022-06-10T10:17:25.044-0500",
"value" : {
"name" : "BurninBoxConfiguration_v103",
"assigned" : "2022-06-10T10:17:25.044-0500"
}
},
{
"event" : "addConfiguration",
"timestamp" : "2022-06-10T10:18:21.457-0500",
"value" : {
"name" : "BurninBoxConfiguration_v104",
"assigned" : "2022-06-10T10:18:21.457-0500"
}
}
],
"created" : "2022-04-19T14:35:53.282-0400"
},
"_id" : {
"$oid" : "603400e6e4734933900a9369"
},
"collection" : "BurninBoxCycleTable",
"aliases" : {
"active" : [

],
"history" : [

]
},
"runs" : [

],
"attachments" : [

],
"configtype" : "notprovided"
}