{
"document" : {
"data" : {
"NAME" : "BURNIN_BOX_CYCLE_TABLE",
"COMMENT" : "No comment.",
"AUTHOR" : "admin",
"CREATION_TIME" : 1601935011,
"COL_TYPES" : {
"BURNIN_BOX_CYCLE_GROUP_ID" : "STRING",
"TARGET_ID" : "STRING",
"STATUS" : "STRING",
"TEMPERATURE" : "NUMBER",
"TIME_AT_TARGET" : "NUMBER",
"COMMENT_DESCRIPTION" : "STRING",
"AUTHOR" : "STRING",
"RECORD_INSERTION_TIME" : "TIMESTAMP WITH TIMEZONE"
},
"DATA_SET" : [
{
"BURNIN_BOX_CYCLE_GROUP_ID" : "ModuleTestingCycle",
"TARGET_ID" : "Temperature1",
"STATUS" : "On",
"TEMPERATURE" : "10",
"TIME_AT_TARGET" : "60",
"COMMENT_DESCRIPTION" : "No Comment",
"AUTHOR" : "admin",
"RECORD_INSERTION_TIME" : "1601935011"
},
{
"BURNIN_BOX_CYCLE_GROUP_ID" : "ModuleTestingCycle",
"TARGET_ID" : "TemperatureStop",
"STATUS" : "On",
"TEMPERATURE" : "10",
"TIME_AT_TARGET" : "0",
"COMMENT_DESCRIPTION" : "No Comment",
"AUTHOR" : "admin",
"RECORD_INSERTION_TIME" : "1601935011"
}
]
},
"metadata" : {

},
"search" : [

]
},
"comments" : [

],
"origin" : {
"source" : "template",
"name" : "notprovided",
"format" : "json",
"created" : "2020-10-05T16:56:51.973-0500",
"rawdata" : [

]
},
"version" : "1",
"entities" : [
{
"name" : "OTSROOT",
"assigned" : "2020-10-05T16:56:51.974-0500"
}
],
"configurations" : [
{
"name" : "notprovided",
"assigned" : "2020-10-05T16:56:51.973-0500"
},
{
"name" : "BurninBoxConfiguration_v8",
"assigned" : "2020-10-05T17:05:55.152-0500"
},
{
"name" : "BurninBoxConfiguration_v9",
"assigned" : "2020-10-05T17:09:48.161-0500"
},
{
"name" : "BurninBoxConfiguration_v10",
"assigned" : "2020-10-05T17:11:02.048-0500"
},
{
"name" : "BurninBoxConfiguration_v11",
"assigned" : "2020-10-05T17:39:03.473-0500"
},
{
"name" : "BurninBoxConfiguration_v12",
"assigned" : "2020-10-05T17:43:05.732-0500"
},
{
"name" : "BurninBoxConfiguration_v13",
"assigned" : "2020-10-09T14:43:39.678-0500"
},
{
"name" : "BurninBoxConfiguration_v14",
"assigned" : "2020-10-09T15:30:46.220-0500"
},
{
"name" : "BurninBoxConfiguration_v15",
"assigned" : "2020-10-12T10:14:43.122-0500"
}
],
"changelog" : "notprovided",
"bookkeeping" : {
"isdeleted" : false,
"isreadonly" : false,
"updates" : [
{
"event" : "addConfiguration",
"timestamp" : "2020-10-05T16:56:51.973-0500",
"value" : {
"name" : "notprovided",
"assigned" : "2020-10-05T16:56:51.973-0500"
}
},
{
"event" : "setVersion",
"timestamp" : "2020-10-05T16:56:51.973-0500",
"value" : {
"name" : "1",
"assigned" : "2020-10-05T16:56:51.973-0500"
}
},
{
"event" : "setCollection",
"timestamp" : "2020-10-05T16:56:51.973-0500",
"value" : {
"name" : "BurninBoxCycleTable",
"assigned" : "2020-10-05T16:56:51.974-0500"
}
},
{
"event" : "addEntity",
"timestamp" : "2020-10-05T16:56:51.974-0500",
"value" : {
"name" : "OTSROOT",
"assigned" : "2020-10-05T16:56:51.974-0500"
}
},
{
"event" : "addConfiguration",
"timestamp" : "2020-10-05T17:05:55.152-0500",
"value" : {
"name" : "BurninBoxConfiguration_v8",
"assigned" : "2020-10-05T17:05:55.152-0500"
}
},
{
"event" : "addConfiguration",
"timestamp" : "2020-10-05T17:09:48.161-0500",
"value" : {
"name" : "BurninBoxConfiguration_v9",
"assigned" : "2020-10-05T17:09:48.161-0500"
}
},
{
"event" : "addConfiguration",
"timestamp" : "2020-10-05T17:11:02.048-0500",
"value" : {
"name" : "BurninBoxConfiguration_v10",
"assigned" : "2020-10-05T17:11:02.048-0500"
}
},
{
"event" : "addConfiguration",
"timestamp" : "2020-10-05T17:39:03.473-0500",
"value" : {
"name" : "BurninBoxConfiguration_v11",
"assigned" : "2020-10-05T17:39:03.473-0500"
}
},
{
"event" : "addConfiguration",
"timestamp" : "2020-10-05T17:43:05.732-0500",
"value" : {
"name" : "BurninBoxConfiguration_v12",
"assigned" : "2020-10-05T17:43:05.732-0500"
}
},
{
"event" : "addConfiguration",
"timestamp" : "2020-10-09T14:43:39.678-0500",
"value" : {
"name" : "BurninBoxConfiguration_v13",
"assigned" : "2020-10-09T14:43:39.678-0500"
}
},
{
"event" : "addConfiguration",
"timestamp" : "2020-10-09T15:30:46.220-0500",
"value" : {
"name" : "BurninBoxConfiguration_v14",
"assigned" : "2020-10-09T15:30:46.220-0500"
}
},
{
"event" : "addConfiguration",
"timestamp" : "2020-10-12T10:14:43.122-0500",
"value" : {
"name" : "BurninBoxConfiguration_v15",
"assigned" : "2020-10-12T10:14:43.122-0500"
}
}
],
"created" : "2020-10-05T16:56:51.973-0500"
},
"_id" : {
"$oid" : "ff149e856ea04de58a688e9a"
},
"collection" : "BurninBoxCycleTable",
"aliases" : {
"active" : [

],
"history" : [

]
},
"runs" : [

],
"attachments" : [

],
"configtype" : "notprovided"
}