{
"document" : {
"data" : {
"NAME" : "GROUP_ALIASES_TABLE",
"COMMENT" : "Default Backbone.",
"AUTHOR" : "admin",
"CREATION_TIME" : 1697820843,
"COL_TYPES" : {
"GROUP_KEY_ALIAS" : "STRING",
"GROUP_NAME" : "STRING",
"GROUP_KEY" : "STRING",
"COMMENT_DESCRIPTION" : "STRING",
"AUTHOR" : "STRING",
"RECORD_INSERTION_TIME" : "TIMESTAMP WITH TIMEZONE"
},
"DATA_SET" : [
{
"GROUP_KEY_ALIAS" : "DefaultContext",
"GROUP_NAME" : "DefaultContext",
"GROUP_KEY" : "6",
"COMMENT_DESCRIPTION" : "This Group Alias was automatically setup by the server.",
"AUTHOR" : "admin",
"RECORD_INSERTION_TIME" : "1697820843"
},
{
"GROUP_KEY_ALIAS" : "BurninBoxConfiguration",
"GROUP_NAME" : "BurninBoxConfiguration",
"GROUP_KEY" : "2",
"COMMENT_DESCRIPTION" : "This Group Alias was automatically setup by the server.",
"AUTHOR" : "admin",
"RECORD_INSERTION_TIME" : "1685727438"
},
{
"GROUP_KEY_ALIAS" : "BurninBoxOnlyContext",
"GROUP_NAME" : "DefaultContext",
"GROUP_KEY" : "3",
"COMMENT_DESCRIPTION" : "This Group Alias was automatically setup by the server.",
"AUTHOR" : "admin",
"RECORD_INSERTION_TIME" : "1632518780"
},
{
"GROUP_KEY_ALIAS" : "BurninBoxOnlyConfiguration",
"GROUP_NAME" : "BurninBoxConfiguration",
"GROUP_KEY" : "1",
"COMMENT_DESCRIPTION" : "This Group Alias was automatically setup by the server.",
"AUTHOR" : "admin",
"RECORD_INSERTION_TIME" : "1655843978"
},
{
"GROUP_KEY_ALIAS" : "TrackerOnlyConfiguration",
"GROUP_NAME" : "BurninBoxConfiguration",
"GROUP_KEY" : "0",
"COMMENT_DESCRIPTION" : "This Group Alias was automatically setup by the server.",
"AUTHOR" : "admin",
"RECORD_INSERTION_TIME" : "1650482925"
},
{
"GROUP_KEY_ALIAS" : "TrackerOnlyContext",
"GROUP_NAME" : "DefaultContext",
"GROUP_KEY" : "3",
"COMMENT_DESCRIPTION" : "This Group Alias was automatically setup by the server.",
"AUTHOR" : "admin",
"RECORD_INSERTION_TIME" : "1636583603"
}
]
},
"metadata" : {

},
"search" : [

]
},
"comments" : [

],
"origin" : {
"source" : "template",
"name" : "notprovided",
"format" : "json",
"created" : "2023-10-25T15:16:53.569-0500",
"rawdata" : [

]
},
"version" : "5",
"entities" : [
{
"name" : "OTSROOT",
"assigned" : "2023-10-25T15:16:53.570-0500"
}
],
"configurations" : [
{
"name" : "notprovided",
"assigned" : "2023-10-25T15:16:53.570-0500"
},
{
"name" : "GroupAliasTreeEditWizBackbone_v5",
"assigned" : "2023-10-25T15:16:53.697-0500"
}
],
"changelog" : "notprovided",
"bookkeeping" : {
"isdeleted" : false,
"isreadonly" : false,
"updates" : [
{
"event" : "addConfiguration",
"timestamp" : "2023-10-25T15:16:53.570-0500",
"value" : {
"name" : "notprovided",
"assigned" : "2023-10-25T15:16:53.570-0500"
}
},
{
"event" : "setVersion",
"timestamp" : "2023-10-25T15:16:53.570-0500",
"value" : {
"name" : "5",
"assigned" : "2023-10-25T15:16:53.570-0500"
}
},
{
"event" : "setCollection",
"timestamp" : "2023-10-25T15:16:53.570-0500",
"value" : {
"name" : "GroupAliasesTable",
"assigned" : "2023-10-25T15:16:53.570-0500"
}
},
{
"event" : "addEntity",
"timestamp" : "2023-10-25T15:16:53.570-0500",
"value" : {
"name" : "OTSROOT",
"assigned" : "2023-10-25T15:16:53.570-0500"
}
},
{
"event" : "addConfiguration",
"timestamp" : "2023-10-25T15:16:53.697-0500",
"value" : {
"name" : "GroupAliasTreeEditWizBackbone_v5",
"assigned" : "2023-10-25T15:16:53.697-0500"
}
}
],
"created" : "2023-10-25T15:16:53.570-0500"
},
"_id" : {
"$oid" : "d864bac7342140b8af155db0"
},
"collection" : "GroupAliasesTable",
"aliases" : {
"active" : [

],
"history" : [

]
},
"runs" : [

],
"attachments" : [

],
"configtype" : "notprovided"
}