{
"document" : {
"data" : {
"NAME" : "DESKTOP_ICON_TABLE",
"COMMENT" : "Desktop icon definitions.",
"AUTHOR" : "admin",
"CREATION_TIME" : 1593446231,
"COL_TYPES" : {
"ICON_NAME" : "STRING",
"STATUS" : "STRING",
"CAPTION" : "STRING",
"ALTERNATE_TEXT" : "STRING",
"FORCE_ONLY_ONE_INSTANCE" : "STRING",
"REQUIRED_PERMISSION_LEVEL" : "STRING",
"IMAGE_URL" : "STRING",
"WINDOW_CONTENT_URL" : "STRING",
"LINK_TO_APPLICATION_TABLE" : "STRING",
"LINK_TO_APPLICATION_UID" : "STRING",
"LINK_TO_PARAMETER_TABLE" : "STRING",
"LINK_TO_PARAMETER_GROUP_ID" : "STRING",
"FOLDER_PATH" : "STRING",
"COMMENT_DESCRIPTION" : "STRING",
"AUTHOR" : "STRING",
"RECORD_INSERTION_TIME" : "TIMESTAMP WITH TIMEZONE"
},
"DATA_SET" : [
{
"ICON_NAME" : "FSM",
"STATUS" : "On",
"CAPTION" : "State Machine",
"ALTERNATE_TEXT" : "FSM",
"FORCE_ONLY_ONE_INSTANCE" : "True",
"REQUIRED_PERMISSION_LEVEL" : "1",
"IMAGE_URL" : "icon-Physics.gif",
"WINDOW_CONTENT_URL" : "/WebPath/html/StateMachine.html?fsm_name=OtherRuns0",
"LINK_TO_APPLICATION_TABLE" : "NO_LINK",
"LINK_TO_APPLICATION_UID" : "DEFAULT",
"LINK_TO_PARAMETER_TABLE" : "NO_LINK",
"LINK_TO_PARAMETER_GROUP_ID" : "DEFAULT",
"FOLDER_PATH" : "DEFAULT",
"COMMENT_DESCRIPTION" : "",
"AUTHOR" : "admin",
"RECORD_INSERTION_TIME" : "1593446231"
},
{
"ICON_NAME" : "Chat",
"STATUS" : "On",
"CAPTION" : "Chat",
"ALTERNATE_TEXT" : "CHAT",
"FORCE_ONLY_ONE_INSTANCE" : "True",
"REQUIRED_PERMISSION_LEVEL" : "1",
"IMAGE_URL" : "icon-Chat.png",
"WINDOW_CONTENT_URL" : "/WebPath/html/Chat.html",
"LINK_TO_APPLICATION_TABLE" : "XDAQApplicationTable",
"LINK_TO_APPLICATION_UID" : "ChatSupervisor",
"LINK_TO_PARAMETER_TABLE" : "NO_LINK",
"LINK_TO_PARAMETER_GROUP_ID" : "DEFAULT",
"FOLDER_PATH" : "DEFAULT",
"COMMENT_DESCRIPTION" : "The id number will be appended from the linked XDAQ supervisor urn",
"AUTHOR" : "admin",
"RECORD_INSERTION_TIME" : "1593446231"
},
{
"ICON_NAME" : "Logbook",
"STATUS" : "On",
"CAPTION" : "Logbook",
"ALTERNATE_TEXT" : "LOG",
"FORCE_ONLY_ONE_INSTANCE" : "True",
"REQUIRED_PERMISSION_LEVEL" : "1",
"IMAGE_URL" : "icon-Logbook.png",
"WINDOW_CONTENT_URL" : "/WebPath/html/Logbook.html",
"LINK_TO_APPLICATION_TABLE" : "XDAQApplicationTable",
"LINK_TO_APPLICATION_UID" : "LogbookSupervisor",
"LINK_TO_PARAMETER_TABLE" : "NO_LINK",
"LINK_TO_PARAMETER_GROUP_ID" : "DEFAULT",
"FOLDER_PATH" : "DEFAULT",
"COMMENT_DESCRIPTION" : "lid number must match XDAQ supervisor urn",
"AUTHOR" : "admin",
"RECORD_INSERTION_TIME" : "1593446231"
},
{
"ICON_NAME" : "Visualizer",
"STATUS" : "On",
"CAPTION" : "Visualizer",
"ALTERNATE_TEXT" : "VIS",
"FORCE_ONLY_ONE_INSTANCE" : "False",
"REQUIRED_PERMISSION_LEVEL" : "1",
"IMAGE_URL" : "icon-Visualizer.png",
"WINDOW_CONTENT_URL" : "/WebPath/html/Visualization.html",
"LINK_TO_APPLICATION_TABLE" : "XDAQApplicationTable",
"LINK_TO_APPLICATION_UID" : "VisualSupervisor",
"LINK_TO_PARAMETER_TABLE" : "NO_LINK",
"LINK_TO_PARAMETER_GROUP_ID" : "DEFAULT",
"FOLDER_PATH" : "DEFAULT",
"COMMENT_DESCRIPTION" : "urn must match XDAQ supervisor urn",
"AUTHOR" : "admin",
"RECORD_INSERTION_TIME" : "1593446231"
},
{
"ICON_NAME" : "MacroMaker",
"STATUS" : "On",
"CAPTION" : "Macro Maker",
"ALTERNATE_TEXT" : "MM",
"FORCE_ONLY_ONE_INSTANCE" : "True",
"REQUIRED_PERMISSION_LEVEL" : "1",
"IMAGE_URL" : "icon-MacroMaker.png",
"WINDOW_CONTENT_URL" : "/WebPath/html/MacroMaker.html",
"LINK_TO_APPLICATION_TABLE" : "XDAQApplicationTable",
"LINK_TO_APPLICATION_UID" : "MacroMakerSupervisor",
"LINK_TO_PARAMETER_TABLE" : "NO_LINK",
"LINK_TO_PARAMETER_GROUP_ID" : "DEFAULT",
"FOLDER_PATH" : "DEFAULT",
"COMMENT_DESCRIPTION" : "lid number must match XDAQ supervisor urn",
"AUTHOR" : "admin",
"RECORD_INSERTION_TIME" : "1593446231"
},
{
"ICON_NAME" : "Console",
"STATUS" : "On",
"CAPTION" : "Console",
"ALTERNATE_TEXT" : "CON",
"FORCE_ONLY_ONE_INSTANCE" : "True",
"REQUIRED_PERMISSION_LEVEL" : "255",
"IMAGE_URL" : "icon-Console.png",
"WINDOW_CONTENT_URL" : "/WebPath/html/Console.html?urn=",
"LINK_TO_APPLICATION_TABLE" : "XDAQApplicationTable",
"LINK_TO_APPLICATION_UID" : "ConsoleSupervisor",
"LINK_TO_PARAMETER_TABLE" : "NO_LINK",
"LINK_TO_PARAMETER_GROUP_ID" : "DEFAULT",
"FOLDER_PATH" : "DEFAULT",
"COMMENT_DESCRIPTION" : "urn must match XDAQ supervisor urn",
"AUTHOR" : "admin",
"RECORD_INSERTION_TIME" : "1593446231"
},
{
"ICON_NAME" : "ConfigureGUI",
"STATUS" : "On",
"CAPTION" : "Configure",
"ALTERNATE_TEXT" : "CFG",
"FORCE_ONLY_ONE_INSTANCE" : "False",
"REQUIRED_PERMISSION_LEVEL" : "10",
"IMAGE_URL" : "icon-Configure.png",
"WINDOW_CONTENT_URL" : "/urn:xdaq-application:lid=",
"LINK_TO_APPLICATION_TABLE" : "XDAQApplicationTable",
"LINK_TO_APPLICATION_UID" : "ConfigurationGUISupervisor",
"LINK_TO_PARAMETER_TABLE" : "NO_LINK",
"LINK_TO_PARAMETER_GROUP_ID" : "DEFAULT",
"FOLDER_PATH" : "DEFAULT",
"COMMENT_DESCRIPTION" : "lid number must match XDAQ supervisor urn",
"AUTHOR" : "admin",
"RECORD_INSERTION_TIME" : "1593446231"
},
{
"ICON_NAME" : "FESubConfigGUI",
"STATUS" : "On",
"CAPTION" : "Front-ends",
"ALTERNATE_TEXT" : "CFG",
"FORCE_ONLY_ONE_INSTANCE" : "False",
"REQUIRED_PERMISSION_LEVEL" : "10",
"IMAGE_URL" : "icon-Configure.png",
"WINDOW_CONTENT_URL" : "/WebPath/html/ConfigurationGUI_subset.html?urn=",
"LINK_TO_APPLICATION_TABLE" : "XDAQApplicationTable",
"LINK_TO_APPLICATION_UID" : "ConfigurationGUISupervisor",
"LINK_TO_PARAMETER_TABLE" : "DesktopWindowParameterTable",
"LINK_TO_PARAMETER_GROUP_ID" : "DEFAULT",
"FOLDER_PATH" : "Config Subsets",
"COMMENT_DESCRIPTION" : "lid number must match XDAQ supervisor urn",
"AUTHOR" : "admin",
"RECORD_INSERTION_TIME" : "1593446231"
},
{
"ICON_NAME" : "DPSubConfigGUI",
"STATUS" : "On",
"CAPTION" : "Data Processors",
"ALTERNATE_TEXT" : "CFG",
"FORCE_ONLY_ONE_INSTANCE" : "False",
"REQUIRED_PERMISSION_LEVEL" : "10",
"IMAGE_URL" : "icon-Configure.png",
"WINDOW_CONTENT_URL" : "/WebPath/html/ConfigurationGUI_subset.html?urn=",
"LINK_TO_APPLICATION_TABLE" : "XDAQApplicationTable",
"LINK_TO_APPLICATION_UID" : "ConfigurationGUISupervisor",
"LINK_TO_PARAMETER_TABLE" : "DesktopWindowParameterTable",
"LINK_TO_PARAMETER_GROUP_ID" : "DEFAULT",
"FOLDER_PATH" : "Config Subsets",
"COMMENT_DESCRIPTION" : "Data Processors config subset",
"AUTHOR" : "admin",
"RECORD_INSERTION_TIME" : "1593446231"
},
{
"ICON_NAME" : "ControlsDashboard",
"STATUS" : "Off",
"CAPTION" : "Controls Dashboard",
"ALTERNATE_TEXT" : "CTRLS",
"FORCE_ONLY_ONE_INSTANCE" : "False",
"REQUIRED_PERMISSION_LEVEL" : "1",
"IMAGE_URL" : "icon-ControlsDashboard.png",
"WINDOW_CONTENT_URL" : "/WebPath/html/SlowControlsDashboard.html?urn=",
"LINK_TO_APPLICATION_TABLE" : "XDAQApplicationTable",
"LINK_TO_APPLICATION_UID" : "ControlsDashboardSupervisor",
"LINK_TO_PARAMETER_TABLE" : "NO_LINK",
"LINK_TO_PARAMETER_GROUP_ID" : "DEFAULT",
"FOLDER_PATH" : "DEFAULT",
"COMMENT_DESCRIPTION" : "urn must match XDAQ supervisor urn",
"AUTHOR" : "admin",
"RECORD_INSERTION_TIME" : "1593446231"
},
{
"ICON_NAME" : "NOvALog",
"STATUS" : "Off",
"CAPTION" : "NOvA Log",
"ALTERNATE_TEXT" : "NOVA",
"FORCE_ONLY_ONE_INSTANCE" : "True",
"REQUIRED_PERMISSION_LEVEL" : "1",
"IMAGE_URL" : "0",
"WINDOW_CONTENT_URL" : "http://dbweb6.fnal.gov:8080/ECL/nova/E/index",
"LINK_TO_APPLICATION_TABLE" : "NO_LINK",
"LINK_TO_APPLICATION_UID" : "DEFAULT",
"LINK_TO_PARAMETER_TABLE" : "NO_LINK",
"LINK_TO_PARAMETER_GROUP_ID" : "DEFAULT",
"FOLDER_PATH" : "DEFAULT",
"COMMENT_DESCRIPTION" : "0 means use ALT for icon",
"AUTHOR" : "admin",
"RECORD_INSERTION_TIME" : "1593446231"
},
{
"ICON_NAME" : "FEMacroTest",
"STATUS" : "Off",
"CAPTION" : "FE Macro Test",
"ALTERNATE_TEXT" : "FE-Mac",
"FORCE_ONLY_ONE_INSTANCE" : "True",
"REQUIRED_PERMISSION_LEVEL" : "1",
"IMAGE_URL" : "0",
"WINDOW_CONTENT_URL" : "/WebPath/html/FEMacroTest.html?urn=",
"LINK_TO_APPLICATION_TABLE" : "XDAQApplicationTable",
"LINK_TO_APPLICATION_UID" : "MacroMakerSupervisor",
"LINK_TO_PARAMETER_TABLE" : "NO_LINK",
"LINK_TO_PARAMETER_GROUP_ID" : "DEFAULT",
"FOLDER_PATH" : "DEFAULT",
"COMMENT_DESCRIPTION" : "lid number must match XDAQ supervisor urn",
"AUTHOR" : "admin",
"RECORD_INSERTION_TIME" : "1593446231"
},
{
"ICON_NAME" : "NIMPlus",
"STATUS" : "On",
"CAPTION" : "NIM+",
"ALTERNATE_TEXT" : "NIM+",
"FORCE_ONLY_ONE_INSTANCE" : "False",
"REQUIRED_PERMISSION_LEVEL" : "1",
"IMAGE_URL" : "icon-Configure.png",
"WINDOW_CONTENT_URL" : "/WebPath/NimPlusWebPath/html/NimPlus_app.html",
"LINK_TO_APPLICATION_TABLE" : "XDAQApplicationTable",
"LINK_TO_APPLICATION_UID" : "ConfigurationGUISupervisor",
"LINK_TO_PARAMETER_TABLE" : "NO_LINK",
"LINK_TO_PARAMETER_GROUP_ID" : "DEFAULT",
"FOLDER_PATH" : "Config Subsets",
"COMMENT_DESCRIPTION" : "Ben's NIM+ web app",
"AUTHOR" : "admin",
"RECORD_INSERTION_TIME" : "1593446231"
},
{
"ICON_NAME" : "AcceleratorStatus",
"STATUS" : "On",
"CAPTION" : "Status",
"ALTERNATE_TEXT" : "Accelerator",
"FORCE_ONLY_ONE_INSTANCE" : "True",
"REQUIRED_PERMISSION_LEVEL" : "1",
"IMAGE_URL" : "0",
"WINDOW_CONTENT_URL" : "http://www-bd.fnal.gov/notifyservlet/www?project=&refresh=on&infolinks=top",
"LINK_TO_APPLICATION_TABLE" : "NO_LINK",
"LINK_TO_APPLICATION_UID" : "DEFAULT",
"LINK_TO_PARAMETER_TABLE" : "NO_LINK",
"LINK_TO_PARAMETER_GROUP_ID" : "DEFAULT",
"FOLDER_PATH" : "FTBF Extras",
"COMMENT_DESCRIPTION" : "Link to FNAL accelerator status.",
"AUTHOR" : "admin",
"RECORD_INSERTION_TIME" : "1593446231"
},
{
"ICON_NAME" : "AccLogbook",
"STATUS" : "On",
"CAPTION" : "Elog",
"ALTERNATE_TEXT" : "Accelerator",
"FORCE_ONLY_ONE_INSTANCE" : "False",
"REQUIRED_PERMISSION_LEVEL" : "1",
"IMAGE_URL" : "0",
"WINDOW_CONTENT_URL" : "https://www-bd.fnal.gov/Elog/?orLogName=Operations",
"LINK_TO_APPLICATION_TABLE" : "NO_LINK",
"LINK_TO_APPLICATION_UID" : "DEFAULT",
"LINK_TO_PARAMETER_TABLE" : "NO_LINK",
"LINK_TO_PARAMETER_GROUP_ID" : "DEFAULT",
"FOLDER_PATH" : "FTBF Extras",
"COMMENT_DESCRIPTION" : "Link to FNAL accelerator elog.",
"AUTHOR" : "admin",
"RECORD_INSERTION_TIME" : "1593446231"
},
{
"ICON_NAME" : "FTBFLogbook",
"STATUS" : "On",
"CAPTION" : "Elog",
"ALTERNATE_TEXT" : "FTBF",
"FORCE_ONLY_ONE_INSTANCE" : "False",
"REQUIRED_PERMISSION_LEVEL" : "1",
"IMAGE_URL" : "0",
"WINDOW_CONTENT_URL" : "http://dbweb6.fnal.gov:8080/ECL/test_beam/E/index",
"LINK_TO_APPLICATION_TABLE" : "NO_LINK",
"LINK_TO_APPLICATION_UID" : "DEFAULT",
"LINK_TO_PARAMETER_TABLE" : "NO_LINK",
"LINK_TO_PARAMETER_GROUP_ID" : "DEFAULT",
"FOLDER_PATH" : "FTBF Extras",
"COMMENT_DESCRIPTION" : "Link to FNAL test beam elog.",
"AUTHOR" : "admin",
"RECORD_INSERTION_TIME" : "1593446231"
},
{
"ICON_NAME" : "FTBFStatus",
"STATUS" : "On",
"CAPTION" : "Status",
"ALTERNATE_TEXT" : "FTBF",
"FORCE_ONLY_ONE_INSTANCE" : "False",
"REQUIRED_PERMISSION_LEVEL" : "1",
"IMAGE_URL" : "0",
"WINDOW_CONTENT_URL" : "https://www-bd.fnal.gov/synoptic/display/MTest/FTBF_Status",
"LINK_TO_APPLICATION_TABLE" : "NO_LINK",
"LINK_TO_APPLICATION_UID" : "DEFAULT",
"LINK_TO_PARAMETER_TABLE" : "NO_LINK",
"LINK_TO_PARAMETER_GROUP_ID" : "DEFAULT",
"FOLDER_PATH" : "FTBF Extras",
"COMMENT_DESCRIPTION" : "No Comment",
"AUTHOR" : "admin",
"RECORD_INSERTION_TIME" : "1593446231"
},
{
"ICON_NAME" : "SmartLaunch",
"STATUS" : "On",
"CAPTION" : "Smart Launch",
"ALTERNATE_TEXT" : "LAUNCH",
"FORCE_ONLY_ONE_INSTANCE" : "True",
"REQUIRED_PERMISSION_LEVEL" : "255",
"IMAGE_URL" : "/WebPath/FTBFWebPath/images/icon-Rocket.png",
"WINDOW_CONTENT_URL" : "/WebPath/FTBFWebPath/html/SmartLaunch.html",
"LINK_TO_APPLICATION_TABLE" : "XDAQApplicationTable",
"LINK_TO_APPLICATION_UID" : "ConfigurationGUISupervisor",
"LINK_TO_PARAMETER_TABLE" : "NO_LINK",
"LINK_TO_PARAMETER_GROUP_ID" : "DEFAULT",
"FOLDER_PATH" : "DEFAULT",
"COMMENT_DESCRIPTION" : "Smart Launch web app",
"AUTHOR" : "admin",
"RECORD_INSERTION_TIME" : "1593446231"
},
{
"ICON_NAME" : "Iterator",
"STATUS" : "On",
"CAPTION" : "Iterator",
"ALTERNATE_TEXT" : "IT",
"FORCE_ONLY_ONE_INSTANCE" : "False",
"REQUIRED_PERMISSION_LEVEL" : "1",
"IMAGE_URL" : "icon-Iterate.png",
"WINDOW_CONTENT_URL" : "/WebPath/html/Iterate.html",
"LINK_TO_APPLICATION_TABLE" : "XDAQApplicationTable",
"LINK_TO_APPLICATION_UID" : "ConfigurationGUISupervisor",
"LINK_TO_PARAMETER_TABLE" : "NO_LINK",
"LINK_TO_PARAMETER_GROUP_ID" : "DEFAULT",
"FOLDER_PATH" : "DEFAULT",
"COMMENT_DESCRIPTION" : "Iterate app",
"AUTHOR" : "admin",
"RECORD_INSERTION_TIME" : "1593446231"
}
]
},
"metadata" : {

},
"search" : [

]
},
"comments" : [

],
"origin" : {
"source" : "template",
"name" : "notprovided",
"format" : "json",
"created" : "2020-06-29T10:57:11.490-0500",
"rawdata" : [

]
},
"version" : "4",
"entities" : [
{
"name" : "OTSROOT",
"assigned" : "2020-06-29T10:57:11.490-0500"
}
],
"configurations" : [
{
"name" : "notprovided",
"assigned" : "2020-06-29T10:57:11.490-0500"
},
{
"name" : "DefaultContext_v5",
"assigned" : "2020-06-29T11:00:05.148-0500"
},
{
"name" : "DefaultContext_v6",
"assigned" : "2020-07-29T16:01:22.240-0500"
},
{
"name" : "DefaultContext_v7",
"assigned" : "2020-07-29T16:34:42.591-0500"
},
{
"name" : "DefaultContext_v8",
"assigned" : "2020-07-29T16:39:53.436-0500"
},
{
"name" : "DefaultContext_v9",
"assigned" : "2020-07-29T16:40:44.052-0500"
},
{
"name" : "DefaultContext_v10",
"assigned" : "2020-07-29T16:45:01.342-0500"
},
{
"name" : "DefaultContext_v11",
"assigned" : "2020-07-29T16:49:16.142-0500"
},
{
"name" : "DefaultContext_v12",
"assigned" : "2020-09-02T15:22:09.294-0500"
},
{
"name" : "DefaultContext_v13",
"assigned" : "2020-10-05T17:04:58.033-0500"
},
{
"name" : "DefaultContext_v14",
"assigned" : "2020-10-05T17:07:06.533-0500"
},
{
"name" : "DefaultContext_v15",
"assigned" : "2020-10-05T17:43:26.989-0500"
},
{
"name" : "DefaultContext_v16",
"assigned" : "2020-10-05T17:51:29.924-0500"
},
{
"name" : "DefaultContext_v17",
"assigned" : "2020-10-09T11:58:10.010-0500"
},
{
"name" : "DefaultContext_v18",
"assigned" : "2020-10-09T12:53:53.719-0500"
}
],
"changelog" : "notprovided",
"bookkeeping" : {
"isdeleted" : false,
"isreadonly" : false,
"updates" : [
{
"event" : "addConfiguration",
"timestamp" : "2020-06-29T10:57:11.490-0500",
"value" : {
"name" : "notprovided",
"assigned" : "2020-06-29T10:57:11.490-0500"
}
},
{
"event" : "setVersion",
"timestamp" : "2020-06-29T10:57:11.490-0500",
"value" : {
"name" : "4",
"assigned" : "2020-06-29T10:57:11.490-0500"
}
},
{
"event" : "setCollection",
"timestamp" : "2020-06-29T10:57:11.490-0500",
"value" : {
"name" : "DesktopIconTable",
"assigned" : "2020-06-29T10:57:11.490-0500"
}
},
{
"event" : "addEntity",
"timestamp" : "2020-06-29T10:57:11.490-0500",
"value" : {
"name" : "OTSROOT",
"assigned" : "2020-06-29T10:57:11.490-0500"
}
},
{
"event" : "addConfiguration",
"timestamp" : "2020-06-29T11:00:05.148-0500",
"value" : {
"name" : "DefaultContext_v5",
"assigned" : "2020-06-29T11:00:05.148-0500"
}
},
{
"event" : "addConfiguration",
"timestamp" : "2020-07-29T16:01:22.240-0500",
"value" : {
"name" : "DefaultContext_v6",
"assigned" : "2020-07-29T16:01:22.240-0500"
}
},
{
"event" : "addConfiguration",
"timestamp" : "2020-07-29T16:34:42.591-0500",
"value" : {
"name" : "DefaultContext_v7",
"assigned" : "2020-07-29T16:34:42.591-0500"
}
},
{
"event" : "addConfiguration",
"timestamp" : "2020-07-29T16:39:53.436-0500",
"value" : {
"name" : "DefaultContext_v8",
"assigned" : "2020-07-29T16:39:53.436-0500"
}
},
{
"event" : "addConfiguration",
"timestamp" : "2020-07-29T16:40:44.052-0500",
"value" : {
"name" : "DefaultContext_v9",
"assigned" : "2020-07-29T16:40:44.052-0500"
}
},
{
"event" : "addConfiguration",
"timestamp" : "2020-07-29T16:45:01.342-0500",
"value" : {
"name" : "DefaultContext_v10",
"assigned" : "2020-07-29T16:45:01.342-0500"
}
},
{
"event" : "addConfiguration",
"timestamp" : "2020-07-29T16:49:16.142-0500",
"value" : {
"name" : "DefaultContext_v11",
"assigned" : "2020-07-29T16:49:16.142-0500"
}
},
{
"event" : "addConfiguration",
"timestamp" : "2020-09-02T15:22:09.294-0500",
"value" : {
"name" : "DefaultContext_v12",
"assigned" : "2020-09-02T15:22:09.294-0500"
}
},
{
"event" : "addConfiguration",
"timestamp" : "2020-10-05T17:04:58.033-0500",
"value" : {
"name" : "DefaultContext_v13",
"assigned" : "2020-10-05T17:04:58.033-0500"
}
},
{
"event" : "addConfiguration",
"timestamp" : "2020-10-05T17:07:06.533-0500",
"value" : {
"name" : "DefaultContext_v14",
"assigned" : "2020-10-05T17:07:06.533-0500"
}
},
{
"event" : "addConfiguration",
"timestamp" : "2020-10-05T17:43:26.989-0500",
"value" : {
"name" : "DefaultContext_v15",
"assigned" : "2020-10-05T17:43:26.989-0500"
}
},
{
"event" : "addConfiguration",
"timestamp" : "2020-10-05T17:51:29.924-0500",
"value" : {
"name" : "DefaultContext_v16",
"assigned" : "2020-10-05T17:51:29.924-0500"
}
},
{
"event" : "addConfiguration",
"timestamp" : "2020-10-09T11:58:10.010-0500",
"value" : {
"name" : "DefaultContext_v17",
"assigned" : "2020-10-09T11:58:10.010-0500"
}
},
{
"event" : "addConfiguration",
"timestamp" : "2020-10-09T12:53:53.719-0500",
"value" : {
"name" : "DefaultContext_v18",
"assigned" : "2020-10-09T12:53:53.719-0500"
}
}
],
"created" : "2020-06-29T10:57:11.490-0500"
},
"_id" : {
"$oid" : "a64b873bf6424006a01f4d64"
},
"collection" : "DesktopIconTable",
"aliases" : {
"active" : [

],
"history" : [

]
},
"runs" : [

],
"attachments" : [

],
"configtype" : "notprovided"
}