{
"ouid" : [
"00a046a4eb05486ea69245f1",
"61d48dcccfad449c88db90cb",
"7478a6e63a9c4b829f88a838",
"a64b873bf6424006a01f4d64",
"d190c81c7ee14534aedbda40",
"dc607dcc10b8455d91817b88",
"f4ff41f165b94e91bfa76d4c"
],
"version" : {
"1" : [
"00a046a4eb05486ea69245f1"
],
"2" : [
"7478a6e63a9c4b829f88a838"
],
"3" : [
"61d48dcccfad449c88db90cb"
],
"4" : [
"a64b873bf6424006a01f4d64"
],
"5" : [
"f4ff41f165b94e91bfa76d4c"
],
"6" : [
"d190c81c7ee14534aedbda40"
],
"7" : [
"dc607dcc10b8455d91817b88"
]
},
"configurations.name" : {
"notprovided" : [
"00a046a4eb05486ea69245f1",
"61d48dcccfad449c88db90cb",
"7478a6e63a9c4b829f88a838",
"a64b873bf6424006a01f4d64",
"d190c81c7ee14534aedbda40",
"dc607dcc10b8455d91817b88",
"f4ff41f165b94e91bfa76d4c"
],
"DefaultContext_v1" : [
"00a046a4eb05486ea69245f1"
],
"DefaultContext_v2" : [
"7478a6e63a9c4b829f88a838"
],
"DefaultContext_v3" : [
"7478a6e63a9c4b829f88a838"
],
"DefaultContext_v4" : [
"61d48dcccfad449c88db90cb"
],
"DefaultContext_v5" : [
"a64b873bf6424006a01f4d64"
],
"DefaultContext_v6" : [
"a64b873bf6424006a01f4d64"
],
"DefaultContext_v7" : [
"a64b873bf6424006a01f4d64"
],
"DefaultContext_v8" : [
"a64b873bf6424006a01f4d64"
],
"DefaultContext_v9" : [
"a64b873bf6424006a01f4d64"
],
"DefaultContext_v10" : [
"a64b873bf6424006a01f4d64"
],
"DefaultContext_v11" : [
"a64b873bf6424006a01f4d64"
],
"DefaultContext_v12" : [
"a64b873bf6424006a01f4d64"
],
"DefaultContext_v13" : [
"a64b873bf6424006a01f4d64"
],
"DefaultContext_v14" : [
"a64b873bf6424006a01f4d64"
],
"DefaultContext_v15" : [
"a64b873bf6424006a01f4d64"
],
"DefaultContext_v16" : [
"a64b873bf6424006a01f4d64"
],
"DefaultContext_v17" : [
"a64b873bf6424006a01f4d64"
],
"DefaultContext_v18" : [
"a64b873bf6424006a01f4d64"
],
"DefaultContext_v19" : [
"f4ff41f165b94e91bfa76d4c"
],
"DefaultContext_v20" : [
"f4ff41f165b94e91bfa76d4c"
],
"DefaultContext_v21" : [
"f4ff41f165b94e91bfa76d4c"
],
"DefaultContext_v22" : [
"f4ff41f165b94e91bfa76d4c"
],
"DefaultContext_v23" : [
"d190c81c7ee14534aedbda40"
],
"DefaultContext_v24" : [
"d190c81c7ee14534aedbda40"
],
"DefaultContext_v25" : [
"d190c81c7ee14534aedbda40"
],
"DefaultContext_v26" : [
"d190c81c7ee14534aedbda40"
],
"DefaultContext_v27" : [
"f4ff41f165b94e91bfa76d4c"
],
"DefaultContext_v28" : [
"f4ff41f165b94e91bfa76d4c"
],
"DefaultContext_v29" : [
"f4ff41f165b94e91bfa76d4c"
],
"DefaultContext_v30" : [
"f4ff41f165b94e91bfa76d4c"
],
"DefaultContext_v31" : [
"f4ff41f165b94e91bfa76d4c"
],
"DefaultContext_v32" : [
"f4ff41f165b94e91bfa76d4c"
],
"DefaultContext_v33" : [
"f4ff41f165b94e91bfa76d4c"
],
"DefaultContext_v34" : [
"f4ff41f165b94e91bfa76d4c"
],
"DefaultContext_v35" : [
"f4ff41f165b94e91bfa76d4c"
],
"DefaultContext_v36" : [
"f4ff41f165b94e91bfa76d4c"
],
"DefaultContext_v37" : [
"f4ff41f165b94e91bfa76d4c"
],
"DefaultContext_v38" : [
"f4ff41f165b94e91bfa76d4c"
],
"DefaultContext_v39" : [
"f4ff41f165b94e91bfa76d4c"
],
"DefaultContext_v40" : [
"f4ff41f165b94e91bfa76d4c"
],
"DefaultContext_v41" : [
"f4ff41f165b94e91bfa76d4c"
],
"DefaultContext_v42" : [
"f4ff41f165b94e91bfa76d4c"
],
"DefaultContext_v43" : [
"f4ff41f165b94e91bfa76d4c"
],
"DefaultContext_v44" : [
"f4ff41f165b94e91bfa76d4c"
],
"DefaultContext_v45" : [
"f4ff41f165b94e91bfa76d4c"
],
"DefaultContext_v46" : [
"f4ff41f165b94e91bfa76d4c"
],
"DefaultContext_v47" : [
"f4ff41f165b94e91bfa76d4c"
],
"DefaultContext_v48" : [
"f4ff41f165b94e91bfa76d4c"
],
"DefaultContext_v49" : [
"dc607dcc10b8455d91817b88"
],
"DefaultContext_v50" : [
"dc607dcc10b8455d91817b88"
]
},
"entities.name" : {
"OTSROOT" : [
"00a046a4eb05486ea69245f1",
"61d48dcccfad449c88db90cb",
"7478a6e63a9c4b829f88a838",
"a64b873bf6424006a01f4d64",
"d190c81c7ee14534aedbda40",
"dc607dcc10b8455d91817b88",
"f4ff41f165b94e91bfa76d4c"
]
},
"aliases.active.name" : {

},
"runs.name" : {

},
"configurations.assigned" : {
"notprovided" : [
"2018-09-06T17:34:14.848-0500",
"2018-09-10T09:24:23.557-0500",
"2019-10-22T14:54:11.089-0500",
"2020-06-29T10:57:11.490-0500",
"2020-10-09T12:57:05.383-0500",
"2020-10-09T15:32:57.138-0500",
"2022-04-18T12:55:47.567-0400"
],
"DefaultContext_v1" : [
"2018-09-06T17:34:15.308-0500"
],
"DefaultContext_v2" : [
"2018-09-10T09:24:23.972-0500"
],
"DefaultContext_v3" : [
"2018-09-11T10:00:20.307-0500"
],
"DefaultContext_v4" : [
"2019-10-22T14:55:21.165-0500"
],
"DefaultContext_v5" : [
"2020-06-29T11:00:05.148-0500"
],
"DefaultContext_v6" : [
"2020-07-29T16:01:22.240-0500"
],
"DefaultContext_v7" : [
"2020-07-29T16:34:42.591-0500"
],
"DefaultContext_v8" : [
"2020-07-29T16:39:53.436-0500"
],
"DefaultContext_v9" : [
"2020-07-29T16:40:44.052-0500"
],
"DefaultContext_v10" : [
"2020-07-29T16:45:01.342-0500"
],
"DefaultContext_v11" : [
"2020-07-29T16:49:16.142-0500"
],
"DefaultContext_v12" : [
"2020-09-02T15:22:09.294-0500"
],
"DefaultContext_v13" : [
"2020-10-05T17:04:58.033-0500"
],
"DefaultContext_v14" : [
"2020-10-05T17:07:06.533-0500"
],
"DefaultContext_v15" : [
"2020-10-05T17:43:26.989-0500"
],
"DefaultContext_v16" : [
"2020-10-05T17:51:29.924-0500"
],
"DefaultContext_v17" : [
"2020-10-09T11:58:10.010-0500"
],
"DefaultContext_v18" : [
"2020-10-09T12:53:53.719-0500"
],
"DefaultContext_v19" : [
"2020-10-09T12:57:06.478-0500"
],
"DefaultContext_v20" : [
"2020-10-09T13:00:57.836-0500"
],
"DefaultContext_v21" : [
"2020-10-09T15:30:48.277-0500"
],
"DefaultContext_v22" : [
"2020-10-09T15:32:23.966-0500"
],
"DefaultContext_v23" : [
"2020-10-09T15:32:58.336-0500"
],
"DefaultContext_v24" : [
"2020-10-09T16:47:18.909-0500"
],
"DefaultContext_v25" : [
"2020-10-12T09:37:49.770-0500"
],
"DefaultContext_v26" : [
"2020-10-12T09:41:39.279-0500"
],
"DefaultContext_v27" : [
"2020-10-29T11:54:28.163-0500"
],
"DefaultContext_v28" : [
"2020-10-29T11:54:56.136-0500"
],
"DefaultContext_v29" : [
"2020-10-29T13:33:30.836-0500"
],
"DefaultContext_v30" : [
"2020-11-16T17:04:43.145-0600"
],
"DefaultContext_v31" : [
"2020-11-16T17:07:49.464-0600"
],
"DefaultContext_v32" : [
"2020-11-16T17:10:03.579-0600"
],
"DefaultContext_v33" : [
"2021-07-07T14:45:52.008-0500"
],
"DefaultContext_v34" : [
"2021-07-07T16:02:04.155-0500"
],
"DefaultContext_v35" : [
"2021-07-07T16:05:37.759-0500"
],
"DefaultContext_v36" : [
"2021-07-08T14:00:20.251-0500"
],
"DefaultContext_v37" : [
"2021-07-08T14:16:59.970-0500"
],
"DefaultContext_v38" : [
"2021-07-08T16:21:56.051-0500"
],
"DefaultContext_v39" : [
"2021-07-08T16:24:39.167-0500"
],
"DefaultContext_v40" : [
"2021-07-14T13:02:14.002-0500"
],
"DefaultContext_v41" : [
"2021-07-14T13:03:01.153-0500"
],
"DefaultContext_v42" : [
"2021-07-14T14:39:31.556-0500"
],
"DefaultContext_v43" : [
"2021-07-21T12:08:22.367-0500"
],
"DefaultContext_v44" : [
"2021-08-03T11:10:39.338-0500"
],
"DefaultContext_v45" : [
"2021-09-02T14:08:00.729-0500"
],
"DefaultContext_v46" : [
"2021-09-24T15:36:52.369-0500"
],
"DefaultContext_v47" : [
"2021-09-28T10:22:57.340-0500"
],
"DefaultContext_v48" : [
"2021-11-10T15:11:05.036-0600"
],
"DefaultContext_v49" : [
"2022-04-18T12:56:04.130-0400"
],
"DefaultContext_v50" : [
"2022-04-20T10:06:52.042-0400"
]
}
}