{
"document" : {
"data" : {
"NAME" : "FE_MIDDLEWARE_INTERFACE_TABLE",
"COMMENT" : "No comment.",
"AUTHOR" : "admin",
"CREATION_TIME" : 1674147761,
"COL_TYPES" : {
"INTERFACE_ID" : "STRING",
"INTERFACE_IP_ADDRESS" : "STRING",
"INTERFACE_PORT" : "NUMBER",
"CALIBRATION_NAME" : "STRING",
"CONFIGURATION_DIR" : "STRING",
"CONFIGURATION_NAME" : "STRING",
"COMMENT_DESCRIPTION" : "STRING",
"AUTHOR" : "STRING",
"RECORD_INSERTION_TIME" : "TIMESTAMP WITH TIMEZONE"
},
"DATA_SET" : [
{
"INTERFACE_ID" : "FETrackerInterface0",
"INTERFACE_IP_ADDRESS" : "localhost",
"INTERFACE_PORT" : "5000",
"CALIBRATION_NAME" : "calibrationandpedenoise",
"CONFIGURATION_DIR" : "${PH2ACF_BASE_DIR}/settings",
"CONFIGURATION_NAME" : "2S_4Modules_Burnin.xml",
"COMMENT_DESCRIPTION" : "No Comment",
"AUTHOR" : "admin",
"RECORD_INSERTION_TIME" : "1674147691"
},
{
"INTERFACE_ID" : "FETrackerInterface1",
"INTERFACE_IP_ADDRESS" : "localhost.localdomain",
"INTERFACE_PORT" : "5000",
"CALIBRATION_NAME" : "calibrationandpedenoise",
"CONFIGURATION_DIR" : "settings",
"CONFIGURATION_NAME" : "D19CDescription_2CBC3_Feynman.xml",
"COMMENT_DESCRIPTION" : "No Comment",
"AUTHOR" : "admin",
"RECORD_INSERTION_TIME" : "1601935854"
}
]
},
"metadata" : {

},
"search" : [

]
},
"comments" : [

],
"origin" : {
"source" : "template",
"name" : "notprovided",
"format" : "json",
"created" : "2023-01-19T11:02:41.742-0600",
"rawdata" : [

]
},
"version" : "10",
"entities" : [
{
"name" : "OTSROOT",
"assigned" : "2023-01-19T11:02:41.742-0600"
}
],
"configurations" : [
{
"name" : "notprovided",
"assigned" : "2023-01-19T11:02:41.742-0600"
},
{
"name" : "BurninBoxConfiguration_v112",
"assigned" : "2023-01-19T11:02:44.953-0600"
},
{
"name" : "BurninBoxConfiguration_v113",
"assigned" : "2023-01-20T11:51:30.953-0600"
},
{
"name" : "BurninBoxConfiguration_v114",
"assigned" : "2023-01-30T11:15:46.106-0600"
},
{
"name" : "BurninBoxConfiguration_v115",
"assigned" : "2023-03-01T10:10:33.964-0600"
},
{
"name" : "BurninBoxConfiguration_v116",
"assigned" : "2023-03-10T16:58:22.686+0100"
}
],
"changelog" : "notprovided",
"bookkeeping" : {
"isdeleted" : false,
"isreadonly" : false,
"updates" : [
{
"event" : "addConfiguration",
"timestamp" : "2023-01-19T11:02:41.742-0600",
"value" : {
"name" : "notprovided",
"assigned" : "2023-01-19T11:02:41.742-0600"
}
},
{
"event" : "setVersion",
"timestamp" : "2023-01-19T11:02:41.742-0600",
"value" : {
"name" : "10",
"assigned" : "2023-01-19T11:02:41.742-0600"
}
},
{
"event" : "setCollection",
"timestamp" : "2023-01-19T11:02:41.742-0600",
"value" : {
"name" : "FEMiddlewareInterfaceTable",
"assigned" : "2023-01-19T11:02:41.742-0600"
}
},
{
"event" : "addEntity",
"timestamp" : "2023-01-19T11:02:41.742-0600",
"value" : {
"name" : "OTSROOT",
"assigned" : "2023-01-19T11:02:41.742-0600"
}
},
{
"event" : "addConfiguration",
"timestamp" : "2023-01-19T11:02:44.953-0600",
"value" : {
"name" : "BurninBoxConfiguration_v112",
"assigned" : "2023-01-19T11:02:44.953-0600"
}
},
{
"event" : "addConfiguration",
"timestamp" : "2023-01-20T11:51:30.953-0600",
"value" : {
"name" : "BurninBoxConfiguration_v113",
"assigned" : "2023-01-20T11:51:30.953-0600"
}
},
{
"event" : "addConfiguration",
"timestamp" : "2023-01-30T11:15:46.106-0600",
"value" : {
"name" : "BurninBoxConfiguration_v114",
"assigned" : "2023-01-30T11:15:46.106-0600"
}
},
{
"event" : "addConfiguration",
"timestamp" : "2023-03-01T10:10:33.964-0600",
"value" : {
"name" : "BurninBoxConfiguration_v115",
"assigned" : "2023-03-01T10:10:33.964-0600"
}
},
{
"event" : "addConfiguration",
"timestamp" : "2023-03-10T16:58:22.686+0100",
"value" : {
"name" : "BurninBoxConfiguration_v116",
"assigned" : "2023-03-10T16:58:22.686+0100"
}
}
],
"created" : "2023-01-19T11:02:41.742-0600"
},
"_id" : {
"$oid" : "f73b6aa4670d4dbd8e6805cc"
},
"collection" : "FEMiddlewareInterfaceTable",
"aliases" : {
"active" : [

],
"history" : [

]
},
"runs" : [

],
"attachments" : [

],
"configtype" : "notprovided"
}