{
"ouid" : [
"5e51228d3e704773b3432ade",
"97a61093c8fe42429b4f042b"
],
"version" : {
"0" : [
"97a61093c8fe42429b4f042b"
],
"1" : [
"5e51228d3e704773b3432ade"
]
},
"configurations.name" : {
"notprovided" : [
"5e51228d3e704773b3432ade",
"97a61093c8fe42429b4f042b"
],
"BurninBoxConfiguration_v11" : [
"97a61093c8fe42429b4f042b"
],
"BurninBoxConfiguration_v12" : [
"97a61093c8fe42429b4f042b"
],
"BurninBoxConfiguration_v13" : [
"97a61093c8fe42429b4f042b"
],
"BurninBoxConfiguration_v14" : [
"97a61093c8fe42429b4f042b"
],
"BurninBoxConfiguration_v15" : [
"97a61093c8fe42429b4f042b"
],
"BurninBoxConfiguration_v16" : [
"97a61093c8fe42429b4f042b"
],
"BurninBoxConfiguration_v17" : [
"97a61093c8fe42429b4f042b"
],
"BurninBoxConfiguration_v18" : [
"97a61093c8fe42429b4f042b"
],
"BurninBoxConfiguration_v19" : [
"97a61093c8fe42429b4f042b"
],
"BurninBoxConfiguration_v20" : [
"97a61093c8fe42429b4f042b"
],
"BurninBoxConfiguration_v21" : [
"97a61093c8fe42429b4f042b"
],
"BurninBoxConfiguration_v22" : [
"97a61093c8fe42429b4f042b"
],
"BurninBoxConfiguration_v23" : [
"97a61093c8fe42429b4f042b"
],
"BurninBoxConfiguration_v24" : [
"97a61093c8fe42429b4f042b"
],
"BurninBoxConfiguration_v25" : [
"97a61093c8fe42429b4f042b"
],
"BurninBoxConfiguration_v26" : [
"97a61093c8fe42429b4f042b"
],
"BurninBoxConfiguration_v27" : [
"5e51228d3e704773b3432ade"
],
"BurninBoxConfiguration_v28" : [
"5e51228d3e704773b3432ade"
],
"BurninBoxConfiguration_v29" : [
"5e51228d3e704773b3432ade"
],
"BurninBoxConfiguration_v30" : [
"5e51228d3e704773b3432ade"
],
"BurninBoxConfiguration_v31" : [
"5e51228d3e704773b3432ade"
],
"BurninBoxConfiguration_v32" : [
"5e51228d3e704773b3432ade"
],
"BurninBoxConfiguration_v33" : [
"5e51228d3e704773b3432ade"
],
"BurninBoxConfiguration_v34" : [
"5e51228d3e704773b3432ade"
],
"BurninBoxConfiguration_v35" : [
"5e51228d3e704773b3432ade"
],
"BurninBoxConfiguration_v36" : [
"5e51228d3e704773b3432ade"
],
"BurninBoxConfiguration_v37" : [
"5e51228d3e704773b3432ade"
],
"BurninBoxConfiguration_v38" : [
"5e51228d3e704773b3432ade"
],
"BurninBoxConfiguration_v39" : [
"5e51228d3e704773b3432ade"
],
"BurninBoxConfiguration_v40" : [
"5e51228d3e704773b3432ade"
],
"BurninBoxConfiguration_v41" : [
"5e51228d3e704773b3432ade"
],
"BurninBoxConfiguration_v42" : [
"5e51228d3e704773b3432ade"
],
"BurninBoxConfiguration_v43" : [
"5e51228d3e704773b3432ade"
],
"BurninBoxConfiguration_v44" : [
"5e51228d3e704773b3432ade"
],
"BurninBoxConfiguration_v45" : [
"5e51228d3e704773b3432ade"
],
"BurninBoxConfiguration_v46" : [
"5e51228d3e704773b3432ade"
],
"BurninBoxConfiguration_v47" : [
"5e51228d3e704773b3432ade"
],
"BurninBoxConfiguration_v48" : [
"5e51228d3e704773b3432ade"
],
"BurninBoxConfiguration_v49" : [
"5e51228d3e704773b3432ade"
],
"BurninBoxConfiguration_v50" : [
"5e51228d3e704773b3432ade"
],
"BurninBoxConfiguration_v51" : [
"5e51228d3e704773b3432ade"
],
"BurninBoxConfiguration_v52" : [
"5e51228d3e704773b3432ade"
],
"BurninBoxConfiguration_v53" : [
"5e51228d3e704773b3432ade"
],
"BurninBoxConfiguration_v54" : [
"5e51228d3e704773b3432ade"
],
"BurninBoxConfiguration_v55" : [
"5e51228d3e704773b3432ade"
],
"BurninBoxConfiguration_v56" : [
"5e51228d3e704773b3432ade"
],
"BurninBoxConfiguration_v57" : [
"5e51228d3e704773b3432ade"
],
"BurninBoxConfiguration_v58" : [
"5e51228d3e704773b3432ade"
],
"BurninBoxConfiguration_v59" : [
"5e51228d3e704773b3432ade"
],
"BurninBoxConfiguration_v60" : [
"5e51228d3e704773b3432ade"
],
"BurninBoxConfiguration_v61" : [
"5e51228d3e704773b3432ade"
],
"BurninBoxConfiguration_v62" : [
"5e51228d3e704773b3432ade"
],
"BurninBoxConfiguration_v63" : [
"5e51228d3e704773b3432ade"
],
"BurninBoxConfiguration_v64" : [
"5e51228d3e704773b3432ade"
],
"BurninBoxConfiguration_v65" : [
"5e51228d3e704773b3432ade"
],
"BurninBoxConfiguration_v66" : [
"5e51228d3e704773b3432ade"
],
"BurninBoxConfiguration_v67" : [
"5e51228d3e704773b3432ade"
],
"BurninBoxConfiguration_v68" : [
"5e51228d3e704773b3432ade"
],
"BurninBoxConfiguration_v69" : [
"5e51228d3e704773b3432ade"
],
"BurninBoxConfiguration_v70" : [
"5e51228d3e704773b3432ade"
],
"BurninBoxConfiguration_v71" : [
"5e51228d3e704773b3432ade"
],
"BurninBoxConfiguration_v72" : [
"5e51228d3e704773b3432ade"
],
"BurninBoxConfiguration_v73" : [
"5e51228d3e704773b3432ade"
],
"BurninBoxConfiguration_v74" : [
"5e51228d3e704773b3432ade"
],
"BurninBoxConfiguration_v75" : [
"5e51228d3e704773b3432ade"
],
"BurninBoxConfiguration_v76" : [
"5e51228d3e704773b3432ade"
],
"BurninBoxConfiguration_v77" : [
"5e51228d3e704773b3432ade"
],
"BurninBoxConfiguration_v78" : [
"5e51228d3e704773b3432ade"
],
"BurninBoxConfiguration_v79" : [
"5e51228d3e704773b3432ade"
],
"BurninBoxConfiguration_v80" : [
"5e51228d3e704773b3432ade"
],
"BurninBoxConfiguration_v81" : [
"5e51228d3e704773b3432ade"
],
"BurninBoxConfiguration_v82" : [
"5e51228d3e704773b3432ade"
],
"BurninBoxConfiguration_v83" : [
"5e51228d3e704773b3432ade"
],
"BurninBoxConfiguration_v84" : [
"5e51228d3e704773b3432ade"
],
"BurninBoxConfiguration_v85" : [
"5e51228d3e704773b3432ade"
],
"BurninBoxConfiguration_v86" : [
"5e51228d3e704773b3432ade"
],
"BurninBoxConfiguration_v87" : [
"5e51228d3e704773b3432ade"
],
"BurninBoxConfiguration_v88" : [
"5e51228d3e704773b3432ade"
],
"BurninBoxConfiguration_v89" : [
"5e51228d3e704773b3432ade"
],
"BurninBoxConfiguration_v90" : [
"5e51228d3e704773b3432ade"
],
"BurninBoxConfiguration_v91" : [
"5e51228d3e704773b3432ade"
],
"BurninBoxConfiguration_v92" : [
"5e51228d3e704773b3432ade"
],
"BurninBoxConfiguration_v93" : [
"5e51228d3e704773b3432ade"
],
"BurninBoxConfiguration_v94" : [
"5e51228d3e704773b3432ade"
],
"BurninBoxConfiguration_v95" : [
"5e51228d3e704773b3432ade"
],
"BurninBoxConfiguration_v96" : [
"5e51228d3e704773b3432ade"
],
"BurninBoxConfiguration_v97" : [
"5e51228d3e704773b3432ade"
]
},
"entities.name" : {
"OTSROOT" : [
"5e51228d3e704773b3432ade",
"97a61093c8fe42429b4f042b"
]
},
"aliases.active.name" : {

},
"runs.name" : {

},
"configurations.assigned" : {
"notprovided" : [
"2020-10-05T17:21:10.591-0500",
"2020-10-29T11:54:24.343-0500"
],
"BurninBoxConfiguration_v11" : [
"2020-10-05T17:39:04.050-0500"
],
"BurninBoxConfiguration_v12" : [
"2020-10-05T17:43:06.279-0500"
],
"BurninBoxConfiguration_v13" : [
"2020-10-09T14:43:40.224-0500"
],
"BurninBoxConfiguration_v14" : [
"2020-10-09T15:30:46.817-0500"
],
"BurninBoxConfiguration_v15" : [
"2020-10-12T10:14:43.708-0500"
],
"BurninBoxConfiguration_v16" : [
"2020-10-12T15:33:09.294-0500"
],
"BurninBoxConfiguration_v17" : [
"2020-10-19T16:16:02.847-0500"
],
"BurninBoxConfiguration_v18" : [
"2020-10-23T11:00:20.686-0500"
],
"BurninBoxConfiguration_v19" : [
"2020-10-26T11:51:21.681-0500"
],
"BurninBoxConfiguration_v20" : [
"2020-10-26T11:51:43.336-0500"
],
"BurninBoxConfiguration_v21" : [
"2020-10-26T11:56:42.774-0500"
],
"BurninBoxConfiguration_v22" : [
"2020-10-26T14:34:34.699-0500"
],
"BurninBoxConfiguration_v23" : [
"2020-10-26T14:53:01.629-0500"
],
"BurninBoxConfiguration_v24" : [
"2020-10-26T15:02:46.895-0500"
],
"BurninBoxConfiguration_v25" : [
"2020-10-27T17:42:10.682-0500"
],
"BurninBoxConfiguration_v26" : [
"2020-10-29T11:52:32.911-0500"
],
"BurninBoxConfiguration_v27" : [
"2020-10-29T11:54:26.655-0500"
],
"BurninBoxConfiguration_v28" : [
"2020-10-29T13:30:24.620-0500"
],
"BurninBoxConfiguration_v29" : [
"2020-10-29T13:45:56.008-0500"
],
"BurninBoxConfiguration_v30" : [
"2020-10-29T13:46:38.304-0500"
],
"BurninBoxConfiguration_v31" : [
"2020-10-29T13:48:02.931-0500"
],
"BurninBoxConfiguration_v32" : [
"2020-10-29T14:39:28.986-0500"
],
"BurninBoxConfiguration_v33" : [
"2021-06-30T16:17:51.947-0500"
],
"BurninBoxConfiguration_v34" : [
"2021-06-30T16:23:48.346-0500"
],
"BurninBoxConfiguration_v35" : [
"2021-07-08T14:06:14.198-0500"
],
"BurninBoxConfiguration_v36" : [
"2021-07-08T14:16:58.394-0500"
],
"BurninBoxConfiguration_v37" : [
"2021-07-08T16:20:44.973-0500"
],
"BurninBoxConfiguration_v38" : [
"2021-07-09T11:47:14.163-0500"
],
"BurninBoxConfiguration_v39" : [
"2021-07-09T11:48:46.265-0500"
],
"BurninBoxConfiguration_v40" : [
"2021-07-09T16:06:00.748-0500"
],
"BurninBoxConfiguration_v41" : [
"2021-07-12T11:04:55.719-0500"
],
"BurninBoxConfiguration_v42" : [
"2021-07-13T12:01:31.608-0500"
],
"BurninBoxConfiguration_v43" : [
"2021-07-13T12:22:06.075-0500"
],
"BurninBoxConfiguration_v44" : [
"2021-07-14T13:05:58.679-0500"
],
"BurninBoxConfiguration_v45" : [
"2021-07-14T14:26:04.854-0500"
],
"BurninBoxConfiguration_v46" : [
"2021-07-14T14:46:57.139-0500"
],
"BurninBoxConfiguration_v47" : [
"2021-07-14T15:24:34.025-0500"
],
"BurninBoxConfiguration_v48" : [
"2021-07-14T16:05:29.594-0500"
],
"BurninBoxConfiguration_v49" : [
"2021-07-14T16:15:41.273-0500"
],
"BurninBoxConfiguration_v50" : [
"2021-07-14T16:17:41.015-0500"
],
"BurninBoxConfiguration_v51" : [
"2021-07-15T11:50:34.039-0500"
],
"BurninBoxConfiguration_v52" : [
"2021-07-20T13:45:54.148-0500"
],
"BurninBoxConfiguration_v53" : [
"2021-07-20T16:41:42.375-0500"
],
"BurninBoxConfiguration_v54" : [
"2021-07-20T17:09:27.122-0500"
],
"BurninBoxConfiguration_v55" : [
"2021-07-20T17:28:40.281-0500"
],
"BurninBoxConfiguration_v56" : [
"2021-07-20T17:46:27.611-0500"
],
"BurninBoxConfiguration_v57" : [
"2021-07-21T11:50:02.157-0500"
],
"BurninBoxConfiguration_v58" : [
"2021-07-21T11:58:37.825-0500"
],
"BurninBoxConfiguration_v59" : [
"2021-07-21T11:59:33.592-0500"
],
"BurninBoxConfiguration_v60" : [
"2021-07-22T18:35:00.635-0500"
],
"BurninBoxConfiguration_v61" : [
"2021-07-23T12:33:56.937-0500"
],
"BurninBoxConfiguration_v62" : [
"2021-07-24T00:54:49.756-0500"
],
"BurninBoxConfiguration_v63" : [
"2021-07-24T12:12:51.280-0500"
],
"BurninBoxConfiguration_v64" : [
"2021-07-25T21:07:16.247-0500"
],
"BurninBoxConfiguration_v65" : [
"2021-07-26T07:43:12.171-0500"
],
"BurninBoxConfiguration_v66" : [
"2021-07-26T18:37:12.190-0500"
],
"BurninBoxConfiguration_v67" : [
"2021-07-27T08:25:40.944-0500"
],
"BurninBoxConfiguration_v68" : [
"2021-08-03T11:10:37.335-0500"
],
"BurninBoxConfiguration_v69" : [
"2021-08-04T12:21:57.772-0500"
],
"BurninBoxConfiguration_v70" : [
"2021-09-02T13:43:34.190-0500"
],
"BurninBoxConfiguration_v71" : [
"2021-09-02T14:03:37.052-0500"
],
"BurninBoxConfiguration_v72" : [
"2021-09-23T15:47:05.452-0500"
],
"BurninBoxConfiguration_v73" : [
"2021-09-23T15:47:42.372-0500"
],
"BurninBoxConfiguration_v74" : [
"2021-09-24T15:36:50.268-0500"
],
"BurninBoxConfiguration_v75" : [
"2021-09-24T15:53:23.284-0500"
],
"BurninBoxConfiguration_v76" : [
"2021-09-24T16:04:22.282-0500"
],
"BurninBoxConfiguration_v77" : [
"2021-09-24T16:28:07.074-0500"
],
"BurninBoxConfiguration_v78" : [
"2021-09-27T09:02:56.643-0500"
],
"BurninBoxConfiguration_v79" : [
"2021-09-27T14:22:24.925-0500"
],
"BurninBoxConfiguration_v80" : [
"2021-09-28T09:24:50.804-0500"
],
"BurninBoxConfiguration_v81" : [
"2021-09-30T09:14:51.125-0500"
],
"BurninBoxConfiguration_v82" : [
"2021-10-01T10:56:21.606-0500"
],
"BurninBoxConfiguration_v83" : [
"2021-10-01T11:01:41.230-0500"
],
"BurninBoxConfiguration_v84" : [
"2021-10-06T10:02:31.531-0500"
],
"BurninBoxConfiguration_v85" : [
"2021-10-07T16:32:40.636-0500"
],
"BurninBoxConfiguration_v86" : [
"2021-10-08T14:03:15.512-0500"
],
"BurninBoxConfiguration_v87" : [
"2021-10-11T16:00:56.480-0500"
],
"BurninBoxConfiguration_v88" : [
"2021-10-12T09:07:17.677-0500"
],
"BurninBoxConfiguration_v89" : [
"2021-10-12T11:11:23.379-0500"
],
"BurninBoxConfiguration_v90" : [
"2021-10-14T17:03:16.787-0500"
],
"BurninBoxConfiguration_v91" : [
"2021-10-15T10:48:31.510-0500"
],
"BurninBoxConfiguration_v92" : [
"2021-10-15T15:50:49.486-0500"
],
"BurninBoxConfiguration_v93" : [
"2021-11-03T16:30:20.344-0500"
],
"BurninBoxConfiguration_v94" : [
"2021-11-10T15:11:02.745-0600"
],
"BurninBoxConfiguration_v95" : [
"2022-04-19T14:35:56.637-0400"
],
"BurninBoxConfiguration_v96" : [
"2022-04-20T10:06:05.619-0400"
],
"BurninBoxConfiguration_v97" : [
"2022-04-20T11:23:52.345-0400"
]
}
}