{
"document" : {
"data" : {
"NAME" : "CAEN_POWER_SUPPLY_CHANNEL_TABLE",
"COMMENT" : "No comment.",
"AUTHOR" : "admin",
"CREATION_TIME" : 1626815851,
"COL_TYPES" : {
"POWER_SUPPLY_GROUP_UID" : "STRING",
"CHANNEL_UID" : "STRING",
"SLOT" : "NUMBER",
"CHANNEL" : "NUMBER",
"DETECTOR_NAME" : "STRING",
"CHANNEL_TYPE" : "STRING",
"TURN_ON_SEQUENCE" : "NUMBER",
"TURN_OFF_SEQUENCE" : "NUMBER",
"IN_USE" : "STRING",
"I0SET" : "NUMBER",
"V0SET" : "NUMBER",
"R_UP" : "NUMBER",
"R_DWN" : "NUMBER",
"TRIP" : "NUMBER",
"R_UP_TIME" : "NUMBER",
"R_DW_TIME" : "NUMBER",
"UNV_THR" : "NUMBER",
"OVV_THR" : "NUMBER",
"COMMENT_DESCRIPTION" : "STRING",
"AUTHOR" : "STRING",
"RECORD_INSERTION_TIME" : "TIMESTAMP WITH TIMEZONE"
},
"DATA_SET" : [
{
"POWER_SUPPLY_GROUP_UID" : "BurninBox",
"CHANNEL_UID" : "Module1Left_LV",
"SLOT" : "1",
"CHANNEL" : "0",
"DETECTOR_NAME" : "Module1Right",
"CHANNEL_TYPE" : "LV",
"TURN_ON_SEQUENCE" : "0",
"TURN_OFF_SEQUENCE" : "0",
"IN_USE" : "Yes",
"I0SET" : "1.5",
"V0SET" : "10",
"R_UP" : "0",
"R_DWN" : "0",
"TRIP" : "10",
"R_UP_TIME" : "100",
"R_DW_TIME" : "100",
"UNV_THR" : "9",
"OVV_THR" : "11",
"COMMENT_DESCRIPTION" : "No Comment",
"AUTHOR" : "admin",
"RECORD_INSERTION_TIME" : "1626815851"
},
{
"POWER_SUPPLY_GROUP_UID" : "BurninBox",
"CHANNEL_UID" : "Module1Left_HV",
"SLOT" : "5",
"CHANNEL" : "0",
"DETECTOR_NAME" : "Module1Right",
"CHANNEL_TYPE" : "HV",
"TURN_ON_SEQUENCE" : "0",
"TURN_OFF_SEQUENCE" : "0",
"IN_USE" : "Yes",
"I0SET" : "30",
"V0SET" : "300",
"R_UP" : "100",
"R_DWN" : "100",
"TRIP" : "5",
"R_UP_TIME" : "0",
"R_DW_TIME" : "0",
"UNV_THR" : "0",
"OVV_THR" : "0",
"COMMENT_DESCRIPTION" : "No Comment",
"AUTHOR" : "admin",
"RECORD_INSERTION_TIME" : "1626815851"
},
{
"POWER_SUPPLY_GROUP_UID" : "BurninBox",
"CHANNEL_UID" : "Module2Left_LV",
"SLOT" : "1",
"CHANNEL" : "1",
"DETECTOR_NAME" : "Module1Right",
"CHANNEL_TYPE" : "LV",
"TURN_ON_SEQUENCE" : "0",
"TURN_OFF_SEQUENCE" : "0",
"IN_USE" : "Yes",
"I0SET" : "1.5",
"V0SET" : "10",
"R_UP" : "5",
"R_DWN" : "5",
"TRIP" : "0",
"R_UP_TIME" : "0",
"R_DW_TIME" : "0",
"UNV_THR" : "9",
"OVV_THR" : "11",
"COMMENT_DESCRIPTION" : "No Comment",
"AUTHOR" : "admin",
"RECORD_INSERTION_TIME" : "1626815851"
},
{
"POWER_SUPPLY_GROUP_UID" : "BurninBox",
"CHANNEL_UID" : "Module3Left_LV",
"SLOT" : "1",
"CHANNEL" : "2",
"DETECTOR_NAME" : "Module1Right",
"CHANNEL_TYPE" : "LV",
"TURN_ON_SEQUENCE" : "0",
"TURN_OFF_SEQUENCE" : "0",
"IN_USE" : "Yes",
"I0SET" : "1.5",
"V0SET" : "10",
"R_UP" : "5",
"R_DWN" : "5",
"TRIP" : "0",
"R_UP_TIME" : "0",
"R_DW_TIME" : "0",
"UNV_THR" : "9",
"OVV_THR" : "11",
"COMMENT_DESCRIPTION" : "No Comment",
"AUTHOR" : "admin",
"RECORD_INSERTION_TIME" : "1626815851"
},
{
"POWER_SUPPLY_GROUP_UID" : "BurninBox",
"CHANNEL_UID" : "Module4Left_LV",
"SLOT" : "1",
"CHANNEL" : "3",
"DETECTOR_NAME" : "Module1Right",
"CHANNEL_TYPE" : "LV",
"TURN_ON_SEQUENCE" : "0",
"TURN_OFF_SEQUENCE" : "0",
"IN_USE" : "Yes",
"I0SET" : "1.5",
"V0SET" : "10",
"R_UP" : "5",
"R_DWN" : "5",
"TRIP" : "0",
"R_UP_TIME" : "0",
"R_DW_TIME" : "0",
"UNV_THR" : "9",
"OVV_THR" : "11",
"COMMENT_DESCRIPTION" : "No Comment",
"AUTHOR" : "admin",
"RECORD_INSERTION_TIME" : "1626815851"
},
{
"POWER_SUPPLY_GROUP_UID" : "BurninBox",
"CHANNEL_UID" : "Module5Left_LV",
"SLOT" : "1",
"CHANNEL" : "4",
"DETECTOR_NAME" : "Module1Right",
"CHANNEL_TYPE" : "LV",
"TURN_ON_SEQUENCE" : "0",
"TURN_OFF_SEQUENCE" : "0",
"IN_USE" : "Yes",
"I0SET" : "1.5",
"V0SET" : "10",
"R_UP" : "5",
"R_DWN" : "5",
"TRIP" : "0",
"R_UP_TIME" : "0",
"R_DW_TIME" : "0",
"UNV_THR" : "9",
"OVV_THR" : "11",
"COMMENT_DESCRIPTION" : "No Comment",
"AUTHOR" : "admin",
"RECORD_INSERTION_TIME" : "1626815851"
},
{
"POWER_SUPPLY_GROUP_UID" : "BurninBox",
"CHANNEL_UID" : "Module1Right_LV",
"SLOT" : "3",
"CHANNEL" : "0",
"DETECTOR_NAME" : "Module1Right",
"CHANNEL_TYPE" : "LV",
"TURN_ON_SEQUENCE" : "0",
"TURN_OFF_SEQUENCE" : "0",
"IN_USE" : "Yes",
"I0SET" : "1.5",
"V0SET" : "10",
"R_UP" : "5",
"R_DWN" : "5",
"TRIP" : "0",
"R_UP_TIME" : "0",
"R_DW_TIME" : "0",
"UNV_THR" : "9",
"OVV_THR" : "11",
"COMMENT_DESCRIPTION" : "No Comment",
"AUTHOR" : "admin",
"RECORD_INSERTION_TIME" : "1626815851"
},
{
"POWER_SUPPLY_GROUP_UID" : "BurninBox",
"CHANNEL_UID" : "Module2Right_LV",
"SLOT" : "3",
"CHANNEL" : "1",
"DETECTOR_NAME" : "Module1Right",
"CHANNEL_TYPE" : "LV",
"TURN_ON_SEQUENCE" : "0",
"TURN_OFF_SEQUENCE" : "0",
"IN_USE" : "Yes",
"I0SET" : "1.5",
"V0SET" : "10",
"R_UP" : "5",
"R_DWN" : "5",
"TRIP" : "0",
"R_UP_TIME" : "0",
"R_DW_TIME" : "0",
"UNV_THR" : "9",
"OVV_THR" : "11",
"COMMENT_DESCRIPTION" : "No Comment",
"AUTHOR" : "admin",
"RECORD_INSERTION_TIME" : "1626815851"
},
{
"POWER_SUPPLY_GROUP_UID" : "BurninBox",
"CHANNEL_UID" : "Module3Right_LV",
"SLOT" : "3",
"CHANNEL" : "2",
"DETECTOR_NAME" : "Module1Right",
"CHANNEL_TYPE" : "LV",
"TURN_ON_SEQUENCE" : "0",
"TURN_OFF_SEQUENCE" : "0",
"IN_USE" : "Yes",
"I0SET" : "1.5",
"V0SET" : "10",
"R_UP" : "5",
"R_DWN" : "5",
"TRIP" : "0",
"R_UP_TIME" : "0",
"R_DW_TIME" : "0",
"UNV_THR" : "9",
"OVV_THR" : "11",
"COMMENT_DESCRIPTION" : "No Comment",
"AUTHOR" : "admin",
"RECORD_INSERTION_TIME" : "1626815851"
},
{
"POWER_SUPPLY_GROUP_UID" : "BurninBox",
"CHANNEL_UID" : "Module4Right_LV",
"SLOT" : "3",
"CHANNEL" : "3",
"DETECTOR_NAME" : "Module1Right",
"CHANNEL_TYPE" : "LV",
"TURN_ON_SEQUENCE" : "0",
"TURN_OFF_SEQUENCE" : "0",
"IN_USE" : "Yes",
"I0SET" : "1.5",
"V0SET" : "10",
"R_UP" : "5",
"R_DWN" : "5",
"TRIP" : "0",
"R_UP_TIME" : "0",
"R_DW_TIME" : "0",
"UNV_THR" : "9",
"OVV_THR" : "11",
"COMMENT_DESCRIPTION" : "No Comment",
"AUTHOR" : "admin",
"RECORD_INSERTION_TIME" : "1626815851"
},
{
"POWER_SUPPLY_GROUP_UID" : "BurninBox",
"CHANNEL_UID" : "Module5Right_LV",
"SLOT" : "3",
"CHANNEL" : "4",
"DETECTOR_NAME" : "Module1Right",
"CHANNEL_TYPE" : "LV",
"TURN_ON_SEQUENCE" : "0",
"TURN_OFF_SEQUENCE" : "0",
"IN_USE" : "Yes",
"I0SET" : "1.5",
"V0SET" : "10",
"R_UP" : "5",
"R_DWN" : "5",
"TRIP" : "0",
"R_UP_TIME" : "0",
"R_DW_TIME" : "0",
"UNV_THR" : "9",
"OVV_THR" : "11",
"COMMENT_DESCRIPTION" : "No Comment",
"AUTHOR" : "admin",
"RECORD_INSERTION_TIME" : "1626815851"
}
]
},
"metadata" : {

},
"search" : [

]
},
"comments" : [

],
"origin" : {
"source" : "template",
"name" : "notprovided",
"format" : "json",
"created" : "2021-07-20T16:17:31.245-0500",
"rawdata" : [

]
},
"version" : "6",
"entities" : [
{
"name" : "OTSROOT",
"assigned" : "2021-07-20T16:17:31.246-0500"
}
],
"configurations" : [
{
"name" : "notprovided",
"assigned" : "2021-07-20T16:17:31.246-0500"
}
],
"changelog" : "notprovided",
"bookkeeping" : {
"isdeleted" : false,
"isreadonly" : false,
"updates" : [
{
"event" : "addConfiguration",
"timestamp" : "2021-07-20T16:17:31.246-0500",
"value" : {
"name" : "notprovided",
"assigned" : "2021-07-20T16:17:31.246-0500"
}
},
{
"event" : "setVersion",
"timestamp" : "2021-07-20T16:17:31.246-0500",
"value" : {
"name" : "6",
"assigned" : "2021-07-20T16:17:31.246-0500"
}
},
{
"event" : "setCollection",
"timestamp" : "2021-07-20T16:17:31.246-0500",
"value" : {
"name" : "CAENPowerSupplyChannelTable",
"assigned" : "2021-07-20T16:17:31.246-0500"
}
},
{
"event" : "addEntity",
"timestamp" : "2021-07-20T16:17:31.246-0500",
"value" : {
"name" : "OTSROOT",
"assigned" : "2021-07-20T16:17:31.246-0500"
}
}
],
"created" : "2021-07-20T16:17:31.245-0500"
},
"_id" : {
"$oid" : "f9666505acb44cdb933ca171"
},
"collection" : "CAENPowerSupplyChannelTable",
"aliases" : {
"active" : [

],
"history" : [

]
},
"runs" : [

],
"attachments" : [

],
"configtype" : "notprovided"
}