{
"ouid" : [
"45c2d61fa3134b48bf6befde",
"9ceb852f786d41659719cc11",
"f76ff14592bf4180b464f682",
"fda1598fd1f245bc8dda93f8"
],
"version" : {
"0" : [
"f76ff14592bf4180b464f682"
],
"1" : [
"fda1598fd1f245bc8dda93f8"
],
"2" : [
"45c2d61fa3134b48bf6befde"
],
"3" : [
"9ceb852f786d41659719cc11"
]
},
"configurations.name" : {
"notprovided" : [
"45c2d61fa3134b48bf6befde",
"9ceb852f786d41659719cc11",
"f76ff14592bf4180b464f682",
"fda1598fd1f245bc8dda93f8"
],
"BurninBoxConfiguration_v11" : [
"f76ff14592bf4180b464f682"
],
"BurninBoxConfiguration_v12" : [
"f76ff14592bf4180b464f682"
],
"BurninBoxConfiguration_v13" : [
"f76ff14592bf4180b464f682"
],
"BurninBoxConfiguration_v14" : [
"f76ff14592bf4180b464f682"
],
"BurninBoxConfiguration_v15" : [
"f76ff14592bf4180b464f682"
],
"BurninBoxConfiguration_v16" : [
"f76ff14592bf4180b464f682"
],
"BurninBoxConfiguration_v17" : [
"f76ff14592bf4180b464f682"
],
"BurninBoxConfiguration_v18" : [
"f76ff14592bf4180b464f682"
],
"BurninBoxConfiguration_v19" : [
"f76ff14592bf4180b464f682"
],
"BurninBoxConfiguration_v20" : [
"f76ff14592bf4180b464f682"
],
"BurninBoxConfiguration_v21" : [
"f76ff14592bf4180b464f682"
],
"BurninBoxConfiguration_v22" : [
"f76ff14592bf4180b464f682"
],
"BurninBoxConfiguration_v23" : [
"f76ff14592bf4180b464f682"
],
"BurninBoxConfiguration_v24" : [
"f76ff14592bf4180b464f682"
],
"BurninBoxConfiguration_v25" : [
"f76ff14592bf4180b464f682"
],
"BurninBoxConfiguration_v26" : [
"f76ff14592bf4180b464f682"
],
"BurninBoxConfiguration_v27" : [
"f76ff14592bf4180b464f682"
],
"BurninBoxConfiguration_v28" : [
"f76ff14592bf4180b464f682"
],
"BurninBoxConfiguration_v29" : [
"f76ff14592bf4180b464f682"
],
"BurninBoxConfiguration_v30" : [
"f76ff14592bf4180b464f682"
],
"BurninBoxConfiguration_v31" : [
"f76ff14592bf4180b464f682"
],
"BurninBoxConfiguration_v32" : [
"f76ff14592bf4180b464f682"
],
"BurninBoxConfiguration_v33" : [
"f76ff14592bf4180b464f682"
],
"BurninBoxConfiguration_v34" : [
"f76ff14592bf4180b464f682"
],
"BurninBoxConfiguration_v35" : [
"f76ff14592bf4180b464f682"
],
"BurninBoxConfiguration_v36" : [
"f76ff14592bf4180b464f682"
],
"BurninBoxConfiguration_v37" : [
"f76ff14592bf4180b464f682"
],
"BurninBoxConfiguration_v38" : [
"f76ff14592bf4180b464f682"
],
"BurninBoxConfiguration_v39" : [
"f76ff14592bf4180b464f682"
],
"BurninBoxConfiguration_v40" : [
"f76ff14592bf4180b464f682"
],
"BurninBoxConfiguration_v41" : [
"f76ff14592bf4180b464f682"
],
"BurninBoxConfiguration_v42" : [
"f76ff14592bf4180b464f682"
],
"BurninBoxConfiguration_v43" : [
"f76ff14592bf4180b464f682"
],
"BurninBoxConfiguration_v44" : [
"f76ff14592bf4180b464f682"
],
"BurninBoxConfiguration_v45" : [
"f76ff14592bf4180b464f682"
],
"BurninBoxConfiguration_v46" : [
"f76ff14592bf4180b464f682"
],
"BurninBoxConfiguration_v47" : [
"f76ff14592bf4180b464f682"
],
"BurninBoxConfiguration_v48" : [
"f76ff14592bf4180b464f682"
],
"BurninBoxConfiguration_v49" : [
"f76ff14592bf4180b464f682"
],
"BurninBoxConfiguration_v50" : [
"f76ff14592bf4180b464f682"
],
"BurninBoxConfiguration_v51" : [
"f76ff14592bf4180b464f682"
],
"BurninBoxConfiguration_v52" : [
"f76ff14592bf4180b464f682"
],
"BurninBoxConfiguration_v53" : [
"fda1598fd1f245bc8dda93f8"
],
"BurninBoxConfiguration_v54" : [
"45c2d61fa3134b48bf6befde"
],
"BurninBoxConfiguration_v55" : [
"45c2d61fa3134b48bf6befde"
],
"BurninBoxConfiguration_v56" : [
"9ceb852f786d41659719cc11"
],
"BurninBoxConfiguration_v57" : [
"9ceb852f786d41659719cc11"
],
"BurninBoxConfiguration_v58" : [
"9ceb852f786d41659719cc11"
],
"BurninBoxConfiguration_v59" : [
"9ceb852f786d41659719cc11"
],
"BurninBoxConfiguration_v60" : [
"9ceb852f786d41659719cc11"
],
"BurninBoxConfiguration_v61" : [
"9ceb852f786d41659719cc11"
],
"BurninBoxConfiguration_v62" : [
"9ceb852f786d41659719cc11"
],
"BurninBoxConfiguration_v63" : [
"9ceb852f786d41659719cc11"
],
"BurninBoxConfiguration_v64" : [
"9ceb852f786d41659719cc11"
],
"BurninBoxConfiguration_v65" : [
"9ceb852f786d41659719cc11"
],
"BurninBoxConfiguration_v66" : [
"9ceb852f786d41659719cc11"
],
"BurninBoxConfiguration_v67" : [
"9ceb852f786d41659719cc11"
],
"BurninBoxConfiguration_v68" : [
"9ceb852f786d41659719cc11"
],
"BurninBoxConfiguration_v69" : [
"9ceb852f786d41659719cc11"
],
"BurninBoxConfiguration_v70" : [
"9ceb852f786d41659719cc11"
],
"BurninBoxConfiguration_v71" : [
"9ceb852f786d41659719cc11"
],
"BurninBoxConfiguration_v72" : [
"9ceb852f786d41659719cc11"
],
"BurninBoxConfiguration_v73" : [
"9ceb852f786d41659719cc11"
],
"BurninBoxConfiguration_v74" : [
"9ceb852f786d41659719cc11"
],
"BurninBoxConfiguration_v75" : [
"9ceb852f786d41659719cc11"
],
"BurninBoxConfiguration_v76" : [
"9ceb852f786d41659719cc11"
],
"BurninBoxConfiguration_v77" : [
"9ceb852f786d41659719cc11"
],
"BurninBoxConfiguration_v78" : [
"9ceb852f786d41659719cc11"
],
"BurninBoxConfiguration_v79" : [
"9ceb852f786d41659719cc11"
],
"BurninBoxConfiguration_v80" : [
"9ceb852f786d41659719cc11"
],
"BurninBoxConfiguration_v81" : [
"9ceb852f786d41659719cc11"
],
"BurninBoxConfiguration_v82" : [
"9ceb852f786d41659719cc11"
],
"BurninBoxConfiguration_v83" : [
"9ceb852f786d41659719cc11"
],
"BurninBoxConfiguration_v84" : [
"9ceb852f786d41659719cc11"
],
"BurninBoxConfiguration_v85" : [
"9ceb852f786d41659719cc11"
],
"BurninBoxConfiguration_v86" : [
"9ceb852f786d41659719cc11"
],
"BurninBoxConfiguration_v87" : [
"9ceb852f786d41659719cc11"
],
"BurninBoxConfiguration_v88" : [
"9ceb852f786d41659719cc11"
],
"BurninBoxConfiguration_v89" : [
"9ceb852f786d41659719cc11"
],
"BurninBoxConfiguration_v90" : [
"9ceb852f786d41659719cc11"
],
"BurninBoxConfiguration_v91" : [
"9ceb852f786d41659719cc11"
],
"BurninBoxConfiguration_v92" : [
"9ceb852f786d41659719cc11"
],
"BurninBoxConfiguration_v93" : [
"9ceb852f786d41659719cc11"
],
"BurninBoxConfiguration_v94" : [
"9ceb852f786d41659719cc11"
],
"BurninBoxConfiguration_v95" : [
"9ceb852f786d41659719cc11"
],
"BurninBoxConfiguration_v96" : [
"9ceb852f786d41659719cc11"
],
"BurninBoxConfiguration_v97" : [
"9ceb852f786d41659719cc11"
]
},
"entities.name" : {
"OTSROOT" : [
"45c2d61fa3134b48bf6befde",
"9ceb852f786d41659719cc11",
"f76ff14592bf4180b464f682",
"fda1598fd1f245bc8dda93f8"
]
},
"aliases.active.name" : {

},
"runs.name" : {

},
"configurations.assigned" : {
"notprovided" : [
"2020-10-05T17:28:32.386-0500",
"2021-07-20T16:00:31.622-0500",
"2021-07-20T17:09:03.044-0500",
"2021-07-20T17:46:25.177-0500"
],
"BurninBoxConfiguration_v11" : [
"2020-10-05T17:39:04.088-0500"
],
"BurninBoxConfiguration_v12" : [
"2020-10-05T17:43:06.319-0500"
],
"BurninBoxConfiguration_v13" : [
"2020-10-09T14:43:40.263-0500"
],
"BurninBoxConfiguration_v14" : [
"2020-10-09T15:30:46.858-0500"
],
"BurninBoxConfiguration_v15" : [
"2020-10-12T10:14:43.749-0500"
],
"BurninBoxConfiguration_v16" : [
"2020-10-12T15:33:09.335-0500"
],
"BurninBoxConfiguration_v17" : [
"2020-10-19T16:16:02.881-0500"
],
"BurninBoxConfiguration_v18" : [
"2020-10-23T11:00:20.737-0500"
],
"BurninBoxConfiguration_v19" : [
"2020-10-26T11:51:21.722-0500"
],
"BurninBoxConfiguration_v20" : [
"2020-10-26T11:51:43.385-0500"
],
"BurninBoxConfiguration_v21" : [
"2020-10-26T11:56:42.819-0500"
],
"BurninBoxConfiguration_v22" : [
"2020-10-26T14:34:34.751-0500"
],
"BurninBoxConfiguration_v23" : [
"2020-10-26T14:53:01.677-0500"
],
"BurninBoxConfiguration_v24" : [
"2020-10-26T15:02:46.937-0500"
],
"BurninBoxConfiguration_v25" : [
"2020-10-27T17:42:10.733-0500"
],
"BurninBoxConfiguration_v26" : [
"2020-10-29T11:52:32.965-0500"
],
"BurninBoxConfiguration_v27" : [
"2020-10-29T11:54:26.699-0500"
],
"BurninBoxConfiguration_v28" : [
"2020-10-29T13:30:24.660-0500"
],
"BurninBoxConfiguration_v29" : [
"2020-10-29T13:45:56.052-0500"
],
"BurninBoxConfiguration_v30" : [
"2020-10-29T13:46:38.345-0500"
],
"BurninBoxConfiguration_v31" : [
"2020-10-29T13:48:02.968-0500"
],
"BurninBoxConfiguration_v32" : [
"2020-10-29T14:39:29.036-0500"
],
"BurninBoxConfiguration_v33" : [
"2021-06-30T16:17:51.993-0500"
],
"BurninBoxConfiguration_v34" : [
"2021-06-30T16:23:48.391-0500"
],
"BurninBoxConfiguration_v35" : [
"2021-07-08T14:06:14.250-0500"
],
"BurninBoxConfiguration_v36" : [
"2021-07-08T14:16:58.449-0500"
],
"BurninBoxConfiguration_v37" : [
"2021-07-08T16:20:45.027-0500"
],
"BurninBoxConfiguration_v38" : [
"2021-07-09T11:47:14.214-0500"
],
"BurninBoxConfiguration_v39" : [
"2021-07-09T11:48:46.310-0500"
],
"BurninBoxConfiguration_v40" : [
"2021-07-09T16:06:00.790-0500"
],
"BurninBoxConfiguration_v41" : [
"2021-07-12T11:04:55.775-0500"
],
"BurninBoxConfiguration_v42" : [
"2021-07-13T12:01:31.661-0500"
],
"BurninBoxConfiguration_v43" : [
"2021-07-13T12:22:06.115-0500"
],
"BurninBoxConfiguration_v44" : [
"2021-07-14T13:05:58.732-0500"
],
"BurninBoxConfiguration_v45" : [
"2021-07-14T14:26:04.907-0500"
],
"BurninBoxConfiguration_v46" : [
"2021-07-14T14:46:57.198-0500"
],
"BurninBoxConfiguration_v47" : [
"2021-07-14T15:24:34.091-0500"
],
"BurninBoxConfiguration_v48" : [
"2021-07-14T16:05:29.657-0500"
],
"BurninBoxConfiguration_v49" : [
"2021-07-14T16:15:41.329-0500"
],
"BurninBoxConfiguration_v50" : [
"2021-07-14T16:17:41.058-0500"
],
"BurninBoxConfiguration_v51" : [
"2021-07-15T11:50:34.103-0500"
],
"BurninBoxConfiguration_v52" : [
"2021-07-20T13:45:54.198-0500"
],
"BurninBoxConfiguration_v53" : [
"2021-07-20T16:41:42.421-0500"
],
"BurninBoxConfiguration_v54" : [
"2021-07-20T17:09:27.176-0500"
],
"BurninBoxConfiguration_v55" : [
"2021-07-20T17:28:40.338-0500"
],
"BurninBoxConfiguration_v56" : [
"2021-07-20T17:46:27.674-0500"
],
"BurninBoxConfiguration_v57" : [
"2021-07-21T11:50:02.206-0500"
],
"BurninBoxConfiguration_v58" : [
"2021-07-21T11:58:37.870-0500"
],
"BurninBoxConfiguration_v59" : [
"2021-07-21T11:59:33.640-0500"
],
"BurninBoxConfiguration_v60" : [
"2021-07-22T18:35:00.703-0500"
],
"BurninBoxConfiguration_v61" : [
"2021-07-23T12:33:56.993-0500"
],
"BurninBoxConfiguration_v62" : [
"2021-07-24T00:54:49.805-0500"
],
"BurninBoxConfiguration_v63" : [
"2021-07-24T12:12:51.339-0500"
],
"BurninBoxConfiguration_v64" : [
"2021-07-25T21:07:16.322-0500"
],
"BurninBoxConfiguration_v65" : [
"2021-07-26T07:43:12.226-0500"
],
"BurninBoxConfiguration_v66" : [
"2021-07-26T18:37:12.256-0500"
],
"BurninBoxConfiguration_v67" : [
"2021-07-27T08:25:41.011-0500"
],
"BurninBoxConfiguration_v68" : [
"2021-08-03T11:10:37.381-0500"
],
"BurninBoxConfiguration_v69" : [
"2021-08-04T12:21:57.828-0500"
],
"BurninBoxConfiguration_v70" : [
"2021-09-02T13:43:34.262-0500"
],
"BurninBoxConfiguration_v71" : [
"2021-09-02T14:03:37.127-0500"
],
"BurninBoxConfiguration_v72" : [
"2021-09-23T15:47:05.511-0500"
],
"BurninBoxConfiguration_v73" : [
"2021-09-23T15:47:42.442-0500"
],
"BurninBoxConfiguration_v74" : [
"2021-09-24T15:36:50.336-0500"
],
"BurninBoxConfiguration_v75" : [
"2021-09-24T15:53:23.351-0500"
],
"BurninBoxConfiguration_v76" : [
"2021-09-24T16:04:22.357-0500"
],
"BurninBoxConfiguration_v77" : [
"2021-09-24T16:28:07.136-0500"
],
"BurninBoxConfiguration_v78" : [
"2021-09-27T09:02:56.708-0500"
],
"BurninBoxConfiguration_v79" : [
"2021-09-27T14:22:24.998-0500"
],
"BurninBoxConfiguration_v80" : [
"2021-09-28T09:24:50.871-0500"
],
"BurninBoxConfiguration_v81" : [
"2021-09-30T09:14:51.211-0500"
],
"BurninBoxConfiguration_v82" : [
"2021-10-01T10:56:21.660-0500"
],
"BurninBoxConfiguration_v83" : [
"2021-10-01T11:01:41.280-0500"
],
"BurninBoxConfiguration_v84" : [
"2021-10-06T10:02:31.596-0500"
],
"BurninBoxConfiguration_v85" : [
"2021-10-07T16:32:40.707-0500"
],
"BurninBoxConfiguration_v86" : [
"2021-10-08T14:03:15.574-0500"
],
"BurninBoxConfiguration_v87" : [
"2021-10-11T16:00:56.570-0500"
],
"BurninBoxConfiguration_v88" : [
"2021-10-12T09:07:17.738-0500"
],
"BurninBoxConfiguration_v89" : [
"2021-10-12T11:11:23.451-0500"
],
"BurninBoxConfiguration_v90" : [
"2021-10-14T17:03:16.859-0500"
],
"BurninBoxConfiguration_v91" : [
"2021-10-15T10:48:31.588-0500"
],
"BurninBoxConfiguration_v92" : [
"2021-10-15T15:50:49.561-0500"
],
"BurninBoxConfiguration_v93" : [
"2021-11-03T16:30:20.401-0500"
],
"BurninBoxConfiguration_v94" : [
"2021-11-10T15:11:02.812-0600"
],
"BurninBoxConfiguration_v95" : [
"2022-04-19T14:35:56.695-0400"
],
"BurninBoxConfiguration_v96" : [
"2022-04-20T10:06:05.673-0400"
],
"BurninBoxConfiguration_v97" : [
"2022-04-20T11:23:52.399-0400"
]
}
}