{
"document" : {
"data" : {
"NAME" : "FECMS_BURNIN_BOX_INTERFACE_TABLE",
"COMMENT" : "No comment.",
"AUTHOR" : "admin",
"CREATION_TIME" : 1603142161,
"COL_TYPES" : {
"INTERFACE_ID" : "STRING",
"STATUS" : "STRING",
"INTERFACE_IP_ADDRESS" : "STRING",
"INTERFACE_PORT" : "NUMBER",
"HOST_IP_ADDRESS" : "STRING",
"HOST_PORT" : "NUMBER",
"DATA_PUBLISHER_PORT" : "NUMBER",
"LINK_TO_BURNIN_BOX_CYCLE_TABLE" : "STRING",
"LINK_TO_BURNIN_BOX_CYCLE_GROUP_ID" : "STRING",
"COMMENT_DESCRIPTION" : "STRING",
"AUTHOR" : "STRING",
"RECORD_INSERTION_TIME" : "TIMESTAMP WITH TIMEZONE"
},
"DATA_SET" : [
{
"INTERFACE_ID" : "FEBurninBoxInterface",
"STATUS" : "On",
"INTERFACE_IP_ADDRESS" : "127.0.0.1",
"INTERFACE_PORT" : "5001",
"HOST_IP_ADDRESS" : "127.0.0.1",
"HOST_PORT" : "10000",
"DATA_PUBLISHER_PORT" : "50000",
"LINK_TO_BURNIN_BOX_CYCLE_TABLE" : "BurninBoxCycleTable",
"LINK_TO_BURNIN_BOX_CYCLE_GROUP_ID" : "ModuleTestingCycle",
"COMMENT_DESCRIPTION" : "No Comment",
"AUTHOR" : "admin",
"RECORD_INSERTION_TIME" : "1603142150"
}
]
},
"metadata" : {

},
"search" : [

]
},
"comments" : [

],
"origin" : {
"source" : "template",
"name" : "notprovided",
"format" : "json",
"created" : "2023-10-25T15:16:48.690-0500",
"rawdata" : [

]
},
"version" : "0",
"entities" : [
{
"name" : "OTSROOT",
"assigned" : "2023-10-25T15:16:48.691-0500"
}
],
"configurations" : [
{
"name" : "notprovided",
"assigned" : "2023-10-25T15:16:48.691-0500"
},
{
"name" : "BurninBoxConfiguration_v0",
"assigned" : "2023-10-25T15:16:49.613-0500"
},
{
"name" : "BurninBoxConfiguration_v1",
"assigned" : "2023-10-25T15:16:50.470-0500"
},
{
"name" : "BurninBoxConfiguration_v2",
"assigned" : "2023-10-25T15:16:51.711-0500"
}
],
"changelog" : "notprovided",
"bookkeeping" : {
"isdeleted" : false,
"isreadonly" : false,
"updates" : [
{
"event" : "addConfiguration",
"timestamp" : "2023-10-25T15:16:48.691-0500",
"value" : {
"name" : "notprovided",
"assigned" : "2023-10-25T15:16:48.691-0500"
}
},
{
"event" : "setVersion",
"timestamp" : "2023-10-25T15:16:48.691-0500",
"value" : {
"name" : "0",
"assigned" : "2023-10-25T15:16:48.691-0500"
}
},
{
"event" : "setCollection",
"timestamp" : "2023-10-25T15:16:48.691-0500",
"value" : {
"name" : "FECMSBurninBoxInterfaceTable",
"assigned" : "2023-10-25T15:16:48.691-0500"
}
},
{
"event" : "addEntity",
"timestamp" : "2023-10-25T15:16:48.691-0500",
"value" : {
"name" : "OTSROOT",
"assigned" : "2023-10-25T15:16:48.691-0500"
}
},
{
"event" : "addConfiguration",
"timestamp" : "2023-10-25T15:16:49.613-0500",
"value" : {
"name" : "BurninBoxConfiguration_v0",
"assigned" : "2023-10-25T15:16:49.613-0500"
}
},
{
"event" : "addConfiguration",
"timestamp" : "2023-10-25T15:16:50.471-0500",
"value" : {
"name" : "BurninBoxConfiguration_v1",
"assigned" : "2023-10-25T15:16:50.470-0500"
}
},
{
"event" : "addConfiguration",
"timestamp" : "2023-10-25T15:16:51.711-0500",
"value" : {
"name" : "BurninBoxConfiguration_v2",
"assigned" : "2023-10-25T15:16:51.711-0500"
}
}
],
"created" : "2023-10-25T15:16:48.690-0500"
},
"_id" : {
"$oid" : "3b43c3dea4b547fca5c8abe1"
},
"collection" : "FECMSBurninBoxInterfaceTable",
"aliases" : {
"active" : [

],
"history" : [

]
},
"runs" : [

],
"attachments" : [

],
"configtype" : "notprovided"
}