{
"document" : {
"data" : {
"NAME" : "FECMS_BURNIN_BOX_INTERFACE_TABLE",
"COMMENT" : "No comment.",
"AUTHOR" : "admin",
"CREATION_TIME" : 1601934977,
"COL_TYPES" : {
"INTERFACE_ID" : "STRING",
"STATUS" : "STRING",
"INTERFACE_IP_ADDRESS" : "STRING",
"INTERFACE_PORT" : "NUMBER",
"HOST_IP_ADDRESS" : "STRING",
"HOST_PORT" : "NUMBER",
"DATA_PUBLISHER_PORT" : "NUMBER",
"LINK_TO_BURNIN_BOX_CYCLE_TABLE" : "STRING",
"LINK_TO_BURNIN_BOX_CYCLE_GROUP_ID" : "STRING",
"COMMENT_DESCRIPTION" : "STRING",
"AUTHOR" : "STRING",
"RECORD_INSERTION_TIME" : "TIMESTAMP WITH TIMEZONE"
},
"DATA_SET" : [
{
"INTERFACE_ID" : "FEBurninBoxInterface",
"STATUS" : "On",
"INTERFACE_IP_ADDRESS" : "192.168.0.101",
"INTERFACE_PORT" : "5001",
"HOST_IP_ADDRESS" : "127.0.0.1",
"HOST_PORT" : "10000",
"DATA_PUBLISHER_PORT" : "50000",
"LINK_TO_BURNIN_BOX_CYCLE_TABLE" : "BurninBoxCycleTable",
"LINK_TO_BURNIN_BOX_CYCLE_GROUP_ID" : "ModuleTestingCycle",
"COMMENT_DESCRIPTION" : "No Comment",
"AUTHOR" : "admin",
"RECORD_INSERTION_TIME" : "1601934977"
}
]
},
"metadata" : {

},
"search" : [

]
},
"comments" : [

],
"origin" : {
"source" : "template",
"name" : "notprovided",
"format" : "json",
"created" : "2020-10-05T16:56:17.082-0500",
"rawdata" : [

]
},
"version" : "31",
"entities" : [
{
"name" : "OTSROOT",
"assigned" : "2020-10-05T16:56:17.082-0500"
}
],
"configurations" : [
{
"name" : "notprovided",
"assigned" : "2020-10-05T16:56:17.082-0500"
},
{
"name" : "BurninBoxConfiguration_v8",
"assigned" : "2020-10-05T17:05:55.408-0500"
},
{
"name" : "BurninBoxConfiguration_v9",
"assigned" : "2020-10-05T17:09:48.445-0500"
},
{
"name" : "BurninBoxConfiguration_v10",
"assigned" : "2020-10-05T17:11:02.304-0500"
},
{
"name" : "BurninBoxConfiguration_v11",
"assigned" : "2020-10-05T17:39:03.855-0500"
},
{
"name" : "BurninBoxConfiguration_v12",
"assigned" : "2020-10-05T17:43:06.085-0500"
},
{
"name" : "BurninBoxConfiguration_v13",
"assigned" : "2020-10-09T14:43:40.025-0500"
},
{
"name" : "BurninBoxConfiguration_v14",
"assigned" : "2020-10-09T15:30:46.605-0500"
},
{
"name" : "BurninBoxConfiguration_v15",
"assigned" : "2020-10-12T10:14:43.493-0500"
},
{
"name" : "BurninBoxConfiguration_v16",
"assigned" : "2020-10-12T15:33:09.082-0500"
}
],
"changelog" : "notprovided",
"bookkeeping" : {
"isdeleted" : false,
"isreadonly" : false,
"updates" : [
{
"event" : "addConfiguration",
"timestamp" : "2020-10-05T16:56:17.082-0500",
"value" : {
"name" : "notprovided",
"assigned" : "2020-10-05T16:56:17.082-0500"
}
},
{
"event" : "setVersion",
"timestamp" : "2020-10-05T16:56:17.082-0500",
"value" : {
"name" : "31",
"assigned" : "2020-10-05T16:56:17.082-0500"
}
},
{
"event" : "setCollection",
"timestamp" : "2020-10-05T16:56:17.082-0500",
"value" : {
"name" : "FECMSBurninBoxInterfaceTable",
"assigned" : "2020-10-05T16:56:17.082-0500"
}
},
{
"event" : "addEntity",
"timestamp" : "2020-10-05T16:56:17.082-0500",
"value" : {
"name" : "OTSROOT",
"assigned" : "2020-10-05T16:56:17.082-0500"
}
},
{
"event" : "addConfiguration",
"timestamp" : "2020-10-05T17:05:55.408-0500",
"value" : {
"name" : "BurninBoxConfiguration_v8",
"assigned" : "2020-10-05T17:05:55.408-0500"
}
},
{
"event" : "addConfiguration",
"timestamp" : "2020-10-05T17:09:48.445-0500",
"value" : {
"name" : "BurninBoxConfiguration_v9",
"assigned" : "2020-10-05T17:09:48.445-0500"
}
},
{
"event" : "addConfiguration",
"timestamp" : "2020-10-05T17:11:02.304-0500",
"value" : {
"name" : "BurninBoxConfiguration_v10",
"assigned" : "2020-10-05T17:11:02.304-0500"
}
},
{
"event" : "addConfiguration",
"timestamp" : "2020-10-05T17:39:03.855-0500",
"value" : {
"name" : "BurninBoxConfiguration_v11",
"assigned" : "2020-10-05T17:39:03.855-0500"
}
},
{
"event" : "addConfiguration",
"timestamp" : "2020-10-05T17:43:06.085-0500",
"value" : {
"name" : "BurninBoxConfiguration_v12",
"assigned" : "2020-10-05T17:43:06.085-0500"
}
},
{
"event" : "addConfiguration",
"timestamp" : "2020-10-09T14:43:40.025-0500",
"value" : {
"name" : "BurninBoxConfiguration_v13",
"assigned" : "2020-10-09T14:43:40.025-0500"
}
},
{
"event" : "addConfiguration",
"timestamp" : "2020-10-09T15:30:46.605-0500",
"value" : {
"name" : "BurninBoxConfiguration_v14",
"assigned" : "2020-10-09T15:30:46.605-0500"
}
},
{
"event" : "addConfiguration",
"timestamp" : "2020-10-12T10:14:43.493-0500",
"value" : {
"name" : "BurninBoxConfiguration_v15",
"assigned" : "2020-10-12T10:14:43.493-0500"
}
},
{
"event" : "addConfiguration",
"timestamp" : "2020-10-12T15:33:09.082-0500",
"value" : {
"name" : "BurninBoxConfiguration_v16",
"assigned" : "2020-10-12T15:33:09.082-0500"
}
}
],
"created" : "2020-10-05T16:56:17.082-0500"
},
"_id" : {
"$oid" : "6121dca8cdf54f8cb03b0907"
},
"collection" : "FECMSBurninBoxInterfaceTable",
"aliases" : {
"active" : [

],
"history" : [

]
},
"runs" : [

],
"attachments" : [

],
"configtype" : "notprovided"
}