{
"document" : {
"data" : {
"NAME" : "DATA_BUFFER_TABLE",
"COMMENT" : "Records for data buffer Producers and Consumers.",
"AUTHOR" : "admin",
"CREATION_TIME" : 1674237087,
"COL_TYPES" : {
"DATA_BUFFER_GROUP_ID" : "STRING",
"DATA_BUFFER_UID" : "STRING",
"LINK_TO_DATA_PROCESSOR_TABLE" : "STRING",
"LINK_TO_DATA_PROCESSOR_GROUP_ID" : "STRING",
"STATUS" : "STRING",
"COMMENT_DESCRIPTION" : "STRING",
"AUTHOR" : "STRING",
"RECORD_INSERTION_TIME" : "TIMESTAMP WITH TIMEZONE"
},
"DATA_SET" : [
{
"DATA_BUFFER_GROUP_ID" : "VisualizerDataBuffer",
"DATA_BUFFER_UID" : "VisualizerBurninBoxBuffer",
"LINK_TO_DATA_PROCESSOR_TABLE" : "DataProcessorTable",
"LINK_TO_DATA_PROCESSOR_GROUP_ID" : "VisualizerBurninBoxBuffer",
"STATUS" : "Off",
"COMMENT_DESCRIPTION" : "DEFAULT",
"AUTHOR" : "admin",
"RECORD_INSERTION_TIME" : "1674237084"
},
{
"DATA_BUFFER_GROUP_ID" : "VisualizerDataBuffer",
"DATA_BUFFER_UID" : "VisualizerPowerSupplyBuffer",
"LINK_TO_DATA_PROCESSOR_TABLE" : "DataProcessorTable",
"LINK_TO_DATA_PROCESSOR_GROUP_ID" : "VisualizerPowerSupplyBuffer",
"STATUS" : "Off",
"COMMENT_DESCRIPTION" : "DEFAULT",
"AUTHOR" : "admin",
"RECORD_INSERTION_TIME" : "1626290758"
},
{
"DATA_BUFFER_GROUP_ID" : "VisualizerDataBuffer",
"DATA_BUFFER_UID" : "TrackerBuffer",
"LINK_TO_DATA_PROCESSOR_TABLE" : "DataProcessorTable",
"LINK_TO_DATA_PROCESSOR_GROUP_ID" : "VisualizerTrackerBuffer",
"STATUS" : "On",
"COMMENT_DESCRIPTION" : "DEFAULT",
"AUTHOR" : "admin",
"RECORD_INSERTION_TIME" : "1625849283"
}
]
},
"metadata" : {

},
"search" : [

]
},
"comments" : [

],
"origin" : {
"source" : "template",
"name" : "notprovided",
"format" : "json",
"created" : "2023-01-20T11:51:27.526-0600",
"rawdata" : [

]
},
"version" : "12",
"entities" : [
{
"name" : "OTSROOT",
"assigned" : "2023-01-20T11:51:27.528-0600"
}
],
"configurations" : [
{
"name" : "notprovided",
"assigned" : "2023-01-20T11:51:27.527-0600"
},
{
"name" : "BurninBoxConfiguration_v113",
"assigned" : "2023-01-20T11:51:30.528-0600"
},
{
"name" : "BurninBoxConfiguration_v114",
"assigned" : "2023-01-30T11:15:45.648-0600"
}
],
"changelog" : "notprovided",
"bookkeeping" : {
"isdeleted" : false,
"isreadonly" : false,
"updates" : [
{
"event" : "addConfiguration",
"timestamp" : "2023-01-20T11:51:27.527-0600",
"value" : {
"name" : "notprovided",
"assigned" : "2023-01-20T11:51:27.527-0600"
}
},
{
"event" : "setVersion",
"timestamp" : "2023-01-20T11:51:27.528-0600",
"value" : {
"name" : "12",
"assigned" : "2023-01-20T11:51:27.528-0600"
}
},
{
"event" : "setCollection",
"timestamp" : "2023-01-20T11:51:27.528-0600",
"value" : {
"name" : "DataBufferTable",
"assigned" : "2023-01-20T11:51:27.528-0600"
}
},
{
"event" : "addEntity",
"timestamp" : "2023-01-20T11:51:27.528-0600",
"value" : {
"name" : "OTSROOT",
"assigned" : "2023-01-20T11:51:27.528-0600"
}
},
{
"event" : "addConfiguration",
"timestamp" : "2023-01-20T11:51:30.529-0600",
"value" : {
"name" : "BurninBoxConfiguration_v113",
"assigned" : "2023-01-20T11:51:30.528-0600"
}
},
{
"event" : "addConfiguration",
"timestamp" : "2023-01-30T11:15:45.648-0600",
"value" : {
"name" : "BurninBoxConfiguration_v114",
"assigned" : "2023-01-30T11:15:45.648-0600"
}
}
],
"created" : "2023-01-20T11:51:27.526-0600"
},
"_id" : {
"$oid" : "0882850739144f0e8f199c4c"
},
"collection" : "DataBufferTable",
"aliases" : {
"active" : [

],
"history" : [

]
},
"runs" : [

],
"attachments" : [

],
"configtype" : "notprovided"
}