{
"document" : {
"data" : {
"NAME" : "DATA_BUFFER_TABLE",
"COMMENT" : "Records for data buffer Producers and Consumers.",
"AUTHOR" : "admin",
"CREATION_TIME" : 1682107364,
"COL_TYPES" : {
"DATA_BUFFER_GROUP_ID" : "STRING",
"DATA_BUFFER_UID" : "STRING",
"LINK_TO_DATA_PROCESSOR_TABLE" : "STRING",
"LINK_TO_DATA_PROCESSOR_GROUP_ID" : "STRING",
"STATUS" : "STRING",
"COMMENT_DESCRIPTION" : "STRING",
"AUTHOR" : "STRING",
"RECORD_INSERTION_TIME" : "TIMESTAMP WITH TIMEZONE"
},
"DATA_SET" : [
{
"DATA_BUFFER_GROUP_ID" : "VisualizerDataBuffer",
"DATA_BUFFER_UID" : "VisualizerBurninBoxBuffer",
"LINK_TO_DATA_PROCESSOR_TABLE" : "DataProcessorTable",
"LINK_TO_DATA_PROCESSOR_GROUP_ID" : "VisualizerBurninBoxBuffer",
"STATUS" : "On",
"COMMENT_DESCRIPTION" : "Burnin Box status plots",
"AUTHOR" : "admin",
"RECORD_INSERTION_TIME" : "1682107337"
},
{
"DATA_BUFFER_GROUP_ID" : "VisualizerDataBuffer",
"DATA_BUFFER_UID" : "VisualizerPowerSupplyBuffer",
"LINK_TO_DATA_PROCESSOR_TABLE" : "DataProcessorTable",
"LINK_TO_DATA_PROCESSOR_GROUP_ID" : "VisualizerPowerSupplyBuffer",
"STATUS" : "Off",
"COMMENT_DESCRIPTION" : "Power Supply status plots",
"AUTHOR" : "admin",
"RECORD_INSERTION_TIME" : "1681852813"
},
{
"DATA_BUFFER_GROUP_ID" : "VisualizerDataBuffer",
"DATA_BUFFER_UID" : "TrackerBuffer",
"LINK_TO_DATA_PROCESSOR_TABLE" : "DataProcessorTable",
"LINK_TO_DATA_PROCESSOR_GROUP_ID" : "VisualizerTrackerBuffer",
"STATUS" : "Off",
"COMMENT_DESCRIPTION" : "Modules calibrations plots",
"AUTHOR" : "admin",
"RECORD_INSERTION_TIME" : "1681488280"
},
{
"DATA_BUFFER_GROUP_ID" : "VisualizerDataBuffer",
"DATA_BUFFER_UID" : "TrackerMonitorBuffer",
"LINK_TO_DATA_PROCESSOR_TABLE" : "DataProcessorTable",
"LINK_TO_DATA_PROCESSOR_GROUP_ID" : "VisualizerTrackerMonitorBuffer",
"STATUS" : "Off",
"COMMENT_DESCRIPTION" : "Modules monitoring system",
"AUTHOR" : "admin",
"RECORD_INSERTION_TIME" : "1681488284"
}
]
},
"metadata" : {

},
"search" : [

]
},
"comments" : [

],
"origin" : {
"source" : "template",
"name" : "notprovided",
"format" : "json",
"created" : "2023-04-21T15:02:44.036-0500",
"rawdata" : [

]
},
"version" : "18",
"entities" : [
{
"name" : "OTSROOT",
"assigned" : "2023-04-21T15:02:44.037-0500"
}
],
"configurations" : [
{
"name" : "notprovided",
"assigned" : "2023-04-21T15:02:44.037-0500"
},
{
"name" : "BurninBoxConfiguration_v147",
"assigned" : "2023-04-21T15:02:47.659-0500"
},
{
"name" : "BurninBoxConfiguration_v148",
"assigned" : "2023-05-09T09:06:43.855-0500"
},
{
"name" : "BurninBoxConfiguration_v149",
"assigned" : "2023-05-11T08:26:02.015-0500"
},
{
"name" : "BurninBoxConfiguration_v150",
"assigned" : "2023-05-11T14:10:22.445-0500"
},
{
"name" : "BurninBoxConfiguration_v151",
"assigned" : "2023-05-11T14:10:59.469-0500"
},
{
"name" : "BurninBoxConfiguration_v152",
"assigned" : "2023-05-11T14:12:47.463-0500"
},
{
"name" : "BurninBoxConfiguration_v156",
"assigned" : "2023-06-01T14:54:09.568-0500"
},
{
"name" : "BurninBoxConfiguration_v157",
"assigned" : "2023-06-01T14:56:06.896-0500"
},
{
"name" : "BurninBoxConfiguration_v158",
"assigned" : "2023-06-01T14:56:43.537-0500"
},
{
"name" : "BurninBoxConfiguration_v159",
"assigned" : "2023-06-02T12:37:16.595-0500"
}
],
"changelog" : "notprovided",
"bookkeeping" : {
"isdeleted" : false,
"isreadonly" : false,
"updates" : [
{
"event" : "addConfiguration",
"timestamp" : "2023-04-21T15:02:44.037-0500",
"value" : {
"name" : "notprovided",
"assigned" : "2023-04-21T15:02:44.037-0500"
}
},
{
"event" : "setVersion",
"timestamp" : "2023-04-21T15:02:44.037-0500",
"value" : {
"name" : "18",
"assigned" : "2023-04-21T15:02:44.037-0500"
}
},
{
"event" : "setCollection",
"timestamp" : "2023-04-21T15:02:44.037-0500",
"value" : {
"name" : "DataBufferTable",
"assigned" : "2023-04-21T15:02:44.037-0500"
}
},
{
"event" : "addEntity",
"timestamp" : "2023-04-21T15:02:44.037-0500",
"value" : {
"name" : "OTSROOT",
"assigned" : "2023-04-21T15:02:44.037-0500"
}
},
{
"event" : "addConfiguration",
"timestamp" : "2023-04-21T15:02:47.659-0500",
"value" : {
"name" : "BurninBoxConfiguration_v147",
"assigned" : "2023-04-21T15:02:47.659-0500"
}
},
{
"event" : "addConfiguration",
"timestamp" : "2023-05-09T09:06:43.855-0500",
"value" : {
"name" : "BurninBoxConfiguration_v148",
"assigned" : "2023-05-09T09:06:43.855-0500"
}
},
{
"event" : "addConfiguration",
"timestamp" : "2023-05-11T08:26:02.015-0500",
"value" : {
"name" : "BurninBoxConfiguration_v149",
"assigned" : "2023-05-11T08:26:02.015-0500"
}
},
{
"event" : "addConfiguration",
"timestamp" : "2023-05-11T14:10:22.445-0500",
"value" : {
"name" : "BurninBoxConfiguration_v150",
"assigned" : "2023-05-11T14:10:22.445-0500"
}
},
{
"event" : "addConfiguration",
"timestamp" : "2023-05-11T14:10:59.469-0500",
"value" : {
"name" : "BurninBoxConfiguration_v151",
"assigned" : "2023-05-11T14:10:59.469-0500"
}
},
{
"event" : "addConfiguration",
"timestamp" : "2023-05-11T14:12:47.463-0500",
"value" : {
"name" : "BurninBoxConfiguration_v152",
"assigned" : "2023-05-11T14:12:47.463-0500"
}
},
{
"event" : "addConfiguration",
"timestamp" : "2023-06-01T14:54:09.568-0500",
"value" : {
"name" : "BurninBoxConfiguration_v156",
"assigned" : "2023-06-01T14:54:09.568-0500"
}
},
{
"event" : "addConfiguration",
"timestamp" : "2023-06-01T14:56:06.896-0500",
"value" : {
"name" : "BurninBoxConfiguration_v157",
"assigned" : "2023-06-01T14:56:06.896-0500"
}
},
{
"event" : "addConfiguration",
"timestamp" : "2023-06-01T14:56:43.537-0500",
"value" : {
"name" : "BurninBoxConfiguration_v158",
"assigned" : "2023-06-01T14:56:43.537-0500"
}
},
{
"event" : "addConfiguration",
"timestamp" : "2023-06-02T12:37:16.595-0500",
"value" : {
"name" : "BurninBoxConfiguration_v159",
"assigned" : "2023-06-02T12:37:16.595-0500"
}
}
],
"created" : "2023-04-21T15:02:44.036-0500"
},
"_id" : {
"$oid" : "f1481cb0f7b3434b8362f196"
},
"collection" : "DataBufferTable",
"aliases" : {
"active" : [

],
"history" : [

]
},
"runs" : [

],
"attachments" : [

],
"configtype" : "notprovided"
}