{
"document" : {
"data" : {
"NAME" : "XDAQ_APPLICATION_PROPERTY_TABLE",
"COMMENT" : "No comment.",
"AUTHOR" : "admin",
"CREATION_TIME" : 1534971676,
"COL_TYPES" : {
"PROPERTY_GROUP_ID" : "STRING",
"UID" : "STRING",
"STATUS" : "STRING",
"PROPERTY_NAME" : "STRING",
"PROPERTY_TYPE" : "STRING",
"PROPERTY_VALUE" : "STRING",
"COMMENT_DESCRIPTION" : "STRING",
"AUTHOR" : "STRING",
"RECORD_INSERTION_TIME" : "TIMESTAMP WITH TIMEZONE"
},
"DATA_SET" : [
{
"PROPERTY_GROUP_ID" : "ACFSupervisor0",
"UID" : "FedID",
"STATUS" : "On",
"PROPERTY_NAME" : "FedID",
"PROPERTY_TYPE" : "xsd:unsignedShort",
"PROPERTY_VALUE" : "51",
"COMMENT_DESCRIPTION" : "No Comment",
"AUTHOR" : "admin",
"RECORD_INSERTION_TIME" : "1534954759"
},
{
"PROPERTY_GROUP_ID" : "ACFSupervisor0",
"UID" : "HWDescriptionFile",
"STATUS" : "On",
"PROPERTY_NAME" : "HWDescriptionFile",
"PROPERTY_TYPE" : "xsd:string",
"PROPERTY_VALUE" : "${PH2ACF_BASE_DIR}/settings/Commissioning_MiniModule_SiDet.xml",
"COMMENT_DESCRIPTION" : "No Comment",
"AUTHOR" : "admin",
"RECORD_INSERTION_TIME" : "1534971639"
},
{
"PROPERTY_GROUP_ID" : "ACFSupervisor0",
"UID" : "DataDirectory",
"STATUS" : "On",
"PROPERTY_NAME" : "DataDirectory",
"PROPERTY_TYPE" : "xsd:string",
"PROPERTY_VALUE" : "${OTSDAQ_DATA}",
"COMMENT_DESCRIPTION" : "No Comment",
"AUTHOR" : "admin",
"RECORD_INSERTION_TIME" : "1534954997"
},
{
"PROPERTY_GROUP_ID" : "ACFSupervisor0",
"UID" : "ResultDirectory",
"STATUS" : "On",
"PROPERTY_NAME" : "ResultDirectory",
"PROPERTY_TYPE" : "xsd:string",
"PROPERTY_VALUE" : "${OTSDAQ_DATA}/Result",
"COMMENT_DESCRIPTION" : "No Comment",
"AUTHOR" : "admin",
"RECORD_INSERTION_TIME" : "1534954997"
},
{
"PROPERTY_GROUP_ID" : "ACFSupervisor0",
"UID" : "runNumber",
"STATUS" : "On",
"PROPERTY_NAME" : "runNumber",
"PROPERTY_TYPE" : "xsd:integer",
"PROPERTY_VALUE" : "-1",
"COMMENT_DESCRIPTION" : "No Comment",
"AUTHOR" : "admin",
"RECORD_INSERTION_TIME" : "1534954997"
},
{
"PROPERTY_GROUP_ID" : "ACFSupervisor0",
"UID" : "NEvents",
"STATUS" : "On",
"PROPERTY_NAME" : "NEvents",
"PROPERTY_TYPE" : "xsd:unsignedInt",
"PROPERTY_VALUE" : "0",
"COMMENT_DESCRIPTION" : "No Comment",
"AUTHOR" : "admin",
"RECORD_INSERTION_TIME" : "1534954997"
},
{
"PROPERTY_GROUP_ID" : "ACFSupervisor0",
"UID" : "WriteRAW",
"STATUS" : "On",
"PROPERTY_NAME" : "WriteRAW",
"PROPERTY_TYPE" : "xsd:boolean",
"PROPERTY_VALUE" : "true",
"COMMENT_DESCRIPTION" : "No Comment",
"AUTHOR" : "admin",
"RECORD_INSERTION_TIME" : "1534954997"
},
{
"PROPERTY_GROUP_ID" : "ACFSupervisor0",
"UID" : "WriteDAQ",
"STATUS" : "On",
"PROPERTY_NAME" : "WriteDAQ",
"PROPERTY_TYPE" : "xsd:boolean",
"PROPERTY_VALUE" : "true",
"COMMENT_DESCRIPTION" : "No Comment",
"AUTHOR" : "admin",
"RECORD_INSERTION_TIME" : "1534954997"
},
{
"PROPERTY_GROUP_ID" : "ACFSupervisor0",
"UID" : "ShortPause",
"STATUS" : "On",
"PROPERTY_NAME" : "ShortPause",
"PROPERTY_TYPE" : "xsd:integer",
"PROPERTY_VALUE" : "10",
"COMMENT_DESCRIPTION" : "No Comment",
"AUTHOR" : "admin",
"RECORD_INSERTION_TIME" : "1534954997"
},
{
"PROPERTY_GROUP_ID" : "ACFSupervisor0",
"UID" : "THttpServerPort",
"STATUS" : "On",
"PROPERTY_NAME" : "THttpServerPort",
"PROPERTY_TYPE" : "xsd:integer",
"PROPERTY_VALUE" : "9090",
"COMMENT_DESCRIPTION" : "No Comment",
"AUTHOR" : "admin",
"RECORD_INSERTION_TIME" : "1534954997"
},
{
"PROPERTY_GROUP_ID" : "ACFSupervisor0",
"UID" : "SendData",
"STATUS" : "On",
"PROPERTY_NAME" : "SendData",
"PROPERTY_TYPE" : "xsd:boolean",
"PROPERTY_VALUE" : "false",
"COMMENT_DESCRIPTION" : "No Comment",
"AUTHOR" : "admin",
"RECORD_INSERTION_TIME" : "1534954997"
},
{
"PROPERTY_GROUP_ID" : "ACFSupervisor0",
"UID" : "DataDestination",
"STATUS" : "On",
"PROPERTY_NAME" : "DataDestination",
"PROPERTY_TYPE" : "xsd:string",
"PROPERTY_VALUE" : "DQM",
"COMMENT_DESCRIPTION" : "No Comment",
"AUTHOR" : "admin",
"RECORD_INSERTION_TIME" : "1534954997"
},
{
"PROPERTY_GROUP_ID" : "ACFSupervisor0",
"UID" : "DQMPostScale",
"STATUS" : "On",
"PROPERTY_NAME" : "DQMPostScale",
"PROPERTY_TYPE" : "xsd:integer",
"PROPERTY_VALUE" : "1",
"COMMENT_DESCRIPTION" : "No Comment",
"AUTHOR" : "admin",
"RECORD_INSERTION_TIME" : "1534954997"
},
{
"PROPERTY_GROUP_ID" : "ACFSupervisor0",
"UID" : "DataSourceHost",
"STATUS" : "On",
"PROPERTY_NAME" : "DataSourceHost",
"PROPERTY_TYPE" : "xsd:string",
"PROPERTY_VALUE" : "localhost",
"COMMENT_DESCRIPTION" : "No Comment",
"AUTHOR" : "admin",
"RECORD_INSERTION_TIME" : "1534954997"
},
{
"PROPERTY_GROUP_ID" : "ACFSupervisor0",
"UID" : "DataSourcePort",
"STATUS" : "On",
"PROPERTY_NAME" : "DataSourcePort",
"PROPERTY_TYPE" : "xsd:integer",
"PROPERTY_VALUE" : "60000",
"COMMENT_DESCRIPTION" : "No Comment",
"AUTHOR" : "admin",
"RECORD_INSERTION_TIME" : "1534954997"
},
{
"PROPERTY_GROUP_ID" : "ACFSupervisor0",
"UID" : "DataSinkHost",
"STATUS" : "On",
"PROPERTY_NAME" : "DataSinkHost",
"PROPERTY_TYPE" : "xsd:string",
"PROPERTY_VALUE" : "localhost",
"COMMENT_DESCRIPTION" : "No Comment",
"AUTHOR" : "admin",
"RECORD_INSERTION_TIME" : "1534954997"
},
{
"PROPERTY_GROUP_ID" : "ACFSupervisor0",
"UID" : "DataSinkPort",
"STATUS" : "On",
"PROPERTY_NAME" : "DataSinkPort",
"PROPERTY_TYPE" : "xsd:integer",
"PROPERTY_VALUE" : "50000",
"COMMENT_DESCRIPTION" : "No Comment",
"AUTHOR" : "admin",
"RECORD_INSERTION_TIME" : "1534954997"
},
{
"PROPERTY_GROUP_ID" : "ACFSupervisor0",
"UID" : "PlaybackMode",
"STATUS" : "On",
"PROPERTY_NAME" : "PlaybackMode",
"PROPERTY_TYPE" : "xsd:boolean",
"PROPERTY_VALUE" : "false",
"COMMENT_DESCRIPTION" : "No Comment",
"AUTHOR" : "admin",
"RECORD_INSERTION_TIME" : "1534954997"
},
{
"PROPERTY_GROUP_ID" : "ACFSupervisor0",
"UID" : "PlaybackFile",
"STATUS" : "On",
"PROPERTY_NAME" : "PlaybackFile",
"PROPERTY_TYPE" : "xsd:string",
"PROPERTY_VALUE" : "",
"COMMENT_DESCRIPTION" : "No Comment",
"AUTHOR" : "admin",
"RECORD_INSERTION_TIME" : "1534954997"
}
]
},
"metadata" : {

},
"search" : [

]
},
"comments" : [

],
"origin" : {
"source" : "template",
"name" : "notprovided",
"format" : "json",
"created" : "2023-10-25T15:16:52.417-0500",
"rawdata" : [

]
},
"version" : "3",
"entities" : [
{
"name" : "OTSROOT",
"assigned" : "2023-10-25T15:16:52.417-0500"
}
],
"configurations" : [
{
"name" : "notprovided",
"assigned" : "2023-10-25T15:16:52.417-0500"
},
{
"name" : "DefaultContext_v3",
"assigned" : "2023-10-25T15:16:52.832-0500"
},
{
"name" : "DefaultContext_v4",
"assigned" : "2023-10-25T15:16:53.429-0500"
}
],
"changelog" : "notprovided",
"bookkeeping" : {
"isdeleted" : false,
"isreadonly" : false,
"updates" : [
{
"event" : "addConfiguration",
"timestamp" : "2023-10-25T15:16:52.417-0500",
"value" : {
"name" : "notprovided",
"assigned" : "2023-10-25T15:16:52.417-0500"
}
},
{
"event" : "setVersion",
"timestamp" : "2023-10-25T15:16:52.417-0500",
"value" : {
"name" : "3",
"assigned" : "2023-10-25T15:16:52.417-0500"
}
},
{
"event" : "setCollection",
"timestamp" : "2023-10-25T15:16:52.417-0500",
"value" : {
"name" : "XDAQApplicationPropertyTable",
"assigned" : "2023-10-25T15:16:52.417-0500"
}
},
{
"event" : "addEntity",
"timestamp" : "2023-10-25T15:16:52.417-0500",
"value" : {
"name" : "OTSROOT",
"assigned" : "2023-10-25T15:16:52.417-0500"
}
},
{
"event" : "addConfiguration",
"timestamp" : "2023-10-25T15:16:52.832-0500",
"value" : {
"name" : "DefaultContext_v3",
"assigned" : "2023-10-25T15:16:52.832-0500"
}
},
{
"event" : "addConfiguration",
"timestamp" : "2023-10-25T15:16:53.429-0500",
"value" : {
"name" : "DefaultContext_v4",
"assigned" : "2023-10-25T15:16:53.429-0500"
}
}
],
"created" : "2023-10-25T15:16:52.417-0500"
},
"_id" : {
"$oid" : "1cd34a5ad7f24355aaba154b"
},
"collection" : "XDAQApplicationPropertyTable",
"aliases" : {
"active" : [

],
"history" : [

]
},
"runs" : [

],
"attachments" : [

],
"configtype" : "notprovided"
}