{
"document" : {
"data" : {
"NAME" : "GROUP_ALIASES_TABLE",
"COMMENT" : "Default Backbone.",
"AUTHOR" : "admin",
"CREATION_TIME" : 1632839111,
"COL_TYPES" : {
"GROUP_KEY_ALIAS" : "STRING",
"GROUP_NAME" : "STRING",
"GROUP_KEY" : "STRING",
"COMMENT_DESCRIPTION" : "STRING",
"AUTHOR" : "STRING",
"RECORD_INSERTION_TIME" : "TIMESTAMP WITH TIMEZONE"
},
"DATA_SET" : [
{
"GROUP_KEY_ALIAS" : "DefaultContext",
"GROUP_NAME" : "DefaultContext",
"GROUP_KEY" : "43",
"COMMENT_DESCRIPTION" : "This Group Alias was automatically setup by the server.",
"AUTHOR" : "admin",
"RECORD_INSERTION_TIME" : "1632516595"
},
{
"GROUP_KEY_ALIAS" : "BurninBoxConfiguration",
"GROUP_NAME" : "BurninBoxConfiguration",
"GROUP_KEY" : "80",
"COMMENT_DESCRIPTION" : "This Group Alias was automatically setup by the server.",
"AUTHOR" : "admin",
"RECORD_INSERTION_TIME" : "1632839091"
},
{
"GROUP_KEY_ALIAS" : "BurninBoxOnlyContext",
"GROUP_NAME" : "DefaultContext",
"GROUP_KEY" : "43",
"COMMENT_DESCRIPTION" : "This Group Alias was automatically setup by the server.",
"AUTHOR" : "admin",
"RECORD_INSERTION_TIME" : "1632518780"
},
{
"GROUP_KEY_ALIAS" : "BurninBoxOnlyConfiguration",
"GROUP_NAME" : "BurninBoxConfiguration",
"GROUP_KEY" : "80",
"COMMENT_DESCRIPTION" : "This Group Alias was automatically setup by the server.",
"AUTHOR" : "admin",
"RECORD_INSERTION_TIME" : "1632839111"
}
]
},
"metadata" : {

},
"search" : [

]
},
"comments" : [

],
"origin" : {
"source" : "template",
"name" : "notprovided",
"format" : "json",
"created" : "2021-09-28T09:25:11.362-0500",
"rawdata" : [

]
},
"version" : "195",
"entities" : [
{
"name" : "OTSROOT",
"assigned" : "2021-09-28T09:25:11.363-0500"
}
],
"configurations" : [
{
"name" : "notprovided",
"assigned" : "2021-09-28T09:25:11.363-0500"
},
{
"name" : "TableEditWizBackbone_v115",
"assigned" : "2021-09-28T09:25:12.897-0500"
},
{
"name" : "GroupAliasTreeEditWizBackbone_v85",
"assigned" : "2021-09-28T11:22:06.225-0500"
}
],
"changelog" : "notprovided",
"bookkeeping" : {
"isdeleted" : false,
"isreadonly" : false,
"updates" : [
{
"event" : "addConfiguration",
"timestamp" : "2021-09-28T09:25:11.363-0500",
"value" : {
"name" : "notprovided",
"assigned" : "2021-09-28T09:25:11.363-0500"
}
},
{
"event" : "setVersion",
"timestamp" : "2021-09-28T09:25:11.363-0500",
"value" : {
"name" : "195",
"assigned" : "2021-09-28T09:25:11.363-0500"
}
},
{
"event" : "setCollection",
"timestamp" : "2021-09-28T09:25:11.363-0500",
"value" : {
"name" : "GroupAliasesTable",
"assigned" : "2021-09-28T09:25:11.363-0500"
}
},
{
"event" : "addEntity",
"timestamp" : "2021-09-28T09:25:11.363-0500",
"value" : {
"name" : "OTSROOT",
"assigned" : "2021-09-28T09:25:11.363-0500"
}
},
{
"event" : "addConfiguration",
"timestamp" : "2021-09-28T09:25:12.897-0500",
"value" : {
"name" : "TableEditWizBackbone_v115",
"assigned" : "2021-09-28T09:25:12.897-0500"
}
},
{
"event" : "addConfiguration",
"timestamp" : "2021-09-28T11:22:06.225-0500",
"value" : {
"name" : "GroupAliasTreeEditWizBackbone_v85",
"assigned" : "2021-09-28T11:22:06.225-0500"
}
}
],
"created" : "2021-09-28T09:25:11.362-0500"
},
"_id" : {
"$oid" : "2389609bc76e45aa8c4e814d"
},
"collection" : "GroupAliasesTable",
"aliases" : {
"active" : [

],
"history" : [

]
},
"runs" : [

],
"attachments" : [

],
"configtype" : "notprovided"
}