{
"ouid" : [
"009bdfc985824bc39858adf3",
"01fe3d03a55949aa99df29d7",
"020087282def42bca89b58a9",
"0420d2d50aaf4f11addf3f9b",
"08b23432a08448738f6c35f2",
"09e59f795039425b92aa5b9f",
"0ac63f99bc604a3980b45a71",
"0b6ee9031ca04d6ebe7031ca",
"0ba4aa3d89bf4f93a8444d30",
"0c32b664a39943489e019783",
"0c4ec81649654c678fdc8922",
"0d8f28feb5804b7a94343235",
"0f7c3462954545859a4cf218",
"0fb5c9d525d34309a2a56c71",
"1006e0267b4040d3b3ebac81",
"11409e693c204fa9bbcac0cf",
"117086c6d134434dae97b9e3",
"1323dc6f54a94216b7e5b93b",
"13fe467004fe421582e074aa",
"14cfccbd4ca34220a6839dc2",
"15bf408cc66a4d068d0242db",
"160341ea83c74b419e1f0ba8",
"16d7926f083745328baa983e",
"1785a65068ed46488d69bf11",
"186bae4bebee48e8bd5657aa",
"18cac564a4434f0d83740d01",
"191737f717bd429181754846",
"1b2cb110f17b41f79d8d86b3",
"1ba03d1fc9ac476aaf53a8a5",
"1d28d1a7d43946be8b0aab4d",
"1e5c926f85214f44b9233921",
"202f10c7145a47cabea2554f",
"206bf50dc558471a8191703c",
"20b5b625efcd400288063611",
"20d3f77407024935bfa01e0a",
"22607b02b59c438996c55244",
"2262404c61d7426b92382549",
"2389609bc76e45aa8c4e814d",
"25ce9202af89442b8e16da1b",
"26141fb7a9eb4e019ddfefbb",
"26b109eabfc246c49b85edef",
"2a884ce3da7945ad933a82c2",
"2a9d68ebfabf4490913772de",
"2aeec34853da410b87afb3aa",
"2cbb02e3592c4dbeaf609518",
"3097237070a44871846e365b",
"30d8d2b4bc3c4334a1d73496",
"311be7b9ff194cf48588f20b",
"3248f8de7042453f8037625a",
"3462a3514057417d8e56e7ff",
"3483ff9a90dd42459d4891bf",
"35f24ce4f6074b91afcb94d0",
"35ff9a1dc2d5423281f90763",
"36777f122d9541f8a55a7ee6",
"3b73d1cfe95f4f2e8cf8ec59",
"3d06e83a0f954b4bab86232b",
"3e4d5a11d4b240e0b111c3ec",
"3e82110a8ed9440a8753e66f",
"3ee068ff3d74459b93978c83",
"3f91f561add549de9d006e89",
"3f983ca9418e4506b74e8c87",
"3faca6550551487a816118c8",
"4107749ac4194968be429f5e",
"427348b8a80143e7ab2628df",
"42baad001ea946a2a16c26a5",
"442f3265926b42c4a3ee0517",
"45669734b0c0416c9807e17f",
"458f17f4824c4d91bbc0b05a",
"47629ac5956f4493a44e9129",
"476b31dfb5064eba8d330dbb",
"49513bcbf77940989ee8e65a",
"4951e0f2d3934a9aa8fa7084",
"496d316b600648b8ae05ce97",
"49e9d27e1c51425e966a0bb1",
"4b32670390864c12b12c6e01",
"4d471fac34094f5d97889abe",
"4de512619d13441ab479ec30",
"4f49b9f481d546c885463610",
"5078a6863b2e4379ace9601a",
"515e471fe3de41999f70fc27",
"527badb0f85e45818813f29d",
"52f1f29f15f642dfa2f5503f",
"535a29981af642f79c8ba1e3",
"541a94cc271d40b0b239dfcf",
"56b13a6d346b49e183f5fa79",
"56fae0ebe7574e5389af9582",
"579eb690889449bd9c613979",
"591239a163ad4c3a9839b7d2",
"5a0110490395448788e995a0",
"5aacc92510504542af847503",
"5bffb9ccab574fd3b3b1e8dd",
"5c52aa5b623b465fbb2f1a49",
"5d85692de9fd4568b4f5deeb",
"5e4b90a076dc4d7d89559f7a",
"5fc1122cdfc54a0fba45db63",
"615ede6ed22c4e689ae69808",
"6223308fb0544c8db70f98bb",
"6457a989eb9e4d26a70e640b",
"64c04fba753442d1a74e910d",
"653f73798ac5411a927c63c5",
"6633ed1b1ff843f88a55bab1",
"6645f1b772504064b50640a9",
"67b22befdf334c37bccb3843",
"68e5ad6703ca4bee816e89b4",
"692464685f2f47f3948d6051",
"6b4a0fba8f6d404684bf3d1e",
"6b99d2a6028d4058be3f23c2",
"6be0fc92c72a4482a3ef6f8c",
"6f09738b61684155845f2eab",
"70328aeb934c48c288932247",
"70687e224292459ea5065c49",
"70a6f1eeb2ec4342a91d1b4d",
"70ddef937e174ba0b3edeb2c",
"7140404b99d842cbb1d79aa0",
"71f446e0f311452f9708e85c",
"720edf0e1fd44ee49e429b82",
"743015082578437bbe7e8785",
"74bbea7ac65e43768dedf6ee",
"75c91e320520472bb97d05f5",
"767650c5f2cc45e2b32730d2",
"77214bcee8c842deb4b6b057",
"77940c0857e742da9e3e0493",
"798e1de451ab46788ad519b3",
"7b2943ac6444498a9ebba47a",
"7e87eaa91c4a407791c8b9ad",
"82b1e196cda94f6a87b37e96",
"82ff0a450f6c47d7bb20ab2b",
"83affa8639874425a7f018f9",
"8468e65d04184400b7d19ad4",
"86cae01127f848e4ac24aa17",
"8aa792ae59bb4dbd8293107e",
"8cb9af33a69442e9b3d1bd33",
"8e1bcb41771e462d9662de6b",
"8ec8952a7ad944449bf05d0c",
"8f7d8609220f4b57946fdc0e",
"90724240527d4f3f90cafdba",
"92217362539b4d038a5755e9",
"92ba987fbd5c42d9a91f906e",
"94b66dcbd369452898eab9c5",
"959db3b4e532421f9e78aceb",
"96e34075302941d1b8d7ceca",
"97557bb2286a4d00beb1d41b",
"98d2ee63858240558556b392",
"993c8ee0f0f845399530bf06",
"99c4ba81402247e2bf117ede",
"99fc0b668c094fb4a9c17f2d",
"9b189256af574ceb95a12d6b",
"9ba2398dea2f47318f9a8fc5",
"9c65a3afb1f545d588883ee5",
"9ed478dc3caf44afb5b04aad",
"9eeeebe5d36f4087b4593934",
"9f2bc23542de45ec839d5f17",
"9f37e195ed17405c98daa6fa",
"9f479f86a5ef45d7a2bbd552",
"9f6626df98bc4c33b7c0be0d",
"a1141bdf7a5a4374932ec3ad",
"a118fee880a048598ae091af",
"a120c6761071489d9d22852e",
"a182e4de72d7471cb5fee584",
"a3a3161b5d0e452ca15d93dc",
"a52a796f7be94176a389e22d",
"a71278fe9bd34046a304bf83",
"a8f4181e9a6149c59d6162f4",
"a934823f86a8458ca9e0f365",
"a9d2f7a86e4543378f168999",
"aaa38564f00f42199970318f",
"ab297fad2d7843c6ad48dbff",
"ab4737fb472543638f2d8217",
"ab56b6486d784978b2259cfd",
"ade857c1c36f4a0c911aefe5",
"afaeda1994194922a1a91d3b",
"b100ca1d84b74a0592745432",
"b23f3c20a477442f8f7b17d9",
"b27a9a1b852e4dfe90d59e9e",
"b36f6ef4f96c4d829119ec4a",
"b3f4becb77bc41df899db968",
"b4e9b45f65fb40bf99027f49",
"b5c4f881cfdb45d3a5851400",
"b7afa3f233ef472cb82e6d92",
"b89b29b270704890b3648bf1",
"ba0ae2d7d65742f2ba06b51f",
"be99663eab8c42c08e18c78b",
"c09d74025cd541f888c3cbf4",
"c1a4b362289a4ffaa363f0c0",
"c252a8855777475893880a32",
"c36303969fdf4566b8d87357",
"c5e0bf8b24444b87a4a1b5c2",
"c64757ae55b4433f85fe039b",
"c7e918ae2fce4bf292aa0c47",
"c870241a0c99460b9c6df339",
"ca0b02f327df470d9e2d82a4",
"cb275db0162a4c92b49ee2c3",
"cb56291945774a639a24971a",
"cb94969d90d54acfa70ea972",
"cdd972fd28cb4371b4469f48",
"ce2dd02f4bb94471a2171328",
"ce3f5f44d7f3467280c7b291",
"cf42b53e45e7410caa42cb04",
"cfb2679790814f49ac223550",
"d22e4f4bd7f142fc92deb51f",
"d2f13718af774c79aa418f78",
"d6797554579c4b258f39d4b1",
"d7aad766197a4fcd8d5a2ee7",
"d7e6e39c33234452be14dc97",
"d8049df203e14c2d8ea7c17d",
"d90558f2898645ae9e32e549",
"d9147c0a3dae4faa806b2b30",
"d9a8ee499cbe40e59664e7f1",
"da96299fb5e24bcc9b3c3448",
"dcecd919841c46a6a0dc26e2",
"de13eb13e0ff43f39f3ed53f",
"de35935652864b5fb30e33b3",
"deb05518696748328f78c764",
"e0282e5b6e304073bbdd1428",
"e1ca601bb29c453cbd98da96",
"e29a4c16bdda47d6bc5800f1",
"e2d26a6821884514a5ca588f",
"e36218b1a8b74727badd89fe",
"e643e72e3981452f9805627e",
"e6933ca42ae3436e8f16c7fd",
"e7b7d46ac9334f358234e026",
"e7d14f0335734617913b622b",
"ee5b4c373ba343459e5dceb9",
"ef667cc9a6a64c71ab3fb38d",
"f099fadc772e49a395da5050",
"f2a72064f1f04a34882eae78",
"f37f654c60fa4a9e8d1e7141",
"f38bfa92a29e4a57beac189e",
"f4a6619bfde846de988ed34f",
"f4e3236f26c94622ad9c28ac",
"f6308316687d4d609fa93cc7",
"f6324135b85447579a15bfdb",
"f6713ca14c564d4c8e2285cd",
"f84f4754ba2743ed940a4e8e",
"f8c62a2018d744989ec2b585",
"f8f777525afd43879ef85ca2",
"f8f811eb1d104b8ebdcc7b7a",
"fabe82722d2a448c93603eed",
"fbc7229823164a0e9d24afc9",
"ffba77af4fba4b58afa3d365",
"ffc5cfb19645458796167f79"
],
"version" : {
"3" : [
"01fe3d03a55949aa99df29d7"
],
"2" : [
"9ed478dc3caf44afb5b04aad"
],
"4" : [
"a118fee880a048598ae091af"
],
"5" : [
"aaa38564f00f42199970318f"
],
"6" : [
"ba0ae2d7d65742f2ba06b51f"
],
"7" : [
"e7d14f0335734617913b622b"
],
"8" : [
"47629ac5956f4493a44e9129"
],
"9" : [
"35f24ce4f6074b91afcb94d0"
],
"10" : [
"15bf408cc66a4d068d0242db"
],
"11" : [
"c36303969fdf4566b8d87357"
],
"12" : [
"3248f8de7042453f8037625a"
],
"13" : [
"9ba2398dea2f47318f9a8fc5"
],
"14" : [
"8468e65d04184400b7d19ad4"
],
"15" : [
"206bf50dc558471a8191703c"
],
"16" : [
"20d3f77407024935bfa01e0a"
],
"17" : [
"0c4ec81649654c678fdc8922"
],
"18" : [
"25ce9202af89442b8e16da1b"
],
"19" : [
"6223308fb0544c8db70f98bb"
],
"20" : [
"5e4b90a076dc4d7d89559f7a"
],
"21" : [
"d6797554579c4b258f39d4b1"
],
"22" : [
"52f1f29f15f642dfa2f5503f"
],
"23" : [
"2cbb02e3592c4dbeaf609518"
],
"24" : [
"6b4a0fba8f6d404684bf3d1e"
],
"25" : [
"5fc1122cdfc54a0fba45db63"
],
"26" : [
"e29a4c16bdda47d6bc5800f1"
],
"27" : [
"767650c5f2cc45e2b32730d2"
],
"28" : [
"160341ea83c74b419e1f0ba8"
],
"29" : [
"da96299fb5e24bcc9b3c3448"
],
"30" : [
"86cae01127f848e4ac24aa17"
],
"31" : [
"4b32670390864c12b12c6e01"
],
"32" : [
"b100ca1d84b74a0592745432"
],
"33" : [
"7b2943ac6444498a9ebba47a"
],
"34" : [
"68e5ad6703ca4bee816e89b4"
],
"35" : [
"615ede6ed22c4e689ae69808"
],
"36" : [
"a9d2f7a86e4543378f168999"
],
"37" : [
"4de512619d13441ab479ec30"
],
"38" : [
"5aacc92510504542af847503"
],
"39" : [
"b3f4becb77bc41df899db968"
],
"40" : [
"959db3b4e532421f9e78aceb"
],
"41" : [
"e2d26a6821884514a5ca588f"
],
"42" : [
"579eb690889449bd9c613979"
],
"43" : [
"5078a6863b2e4379ace9601a"
],
"44" : [
"b4e9b45f65fb40bf99027f49"
],
"45" : [
"22607b02b59c438996c55244"
],
"46" : [
"18cac564a4434f0d83740d01"
],
"47" : [
"c870241a0c99460b9c6df339"
],
"48" : [
"1b2cb110f17b41f79d8d86b3"
],
"49" : [
"f38bfa92a29e4a57beac189e"
],
"50" : [
"a934823f86a8458ca9e0f365"
],
"51" : [
"591239a163ad4c3a9839b7d2"
],
"52" : [
"d9a8ee499cbe40e59664e7f1"
],
"53" : [
"3462a3514057417d8e56e7ff"
],
"54" : [
"1d28d1a7d43946be8b0aab4d"
],
"55" : [
"ca0b02f327df470d9e2d82a4"
],
"56" : [
"b27a9a1b852e4dfe90d59e9e"
],
"57" : [
"009bdfc985824bc39858adf3"
],
"58" : [
"a52a796f7be94176a389e22d"
],
"59" : [
"d7aad766197a4fcd8d5a2ee7"
],
"60" : [
"83affa8639874425a7f018f9"
],
"61" : [
"458f17f4824c4d91bbc0b05a"
],
"62" : [
"77940c0857e742da9e3e0493"
],
"63" : [
"e643e72e3981452f9805627e"
],
"64" : [
"11409e693c204fa9bbcac0cf"
],
"65" : [
"77214bcee8c842deb4b6b057"
],
"66" : [
"3e4d5a11d4b240e0b111c3ec"
],
"67" : [
"30d8d2b4bc3c4334a1d73496"
],
"68" : [
"f8f777525afd43879ef85ca2"
],
"69" : [
"9eeeebe5d36f4087b4593934"
],
"70" : [
"476b31dfb5064eba8d330dbb"
],
"71" : [
"ffc5cfb19645458796167f79"
],
"72" : [
"cb56291945774a639a24971a"
],
"73" : [
"ee5b4c373ba343459e5dceb9"
],
"74" : [
"70687e224292459ea5065c49"
],
"75" : [
"ffba77af4fba4b58afa3d365"
],
"76" : [
"d90558f2898645ae9e32e549"
],
"77" : [
"4d471fac34094f5d97889abe"
],
"78" : [
"541a94cc271d40b0b239dfcf"
],
"79" : [
"720edf0e1fd44ee49e429b82"
],
"80" : [
"f8f811eb1d104b8ebdcc7b7a"
],
"81" : [
"692464685f2f47f3948d6051"
],
"82" : [
"99c4ba81402247e2bf117ede"
],
"83" : [
"45669734b0c0416c9807e17f"
],
"84" : [
"1006e0267b4040d3b3ebac81"
],
"85" : [
"cb275db0162a4c92b49ee2c3"
],
"86" : [
"ade857c1c36f4a0c911aefe5"
],
"87" : [
"515e471fe3de41999f70fc27"
],
"88" : [
"d22e4f4bd7f142fc92deb51f"
],
"89" : [
"90724240527d4f3f90cafdba"
],
"90" : [
"de35935652864b5fb30e33b3"
],
"91" : [
"0b6ee9031ca04d6ebe7031ca"
],
"92" : [
"ce2dd02f4bb94471a2171328"
],
"93" : [
"1785a65068ed46488d69bf11"
],
"94" : [
"70ddef937e174ba0b3edeb2c"
],
"95" : [
"56b13a6d346b49e183f5fa79"
],
"96" : [
"d7e6e39c33234452be14dc97"
],
"97" : [
"1e5c926f85214f44b9233921"
],
"98" : [
"4951e0f2d3934a9aa8fa7084"
],
"99" : [
"9b189256af574ceb95a12d6b"
],
"100" : [
"dcecd919841c46a6a0dc26e2"
],
"101" : [
"deb05518696748328f78c764"
],
"102" : [
"97557bb2286a4d00beb1d41b"
],
"103" : [
"0ac63f99bc604a3980b45a71"
],
"104" : [
"e1ca601bb29c453cbd98da96"
],
"105" : [
"f6713ca14c564d4c8e2285cd"
],
"106" : [
"496d316b600648b8ae05ce97"
],
"107" : [
"ab4737fb472543638f2d8217"
],
"108" : [
"e36218b1a8b74727badd89fe"
],
"109" : [
"98d2ee63858240558556b392"
],
"110" : [
"0c32b664a39943489e019783"
],
"111" : [
"08b23432a08448738f6c35f2"
],
"112" : [
"2262404c61d7426b92382549"
],
"113" : [
"c7e918ae2fce4bf292aa0c47"
],
"114" : [
"9f37e195ed17405c98daa6fa"
],
"115" : [
"a120c6761071489d9d22852e"
],
"116" : [
"d2f13718af774c79aa418f78"
],
"117" : [
"82b1e196cda94f6a87b37e96"
],
"118" : [
"a182e4de72d7471cb5fee584"
],
"119" : [
"c64757ae55b4433f85fe039b"
],
"120" : [
"3097237070a44871846e365b"
],
"121" : [
"1ba03d1fc9ac476aaf53a8a5"
],
"122" : [
"94b66dcbd369452898eab9c5"
],
"123" : [
"fabe82722d2a448c93603eed"
],
"124" : [
"3ee068ff3d74459b93978c83"
],
"125" : [
"92217362539b4d038a5755e9"
],
"126" : [
"71f446e0f311452f9708e85c"
],
"127" : [
"8ec8952a7ad944449bf05d0c"
],
"128" : [
"f4e3236f26c94622ad9c28ac"
],
"129" : [
"e6933ca42ae3436e8f16c7fd"
],
"130" : [
"3b73d1cfe95f4f2e8cf8ec59"
],
"131" : [
"64c04fba753442d1a74e910d"
],
"132" : [
"d8049df203e14c2d8ea7c17d"
],
"133" : [
"f84f4754ba2743ed940a4e8e"
],
"134" : [
"993c8ee0f0f845399530bf06"
],
"135" : [
"e0282e5b6e304073bbdd1428"
],
"136" : [
"8cb9af33a69442e9b3d1bd33"
],
"137" : [
"35ff9a1dc2d5423281f90763"
],
"138" : [
"96e34075302941d1b8d7ceca"
],
"139" : [
"c09d74025cd541f888c3cbf4"
],
"140" : [
"26141fb7a9eb4e019ddfefbb"
],
"141" : [
"f6324135b85447579a15bfdb"
],
"142" : [
"5d85692de9fd4568b4f5deeb"
],
"143" : [
"5c52aa5b623b465fbb2f1a49"
],
"144" : [
"f6308316687d4d609fa93cc7"
],
"145" : [
"92ba987fbd5c42d9a91f906e"
],
"146" : [
"d9147c0a3dae4faa806b2b30"
],
"147" : [
"ab297fad2d7843c6ad48dbff"
],
"148" : [
"6645f1b772504064b50640a9"
],
"149" : [
"b23f3c20a477442f8f7b17d9"
],
"150" : [
"202f10c7145a47cabea2554f"
],
"151" : [
"9f479f86a5ef45d7a2bbd552"
],
"152" : [
"cf42b53e45e7410caa42cb04"
],
"153" : [
"2a9d68ebfabf4490913772de"
],
"154" : [
"3f91f561add549de9d006e89"
],
"155" : [
"0fb5c9d525d34309a2a56c71"
],
"156" : [
"14cfccbd4ca34220a6839dc2"
],
"157" : [
"09e59f795039425b92aa5b9f"
],
"158" : [
"a71278fe9bd34046a304bf83"
],
"159" : [
"b5c4f881cfdb45d3a5851400"
],
"160" : [
"f4a6619bfde846de988ed34f"
],
"161" : [
"a3a3161b5d0e452ca15d93dc"
],
"162" : [
"5a0110490395448788e995a0"
],
"163" : [
"75c91e320520472bb97d05f5"
],
"164" : [
"2aeec34853da410b87afb3aa"
],
"165" : [
"e7b7d46ac9334f358234e026"
],
"166" : [
"99fc0b668c094fb4a9c17f2d"
],
"167" : [
"3e82110a8ed9440a8753e66f"
],
"168" : [
"67b22befdf334c37bccb3843"
],
"169" : [
"b7afa3f233ef472cb82e6d92"
],
"170" : [
"f099fadc772e49a395da5050"
],
"171" : [
"82ff0a450f6c47d7bb20ab2b"
],
"172" : [
"020087282def42bca89b58a9"
],
"173" : [
"442f3265926b42c4a3ee0517"
],
"174" : [
"8aa792ae59bb4dbd8293107e"
],
"175" : [
"f8c62a2018d744989ec2b585"
],
"176" : [
"42baad001ea946a2a16c26a5"
],
"177" : [
"7140404b99d842cbb1d79aa0"
],
"178" : [
"8e1bcb41771e462d9662de6b"
],
"179" : [
"3483ff9a90dd42459d4891bf"
],
"180" : [
"a1141bdf7a5a4374932ec3ad"
],
"181" : [
"70a6f1eeb2ec4342a91d1b4d"
],
"182" : [
"653f73798ac5411a927c63c5"
],
"183" : [
"de13eb13e0ff43f39f3ed53f"
],
"184" : [
"56fae0ebe7574e5389af9582"
],
"185" : [
"3f983ca9418e4506b74e8c87"
],
"186" : [
"be99663eab8c42c08e18c78b"
],
"187" : [
"16d7926f083745328baa983e"
],
"188" : [
"9f6626df98bc4c33b7c0be0d"
],
"189" : [
"535a29981af642f79c8ba1e3"
],
"190" : [
"6f09738b61684155845f2eab"
],
"191" : [
"0ba4aa3d89bf4f93a8444d30"
],
"192" : [
"cdd972fd28cb4371b4469f48"
],
"193" : [
"743015082578437bbe7e8785"
],
"194" : [
"5bffb9ccab574fd3b3b1e8dd"
],
"195" : [
"2389609bc76e45aa8c4e814d"
],
"196" : [
"0d8f28feb5804b7a94343235"
],
"197" : [
"c1a4b362289a4ffaa363f0c0"
],
"198" : [
"b36f6ef4f96c4d829119ec4a"
],
"199" : [
"b89b29b270704890b3648bf1"
],
"200" : [
"cb94969d90d54acfa70ea972"
],
"201" : [
"311be7b9ff194cf48588f20b"
],
"202" : [
"6633ed1b1ff843f88a55bab1"
],
"203" : [
"798e1de451ab46788ad519b3"
],
"204" : [
"f2a72064f1f04a34882eae78"
],
"205" : [
"6be0fc92c72a4482a3ef6f8c"
],
"206" : [
"191737f717bd429181754846"
],
"207" : [
"427348b8a80143e7ab2628df"
],
"208" : [
"49e9d27e1c51425e966a0bb1"
],
"209" : [
"8f7d8609220f4b57946fdc0e"
],
"210" : [
"4f49b9f481d546c885463610"
],
"211" : [
"9f2bc23542de45ec839d5f17"
],
"212" : [
"6b99d2a6028d4058be3f23c2"
],
"213" : [
"4107749ac4194968be429f5e"
],
"214" : [
"7e87eaa91c4a407791c8b9ad"
],
"215" : [
"1323dc6f54a94216b7e5b93b"
],
"216" : [
"fbc7229823164a0e9d24afc9"
],
"217" : [
"74bbea7ac65e43768dedf6ee"
],
"218" : [
"cfb2679790814f49ac223550"
],
"219" : [
"ce3f5f44d7f3467280c7b291"
],
"220" : [
"c252a8855777475893880a32"
],
"221" : [
"0f7c3462954545859a4cf218"
],
"222" : [
"9c65a3afb1f545d588883ee5"
],
"223" : [
"c5e0bf8b24444b87a4a1b5c2"
],
"224" : [
"ab56b6486d784978b2259cfd"
],
"225" : [
"70328aeb934c48c288932247"
],
"226" : [
"36777f122d9541f8a55a7ee6"
],
"227" : [
"6457a989eb9e4d26a70e640b"
],
"228" : [
"527badb0f85e45818813f29d"
],
"229" : [
"afaeda1994194922a1a91d3b"
],
"230" : [
"3faca6550551487a816118c8"
],
"231" : [
"a8f4181e9a6149c59d6162f4"
],
"232" : [
"2a884ce3da7945ad933a82c2"
],
"233" : [
"0420d2d50aaf4f11addf3f9b"
],
"234" : [
"49513bcbf77940989ee8e65a"
],
"235" : [
"ef667cc9a6a64c71ab3fb38d"
],
"236" : [
"26b109eabfc246c49b85edef"
],
"237" : [
"13fe467004fe421582e074aa"
],
"238" : [
"20b5b625efcd400288063611"
],
"239" : [
"f37f654c60fa4a9e8d1e7141"
],
"240" : [
"186bae4bebee48e8bd5657aa"
],
"241" : [
"117086c6d134434dae97b9e3"
],
"242" : [
"3d06e83a0f954b4bab86232b"
]
},
"configurations.name" : {
"notprovided" : [
"009bdfc985824bc39858adf3",
"01fe3d03a55949aa99df29d7",
"020087282def42bca89b58a9",
"0420d2d50aaf4f11addf3f9b",
"08b23432a08448738f6c35f2",
"09e59f795039425b92aa5b9f",
"0ac63f99bc604a3980b45a71",
"0b6ee9031ca04d6ebe7031ca",
"0ba4aa3d89bf4f93a8444d30",
"0c32b664a39943489e019783",
"0c4ec81649654c678fdc8922",
"0d8f28feb5804b7a94343235",
"0f7c3462954545859a4cf218",
"0fb5c9d525d34309a2a56c71",
"1006e0267b4040d3b3ebac81",
"11409e693c204fa9bbcac0cf",
"117086c6d134434dae97b9e3",
"1323dc6f54a94216b7e5b93b",
"13fe467004fe421582e074aa",
"14cfccbd4ca34220a6839dc2",
"15bf408cc66a4d068d0242db",
"160341ea83c74b419e1f0ba8",
"16d7926f083745328baa983e",
"1785a65068ed46488d69bf11",
"186bae4bebee48e8bd5657aa",
"18cac564a4434f0d83740d01",
"191737f717bd429181754846",
"1b2cb110f17b41f79d8d86b3",
"1ba03d1fc9ac476aaf53a8a5",
"1d28d1a7d43946be8b0aab4d",
"1e5c926f85214f44b9233921",
"202f10c7145a47cabea2554f",
"206bf50dc558471a8191703c",
"20b5b625efcd400288063611",
"20d3f77407024935bfa01e0a",
"22607b02b59c438996c55244",
"2262404c61d7426b92382549",
"2389609bc76e45aa8c4e814d",
"25ce9202af89442b8e16da1b",
"26141fb7a9eb4e019ddfefbb",
"26b109eabfc246c49b85edef",
"2a884ce3da7945ad933a82c2",
"2a9d68ebfabf4490913772de",
"2aeec34853da410b87afb3aa",
"2cbb02e3592c4dbeaf609518",
"3097237070a44871846e365b",
"30d8d2b4bc3c4334a1d73496",
"311be7b9ff194cf48588f20b",
"3248f8de7042453f8037625a",
"3462a3514057417d8e56e7ff",
"3483ff9a90dd42459d4891bf",
"35f24ce4f6074b91afcb94d0",
"35ff9a1dc2d5423281f90763",
"36777f122d9541f8a55a7ee6",
"3b73d1cfe95f4f2e8cf8ec59",
"3d06e83a0f954b4bab86232b",
"3e4d5a11d4b240e0b111c3ec",
"3e82110a8ed9440a8753e66f",
"3ee068ff3d74459b93978c83",
"3f91f561add549de9d006e89",
"3f983ca9418e4506b74e8c87",
"3faca6550551487a816118c8",
"4107749ac4194968be429f5e",
"427348b8a80143e7ab2628df",
"42baad001ea946a2a16c26a5",
"442f3265926b42c4a3ee0517",
"45669734b0c0416c9807e17f",
"458f17f4824c4d91bbc0b05a",
"47629ac5956f4493a44e9129",
"476b31dfb5064eba8d330dbb",
"49513bcbf77940989ee8e65a",
"4951e0f2d3934a9aa8fa7084",
"496d316b600648b8ae05ce97",
"49e9d27e1c51425e966a0bb1",
"4b32670390864c12b12c6e01",
"4d471fac34094f5d97889abe",
"4de512619d13441ab479ec30",
"4f49b9f481d546c885463610",
"5078a6863b2e4379ace9601a",
"515e471fe3de41999f70fc27",
"527badb0f85e45818813f29d",
"52f1f29f15f642dfa2f5503f",
"535a29981af642f79c8ba1e3",
"541a94cc271d40b0b239dfcf",
"56b13a6d346b49e183f5fa79",
"56fae0ebe7574e5389af9582",
"579eb690889449bd9c613979",
"591239a163ad4c3a9839b7d2",
"5a0110490395448788e995a0",
"5aacc92510504542af847503",
"5bffb9ccab574fd3b3b1e8dd",
"5c52aa5b623b465fbb2f1a49",
"5d85692de9fd4568b4f5deeb",
"5e4b90a076dc4d7d89559f7a",
"5fc1122cdfc54a0fba45db63",
"615ede6ed22c4e689ae69808",
"6223308fb0544c8db70f98bb",
"6457a989eb9e4d26a70e640b",
"64c04fba753442d1a74e910d",
"653f73798ac5411a927c63c5",
"6633ed1b1ff843f88a55bab1",
"6645f1b772504064b50640a9",
"67b22befdf334c37bccb3843",
"68e5ad6703ca4bee816e89b4",
"692464685f2f47f3948d6051",
"6b4a0fba8f6d404684bf3d1e",
"6b99d2a6028d4058be3f23c2",
"6be0fc92c72a4482a3ef6f8c",
"6f09738b61684155845f2eab",
"70328aeb934c48c288932247",
"70687e224292459ea5065c49",
"70a6f1eeb2ec4342a91d1b4d",
"70ddef937e174ba0b3edeb2c",
"7140404b99d842cbb1d79aa0",
"71f446e0f311452f9708e85c",
"720edf0e1fd44ee49e429b82",
"743015082578437bbe7e8785",
"74bbea7ac65e43768dedf6ee",
"75c91e320520472bb97d05f5",
"767650c5f2cc45e2b32730d2",
"77214bcee8c842deb4b6b057",
"77940c0857e742da9e3e0493",
"798e1de451ab46788ad519b3",
"7b2943ac6444498a9ebba47a",
"7e87eaa91c4a407791c8b9ad",
"82b1e196cda94f6a87b37e96",
"82ff0a450f6c47d7bb20ab2b",
"83affa8639874425a7f018f9",
"8468e65d04184400b7d19ad4",
"86cae01127f848e4ac24aa17",
"8aa792ae59bb4dbd8293107e",
"8cb9af33a69442e9b3d1bd33",
"8e1bcb41771e462d9662de6b",
"8ec8952a7ad944449bf05d0c",
"8f7d8609220f4b57946fdc0e",
"90724240527d4f3f90cafdba",
"92217362539b4d038a5755e9",
"92ba987fbd5c42d9a91f906e",
"94b66dcbd369452898eab9c5",
"959db3b4e532421f9e78aceb",
"96e34075302941d1b8d7ceca",
"97557bb2286a4d00beb1d41b",
"98d2ee63858240558556b392",
"993c8ee0f0f845399530bf06",
"99c4ba81402247e2bf117ede",
"99fc0b668c094fb4a9c17f2d",
"9b189256af574ceb95a12d6b",
"9ba2398dea2f47318f9a8fc5",
"9c65a3afb1f545d588883ee5",
"9ed478dc3caf44afb5b04aad",
"9eeeebe5d36f4087b4593934",
"9f2bc23542de45ec839d5f17",
"9f37e195ed17405c98daa6fa",
"9f479f86a5ef45d7a2bbd552",
"9f6626df98bc4c33b7c0be0d",
"a1141bdf7a5a4374932ec3ad",
"a118fee880a048598ae091af",
"a120c6761071489d9d22852e",
"a182e4de72d7471cb5fee584",
"a3a3161b5d0e452ca15d93dc",
"a52a796f7be94176a389e22d",
"a71278fe9bd34046a304bf83",
"a8f4181e9a6149c59d6162f4",
"a934823f86a8458ca9e0f365",
"a9d2f7a86e4543378f168999",
"aaa38564f00f42199970318f",
"ab297fad2d7843c6ad48dbff",
"ab4737fb472543638f2d8217",
"ab56b6486d784978b2259cfd",
"ade857c1c36f4a0c911aefe5",
"afaeda1994194922a1a91d3b",
"b100ca1d84b74a0592745432",
"b23f3c20a477442f8f7b17d9",
"b27a9a1b852e4dfe90d59e9e",
"b36f6ef4f96c4d829119ec4a",
"b3f4becb77bc41df899db968",
"b4e9b45f65fb40bf99027f49",
"b5c4f881cfdb45d3a5851400",
"b7afa3f233ef472cb82e6d92",
"b89b29b270704890b3648bf1",
"ba0ae2d7d65742f2ba06b51f",
"be99663eab8c42c08e18c78b",
"c09d74025cd541f888c3cbf4",
"c1a4b362289a4ffaa363f0c0",
"c252a8855777475893880a32",
"c36303969fdf4566b8d87357",
"c5e0bf8b24444b87a4a1b5c2",
"c64757ae55b4433f85fe039b",
"c7e918ae2fce4bf292aa0c47",
"c870241a0c99460b9c6df339",
"ca0b02f327df470d9e2d82a4",
"cb275db0162a4c92b49ee2c3",
"cb56291945774a639a24971a",
"cb94969d90d54acfa70ea972",
"cdd972fd28cb4371b4469f48",
"ce2dd02f4bb94471a2171328",
"ce3f5f44d7f3467280c7b291",
"cf42b53e45e7410caa42cb04",
"cfb2679790814f49ac223550",
"d22e4f4bd7f142fc92deb51f",
"d2f13718af774c79aa418f78",
"d6797554579c4b258f39d4b1",
"d7aad766197a4fcd8d5a2ee7",
"d7e6e39c33234452be14dc97",
"d8049df203e14c2d8ea7c17d",
"d90558f2898645ae9e32e549",
"d9147c0a3dae4faa806b2b30",
"d9a8ee499cbe40e59664e7f1",
"da96299fb5e24bcc9b3c3448",
"dcecd919841c46a6a0dc26e2",
"de13eb13e0ff43f39f3ed53f",
"de35935652864b5fb30e33b3",
"deb05518696748328f78c764",
"e0282e5b6e304073bbdd1428",
"e1ca601bb29c453cbd98da96",
"e29a4c16bdda47d6bc5800f1",
"e2d26a6821884514a5ca588f",
"e36218b1a8b74727badd89fe",
"e643e72e3981452f9805627e",
"e6933ca42ae3436e8f16c7fd",
"e7b7d46ac9334f358234e026",
"e7d14f0335734617913b622b",
"ee5b4c373ba343459e5dceb9",
"ef667cc9a6a64c71ab3fb38d",
"f099fadc772e49a395da5050",
"f2a72064f1f04a34882eae78",
"f37f654c60fa4a9e8d1e7141",
"f38bfa92a29e4a57beac189e",
"f4a6619bfde846de988ed34f",
"f4e3236f26c94622ad9c28ac",
"f6308316687d4d609fa93cc7",
"f6324135b85447579a15bfdb",
"f6713ca14c564d4c8e2285cd",
"f84f4754ba2743ed940a4e8e",
"f8c62a2018d744989ec2b585",
"f8f777525afd43879ef85ca2",
"f8f811eb1d104b8ebdcc7b7a",
"fabe82722d2a448c93603eed",
"fbc7229823164a0e9d24afc9",
"ffba77af4fba4b58afa3d365",
"ffc5cfb19645458796167f79"
],
"TableEditWizBackbone_v3" : [
"01fe3d03a55949aa99df29d7"
],
"TableEditWizBackbone_v2" : [
"9ed478dc3caf44afb5b04aad"
],
"TableEditWizBackbone_v4" : [
"a118fee880a048598ae091af"
],
"TableEditWizBackbone_v5" : [
"aaa38564f00f42199970318f"
],
"TableEditWizBackbone_v6" : [
"ba0ae2d7d65742f2ba06b51f"
],
"TableEditWizBackbone_v7" : [
"e7d14f0335734617913b622b"
],
"TableEditWizBackbone_v8" : [
"47629ac5956f4493a44e9129"
],
"TableEditWizBackbone_v9" : [
"35f24ce4f6074b91afcb94d0"
],
"GroupAliasTreeEditWizBackbone_v0" : [
"15bf408cc66a4d068d0242db"
],
"GroupAliasTreeEditWizBackbone_v1" : [
"c36303969fdf4566b8d87357"
],
"TableEditWizBackbone_v10" : [
"15bf408cc66a4d068d0242db"
],
"TableEditWizBackbone_v11" : [
"c36303969fdf4566b8d87357"
],
"TableEditWizBackbone_v12" : [
"3248f8de7042453f8037625a"
],
"TableEditWizBackbone_v13" : [
"9ba2398dea2f47318f9a8fc5"
],
"TableEditWizBackbone_v14" : [
"8468e65d04184400b7d19ad4"
],
"TableEditWizBackbone_v15" : [
"206bf50dc558471a8191703c"
],
"TableEditWizBackbone_v16" : [
"20d3f77407024935bfa01e0a"
],
"TableEditWizBackbone_v17" : [
"0c4ec81649654c678fdc8922"
],
"TableEditWizBackbone_v18" : [
"25ce9202af89442b8e16da1b"
],
"TableEditWizBackbone_v19" : [
"6223308fb0544c8db70f98bb"
],
"TableEditWizBackbone_v20" : [
"5e4b90a076dc4d7d89559f7a"
],
"TableEditWizBackbone_v21" : [
"d6797554579c4b258f39d4b1"
],
"TableEditWizBackbone_v22" : [
"52f1f29f15f642dfa2f5503f"
],
"TableEditWizBackbone_v23" : [
"2cbb02e3592c4dbeaf609518"
],
"TableEditWizBackbone_v24" : [
"6b4a0fba8f6d404684bf3d1e"
],
"TableEditWizBackbone_v25" : [
"5fc1122cdfc54a0fba45db63"
],
"GroupAliasTreeEditWizBackbone_v2" : [
"e29a4c16bdda47d6bc5800f1"
],
"GroupAliasTreeEditWizBackbone_v3" : [
"767650c5f2cc45e2b32730d2"
],
"GroupAliasTreeEditWizBackbone_v4" : [
"160341ea83c74b419e1f0ba8"
],
"GroupAliasTreeEditWizBackbone_v5" : [
"da96299fb5e24bcc9b3c3448"
],
"TableEditWizBackbone_v26" : [
"86cae01127f848e4ac24aa17"
],
"GroupAliasTreeEditWizBackbone_v6" : [
"4b32670390864c12b12c6e01"
],
"TableEditWizBackbone_v27" : [
"b100ca1d84b74a0592745432"
],
"TableEditWizBackbone_v28" : [
"7b2943ac6444498a9ebba47a"
],
"GroupAliasTreeEditWizBackbone_v7" : [
"68e5ad6703ca4bee816e89b4"
],
"GroupAliasTreeEditWizBackbone_v8" : [
"615ede6ed22c4e689ae69808"
],
"TableEditWizBackbone_v29" : [
"a9d2f7a86e4543378f168999"
],
"TableEditWizBackbone_v30" : [
"4de512619d13441ab479ec30"
],
"GroupAliasTreeEditWizBackbone_v9" : [
"5aacc92510504542af847503"
],
"TableEditWizBackbone_v31" : [
"b3f4becb77bc41df899db968"
],
"GroupAliasTreeEditWizBackbone_v10" : [
"959db3b4e532421f9e78aceb"
],
"GroupAliasTreeEditWizBackbone_v11" : [
"e2d26a6821884514a5ca588f"
],
"TableEditWizBackbone_v32" : [
"579eb690889449bd9c613979"
],
"TableEditWizBackbone_v33" : [
"5078a6863b2e4379ace9601a"
],
"TableEditWizBackbone_v34" : [
"b4e9b45f65fb40bf99027f49"
],
"TableEditWizBackbone_v35" : [
"22607b02b59c438996c55244"
],
"GroupAliasTreeEditWizBackbone_v12" : [
"18cac564a4434f0d83740d01"
],
"GroupAliasTreeEditWizBackbone_v13" : [
"c870241a0c99460b9c6df339"
],
"TableEditWizBackbone_v36" : [
"1b2cb110f17b41f79d8d86b3"
],
"TableEditWizBackbone_v37" : [
"f38bfa92a29e4a57beac189e"
],
"TableEditWizBackbone_v38" : [
"a934823f86a8458ca9e0f365"
],
"GroupAliasTreeEditWizBackbone_v14" : [
"591239a163ad4c3a9839b7d2"
],
"GroupAliasTreeEditWizBackbone_v15" : [
"d9a8ee499cbe40e59664e7f1"
],
"GroupAliasTreeEditWizBackbone_v16" : [
"3462a3514057417d8e56e7ff"
],
"GroupAliasTreeEditWizBackbone_v17" : [
"1d28d1a7d43946be8b0aab4d"
],
"GroupAliasTreeEditWizBackbone_v18" : [
"ca0b02f327df470d9e2d82a4"
],
"GroupAliasTreeEditWizBackbone_v19" : [
"b27a9a1b852e4dfe90d59e9e"
],
"TableEditWizBackbone_v39" : [
"009bdfc985824bc39858adf3"
],
"TableEditWizBackbone_v40" : [
"a52a796f7be94176a389e22d"
],
"TableEditWizBackbone_v41" : [
"d7aad766197a4fcd8d5a2ee7"
],
"TableEditWizBackbone_v42" : [
"83affa8639874425a7f018f9"
],
"TableEditWizBackbone_v43" : [
"458f17f4824c4d91bbc0b05a"
],
"GroupAliasTreeEditWizBackbone_v20" : [
"77940c0857e742da9e3e0493"
],
"TableEditWizBackbone_v44" : [
"e643e72e3981452f9805627e"
],
"TableEditWizBackbone_v45" : [
"11409e693c204fa9bbcac0cf"
],
"TableEditWizBackbone_v46" : [
"77214bcee8c842deb4b6b057"
],
"TableEditWizBackbone_v47" : [
"3e4d5a11d4b240e0b111c3ec"
],
"TableEditWizBackbone_v48" : [
"30d8d2b4bc3c4334a1d73496"
],
"TableEditWizBackbone_v49" : [
"f8f777525afd43879ef85ca2"
],
"TableEditWizBackbone_v50" : [
"9eeeebe5d36f4087b4593934"
],
"TableEditWizBackbone_v51" : [
"476b31dfb5064eba8d330dbb"
],
"TableEditWizBackbone_v52" : [
"ffc5cfb19645458796167f79"
],
"TableEditWizBackbone_v53" : [
"cb56291945774a639a24971a"
],
"GroupAliasTreeEditWizBackbone_v21" : [
"ee5b4c373ba343459e5dceb9"
],
"TableEditWizBackbone_v54" : [
"70687e224292459ea5065c49"
],
"TableEditWizBackbone_v55" : [
"ffba77af4fba4b58afa3d365"
],
"TableEditWizBackbone_v56" : [
"d90558f2898645ae9e32e549"
],
"GroupAliasTreeEditWizBackbone_v22" : [
"4d471fac34094f5d97889abe"
],
"GroupAliasTreeEditWizBackbone_v23" : [
"541a94cc271d40b0b239dfcf"
],
"GroupAliasTreeEditWizBackbone_v24" : [
"720edf0e1fd44ee49e429b82"
],
"TableEditWizBackbone_v57" : [
"f8f811eb1d104b8ebdcc7b7a"
],
"GroupAliasTreeEditWizBackbone_v25" : [
"692464685f2f47f3948d6051"
],
"GroupAliasTreeEditWizBackbone_v26" : [
"99c4ba81402247e2bf117ede"
],
"GroupAliasTreeEditWizBackbone_v27" : [
"45669734b0c0416c9807e17f"
],
"TableEditWizBackbone_v58" : [
"1006e0267b4040d3b3ebac81"
],
"GroupAliasTreeEditWizBackbone_v28" : [
"cb275db0162a4c92b49ee2c3"
],
"TableEditWizBackbone_v59" : [
"ade857c1c36f4a0c911aefe5"
],
"GroupAliasTreeEditWizBackbone_v29" : [
"515e471fe3de41999f70fc27"
],
"GroupAliasTreeEditWizBackbone_v30" : [
"d22e4f4bd7f142fc92deb51f"
],
"TableEditWizBackbone_v60" : [
"90724240527d4f3f90cafdba"
],
"TableEditWizBackbone_v61" : [
"de35935652864b5fb30e33b3"
],
"TableEditWizBackbone_v62" : [
"0b6ee9031ca04d6ebe7031ca"
],
"TableEditWizBackbone_v63" : [
"ce2dd02f4bb94471a2171328"
],
"TableEditWizBackbone_v64" : [
"1785a65068ed46488d69bf11"
],
"GroupAliasTreeEditWizBackbone_v31" : [
"70ddef937e174ba0b3edeb2c"
],
"TableEditWizBackbone_v65" : [
"56b13a6d346b49e183f5fa79"
],
"GroupAliasTreeEditWizBackbone_v32" : [
"d7e6e39c33234452be14dc97"
],
"GroupAliasTreeEditWizBackbone_v33" : [
"1e5c926f85214f44b9233921"
],
"TableEditWizBackbone_v66" : [
"4951e0f2d3934a9aa8fa7084"
],
"GroupAliasTreeEditWizBackbone_v34" : [
"9b189256af574ceb95a12d6b"
],
"GroupAliasTreeEditWizBackbone_v35" : [
"dcecd919841c46a6a0dc26e2"
],
"GroupAliasTreeEditWizBackbone_v36" : [
"deb05518696748328f78c764"
],
"TableEditWizBackbone_v67" : [
"97557bb2286a4d00beb1d41b"
],
"GroupAliasTreeEditWizBackbone_v37" : [
"0ac63f99bc604a3980b45a71"
],
"GroupAliasTreeEditWizBackbone_v38" : [
"e1ca601bb29c453cbd98da96"
],
"GroupAliasTreeEditWizBackbone_v39" : [
"f6713ca14c564d4c8e2285cd"
],
"TableEditWizBackbone_v68" : [
"496d316b600648b8ae05ce97"
],
"TableEditWizBackbone_v69" : [
"ab4737fb472543638f2d8217"
],
"TableEditWizBackbone_v70" : [
"e36218b1a8b74727badd89fe"
],
"TableEditWizBackbone_v71" : [
"98d2ee63858240558556b392"
],
"TableEditWizBackbone_v72" : [
"0c32b664a39943489e019783"
],
"GroupAliasTreeEditWizBackbone_v40" : [
"08b23432a08448738f6c35f2"
],
"GroupAliasTreeEditWizBackbone_v41" : [
"2262404c61d7426b92382549"
],
"TableEditWizBackbone_v73" : [
"c7e918ae2fce4bf292aa0c47"
],
"TableEditWizBackbone_v74" : [
"9f37e195ed17405c98daa6fa"
],
"TableEditWizBackbone_v75" : [
"a120c6761071489d9d22852e"
],
"TableEditWizBackbone_v76" : [
"d2f13718af774c79aa418f78"
],
"TableEditWizBackbone_v77" : [
"82b1e196cda94f6a87b37e96"
],
"GroupAliasTreeEditWizBackbone_v42" : [
"a182e4de72d7471cb5fee584"
],
"GroupAliasTreeEditWizBackbone_v43" : [
"c64757ae55b4433f85fe039b"
],
"GroupAliasTreeEditWizBackbone_v44" : [
"3097237070a44871846e365b"
],
"GroupAliasTreeEditWizBackbone_v45" : [
"1ba03d1fc9ac476aaf53a8a5"
],
"GroupAliasTreeEditWizBackbone_v46" : [
"94b66dcbd369452898eab9c5"
],
"GroupAliasTreeEditWizBackbone_v47" : [
"fabe82722d2a448c93603eed"
],
"GroupAliasTreeEditWizBackbone_v48" : [
"3ee068ff3d74459b93978c83"
],
"GroupAliasTreeEditWizBackbone_v49" : [
"92217362539b4d038a5755e9"
],
"GroupAliasTreeEditWizBackbone_v50" : [
"71f446e0f311452f9708e85c"
],
"GroupAliasTreeEditWizBackbone_v51" : [
"8ec8952a7ad944449bf05d0c"
],
"TableEditWizBackbone_v78" : [
"f4e3236f26c94622ad9c28ac"
],
"GroupAliasTreeEditWizBackbone_v52" : [
"e6933ca42ae3436e8f16c7fd"
],
"TableEditWizBackbone_v79" : [
"3b73d1cfe95f4f2e8cf8ec59"
],
"TableEditWizBackbone_v80" : [
"64c04fba753442d1a74e910d"
],
"TableEditWizBackbone_v81" : [
"d8049df203e14c2d8ea7c17d"
],
"GroupAliasTreeEditWizBackbone_v53" : [
"f84f4754ba2743ed940a4e8e"
],
"GroupAliasTreeEditWizBackbone_v54" : [
"993c8ee0f0f845399530bf06"
],
"GroupAliasTreeEditWizBackbone_v55" : [
"e0282e5b6e304073bbdd1428"
],
"GroupAliasTreeEditWizBackbone_v56" : [
"8cb9af33a69442e9b3d1bd33"
],
"GroupAliasTreeEditWizBackbone_v57" : [
"35ff9a1dc2d5423281f90763"
],
"GroupAliasTreeEditWizBackbone_v58" : [
"96e34075302941d1b8d7ceca"
],
"GroupAliasTreeEditWizBackbone_v59" : [
"c09d74025cd541f888c3cbf4"
],
"GroupAliasTreeEditWizBackbone_v60" : [
"64c04fba753442d1a74e910d"
],
"GroupAliasTreeEditWizBackbone_v61" : [
"26141fb7a9eb4e019ddfefbb"
],
"GroupAliasTreeEditWizBackbone_v62" : [
"f6324135b85447579a15bfdb"
],
"GroupAliasTreeEditWizBackbone_v63" : [
"5d85692de9fd4568b4f5deeb"
],
"GroupAliasTreeEditWizBackbone_v64" : [
"5c52aa5b623b465fbb2f1a49"
],
"GroupAliasTreeEditWizBackbone_v65" : [
"f6308316687d4d609fa93cc7"
],
"TableEditWizBackbone_v82" : [
"92ba987fbd5c42d9a91f906e"
],
"TableEditWizBackbone_v83" : [
"d9147c0a3dae4faa806b2b30"
],
"TableEditWizBackbone_v84" : [
"ab297fad2d7843c6ad48dbff"
],
"GroupAliasTreeEditWizBackbone_v66" : [
"6645f1b772504064b50640a9"
],
"GroupAliasTreeEditWizBackbone_v67" : [
"b23f3c20a477442f8f7b17d9"
],
"TableEditWizBackbone_v85" : [
"202f10c7145a47cabea2554f"
],
"GroupAliasTreeEditWizBackbone_v68" : [
"9f479f86a5ef45d7a2bbd552"
],
"TableEditWizBackbone_v86" : [
"cf42b53e45e7410caa42cb04"
],
"GroupAliasTreeEditWizBackbone_v69" : [
"2a9d68ebfabf4490913772de"
],
"TableEditWizBackbone_v87" : [
"3f91f561add549de9d006e89"
],
"GroupAliasTreeEditWizBackbone_v70" : [
"0fb5c9d525d34309a2a56c71"
],
"TableEditWizBackbone_v88" : [
"14cfccbd4ca34220a6839dc2"
],
"TableEditWizBackbone_v89" : [
"09e59f795039425b92aa5b9f"
],
"GroupAliasTreeEditWizBackbone_v71" : [
"a71278fe9bd34046a304bf83"
],
"GroupAliasTreeEditWizBackbone_v72" : [
"b5c4f881cfdb45d3a5851400"
],
"TableEditWizBackbone_v90" : [
"f4a6619bfde846de988ed34f"
],
"TableEditWizBackbone_v91" : [
"a3a3161b5d0e452ca15d93dc"
],
"GroupAliasTreeEditWizBackbone_v73" : [
"5a0110490395448788e995a0"
],
"TableEditWizBackbone_v92" : [
"75c91e320520472bb97d05f5"
],
"TableEditWizBackbone_v93" : [
"2aeec34853da410b87afb3aa"
],
"TableEditWizBackbone_v94" : [
"e7b7d46ac9334f358234e026"
],
"TableEditWizBackbone_v95" : [
"99fc0b668c094fb4a9c17f2d"
],
"TableEditWizBackbone_v96" : [
"3e82110a8ed9440a8753e66f"
],
"TableEditWizBackbone_v97" : [
"67b22befdf334c37bccb3843"
],
"TableEditWizBackbone_v98" : [
"b7afa3f233ef472cb82e6d92"
],
"GroupAliasTreeEditWizBackbone_v74" : [
"f099fadc772e49a395da5050"
],
"GroupAliasTreeEditWizBackbone_v75" : [
"82ff0a450f6c47d7bb20ab2b"
],
"TableEditWizBackbone_v99" : [
"020087282def42bca89b58a9"
],
"TableEditWizBackbone_v100" : [
"442f3265926b42c4a3ee0517"
],
"GroupAliasTreeEditWizBackbone_v76" : [
"8aa792ae59bb4dbd8293107e"
],
"GroupAliasTreeEditWizBackbone_v77" : [
"f8c62a2018d744989ec2b585"
],
"GroupAliasTreeEditWizBackbone_v78" : [
"42baad001ea946a2a16c26a5"
],
"TableEditWizBackbone_v101" : [
"7140404b99d842cbb1d79aa0"
],
"TableEditWizBackbone_v102" : [
"8e1bcb41771e462d9662de6b"
],
"GroupAliasTreeEditWizBackbone_v79" : [
"3483ff9a90dd42459d4891bf"
],
"GroupAliasTreeEditWizBackbone_v80" : [
"a1141bdf7a5a4374932ec3ad"
],
"TableEditWizBackbone_v103" : [
"70a6f1eeb2ec4342a91d1b4d"
],
"TableEditWizBackbone_v104" : [
"653f73798ac5411a927c63c5"
],
"GroupAliasTreeEditWizBackbone_v81" : [
"de13eb13e0ff43f39f3ed53f"
],
"TableEditWizBackbone_v105" : [
"56fae0ebe7574e5389af9582"
],
"TableEditWizBackbone_v106" : [
"3f983ca9418e4506b74e8c87"
],
"TableEditWizBackbone_v107" : [
"be99663eab8c42c08e18c78b"
],
"GroupAliasTreeEditWizBackbone_v82" : [
"3f983ca9418e4506b74e8c87"
],
"GroupAliasTreeEditWizBackbone_v83" : [
"16d7926f083745328baa983e"
],
"TableEditWizBackbone_v108" : [
"9f6626df98bc4c33b7c0be0d"
],
"TableEditWizBackbone_v109" : [
"535a29981af642f79c8ba1e3"
],
"TableEditWizBackbone_v110" : [
"6f09738b61684155845f2eab"
],
"TableEditWizBackbone_v111" : [
"0ba4aa3d89bf4f93a8444d30"
],
"TableEditWizBackbone_v112" : [
"cdd972fd28cb4371b4469f48"
],
"TableEditWizBackbone_v113" : [
"743015082578437bbe7e8785"
],
"TableEditWizBackbone_v114" : [
"5bffb9ccab574fd3b3b1e8dd"
],
"TableEditWizBackbone_v115" : [
"2389609bc76e45aa8c4e814d"
],
"GroupAliasTreeEditWizBackbone_v84" : [
"0d8f28feb5804b7a94343235"
],
"GroupAliasTreeEditWizBackbone_v85" : [
"2389609bc76e45aa8c4e814d"
],
"GroupAliasTreeEditWizBackbone_v86" : [
"c1a4b362289a4ffaa363f0c0"
],
"GroupAliasTreeEditWizBackbone_v87" : [
"b36f6ef4f96c4d829119ec4a"
],
"TableEditWizBackbone_v116" : [
"b89b29b270704890b3648bf1"
],
"TableEditWizBackbone_v117" : [
"cb94969d90d54acfa70ea972"
],
"TableEditWizBackbone_v118" : [
"311be7b9ff194cf48588f20b"
],
"TableEditWizBackbone_v119" : [
"6633ed1b1ff843f88a55bab1"
],
"GroupAliasTreeEditWizBackbone_v88" : [
"798e1de451ab46788ad519b3"
],
"GroupAliasTreeEditWizBackbone_v89" : [
"f2a72064f1f04a34882eae78"
],
"GroupAliasTreeEditWizBackbone_v90" : [
"6633ed1b1ff843f88a55bab1"
],
"TableEditWizBackbone_v120" : [
"6be0fc92c72a4482a3ef6f8c"
],
"TableEditWizBackbone_v121" : [
"191737f717bd429181754846"
],
"TableEditWizBackbone_v122" : [
"427348b8a80143e7ab2628df"
],
"TableEditWizBackbone_v123" : [
"49e9d27e1c51425e966a0bb1"
],
"TableEditWizBackbone_v124" : [
"8f7d8609220f4b57946fdc0e"
],
"TableEditWizBackbone_v125" : [
"4f49b9f481d546c885463610"
],
"TableEditWizBackbone_v126" : [
"9f2bc23542de45ec839d5f17"
],
"TableEditWizBackbone_v127" : [
"6b99d2a6028d4058be3f23c2"
],
"TableEditWizBackbone_v128" : [
"4107749ac4194968be429f5e"
],
"TableEditWizBackbone_v129" : [
"7e87eaa91c4a407791c8b9ad"
],
"TableEditWizBackbone_v130" : [
"1323dc6f54a94216b7e5b93b"
],
"TableEditWizBackbone_v131" : [
"fbc7229823164a0e9d24afc9"
],
"TableEditWizBackbone_v132" : [
"74bbea7ac65e43768dedf6ee"
],
"TableEditWizBackbone_v133" : [
"cfb2679790814f49ac223550"
],
"TableEditWizBackbone_v134" : [
"ce3f5f44d7f3467280c7b291"
],
"TableEditWizBackbone_v135" : [
"c252a8855777475893880a32"
],
"TableEditWizBackbone_v136" : [
"0f7c3462954545859a4cf218"
],
"TableEditWizBackbone_v137" : [
"9c65a3afb1f545d588883ee5"
],
"TableEditWizBackbone_v138" : [
"c5e0bf8b24444b87a4a1b5c2"
],
"TableEditWizBackbone_v139" : [
"ab56b6486d784978b2259cfd"
],
"TableEditWizBackbone_v140" : [
"70328aeb934c48c288932247"
],
"TableEditWizBackbone_v141" : [
"36777f122d9541f8a55a7ee6"
],
"TableEditWizBackbone_v142" : [
"6457a989eb9e4d26a70e640b"
],
"TableEditWizBackbone_v143" : [
"527badb0f85e45818813f29d"
],
"GroupAliasTreeEditWizBackbone_v91" : [
"afaeda1994194922a1a91d3b"
],
"GroupAliasTreeEditWizBackbone_v92" : [
"3faca6550551487a816118c8"
],
"GroupAliasTreeEditWizBackbone_v93" : [
"a8f4181e9a6149c59d6162f4"
],
"GroupAliasWizBackbone_v0" : [
"2a884ce3da7945ad933a82c2"
],
"GroupAliasWizBackbone_v1" : [
"0420d2d50aaf4f11addf3f9b"
],
"GroupAliasWizBackbone_v2" : [
"49513bcbf77940989ee8e65a"
],
"GroupAliasTreeEditWizBackbone_v94" : [
"ef667cc9a6a64c71ab3fb38d"
],
"GroupAliasTreeEditWizBackbone_v95" : [
"26b109eabfc246c49b85edef"
],
"GroupAliasTreeEditWizBackbone_v96" : [
"13fe467004fe421582e074aa"
],
"GroupAliasWizBackbone_v3" : [
"20b5b625efcd400288063611"
],
"GroupAliasWizBackbone_v4" : [
"f37f654c60fa4a9e8d1e7141"
],
"GroupAliasWizBackbone_v5" : [
"186bae4bebee48e8bd5657aa"
],
"GroupAliasTreeEditWizBackbone_v97" : [
"117086c6d134434dae97b9e3"
],
"GroupAliasTreeEditWizBackbone_v98" : [
"3d06e83a0f954b4bab86232b"
]
},
"entities.name" : {
"OTSROOT" : [
"009bdfc985824bc39858adf3",
"01fe3d03a55949aa99df29d7",
"020087282def42bca89b58a9",
"0420d2d50aaf4f11addf3f9b",
"08b23432a08448738f6c35f2",
"09e59f795039425b92aa5b9f",
"0ac63f99bc604a3980b45a71",
"0b6ee9031ca04d6ebe7031ca",
"0ba4aa3d89bf4f93a8444d30",
"0c32b664a39943489e019783",
"0c4ec81649654c678fdc8922",
"0d8f28feb5804b7a94343235",
"0f7c3462954545859a4cf218",
"0fb5c9d525d34309a2a56c71",
"1006e0267b4040d3b3ebac81",
"11409e693c204fa9bbcac0cf",
"117086c6d134434dae97b9e3",
"1323dc6f54a94216b7e5b93b",
"13fe467004fe421582e074aa",
"14cfccbd4ca34220a6839dc2",
"15bf408cc66a4d068d0242db",
"160341ea83c74b419e1f0ba8",
"16d7926f083745328baa983e",
"1785a65068ed46488d69bf11",
"186bae4bebee48e8bd5657aa",
"18cac564a4434f0d83740d01",
"191737f717bd429181754846",
"1b2cb110f17b41f79d8d86b3",
"1ba03d1fc9ac476aaf53a8a5",
"1d28d1a7d43946be8b0aab4d",
"1e5c926f85214f44b9233921",
"202f10c7145a47cabea2554f",
"206bf50dc558471a8191703c",
"20b5b625efcd400288063611",
"20d3f77407024935bfa01e0a",
"22607b02b59c438996c55244",
"2262404c61d7426b92382549",
"2389609bc76e45aa8c4e814d",
"25ce9202af89442b8e16da1b",
"26141fb7a9eb4e019ddfefbb",
"26b109eabfc246c49b85edef",
"2a884ce3da7945ad933a82c2",
"2a9d68ebfabf4490913772de",
"2aeec34853da410b87afb3aa",
"2cbb02e3592c4dbeaf609518",
"3097237070a44871846e365b",
"30d8d2b4bc3c4334a1d73496",
"311be7b9ff194cf48588f20b",
"3248f8de7042453f8037625a",
"3462a3514057417d8e56e7ff",
"3483ff9a90dd42459d4891bf",
"35f24ce4f6074b91afcb94d0",
"35ff9a1dc2d5423281f90763",
"36777f122d9541f8a55a7ee6",
"3b73d1cfe95f4f2e8cf8ec59",
"3d06e83a0f954b4bab86232b",
"3e4d5a11d4b240e0b111c3ec",
"3e82110a8ed9440a8753e66f",
"3ee068ff3d74459b93978c83",
"3f91f561add549de9d006e89",
"3f983ca9418e4506b74e8c87",
"3faca6550551487a816118c8",
"4107749ac4194968be429f5e",
"427348b8a80143e7ab2628df",
"42baad001ea946a2a16c26a5",
"442f3265926b42c4a3ee0517",
"45669734b0c0416c9807e17f",
"458f17f4824c4d91bbc0b05a",
"47629ac5956f4493a44e9129",
"476b31dfb5064eba8d330dbb",
"49513bcbf77940989ee8e65a",
"4951e0f2d3934a9aa8fa7084",
"496d316b600648b8ae05ce97",
"49e9d27e1c51425e966a0bb1",
"4b32670390864c12b12c6e01",
"4d471fac34094f5d97889abe",
"4de512619d13441ab479ec30",
"4f49b9f481d546c885463610",
"5078a6863b2e4379ace9601a",
"515e471fe3de41999f70fc27",
"527badb0f85e45818813f29d",
"52f1f29f15f642dfa2f5503f",
"535a29981af642f79c8ba1e3",
"541a94cc271d40b0b239dfcf",
"56b13a6d346b49e183f5fa79",
"56fae0ebe7574e5389af9582",
"579eb690889449bd9c613979",
"591239a163ad4c3a9839b7d2",
"5a0110490395448788e995a0",
"5aacc92510504542af847503",
"5bffb9ccab574fd3b3b1e8dd",
"5c52aa5b623b465fbb2f1a49",
"5d85692de9fd4568b4f5deeb",
"5e4b90a076dc4d7d89559f7a",
"5fc1122cdfc54a0fba45db63",
"615ede6ed22c4e689ae69808",
"6223308fb0544c8db70f98bb",
"6457a989eb9e4d26a70e640b",
"64c04fba753442d1a74e910d",
"653f73798ac5411a927c63c5",
"6633ed1b1ff843f88a55bab1",
"6645f1b772504064b50640a9",
"67b22befdf334c37bccb3843",
"68e5ad6703ca4bee816e89b4",
"692464685f2f47f3948d6051",
"6b4a0fba8f6d404684bf3d1e",
"6b99d2a6028d4058be3f23c2",
"6be0fc92c72a4482a3ef6f8c",
"6f09738b61684155845f2eab",
"70328aeb934c48c288932247",
"70687e224292459ea5065c49",
"70a6f1eeb2ec4342a91d1b4d",
"70ddef937e174ba0b3edeb2c",
"7140404b99d842cbb1d79aa0",
"71f446e0f311452f9708e85c",
"720edf0e1fd44ee49e429b82",
"743015082578437bbe7e8785",
"74bbea7ac65e43768dedf6ee",
"75c91e320520472bb97d05f5",
"767650c5f2cc45e2b32730d2",
"77214bcee8c842deb4b6b057",
"77940c0857e742da9e3e0493",
"798e1de451ab46788ad519b3",
"7b2943ac6444498a9ebba47a",
"7e87eaa91c4a407791c8b9ad",
"82b1e196cda94f6a87b37e96",
"82ff0a450f6c47d7bb20ab2b",
"83affa8639874425a7f018f9",
"8468e65d04184400b7d19ad4",
"86cae01127f848e4ac24aa17",
"8aa792ae59bb4dbd8293107e",
"8cb9af33a69442e9b3d1bd33",
"8e1bcb41771e462d9662de6b",
"8ec8952a7ad944449bf05d0c",
"8f7d8609220f4b57946fdc0e",
"90724240527d4f3f90cafdba",
"92217362539b4d038a5755e9",
"92ba987fbd5c42d9a91f906e",
"94b66dcbd369452898eab9c5",
"959db3b4e532421f9e78aceb",
"96e34075302941d1b8d7ceca",
"97557bb2286a4d00beb1d41b",
"98d2ee63858240558556b392",
"993c8ee0f0f845399530bf06",
"99c4ba81402247e2bf117ede",
"99fc0b668c094fb4a9c17f2d",
"9b189256af574ceb95a12d6b",
"9ba2398dea2f47318f9a8fc5",
"9c65a3afb1f545d588883ee5",
"9ed478dc3caf44afb5b04aad",
"9eeeebe5d36f4087b4593934",
"9f2bc23542de45ec839d5f17",
"9f37e195ed17405c98daa6fa",
"9f479f86a5ef45d7a2bbd552",
"9f6626df98bc4c33b7c0be0d",
"a1141bdf7a5a4374932ec3ad",
"a118fee880a048598ae091af",
"a120c6761071489d9d22852e",
"a182e4de72d7471cb5fee584",
"a3a3161b5d0e452ca15d93dc",
"a52a796f7be94176a389e22d",
"a71278fe9bd34046a304bf83",
"a8f4181e9a6149c59d6162f4",
"a934823f86a8458ca9e0f365",
"a9d2f7a86e4543378f168999",
"aaa38564f00f42199970318f",
"ab297fad2d7843c6ad48dbff",
"ab4737fb472543638f2d8217",
"ab56b6486d784978b2259cfd",
"ade857c1c36f4a0c911aefe5",
"afaeda1994194922a1a91d3b",
"b100ca1d84b74a0592745432",
"b23f3c20a477442f8f7b17d9",
"b27a9a1b852e4dfe90d59e9e",
"b36f6ef4f96c4d829119ec4a",
"b3f4becb77bc41df899db968",
"b4e9b45f65fb40bf99027f49",
"b5c4f881cfdb45d3a5851400",
"b7afa3f233ef472cb82e6d92",
"b89b29b270704890b3648bf1",
"ba0ae2d7d65742f2ba06b51f",
"be99663eab8c42c08e18c78b",
"c09d74025cd541f888c3cbf4",
"c1a4b362289a4ffaa363f0c0",
"c252a8855777475893880a32",
"c36303969fdf4566b8d87357",
"c5e0bf8b24444b87a4a1b5c2",
"c64757ae55b4433f85fe039b",
"c7e918ae2fce4bf292aa0c47",
"c870241a0c99460b9c6df339",
"ca0b02f327df470d9e2d82a4",
"cb275db0162a4c92b49ee2c3",
"cb56291945774a639a24971a",
"cb94969d90d54acfa70ea972",
"cdd972fd28cb4371b4469f48",
"ce2dd02f4bb94471a2171328",
"ce3f5f44d7f3467280c7b291",
"cf42b53e45e7410caa42cb04",
"cfb2679790814f49ac223550",
"d22e4f4bd7f142fc92deb51f",
"d2f13718af774c79aa418f78",
"d6797554579c4b258f39d4b1",
"d7aad766197a4fcd8d5a2ee7",
"d7e6e39c33234452be14dc97",
"d8049df203e14c2d8ea7c17d",
"d90558f2898645ae9e32e549",
"d9147c0a3dae4faa806b2b30",
"d9a8ee499cbe40e59664e7f1",
"da96299fb5e24bcc9b3c3448",
"dcecd919841c46a6a0dc26e2",
"de13eb13e0ff43f39f3ed53f",
"de35935652864b5fb30e33b3",
"deb05518696748328f78c764",
"e0282e5b6e304073bbdd1428",
"e1ca601bb29c453cbd98da96",
"e29a4c16bdda47d6bc5800f1",
"e2d26a6821884514a5ca588f",
"e36218b1a8b74727badd89fe",
"e643e72e3981452f9805627e",
"e6933ca42ae3436e8f16c7fd",
"e7b7d46ac9334f358234e026",
"e7d14f0335734617913b622b",
"ee5b4c373ba343459e5dceb9",
"ef667cc9a6a64c71ab3fb38d",
"f099fadc772e49a395da5050",
"f2a72064f1f04a34882eae78",
"f37f654c60fa4a9e8d1e7141",
"f38bfa92a29e4a57beac189e",
"f4a6619bfde846de988ed34f",
"f4e3236f26c94622ad9c28ac",
"f6308316687d4d609fa93cc7",
"f6324135b85447579a15bfdb",
"f6713ca14c564d4c8e2285cd",
"f84f4754ba2743ed940a4e8e",
"f8c62a2018d744989ec2b585",
"f8f777525afd43879ef85ca2",
"f8f811eb1d104b8ebdcc7b7a",
"fabe82722d2a448c93603eed",
"fbc7229823164a0e9d24afc9",
"ffba77af4fba4b58afa3d365",
"ffc5cfb19645458796167f79"
]
},
"aliases.active.name" : {

},
"runs.name" : {

},
"configurations.assigned" : {
"notprovided" : [
"2018-09-06T17:34:15.630-0500",
"2018-09-06T17:34:15.870-0500",
"2018-09-10T09:24:24.426-0500",
"2018-09-10T10:45:51.449-0500",
"2018-09-10T11:24:18.870-0500",
"2018-09-11T09:59:56.482-0500",
"2018-09-11T10:00:20.705-0500",
"2018-09-11T10:01:19.574-0500",
"2018-09-11T10:11:16.267-0500",
"2018-09-12T12:16:44.028-0500",
"2018-09-17T11:12:09.642-0500",
"2018-09-17T13:53:33.640-0500",
"2018-09-17T14:03:58.293-0500",
"2018-09-18T15:31:05.891-0500",
"2018-09-19T09:27:05.651-0500",
"2018-09-19T10:08:02.301-0500",
"2018-09-19T10:23:22.269-0500",
"2018-09-19T11:22:21.631-0500",
"2018-09-19T12:26:55.571-0500",
"2018-09-20T14:22:27.511-0500",
"2018-09-20T15:42:03.335-0500",
"2018-09-21T11:16:31.560-0500",
"2018-09-21T13:39:25.566-0500",
"2018-09-21T13:39:49.506-0500",
"2019-02-28T12:04:26.009-0600",
"2019-02-28T12:05:08.449-0600",
"2019-02-28T13:57:10.053-0600",
"2019-07-17T14:42:56.812-0500",
"2019-07-19T15:24:16.204-0500",
"2019-07-19T15:25:11.247-0500",
"2019-07-24T14:34:10.791-0500",
"2019-07-24T14:47:23.955-0500",
"2019-07-24T14:48:42.000-0500",
"2019-07-24T14:48:42.784-0500",
"2019-10-22T14:55:21.566-0500",
"2020-06-29T11:00:05.607-0500",
"2020-06-29T11:05:40.310-0500",
"2020-06-29T11:28:21.958-0500",
"2020-07-24T10:58:18.305-0500",
"2020-07-24T11:00:07.934-0500",
"2020-07-24T11:56:06.703-0500",
"2020-07-24T12:12:09.571-0500",
"2020-07-24T12:16:36.101-0500",
"2020-07-29T15:59:41.250-0500",
"2020-07-29T16:01:22.837-0500",
"2020-07-29T16:34:43.226-0500",
"2020-07-29T16:39:54.006-0500",
"2020-07-29T16:40:44.600-0500",
"2020-07-29T16:45:02.009-0500",
"2020-07-29T16:49:16.772-0500",
"2020-07-30T11:42:28.717-0500",
"2020-07-30T11:42:29.852-0500",
"2020-07-30T11:54:26.150-0500",
"2020-07-30T12:05:13.244-0500",
"2020-07-31T09:38:01.090-0500",
"2020-09-02T11:30:04.785-0500",
"2020-09-02T11:31:32.605-0500",
"2020-09-02T15:08:51.638-0500",
"2020-09-02T15:22:09.898-0500",
"2020-09-02T16:01:06.348-0500",
"2020-09-02T16:05:19.871-0500",
"2020-10-05T17:04:58.595-0500",
"2020-10-05T17:05:55.887-0500",
"2020-10-05T17:07:07.102-0500",
"2020-10-05T17:09:48.923-0500",
"2020-10-05T17:11:02.783-0500",
"2020-10-05T17:39:04.454-0500",
"2020-10-05T17:43:06.708-0500",
"2020-10-05T17:43:27.536-0500",
"2020-10-05T17:51:30.543-0500",
"2020-10-09T11:58:10.668-0500",
"2020-10-09T12:53:54.430-0500",
"2020-10-09T12:57:07.136-0500",
"2020-10-09T13:00:58.419-0500",
"2020-10-09T14:43:40.681-0500",
"2020-10-09T15:30:48.906-0500",
"2020-10-09T15:30:50.273-0500",
"2020-10-09T15:32:24.568-0500",
"2020-10-09T15:32:58.906-0500",
"2020-10-09T16:47:19.510-0500",
"2020-10-12T09:37:50.451-0500",
"2020-10-12T09:41:40.012-0500",
"2020-10-12T10:14:44.122-0500",
"2020-10-12T10:19:10.300-0500",
"2020-10-12T15:33:09.765-0500",
"2020-10-19T16:12:57.960-0500",
"2020-10-19T16:16:03.435-0500",
"2020-10-23T11:00:21.097-0500",
"2020-10-26T10:39:58.509-0500",
"2020-10-26T11:51:22.214-0500",
"2020-10-26T11:51:43.821-0500",
"2020-10-26T11:56:43.289-0500",
"2020-10-26T13:16:58.443-0500",
"2020-10-26T14:34:35.235-0500",
"2020-10-26T14:53:03.521-0500",
"2020-10-26T14:53:04.779-0500",
"2020-10-26T15:02:47.387-0500",
"2020-10-26T15:37:55.136-0500",
"2020-10-27T17:42:11.383-0500",
"2020-10-29T11:39:18.388-0500",
"2020-10-29T11:52:33.496-0500",
"2020-10-29T11:54:28.943-0500",
"2020-10-29T11:54:30.335-0500",
"2020-10-29T11:54:56.887-0500",
"2020-10-29T13:30:25.163-0500",
"2020-10-29T13:33:31.676-0500",
"2020-10-29T13:45:56.536-0500",
"2020-10-29T13:46:38.862-0500",
"2020-10-29T13:48:03.467-0500",
"2020-10-29T14:39:29.611-0500",
"2020-11-16T17:04:43.896-0600",
"2020-11-16T17:07:50.239-0600",
"2020-11-16T17:10:04.361-0600",
"2021-06-30T16:17:52.525-0500",
"2021-06-30T16:23:48.994-0500",
"2021-07-07T14:45:52.879-0500",
"2021-07-07T16:02:04.953-0500",
"2021-07-07T16:05:38.452-0500",
"2021-07-08T14:00:20.967-0500",
"2021-07-08T14:06:14.707-0500",
"2021-07-08T14:12:39.701-0500",
"2021-07-08T14:17:00.668-0500",
"2021-07-08T14:17:02.092-0500",
"2021-07-08T16:20:45.606-0500",
"2021-07-08T16:21:56.839-0500",
"2021-07-08T16:24:39.988-0500",
"2021-07-09T11:47:14.724-0500",
"2021-07-09T11:48:46.811-0500",
"2021-07-09T16:06:01.336-0500",
"2021-07-12T11:04:56.227-0500",
"2021-07-13T12:01:32.393-0500",
"2021-07-13T12:22:07.909-0500",
"2021-07-13T12:22:09.444-0500",
"2021-07-14T13:02:14.784-0500",
"2021-07-14T13:03:01.983-0500",
"2021-07-14T13:03:03.605-0500",
"2021-07-14T13:05:59.278-0500",
"2021-07-14T14:21:02.139-0500",
"2021-07-14T14:26:05.539-0500",
"2021-07-14T14:39:32.427-0500",
"2021-07-14T14:46:58.933-0500",
"2021-07-14T14:47:00.713-0500",
"2021-07-14T14:51:06.837-0500",
"2021-07-14T15:24:34.648-0500",
"2021-07-14T16:05:30.239-0500",
"2021-07-14T16:15:41.933-0500",
"2021-07-14T16:17:42.773-0500",
"2021-07-14T16:17:44.456-0500",
"2021-07-15T11:50:34.614-0500",
"2021-07-20T13:45:54.722-0500",
"2021-07-20T16:41:43.052-0500",
"2021-07-20T16:50:37.178-0500",
"2021-07-20T17:09:27.702-0500",
"2021-07-20T17:28:41.028-0500",
"2021-07-20T17:46:28.248-0500",
"2021-07-21T11:50:02.599-0500",
"2021-07-21T11:58:39.809-0500",
"2021-07-21T11:58:41.551-0500",
"2021-07-21T11:59:34.248-0500",
"2021-07-21T12:08:23.180-0500",
"2021-07-22T18:35:01.353-0500",
"2021-07-23T12:33:57.630-0500",
"2021-07-24T00:54:50.416-0500",
"2021-07-24T12:12:52.225-0500",
"2021-07-25T21:07:16.976-0500",
"2021-07-26T07:43:12.823-0500",
"2021-07-26T18:37:12.859-0500",
"2021-07-27T08:25:41.678-0500",
"2021-08-03T11:10:40.258-0500",
"2021-08-03T11:10:42.220-0500",
"2021-08-04T12:21:58.468-0500",
"2021-09-02T13:43:34.863-0500",
"2021-09-02T14:03:37.792-0500",
"2021-09-02T14:08:01.655-0500",
"2021-09-02T14:38:38.465-0500",
"2021-09-23T15:47:06.102-0500",
"2021-09-23T15:47:43.072-0500",
"2021-09-24T15:36:53.324-0500",
"2021-09-24T15:36:55.295-0500",
"2021-09-24T15:42:27.624-0500",
"2021-09-24T15:44:04.695-0500",
"2021-09-24T15:49:55.424-0500",
"2021-09-24T15:53:23.982-0500",
"2021-09-24T16:04:23.051-0500",
"2021-09-24T16:22:54.422-0500",
"2021-09-24T16:26:20.374-0500",
"2021-09-24T16:28:07.789-0500",
"2021-09-24T16:28:30.117-0500",
"2021-09-27T09:02:57.308-0500",
"2021-09-27T09:04:05.173-0500",
"2021-09-27T14:22:25.630-0500",
"2021-09-27T14:23:20.267-0500",
"2021-09-28T09:24:51.568-0500",
"2021-09-28T09:25:11.363-0500",
"2021-09-28T10:22:58.335-0500",
"2021-09-29T11:49:45.363-0500",
"2021-09-30T09:14:51.846-0500",
"2021-10-01T10:56:22.247-0500",
"2021-10-01T10:56:40.157-0500",
"2021-10-01T11:01:41.913-0500",
"2021-10-01T11:03:49.651-0500",
"2021-10-01T13:59:54.636-0500",
"2021-10-01T14:01:55.179-0500",
"2021-10-06T10:02:32.253-0500",
"2021-10-06T10:02:50.180-0500",
"2021-10-07T16:32:41.386-0500",
"2021-10-07T16:33:02.991-0500",
"2021-10-08T14:03:16.234-0500",
"2021-10-11T16:00:57.301-0500",
"2021-10-11T17:57:24.753-0500",
"2021-10-12T09:07:18.412-0500",
"2021-10-12T09:07:33.183-0500",
"2021-10-12T11:11:24.123-0500",
"2021-10-12T11:11:46.329-0500",
"2021-10-12T13:46:54.100-0500",
"2021-10-12T14:33:52.028-0500",
"2021-10-14T17:03:17.552-0500",
"2021-10-14T17:03:38.196-0500",
"2021-10-15T10:48:32.254-0500",
"2021-10-15T10:48:45.141-0500",
"2021-10-15T15:50:50.198-0500",
"2021-10-15T15:51:05.452-0500",
"2021-11-03T16:30:21.031-0500",
"2021-11-03T16:31:00.659-0500",
"2021-11-10T08:36:01.075-0600",
"2021-11-10T15:06:48.386-0600",
"2021-11-10T15:08:31.900-0600",
"2021-11-10T15:11:06.142-0600",
"2021-11-10T15:11:08.392-0600",
"2021-11-10T16:33:23.142-0600",
"2022-04-18T12:56:04.969-0400",
"2022-04-19T14:35:57.307-0400",
"2022-04-19T15:00:27.663-0400",
"2022-04-20T10:06:06.373-0400",
"2022-04-20T10:06:52.954-0400",
"2022-04-20T11:23:53.145-0400",
"2022-04-22T09:34:10.425-0400",
"2022-07-19T15:18:24.906-0400",
"2022-07-22T10:08:28.065-0400",
"2022-07-25T10:59:58.958-0400",
"2022-07-25T11:05:54.029-0400"
],
"TableEditWizBackbone_v3" : [
"2018-09-06T17:34:15.929-0500"
],
"TableEditWizBackbone_v2" : [
"2018-09-06T17:34:15.787-0500"
],
"TableEditWizBackbone_v4" : [
"2018-09-10T09:24:24.842-0500"
],
"TableEditWizBackbone_v5" : [
"2018-09-10T10:45:51.848-0500"
],
"TableEditWizBackbone_v6" : [
"2018-09-10T11:24:19.299-0500"
],
"TableEditWizBackbone_v7" : [
"2018-09-11T09:59:56.903-0500"
],
"TableEditWizBackbone_v8" : [
"2018-09-11T10:00:21.133-0500"
],
"TableEditWizBackbone_v9" : [
"2018-09-11T10:01:20.025-0500"
],
"GroupAliasTreeEditWizBackbone_v0" : [
"2018-09-11T10:11:16.680-0500"
],
"GroupAliasTreeEditWizBackbone_v1" : [
"2018-09-12T12:16:44.473-0500"
],
"TableEditWizBackbone_v10" : [
"2018-09-12T13:36:48.243-0500"
],
"TableEditWizBackbone_v11" : [
"2018-09-12T13:37:50.942-0500"
],
"TableEditWizBackbone_v12" : [
"2018-09-17T11:12:10.245-0500"
],
"TableEditWizBackbone_v13" : [
"2018-09-17T13:53:34.210-0500"
],
"TableEditWizBackbone_v14" : [
"2018-09-17T14:03:58.886-0500"
],
"TableEditWizBackbone_v15" : [
"2018-09-18T15:31:06.503-0500"
],
"TableEditWizBackbone_v16" : [
"2018-09-19T09:27:06.256-0500"
],
"TableEditWizBackbone_v17" : [
"2018-09-19T10:08:02.927-0500"
],
"TableEditWizBackbone_v18" : [
"2018-09-19T10:23:22.887-0500"
],
"TableEditWizBackbone_v19" : [
"2018-09-19T11:22:22.285-0500"
],
"TableEditWizBackbone_v20" : [
"2018-09-19T12:26:56.208-0500"
],
"TableEditWizBackbone_v21" : [
"2018-09-20T14:22:28.165-0500"
],
"TableEditWizBackbone_v22" : [
"2018-09-20T15:42:04.035-0500"
],
"TableEditWizBackbone_v23" : [
"2018-09-21T11:16:32.319-0500"
],
"TableEditWizBackbone_v24" : [
"2018-09-21T13:39:26.353-0500"
],
"TableEditWizBackbone_v25" : [
"2018-09-21T13:39:50.261-0500"
],
"GroupAliasTreeEditWizBackbone_v2" : [
"2019-02-28T12:04:26.423-0600"
],
"GroupAliasTreeEditWizBackbone_v3" : [
"2019-02-28T12:05:08.885-0600"
],
"GroupAliasTreeEditWizBackbone_v4" : [
"2019-02-28T13:57:10.475-0600"
],
"GroupAliasTreeEditWizBackbone_v5" : [
"2019-07-17T14:42:57.261-0500"
],
"TableEditWizBackbone_v26" : [
"2019-07-19T15:24:16.977-0500"
],
"GroupAliasTreeEditWizBackbone_v6" : [
"2019-07-19T15:25:11.732-0500"
],
"TableEditWizBackbone_v27" : [
"2019-07-24T14:34:11.487-0500"
],
"TableEditWizBackbone_v28" : [
"2019-07-24T14:47:24.744-0500"
],
"GroupAliasTreeEditWizBackbone_v7" : [
"2019-07-24T14:48:42.519-0500"
],
"GroupAliasTreeEditWizBackbone_v8" : [
"2019-07-24T14:48:43.371-0500"
],
"TableEditWizBackbone_v29" : [
"2019-10-22T14:55:22.482-0500"
],
"TableEditWizBackbone_v30" : [
"2020-06-29T11:00:06.237-0500"
],
"GroupAliasTreeEditWizBackbone_v9" : [
"2020-06-29T11:05:40.857-0500"
],
"TableEditWizBackbone_v31" : [
"2020-06-29T11:28:22.673-0500"
],
"GroupAliasTreeEditWizBackbone_v10" : [
"2020-07-24T10:58:18.890-0500"
],
"GroupAliasTreeEditWizBackbone_v11" : [
"2020-07-24T11:00:08.545-0500"
],
"TableEditWizBackbone_v32" : [
"2020-07-24T11:56:07.429-0500"
],
"TableEditWizBackbone_v33" : [
"2020-07-24T12:12:10.309-0500"
],
"TableEditWizBackbone_v34" : [
"2020-07-24T12:16:36.834-0500"
],
"TableEditWizBackbone_v35" : [
"2020-07-29T15:59:42.065-0500"
],
"GroupAliasTreeEditWizBackbone_v12" : [
"2020-07-29T16:01:23.588-0500"
],
"GroupAliasTreeEditWizBackbone_v13" : [
"2020-07-29T16:34:43.961-0500"
],
"TableEditWizBackbone_v36" : [
"2020-07-29T16:39:54.838-0500"
],
"TableEditWizBackbone_v37" : [
"2020-07-29T16:40:45.461-0500"
],
"TableEditWizBackbone_v38" : [
"2020-07-29T16:45:02.863-0500"
],
"GroupAliasTreeEditWizBackbone_v14" : [
"2020-07-29T16:49:17.518-0500"
],
"GroupAliasTreeEditWizBackbone_v15" : [
"2020-07-30T11:42:29.498-0500"
],
"GroupAliasTreeEditWizBackbone_v16" : [
"2020-07-30T11:42:30.644-0500"
],
"GroupAliasTreeEditWizBackbone_v17" : [
"2020-07-30T11:54:26.992-0500"
],
"GroupAliasTreeEditWizBackbone_v18" : [
"2020-07-30T12:05:14.093-0500"
],
"GroupAliasTreeEditWizBackbone_v19" : [
"2020-07-31T09:38:01.937-0500"
],
"TableEditWizBackbone_v39" : [
"2020-09-02T11:30:05.637-0500"
],
"TableEditWizBackbone_v40" : [
"2020-09-02T11:31:33.508-0500"
],
"TableEditWizBackbone_v41" : [
"2020-09-02T15:08:52.613-0500"
],
"TableEditWizBackbone_v42" : [
"2020-09-02T15:22:10.808-0500"
],
"TableEditWizBackbone_v43" : [
"2020-09-02T16:01:07.222-0500"
],
"GroupAliasTreeEditWizBackbone_v20" : [
"2020-09-02T16:05:20.797-0500"
],
"TableEditWizBackbone_v44" : [
"2020-10-05T17:04:59.592-0500"
],
"TableEditWizBackbone_v45" : [
"2020-10-05T17:05:56.910-0500"
],
"TableEditWizBackbone_v46" : [
"2020-10-05T17:07:08.101-0500"
],
"TableEditWizBackbone_v47" : [
"2020-10-05T17:09:49.962-0500"
],
"TableEditWizBackbone_v48" : [
"2020-10-05T17:11:03.791-0500"
],
"TableEditWizBackbone_v49" : [
"2020-10-05T17:39:05.505-0500"
],
"TableEditWizBackbone_v50" : [
"2020-10-05T17:43:07.778-0500"
],
"TableEditWizBackbone_v51" : [
"2020-10-05T17:43:28.556-0500"
],
"TableEditWizBackbone_v52" : [
"2020-10-05T17:51:31.583-0500"
],
"TableEditWizBackbone_v53" : [
"2020-10-09T11:58:11.714-0500"
],
"GroupAliasTreeEditWizBackbone_v21" : [
"2020-10-09T12:53:55.517-0500"
],
"TableEditWizBackbone_v54" : [
"2020-10-09T12:57:08.195-0500"
],
"TableEditWizBackbone_v55" : [
"2020-10-09T13:00:59.511-0500"
],
"TableEditWizBackbone_v56" : [
"2020-10-09T14:43:41.734-0500"
],
"GroupAliasTreeEditWizBackbone_v22" : [
"2020-10-09T15:30:49.980-0500"
],
"GroupAliasTreeEditWizBackbone_v23" : [
"2020-10-09T15:30:51.366-0500"
],
"GroupAliasTreeEditWizBackbone_v24" : [
"2020-10-09T15:32:25.651-0500"
],
"TableEditWizBackbone_v57" : [
"2020-10-09T15:32:59.995-0500"
],
"GroupAliasTreeEditWizBackbone_v25" : [
"2020-10-09T16:47:20.632-0500"
],
"GroupAliasTreeEditWizBackbone_v26" : [
"2020-10-12T09:37:51.649-0500"
],
"GroupAliasTreeEditWizBackbone_v27" : [
"2020-10-12T09:41:41.187-0500"
],
"TableEditWizBackbone_v58" : [
"2020-10-12T10:14:45.386-0500"
],
"GroupAliasTreeEditWizBackbone_v28" : [
"2020-10-12T10:19:11.513-0500"
],
"TableEditWizBackbone_v59" : [
"2020-10-12T15:33:11.007-0500"
],
"GroupAliasTreeEditWizBackbone_v29" : [
"2020-10-19T16:12:58.901-0500"
],
"GroupAliasTreeEditWizBackbone_v30" : [
"2020-10-19T16:16:04.305-0500"
],
"TableEditWizBackbone_v60" : [
"2020-10-23T11:00:22.000-0500"
],
"TableEditWizBackbone_v61" : [
"2020-10-26T10:39:59.407-0500"
],
"TableEditWizBackbone_v62" : [
"2020-10-26T11:51:23.108-0500"
],
"TableEditWizBackbone_v63" : [
"2020-10-26T11:51:44.725-0500"
],
"TableEditWizBackbone_v64" : [
"2020-10-26T11:56:44.258-0500"
],
"GroupAliasTreeEditWizBackbone_v31" : [
"2020-10-26T13:16:59.353-0500"
],
"TableEditWizBackbone_v65" : [
"2020-10-26T14:34:36.134-0500"
],
"GroupAliasTreeEditWizBackbone_v32" : [
"2020-10-26T14:53:04.430-0500"
],
"GroupAliasTreeEditWizBackbone_v33" : [
"2020-10-26T14:53:05.745-0500"
],
"TableEditWizBackbone_v66" : [
"2020-10-26T15:02:48.336-0500"
],
"GroupAliasTreeEditWizBackbone_v34" : [
"2020-10-26T15:37:56.057-0500"
],
"GroupAliasTreeEditWizBackbone_v35" : [
"2020-10-27T17:42:12.368-0500"
],
"GroupAliasTreeEditWizBackbone_v36" : [
"2020-10-29T11:39:19.344-0500"
],
"TableEditWizBackbone_v67" : [
"2020-10-29T11:52:34.466-0500"
],
"GroupAliasTreeEditWizBackbone_v37" : [
"2020-10-29T11:54:29.926-0500"
],
"GroupAliasTreeEditWizBackbone_v38" : [
"2020-10-29T11:54:31.298-0500"
],
"GroupAliasTreeEditWizBackbone_v39" : [
"2020-10-29T11:54:57.833-0500"
],
"TableEditWizBackbone_v68" : [
"2020-10-29T13:30:26.168-0500"
],
"TableEditWizBackbone_v69" : [
"2020-10-29T13:33:32.718-0500"
],
"TableEditWizBackbone_v70" : [
"2020-10-29T13:45:57.490-0500"
],
"TableEditWizBackbone_v71" : [
"2020-10-29T13:46:39.884-0500"
],
"TableEditWizBackbone_v72" : [
"2020-10-29T13:48:04.559-0500"
],
"GroupAliasTreeEditWizBackbone_v40" : [
"2020-10-29T14:39:30.585-0500"
],
"GroupAliasTreeEditWizBackbone_v41" : [
"2020-11-16T17:04:44.904-0600"
],
"TableEditWizBackbone_v73" : [
"2020-11-16T17:07:51.242-0600"
],
"TableEditWizBackbone_v74" : [
"2020-11-16T17:10:05.445-0600"
],
"TableEditWizBackbone_v75" : [
"2021-06-30T16:17:53.645-0500"
],
"TableEditWizBackbone_v76" : [
"2021-06-30T16:23:50.376-0500"
],
"TableEditWizBackbone_v77" : [
"2021-07-07T14:45:53.966-0500"
],
"GroupAliasTreeEditWizBackbone_v42" : [
"2021-07-07T16:02:06.104-0500"
],
"GroupAliasTreeEditWizBackbone_v43" : [
"2021-07-07T16:05:39.512-0500"
],
"GroupAliasTreeEditWizBackbone_v44" : [
"2021-07-08T14:00:21.989-0500"
],
"GroupAliasTreeEditWizBackbone_v45" : [
"2021-07-08T14:06:15.711-0500"
],
"GroupAliasTreeEditWizBackbone_v46" : [
"2021-07-08T14:12:40.795-0500"
],
"GroupAliasTreeEditWizBackbone_v47" : [
"2021-07-08T14:17:01.729-0500"
],
"GroupAliasTreeEditWizBackbone_v48" : [
"2021-07-08T14:17:03.162-0500"
],
"GroupAliasTreeEditWizBackbone_v49" : [
"2021-07-08T16:20:46.757-0500"
],
"GroupAliasTreeEditWizBackbone_v50" : [
"2021-07-08T16:21:57.925-0500"
],
"GroupAliasTreeEditWizBackbone_v51" : [
"2021-07-08T16:24:41.106-0500"
],
"TableEditWizBackbone_v78" : [
"2021-07-09T11:47:15.795-0500"
],
"GroupAliasTreeEditWizBackbone_v52" : [
"2021-07-09T11:48:47.955-0500"
],
"TableEditWizBackbone_v79" : [
"2021-07-09T16:06:02.466-0500"
],
"TableEditWizBackbone_v80" : [
"2021-07-12T11:04:57.287-0500"
],
"TableEditWizBackbone_v81" : [
"2021-07-13T12:01:33.550-0500"
],
"GroupAliasTreeEditWizBackbone_v53" : [
"2021-07-13T12:22:09.013-0500"
],
"GroupAliasTreeEditWizBackbone_v54" : [
"2021-07-13T12:22:10.802-0500"
],
"GroupAliasTreeEditWizBackbone_v55" : [
"2021-07-14T13:02:16.017-0500"
],
"GroupAliasTreeEditWizBackbone_v56" : [
"2021-07-14T13:03:03.132-0500"
],
"GroupAliasTreeEditWizBackbone_v57" : [
"2021-07-14T13:03:04.850-0500"
],
"GroupAliasTreeEditWizBackbone_v58" : [
"2021-07-14T13:06:00.472-0500"
],
"GroupAliasTreeEditWizBackbone_v59" : [
"2021-07-14T14:21:03.325-0500"
],
"GroupAliasTreeEditWizBackbone_v60" : [
"2021-07-14T14:21:04.967-0500"
],
"GroupAliasTreeEditWizBackbone_v61" : [
"2021-07-14T14:26:06.809-0500"
],
"GroupAliasTreeEditWizBackbone_v62" : [
"2021-07-14T14:39:33.604-0500"
],
"GroupAliasTreeEditWizBackbone_v63" : [
"2021-07-14T14:47:00.230-0500"
],
"GroupAliasTreeEditWizBackbone_v64" : [
"2021-07-14T14:47:01.918-0500"
],
"GroupAliasTreeEditWizBackbone_v65" : [
"2021-07-14T14:51:08.104-0500"
],
"TableEditWizBackbone_v82" : [
"2021-07-14T15:24:35.783-0500"
],
"TableEditWizBackbone_v83" : [
"2021-07-14T16:05:31.544-0500"
],
"TableEditWizBackbone_v84" : [
"2021-07-14T16:15:43.204-0500"
],
"GroupAliasTreeEditWizBackbone_v66" : [
"2021-07-14T16:17:44.000-0500"
],
"GroupAliasTreeEditWizBackbone_v67" : [
"2021-07-14T16:17:45.680-0500"
],
"TableEditWizBackbone_v85" : [
"2021-07-15T11:50:35.904-0500"
],
"GroupAliasTreeEditWizBackbone_v68" : [
"2021-07-20T13:45:55.875-0500"
],
"TableEditWizBackbone_v86" : [
"2021-07-20T16:41:44.361-0500"
],
"GroupAliasTreeEditWizBackbone_v69" : [
"2021-07-20T16:50:38.498-0500"
],
"TableEditWizBackbone_v87" : [
"2021-07-20T17:09:28.955-0500"
],
"GroupAliasTreeEditWizBackbone_v70" : [
"2021-07-20T17:28:42.250-0500"
],
"TableEditWizBackbone_v88" : [
"2021-07-20T17:46:29.595-0500"
],
"TableEditWizBackbone_v89" : [
"2021-07-21T11:50:03.924-0500"
],
"GroupAliasTreeEditWizBackbone_v71" : [
"2021-07-21T11:58:41.138-0500"
],
"GroupAliasTreeEditWizBackbone_v72" : [
"2021-07-21T11:58:42.878-0500"
],
"TableEditWizBackbone_v90" : [
"2021-07-21T11:59:35.518-0500"
],
"TableEditWizBackbone_v91" : [
"2021-07-21T12:08:24.473-0500"
],
"GroupAliasTreeEditWizBackbone_v73" : [
"2021-07-22T18:35:02.721-0500"
],
"TableEditWizBackbone_v92" : [
"2021-07-23T12:33:58.935-0500"
],
"TableEditWizBackbone_v93" : [
"2021-07-24T00:54:51.721-0500"
],
"TableEditWizBackbone_v94" : [
"2021-07-24T12:12:53.625-0500"
],
"TableEditWizBackbone_v95" : [
"2021-07-25T21:07:18.309-0500"
],
"TableEditWizBackbone_v96" : [
"2021-07-26T07:43:14.155-0500"
],
"TableEditWizBackbone_v97" : [
"2021-07-26T18:37:14.235-0500"
],
"TableEditWizBackbone_v98" : [
"2021-07-27T08:25:42.981-0500"
],
"GroupAliasTreeEditWizBackbone_v74" : [
"2021-08-03T11:10:41.688-0500"
],
"GroupAliasTreeEditWizBackbone_v75" : [
"2021-08-03T11:10:43.594-0500"
],
"TableEditWizBackbone_v99" : [
"2021-08-04T12:21:59.967-0500"
],
"TableEditWizBackbone_v100" : [
"2021-09-02T13:43:36.354-0500"
],
"GroupAliasTreeEditWizBackbone_v76" : [
"2021-09-02T14:03:39.179-0500"
],
"GroupAliasTreeEditWizBackbone_v77" : [
"2021-09-02T14:08:03.128-0500"
],
"GroupAliasTreeEditWizBackbone_v78" : [
"2021-09-02T14:38:39.949-0500"
],
"TableEditWizBackbone_v101" : [
"2021-09-23T15:47:07.603-0500"
],
"TableEditWizBackbone_v102" : [
"2021-09-23T15:47:44.504-0500"
],
"GroupAliasTreeEditWizBackbone_v79" : [
"2021-09-24T15:36:54.808-0500"
],
"GroupAliasTreeEditWizBackbone_v80" : [
"2021-09-24T15:36:56.703-0500"
],
"TableEditWizBackbone_v103" : [
"2021-09-24T15:42:29.103-0500"
],
"TableEditWizBackbone_v104" : [
"2021-09-24T15:44:06.206-0500"
],
"GroupAliasTreeEditWizBackbone_v81" : [
"2021-09-24T15:49:56.893-0500"
],
"TableEditWizBackbone_v105" : [
"2021-09-24T15:53:25.497-0500"
],
"TableEditWizBackbone_v106" : [
"2021-09-24T16:04:24.523-0500"
],
"TableEditWizBackbone_v107" : [
"2021-09-24T16:22:55.966-0500"
],
"GroupAliasTreeEditWizBackbone_v82" : [
"2021-09-24T16:24:16.110-0500"
],
"GroupAliasTreeEditWizBackbone_v83" : [
"2021-09-24T16:26:21.900-0500"
],
"TableEditWizBackbone_v108" : [
"2021-09-24T16:28:09.312-0500"
],
"TableEditWizBackbone_v109" : [
"2021-09-24T16:28:31.649-0500"
],
"TableEditWizBackbone_v110" : [
"2021-09-27T09:02:58.762-0500"
],
"TableEditWizBackbone_v111" : [
"2021-09-27T09:04:06.711-0500"
],
"TableEditWizBackbone_v112" : [
"2021-09-27T14:22:27.151-0500"
],
"TableEditWizBackbone_v113" : [
"2021-09-27T14:23:21.829-0500"
],
"TableEditWizBackbone_v114" : [
"2021-09-28T09:24:53.068-0500"
],
"TableEditWizBackbone_v115" : [
"2021-09-28T09:25:12.897-0500"
],
"GroupAliasTreeEditWizBackbone_v84" : [
"2021-09-28T10:22:59.882-0500"
],
"GroupAliasTreeEditWizBackbone_v85" : [
"2021-09-28T11:22:06.225-0500"
],
"GroupAliasTreeEditWizBackbone_v86" : [
"2021-09-29T11:49:46.936-0500"
],
"GroupAliasTreeEditWizBackbone_v87" : [
"2021-09-30T09:14:53.341-0500"
],
"TableEditWizBackbone_v116" : [
"2021-10-01T10:56:23.818-0500"
],
"TableEditWizBackbone_v117" : [
"2021-10-01T10:56:41.722-0500"
],
"TableEditWizBackbone_v118" : [
"2021-10-01T11:01:43.444-0500"
],
"TableEditWizBackbone_v119" : [
"2021-10-01T11:03:51.276-0500"
],
"GroupAliasTreeEditWizBackbone_v88" : [
"2021-10-01T13:59:56.185-0500"
],
"GroupAliasTreeEditWizBackbone_v89" : [
"2021-10-01T14:01:56.755-0500"
],
"GroupAliasTreeEditWizBackbone_v90" : [
"2021-10-05T17:13:03.949-0500"
],
"TableEditWizBackbone_v120" : [
"2021-10-06T10:02:33.839-0500"
],
"TableEditWizBackbone_v121" : [
"2021-10-06T10:02:51.790-0500"
],
"TableEditWizBackbone_v122" : [
"2021-10-07T16:32:42.869-0500"
],
"TableEditWizBackbone_v123" : [
"2021-10-07T16:33:04.584-0500"
],
"TableEditWizBackbone_v124" : [
"2021-10-08T14:03:17.774-0500"
],
"TableEditWizBackbone_v125" : [
"2021-10-11T16:00:58.870-0500"
],
"TableEditWizBackbone_v126" : [
"2021-10-11T17:57:26.410-0500"
],
"TableEditWizBackbone_v127" : [
"2021-10-12T09:07:20.072-0500"
],
"TableEditWizBackbone_v128" : [
"2021-10-12T09:07:34.820-0500"
],
"TableEditWizBackbone_v129" : [
"2021-10-12T11:11:25.739-0500"
],
"TableEditWizBackbone_v130" : [
"2021-10-12T11:11:47.943-0500"
],
"TableEditWizBackbone_v131" : [
"2021-10-12T13:46:55.764-0500"
],
"TableEditWizBackbone_v132" : [
"2021-10-12T14:33:53.594-0500"
],
"TableEditWizBackbone_v133" : [
"2021-10-14T17:03:19.208-0500"
],
"TableEditWizBackbone_v134" : [
"2021-10-14T17:03:39.865-0500"
],
"TableEditWizBackbone_v135" : [
"2021-10-15T10:48:33.824-0500"
],
"TableEditWizBackbone_v136" : [
"2021-10-15T10:48:46.801-0500"
],
"TableEditWizBackbone_v137" : [
"2021-10-15T15:50:51.906-0500"
],
"TableEditWizBackbone_v138" : [
"2021-10-15T15:51:07.137-0500"
],
"TableEditWizBackbone_v139" : [
"2021-11-03T16:30:22.689-0500"
],
"TableEditWizBackbone_v140" : [
"2021-11-03T16:31:02.387-0500"
],
"TableEditWizBackbone_v141" : [
"2021-11-10T08:36:02.716-0600"
],
"TableEditWizBackbone_v142" : [
"2021-11-10T15:06:50.101-0600"
],
"TableEditWizBackbone_v143" : [
"2021-11-10T15:08:33.594-0600"
],
"GroupAliasTreeEditWizBackbone_v91" : [
"2021-11-10T15:11:07.822-0600"
],
"GroupAliasTreeEditWizBackbone_v92" : [
"2021-11-10T15:11:09.995-0600"
],
"GroupAliasTreeEditWizBackbone_v93" : [
"2021-11-10T16:33:24.828-0600"
],
"GroupAliasWizBackbone_v0" : [
"2022-04-18T12:56:06.100-0400"
],
"GroupAliasWizBackbone_v1" : [
"2022-04-19T14:35:58.577-0400"
],
"GroupAliasWizBackbone_v2" : [
"2022-04-19T15:00:28.909-0400"
],
"GroupAliasTreeEditWizBackbone_v94" : [
"2022-04-20T10:06:08.448-0400"
],
"GroupAliasTreeEditWizBackbone_v95" : [
"2022-04-20T10:06:55.052-0400"
],
"GroupAliasTreeEditWizBackbone_v96" : [
"2022-04-20T11:23:55.280-0400"
],
"GroupAliasWizBackbone_v3" : [
"2022-04-22T09:34:11.763-0400"
],
"GroupAliasWizBackbone_v4" : [
"2022-07-19T15:18:26.250-0400"
],
"GroupAliasWizBackbone_v5" : [
"2022-07-22T10:08:29.511-0400"
],
"GroupAliasTreeEditWizBackbone_v97" : [
"2022-07-25T11:00:01.241-0400"
],
"GroupAliasTreeEditWizBackbone_v98" : [
"2022-07-25T11:05:56.199-0400"
]
}
}