{
"document" : {
"data" : {
"NAME" : "FE_MIDDLEWARE_INTERFACE_TABLE",
"COMMENT" : "No comment.",
"AUTHOR" : "admin",
"CREATION_TIME" : 1625771129,
"COL_TYPES" : {
"INTERFACE_ID" : "STRING",
"INTERFACE_IP_ADDRESS" : "STRING",
"INTERFACE_PORT" : "NUMBER",
"CALIBRATION_NAME" : "STRING",
"CONFIGURATION_DIR" : "STRING",
"CONFIGURATION_NAME" : "STRING",
"COMMENT_DESCRIPTION" : "STRING",
"AUTHOR" : "STRING",
"RECORD_INSERTION_TIME" : "TIMESTAMP WITH TIMEZONE"
},
"DATA_SET" : [

]
},
"metadata" : {

},
"search" : [

]
},
"comments" : [

],
"origin" : {
"source" : "template",
"name" : "notprovided",
"format" : "json",
"created" : "2021-07-08T14:05:29.034-0500",
"rawdata" : [

]
},
"version" : "8",
"entities" : [
{
"name" : "OTSROOT",
"assigned" : "2021-07-08T14:05:29.035-0500"
}
],
"configurations" : [
{
"name" : "notprovided",
"assigned" : "2021-07-08T14:05:29.035-0500"
}
],
"changelog" : "notprovided",
"bookkeeping" : {
"isdeleted" : false,
"isreadonly" : false,
"updates" : [
{
"event" : "addConfiguration",
"timestamp" : "2021-07-08T14:05:29.035-0500",
"value" : {
"name" : "notprovided",
"assigned" : "2021-07-08T14:05:29.035-0500"
}
},
{
"event" : "setVersion",
"timestamp" : "2021-07-08T14:05:29.035-0500",
"value" : {
"name" : "8",
"assigned" : "2021-07-08T14:05:29.035-0500"
}
},
{
"event" : "setCollection",
"timestamp" : "2021-07-08T14:05:29.035-0500",
"value" : {
"name" : "FEMiddlewareInterfaceTable",
"assigned" : "2021-07-08T14:05:29.035-0500"
}
},
{
"event" : "addEntity",
"timestamp" : "2021-07-08T14:05:29.035-0500",
"value" : {
"name" : "OTSROOT",
"assigned" : "2021-07-08T14:05:29.035-0500"
}
}
],
"created" : "2021-07-08T14:05:29.034-0500"
},
"_id" : {
"$oid" : "96555058ee0444a188541548"
},
"collection" : "FEMiddlewareInterfaceTable",
"aliases" : {
"active" : [

],
"history" : [

]
},
"runs" : [

],
"attachments" : [

],
"configtype" : "notprovided"
}