{
"document" : {
"data" : {
"NAME" : "FE_INTERFACE_TABLE",
"COMMENT" : "FE interfaces top level.",
"AUTHOR" : "admin",
"CREATION_TIME" : 1603990464,
"COL_TYPES" : {
"FE_INTERFACE_GROUP_ID" : "STRING",
"FE_INTERFACE_UID" : "STRING",
"STATUS" : "STRING",
"FE_INTERFACE_PLUGIN_NAME" : "STRING",
"LINK_TO_FE_TYPE_TABLE" : "STRING",
"LINK_TO_FE_TYPE_UID" : "STRING",
"LINK_TO_FE_TO_DETECTOR_TABLE" : "STRING",
"LINK_TO_FE_TO_DETECTOR_GROUP_ID" : "STRING",
"LINK_TO_SLOW_CONTROLS_CHANNEL_TABLE" : "STRING",
"LINK_TO_SLOW_CONTROLS_CHANNEL_GROUP_ID" : "STRING",
"LINK_TO_SLOW_CONTROLS_MONITOR_TABLE" : "STRING",
"LINK_TO_SLOW_CONTROLS_MONITOR_UID" : "STRING",
"SLOW_CONTROLS_TX_SOCKET_IP_ADDRESS" : "STRING",
"SLOW_CONTROLS_TX_SOCKET_PORT" : "NUMBER",
"SLOW_CONTROLS_LOCAL_AGGREGATE_SAVING_ENABLED" : "STRING",
"SLOW_CONTROLS_LOCAL_FILE_PATH" : "STRING",
"SLOW_CONTROLS_RADIX_FILE_NAME" : "STRING",
"SLOW_CONTROLS_SAVE_BINARY_FILE" : "STRING",
"COMMENT_DESCRIPTION" : "STRING",
"AUTHOR" : "STRING",
"RECORD_INSERTION_TIME" : "TIMESTAMP WITH TIMEZONE"
},
"DATA_SET" : [
{
"FE_INTERFACE_GROUP_ID" : "FETrackerSupervisor0",
"FE_INTERFACE_UID" : "FETrackerInterface0",
"STATUS" : "On",
"FE_INTERFACE_PLUGIN_NAME" : "FEMiddlewareInterface",
"LINK_TO_FE_TYPE_TABLE" : "FEMiddlewareInterfaceTable",
"LINK_TO_FE_TYPE_UID" : "FETrackerInterface0",
"LINK_TO_FE_TO_DETECTOR_TABLE" : "NO_LINK",
"LINK_TO_FE_TO_DETECTOR_GROUP_ID" : "DEFAULT",
"LINK_TO_SLOW_CONTROLS_CHANNEL_TABLE" : "NO_LINK",
"LINK_TO_SLOW_CONTROLS_CHANNEL_GROUP_ID" : "DEFAULT",
"LINK_TO_SLOW_CONTROLS_MONITOR_TABLE" : "NO_LINK",
"LINK_TO_SLOW_CONTROLS_MONITOR_UID" : "DEFAULT",
"SLOW_CONTROLS_TX_SOCKET_IP_ADDRESS" : "DEFAULT",
"SLOW_CONTROLS_TX_SOCKET_PORT" : "0",
"SLOW_CONTROLS_LOCAL_AGGREGATE_SAVING_ENABLED" : "No",
"SLOW_CONTROLS_LOCAL_FILE_PATH" : "DEFAULT",
"SLOW_CONTROLS_RADIX_FILE_NAME" : "DEFAULT",
"SLOW_CONTROLS_SAVE_BINARY_FILE" : "False",
"COMMENT_DESCRIPTION" : "",
"AUTHOR" : "admin",
"RECORD_INSERTION_TIME" : "1601934671"
},
{
"FE_INTERFACE_GROUP_ID" : "FETrackerSupervisor1",
"FE_INTERFACE_UID" : "FETrackerInterface1",
"STATUS" : "Off",
"FE_INTERFACE_PLUGIN_NAME" : "FEMiddlewareInterface",
"LINK_TO_FE_TYPE_TABLE" : "FEMiddlewareInterfaceTable",
"LINK_TO_FE_TYPE_UID" : "FETrackerInterface1",
"LINK_TO_FE_TO_DETECTOR_TABLE" : "NO_LINK",
"LINK_TO_FE_TO_DETECTOR_GROUP_ID" : "DEFAULT",
"LINK_TO_SLOW_CONTROLS_CHANNEL_TABLE" : "NO_LINK",
"LINK_TO_SLOW_CONTROLS_CHANNEL_GROUP_ID" : "DEFAULT",
"LINK_TO_SLOW_CONTROLS_MONITOR_TABLE" : "NO_LINK",
"LINK_TO_SLOW_CONTROLS_MONITOR_UID" : "DEFAULT",
"SLOW_CONTROLS_TX_SOCKET_IP_ADDRESS" : "DEFAULT",
"SLOW_CONTROLS_TX_SOCKET_PORT" : "0",
"SLOW_CONTROLS_LOCAL_AGGREGATE_SAVING_ENABLED" : "No",
"SLOW_CONTROLS_LOCAL_FILE_PATH" : "DEFAULT",
"SLOW_CONTROLS_RADIX_FILE_NAME" : "DEFAULT",
"SLOW_CONTROLS_SAVE_BINARY_FILE" : "False",
"COMMENT_DESCRIPTION" : "",
"AUTHOR" : "admin",
"RECORD_INSERTION_TIME" : "1601935781"
},
{
"FE_INTERFACE_GROUP_ID" : "FEBurninBoxSupervisor",
"FE_INTERFACE_UID" : "FEBurninBoxInterface",
"STATUS" : "On",
"FE_INTERFACE_PLUGIN_NAME" : "FECMSBurninBoxInterface",
"LINK_TO_FE_TYPE_TABLE" : "FECMSBurninBoxInterfaceTable",
"LINK_TO_FE_TYPE_UID" : "FEBurninBoxInterface",
"LINK_TO_FE_TO_DETECTOR_TABLE" : "NO_LINK",
"LINK_TO_FE_TO_DETECTOR_GROUP_ID" : "DEFAULT",
"LINK_TO_SLOW_CONTROLS_CHANNEL_TABLE" : "NO_LINK",
"LINK_TO_SLOW_CONTROLS_CHANNEL_GROUP_ID" : "DEFAULT",
"LINK_TO_SLOW_CONTROLS_MONITOR_TABLE" : "NO_LINK",
"LINK_TO_SLOW_CONTROLS_MONITOR_UID" : "DEFAULT",
"SLOW_CONTROLS_TX_SOCKET_IP_ADDRESS" : "DEFAULT",
"SLOW_CONTROLS_TX_SOCKET_PORT" : "0",
"SLOW_CONTROLS_LOCAL_AGGREGATE_SAVING_ENABLED" : "No",
"SLOW_CONTROLS_LOCAL_FILE_PATH" : "DEFAULT",
"SLOW_CONTROLS_RADIX_FILE_NAME" : "DEFAULT",
"SLOW_CONTROLS_SAVE_BINARY_FILE" : "False",
"COMMENT_DESCRIPTION" : "",
"AUTHOR" : "admin",
"RECORD_INSERTION_TIME" : "1601935781"
},
{
"FE_INTERFACE_GROUP_ID" : "FEPowerSupplySupervisor",
"FE_INTERFACE_UID" : "FEPowerSupplyInterface",
"STATUS" : "On",
"FE_INTERFACE_PLUGIN_NAME" : "FEPowerSupplyInterface",
"LINK_TO_FE_TYPE_TABLE" : "FEPowerSupplyInterfaceTable",
"LINK_TO_FE_TYPE_UID" : "FEPowerSupplyInterface",
"LINK_TO_FE_TO_DETECTOR_TABLE" : "NO_LINK",
"LINK_TO_FE_TO_DETECTOR_GROUP_ID" : "DEFAULT",
"LINK_TO_SLOW_CONTROLS_CHANNEL_TABLE" : "NO_LINK",
"LINK_TO_SLOW_CONTROLS_CHANNEL_GROUP_ID" : "DEFAULT",
"LINK_TO_SLOW_CONTROLS_MONITOR_TABLE" : "NO_LINK",
"LINK_TO_SLOW_CONTROLS_MONITOR_UID" : "DEFAULT",
"SLOW_CONTROLS_TX_SOCKET_IP_ADDRESS" : "DEFAULT",
"SLOW_CONTROLS_TX_SOCKET_PORT" : "0",
"SLOW_CONTROLS_LOCAL_AGGREGATE_SAVING_ENABLED" : "No",
"SLOW_CONTROLS_LOCAL_FILE_PATH" : "DEFAULT",
"SLOW_CONTROLS_RADIX_FILE_NAME" : "DEFAULT",
"SLOW_CONTROLS_SAVE_BINARY_FILE" : "False",
"COMMENT_DESCRIPTION" : "",
"AUTHOR" : "admin",
"RECORD_INSERTION_TIME" : "1603990393"
}
]
},
"metadata" : {

},
"search" : [

]
},
"comments" : [

],
"origin" : {
"source" : "template",
"name" : "notprovided",
"format" : "json",
"created" : "2020-10-29T11:54:24.391-0500",
"rawdata" : [

]
},
"version" : "7",
"entities" : [
{
"name" : "OTSROOT",
"assigned" : "2020-10-29T11:54:24.392-0500"
}
],
"configurations" : [
{
"name" : "notprovided",
"assigned" : "2020-10-29T11:54:24.392-0500"
},
{
"name" : "BurninBoxConfiguration_v27",
"assigned" : "2020-10-29T11:54:26.453-0500"
},
{
"name" : "BurninBoxConfiguration_v28",
"assigned" : "2020-10-29T13:30:24.428-0500"
},
{
"name" : "BurninBoxConfiguration_v29",
"assigned" : "2020-10-29T13:45:55.816-0500"
},
{
"name" : "BurninBoxConfiguration_v30",
"assigned" : "2020-10-29T13:46:38.093-0500"
},
{
"name" : "BurninBoxConfiguration_v31",
"assigned" : "2020-10-29T13:48:02.753-0500"
},
{
"name" : "BurninBoxConfiguration_v32",
"assigned" : "2020-10-29T14:39:28.771-0500"
},
{
"name" : "BurninBoxConfiguration_v33",
"assigned" : "2021-06-30T16:17:51.768-0500"
},
{
"name" : "BurninBoxConfiguration_v34",
"assigned" : "2021-06-30T16:23:48.134-0500"
},
{
"name" : "BurninBoxConfiguration_v35",
"assigned" : "2021-07-08T14:06:14.016-0500"
},
{
"name" : "BurninBoxConfiguration_v36",
"assigned" : "2021-07-08T14:16:58.211-0500"
},
{
"name" : "BurninBoxConfiguration_v37",
"assigned" : "2021-07-08T16:20:44.777-0500"
},
{
"name" : "BurninBoxConfiguration_v38",
"assigned" : "2021-07-09T11:47:13.980-0500"
},
{
"name" : "BurninBoxConfiguration_v39",
"assigned" : "2021-07-09T11:48:46.091-0500"
},
{
"name" : "BurninBoxConfiguration_v40",
"assigned" : "2021-07-09T16:06:00.567-0500"
},
{
"name" : "BurninBoxConfiguration_v41",
"assigned" : "2021-07-12T11:04:55.548-0500"
},
{
"name" : "BurninBoxConfiguration_v42",
"assigned" : "2021-07-13T12:01:31.395-0500"
},
{
"name" : "BurninBoxConfiguration_v43",
"assigned" : "2021-07-13T12:22:05.873-0500"
},
{
"name" : "BurninBoxConfiguration_v44",
"assigned" : "2021-07-14T13:05:58.468-0500"
},
{
"name" : "BurninBoxConfiguration_v45",
"assigned" : "2021-07-14T14:26:04.638-0500"
},
{
"name" : "BurninBoxConfiguration_v46",
"assigned" : "2021-07-14T14:46:56.914-0500"
},
{
"name" : "BurninBoxConfiguration_v47",
"assigned" : "2021-07-14T15:24:33.774-0500"
},
{
"name" : "BurninBoxConfiguration_v48",
"assigned" : "2021-07-14T16:05:29.379-0500"
},
{
"name" : "BurninBoxConfiguration_v49",
"assigned" : "2021-07-14T16:15:41.022-0500"
},
{
"name" : "BurninBoxConfiguration_v50",
"assigned" : "2021-07-14T16:17:40.810-0500"
},
{
"name" : "BurninBoxConfiguration_v51",
"assigned" : "2021-07-15T11:50:33.826-0500"
},
{
"name" : "BurninBoxConfiguration_v52",
"assigned" : "2021-07-20T13:45:53.955-0500"
},
{
"name" : "BurninBoxConfiguration_v53",
"assigned" : "2021-07-20T16:41:42.149-0500"
},
{
"name" : "BurninBoxConfiguration_v54",
"assigned" : "2021-07-20T17:09:26.879-0500"
},
{
"name" : "BurninBoxConfiguration_v55",
"assigned" : "2021-07-20T17:28:40.045-0500"
},
{
"name" : "BurninBoxConfiguration_v56",
"assigned" : "2021-07-20T17:46:27.361-0500"
},
{
"name" : "BurninBoxConfiguration_v57",
"assigned" : "2021-07-21T11:50:01.930-0500"
},
{
"name" : "BurninBoxConfiguration_v58",
"assigned" : "2021-07-21T11:58:37.597-0500"
},
{
"name" : "BurninBoxConfiguration_v59",
"assigned" : "2021-07-21T11:59:33.343-0500"
},
{
"name" : "BurninBoxConfiguration_v60",
"assigned" : "2021-07-22T18:35:00.371-0500"
},
{
"name" : "BurninBoxConfiguration_v61",
"assigned" : "2021-07-23T12:33:56.681-0500"
},
{
"name" : "BurninBoxConfiguration_v62",
"assigned" : "2021-07-24T00:54:49.503-0500"
},
{
"name" : "BurninBoxConfiguration_v63",
"assigned" : "2021-07-24T12:12:51.078-0500"
},
{
"name" : "BurninBoxConfiguration_v64",
"assigned" : "2021-07-25T21:07:16.008-0500"
},
{
"name" : "BurninBoxConfiguration_v65",
"assigned" : "2021-07-26T07:43:11.902-0500"
},
{
"name" : "BurninBoxConfiguration_v66",
"assigned" : "2021-07-26T18:37:11.984-0500"
},
{
"name" : "BurninBoxConfiguration_v67",
"assigned" : "2021-07-27T08:25:40.709-0500"
},
{
"name" : "BurninBoxConfiguration_v68",
"assigned" : "2021-08-03T11:10:37.116-0500"
},
{
"name" : "BurninBoxConfiguration_v69",
"assigned" : "2021-08-04T12:21:57.489-0500"
},
{
"name" : "BurninBoxConfiguration_v70",
"assigned" : "2021-09-02T13:43:33.941-0500"
},
{
"name" : "BurninBoxConfiguration_v71",
"assigned" : "2021-09-02T14:03:36.769-0500"
},
{
"name" : "BurninBoxConfiguration_v72",
"assigned" : "2021-09-23T15:47:05.159-0500"
},
{
"name" : "BurninBoxConfiguration_v73",
"assigned" : "2021-09-23T15:47:42.112-0500"
},
{
"name" : "BurninBoxConfiguration_v74",
"assigned" : "2021-09-24T15:36:50.004-0500"
},
{
"name" : "BurninBoxConfiguration_v75",
"assigned" : "2021-09-24T15:53:23.005-0500"
},
{
"name" : "BurninBoxConfiguration_v76",
"assigned" : "2021-09-24T16:04:21.979-0500"
},
{
"name" : "BurninBoxConfiguration_v77",
"assigned" : "2021-09-24T16:28:06.826-0500"
},
{
"name" : "BurninBoxConfiguration_v78",
"assigned" : "2021-09-27T09:02:56.371-0500"
},
{
"name" : "BurninBoxConfiguration_v79",
"assigned" : "2021-09-27T14:22:24.667-0500"
},
{
"name" : "BurninBoxConfiguration_v80",
"assigned" : "2021-09-28T09:24:50.554-0500"
},
{
"name" : "BurninBoxConfiguration_v81",
"assigned" : "2021-09-30T09:14:50.846-0500"
},
{
"name" : "BurninBoxConfiguration_v82",
"assigned" : "2021-10-01T10:56:21.354-0500"
},
{
"name" : "BurninBoxConfiguration_v83",
"assigned" : "2021-10-01T11:01:40.982-0500"
},
{
"name" : "BurninBoxConfiguration_v84",
"assigned" : "2021-10-06T10:02:31.242-0500"
},
{
"name" : "BurninBoxConfiguration_v85",
"assigned" : "2021-10-07T16:32:40.369-0500"
},
{
"name" : "BurninBoxConfiguration_v86",
"assigned" : "2021-10-08T14:03:15.244-0500"
},
{
"name" : "BurninBoxConfiguration_v87",
"assigned" : "2021-10-11T16:00:56.164-0500"
},
{
"name" : "BurninBoxConfiguration_v88",
"assigned" : "2021-10-12T09:07:17.406-0500"
},
{
"name" : "BurninBoxConfiguration_v89",
"assigned" : "2021-10-12T11:11:23.077-0500"
},
{
"name" : "BurninBoxConfiguration_v90",
"assigned" : "2021-10-14T17:03:16.489-0500"
},
{
"name" : "BurninBoxConfiguration_v91",
"assigned" : "2021-10-15T10:48:31.253-0500"
},
{
"name" : "BurninBoxConfiguration_v92",
"assigned" : "2021-10-15T15:50:49.183-0500"
},
{
"name" : "BurninBoxConfiguration_v93",
"assigned" : "2021-11-03T16:30:20.043-0500"
},
{
"name" : "BurninBoxConfiguration_v94",
"assigned" : "2021-11-10T15:11:02.419-0600"
},
{
"name" : "BurninBoxConfiguration_v95",
"assigned" : "2022-04-19T14:35:56.404-0400"
},
{
"name" : "BurninBoxConfiguration_v96",
"assigned" : "2022-04-20T10:06:05.402-0400"
},
{
"name" : "BurninBoxConfiguration_v97",
"assigned" : "2022-04-20T11:23:52.125-0400"
},
{
"name" : "BurninBoxConfiguration_v98",
"assigned" : "2022-06-03T14:30:16.374-0500"
},
{
"name" : "BurninBoxConfiguration_v99",
"assigned" : "2022-06-03T14:34:09.237-0500"
},
{
"name" : "BurninBoxConfiguration_v100",
"assigned" : "2022-06-07T14:59:59.366-0500"
},
{
"name" : "BurninBoxConfiguration_v101",
"assigned" : "2022-06-07T15:05:53.611-0500"
},
{
"name" : "BurninBoxConfiguration_v102",
"assigned" : "2022-06-07T16:09:17.614-0500"
},
{
"name" : "BurninBoxConfiguration_v103",
"assigned" : "2022-06-10T10:17:25.900-0500"
},
{
"name" : "BurninBoxConfiguration_v104",
"assigned" : "2022-06-10T10:18:22.390-0500"
},
{
"name" : "BurninBoxConfiguration_v105",
"assigned" : "2022-06-13T14:13:01.121-0500"
},
{
"name" : "BurninBoxConfiguration_v106",
"assigned" : "2022-06-13T15:22:18.515-0500"
},
{
"name" : "BurninBoxConfiguration_v107",
"assigned" : "2022-06-21T15:37:14.641-0500"
},
{
"name" : "BurninBoxConfiguration_v108",
"assigned" : "2022-06-21T15:39:37.220-0500"
},
{
"name" : "BurninBoxConfiguration_v109",
"assigned" : "2022-06-30T12:02:31.660-0500"
},
{
"name" : "BurninBoxConfiguration_v110",
"assigned" : "2023-01-19T10:05:42.972-0600"
},
{
"name" : "BurninBoxConfiguration_v111",
"assigned" : "2023-01-19T10:08:19.781-0600"
},
{
"name" : "BurninBoxConfiguration_v112",
"assigned" : "2023-01-19T11:02:44.874-0600"
},
{
"name" : "BurninBoxConfiguration_v113",
"assigned" : "2023-01-20T11:51:30.870-0600"
},
{
"name" : "BurninBoxConfiguration_v114",
"assigned" : "2023-01-30T11:15:46.013-0600"
},
{
"name" : "BurninBoxConfiguration_v115",
"assigned" : "2023-03-01T10:10:33.864-0600"
},
{
"name" : "BurninBoxConfiguration_v116",
"assigned" : "2023-03-07T16:36:50.864-0600"
},
{
"name" : "BurninBoxConfiguration_v117",
"assigned" : "2023-03-09T15:31:31.887-0600"
},
{
"name" : "BurninBoxConfiguration_v118",
"assigned" : "2023-03-15T12:03:56.011-0500"
},
{
"name" : "BurninBoxConfiguration_v119",
"assigned" : "2023-03-16T14:10:40.825-0500"
},
{
"name" : "BurninBoxConfiguration_v120",
"assigned" : "2023-04-04T11:18:54.223-0500"
},
{
"name" : "BurninBoxConfiguration_v121",
"assigned" : "2023-04-04T11:19:17.320-0500"
},
{
"name" : "BurninBoxConfiguration_v122",
"assigned" : "2023-04-04T11:23:00.888-0500"
},
{
"name" : "BurninBoxConfiguration_v123",
"assigned" : "2023-04-04T13:48:51.760-0500"
},
{
"name" : "BurninBoxConfiguration_v124",
"assigned" : "2023-04-04T13:51:58.922-0500"
},
{
"name" : "BurninBoxConfiguration_v125",
"assigned" : "2023-04-04T14:31:00.484-0500"
},
{
"name" : "BurninBoxConfiguration_v126",
"assigned" : "2023-04-04T16:05:04.449-0500"
},
{
"name" : "BurninBoxConfiguration_v127",
"assigned" : "2023-04-07T10:09:32.334-0500"
},
{
"name" : "BurninBoxConfiguration_v128",
"assigned" : "2023-04-07T16:20:29.551-0500"
},
{
"name" : "BurninBoxConfiguration_v129",
"assigned" : "2023-04-14T10:53:43.849-0500"
},
{
"name" : "BurninBoxConfiguration_v130",
"assigned" : "2023-04-14T11:01:23.623-0500"
},
{
"name" : "BurninBoxConfiguration_v131",
"assigned" : "2023-04-14T11:05:25.661-0500"
},
{
"name" : "BurninBoxConfiguration_v132",
"assigned" : "2023-04-14T12:25:10.794-0500"
},
{
"name" : "BurninBoxConfiguration_v133",
"assigned" : "2023-04-14T14:03:26.773-0500"
},
{
"name" : "BurninBoxConfiguration_v134",
"assigned" : "2023-04-14T15:36:49.356-0500"
},
{
"name" : "BurninBoxConfiguration_v135",
"assigned" : "2023-04-14T15:57:03.967-0500"
},
{
"name" : "BurninBoxConfiguration_v136",
"assigned" : "2023-04-14T15:59:00.571-0500"
},
{
"name" : "BurninBoxConfiguration_v137",
"assigned" : "2023-04-14T16:18:32.544-0500"
},
{
"name" : "BurninBoxConfiguration_v138",
"assigned" : "2023-04-14T16:20:11.744-0500"
},
{
"name" : "BurninBoxConfiguration_v139",
"assigned" : "2023-04-17T15:51:48.818-0500"
},
{
"name" : "BurninBoxConfiguration_v140",
"assigned" : "2023-04-18T10:48:02.177-0500"
},
{
"name" : "BurninBoxConfiguration_v141",
"assigned" : "2023-04-18T12:02:41.252-0500"
},
{
"name" : "BurninBoxConfiguration_v142",
"assigned" : "2023-04-18T12:03:56.764-0500"
},
{
"name" : "BurninBoxConfiguration_v143",
"assigned" : "2023-04-18T13:48:31.724-0500"
},
{
"name" : "BurninBoxConfiguration_v144",
"assigned" : "2023-04-18T14:33:54.948-0500"
},
{
"name" : "BurninBoxConfiguration_v145",
"assigned" : "2023-04-18T16:14:31.512-0500"
},
{
"name" : "BurninBoxConfiguration_v146",
"assigned" : "2023-04-18T16:20:21.053-0500"
},
{
"name" : "BurninBoxConfiguration_v147",
"assigned" : "2023-04-21T15:02:47.995-0500"
},
{
"name" : "BurninBoxConfiguration_v148",
"assigned" : "2023-05-09T09:06:44.228-0500"
},
{
"name" : "BurninBoxConfiguration_v149",
"assigned" : "2023-05-11T08:26:02.346-0500"
},
{
"name" : "BurninBoxConfiguration_v150",
"assigned" : "2023-05-11T14:10:22.782-0500"
},
{
"name" : "BurninBoxConfiguration_v151",
"assigned" : "2023-05-11T14:10:59.859-0500"
},
{
"name" : "BurninBoxConfiguration_v152",
"assigned" : "2023-05-11T14:12:47.852-0500"
},
{
"name" : "BurninBoxConfiguration_v153",
"assigned" : "2023-05-19T11:54:17.723-0500"
},
{
"name" : "BurninBoxConfiguration_v154",
"assigned" : "2023-05-19T11:57:27.508-0500"
},
{
"name" : "BurninBoxConfiguration_v155",
"assigned" : "2023-05-19T13:22:53.629-0500"
},
{
"name" : "BurninBoxConfiguration_v156",
"assigned" : "2023-06-01T14:54:09.909-0500"
},
{
"name" : "BurninBoxConfiguration_v157",
"assigned" : "2023-06-01T14:56:07.238-0500"
},
{
"name" : "BurninBoxConfiguration_v158",
"assigned" : "2023-06-01T14:56:43.870-0500"
},
{
"name" : "BurninBoxConfiguration_v159",
"assigned" : "2023-06-02T12:37:16.893-0500"
}
],
"changelog" : "notprovided",
"bookkeeping" : {
"isdeleted" : false,
"isreadonly" : false,
"updates" : [
{
"event" : "addConfiguration",
"timestamp" : "2020-10-29T11:54:24.392-0500",
"value" : {
"name" : "notprovided",
"assigned" : "2020-10-29T11:54:24.392-0500"
}
},
{
"event" : "setVersion",
"timestamp" : "2020-10-29T11:54:24.392-0500",
"value" : {
"name" : "7",
"assigned" : "2020-10-29T11:54:24.392-0500"
}
},
{
"event" : "setCollection",
"timestamp" : "2020-10-29T11:54:24.392-0500",
"value" : {
"name" : "FEInterfaceTable",
"assigned" : "2020-10-29T11:54:24.392-0500"
}
},
{
"event" : "addEntity",
"timestamp" : "2020-10-29T11:54:24.392-0500",
"value" : {
"name" : "OTSROOT",
"assigned" : "2020-10-29T11:54:24.392-0500"
}
},
{
"event" : "addConfiguration",
"timestamp" : "2020-10-29T11:54:26.453-0500",
"value" : {
"name" : "BurninBoxConfiguration_v27",
"assigned" : "2020-10-29T11:54:26.453-0500"
}
},
{
"event" : "addConfiguration",
"timestamp" : "2020-10-29T13:30:24.428-0500",
"value" : {
"name" : "BurninBoxConfiguration_v28",
"assigned" : "2020-10-29T13:30:24.428-0500"
}
},
{
"event" : "addConfiguration",
"timestamp" : "2020-10-29T13:45:55.816-0500",
"value" : {
"name" : "BurninBoxConfiguration_v29",
"assigned" : "2020-10-29T13:45:55.816-0500"
}
},
{
"event" : "addConfiguration",
"timestamp" : "2020-10-29T13:46:38.093-0500",
"value" : {
"name" : "BurninBoxConfiguration_v30",
"assigned" : "2020-10-29T13:46:38.093-0500"
}
},
{
"event" : "addConfiguration",
"timestamp" : "2020-10-29T13:48:02.753-0500",
"value" : {
"name" : "BurninBoxConfiguration_v31",
"assigned" : "2020-10-29T13:48:02.753-0500"
}
},
{
"event" : "addConfiguration",
"timestamp" : "2020-10-29T14:39:28.771-0500",
"value" : {
"name" : "BurninBoxConfiguration_v32",
"assigned" : "2020-10-29T14:39:28.771-0500"
}
},
{
"event" : "addConfiguration",
"timestamp" : "2021-06-30T16:17:51.768-0500",
"value" : {
"name" : "BurninBoxConfiguration_v33",
"assigned" : "2021-06-30T16:17:51.768-0500"
}
},
{
"event" : "addConfiguration",
"timestamp" : "2021-06-30T16:23:48.134-0500",
"value" : {
"name" : "BurninBoxConfiguration_v34",
"assigned" : "2021-06-30T16:23:48.134-0500"
}
},
{
"event" : "addConfiguration",
"timestamp" : "2021-07-08T14:06:14.016-0500",
"value" : {
"name" : "BurninBoxConfiguration_v35",
"assigned" : "2021-07-08T14:06:14.016-0500"
}
},
{
"event" : "addConfiguration",
"timestamp" : "2021-07-08T14:16:58.211-0500",
"value" : {
"name" : "BurninBoxConfiguration_v36",
"assigned" : "2021-07-08T14:16:58.211-0500"
}
},
{
"event" : "addConfiguration",
"timestamp" : "2021-07-08T16:20:44.777-0500",
"value" : {
"name" : "BurninBoxConfiguration_v37",
"assigned" : "2021-07-08T16:20:44.777-0500"
}
},
{
"event" : "addConfiguration",
"timestamp" : "2021-07-09T11:47:13.980-0500",
"value" : {
"name" : "BurninBoxConfiguration_v38",
"assigned" : "2021-07-09T11:47:13.980-0500"
}
},
{
"event" : "addConfiguration",
"timestamp" : "2021-07-09T11:48:46.092-0500",
"value" : {
"name" : "BurninBoxConfiguration_v39",
"assigned" : "2021-07-09T11:48:46.091-0500"
}
},
{
"event" : "addConfiguration",
"timestamp" : "2021-07-09T16:06:00.567-0500",
"value" : {
"name" : "BurninBoxConfiguration_v40",
"assigned" : "2021-07-09T16:06:00.567-0500"
}
},
{
"event" : "addConfiguration",
"timestamp" : "2021-07-12T11:04:55.548-0500",
"value" : {
"name" : "BurninBoxConfiguration_v41",
"assigned" : "2021-07-12T11:04:55.548-0500"
}
},
{
"event" : "addConfiguration",
"timestamp" : "2021-07-13T12:01:31.395-0500",
"value" : {
"name" : "BurninBoxConfiguration_v42",
"assigned" : "2021-07-13T12:01:31.395-0500"
}
},
{
"event" : "addConfiguration",
"timestamp" : "2021-07-13T12:22:05.873-0500",
"value" : {
"name" : "BurninBoxConfiguration_v43",
"assigned" : "2021-07-13T12:22:05.873-0500"
}
},
{
"event" : "addConfiguration",
"timestamp" : "2021-07-14T13:05:58.468-0500",
"value" : {
"name" : "BurninBoxConfiguration_v44",
"assigned" : "2021-07-14T13:05:58.468-0500"
}
},
{
"event" : "addConfiguration",
"timestamp" : "2021-07-14T14:26:04.638-0500",
"value" : {
"name" : "BurninBoxConfiguration_v45",
"assigned" : "2021-07-14T14:26:04.638-0500"
}
},
{
"event" : "addConfiguration",
"timestamp" : "2021-07-14T14:46:56.914-0500",
"value" : {
"name" : "BurninBoxConfiguration_v46",
"assigned" : "2021-07-14T14:46:56.914-0500"
}
},
{
"event" : "addConfiguration",
"timestamp" : "2021-07-14T15:24:33.775-0500",
"value" : {
"name" : "BurninBoxConfiguration_v47",
"assigned" : "2021-07-14T15:24:33.774-0500"
}
},
{
"event" : "addConfiguration",
"timestamp" : "2021-07-14T16:05:29.379-0500",
"value" : {
"name" : "BurninBoxConfiguration_v48",
"assigned" : "2021-07-14T16:05:29.379-0500"
}
},
{
"event" : "addConfiguration",
"timestamp" : "2021-07-14T16:15:41.022-0500",
"value" : {
"name" : "BurninBoxConfiguration_v49",
"assigned" : "2021-07-14T16:15:41.022-0500"
}
},
{
"event" : "addConfiguration",
"timestamp" : "2021-07-14T16:17:40.810-0500",
"value" : {
"name" : "BurninBoxConfiguration_v50",
"assigned" : "2021-07-14T16:17:40.810-0500"
}
},
{
"event" : "addConfiguration",
"timestamp" : "2021-07-15T11:50:33.826-0500",
"value" : {
"name" : "BurninBoxConfiguration_v51",
"assigned" : "2021-07-15T11:50:33.826-0500"
}
},
{
"event" : "addConfiguration",
"timestamp" : "2021-07-20T13:45:53.955-0500",
"value" : {
"name" : "BurninBoxConfiguration_v52",
"assigned" : "2021-07-20T13:45:53.955-0500"
}
},
{
"event" : "addConfiguration",
"timestamp" : "2021-07-20T16:41:42.149-0500",
"value" : {
"name" : "BurninBoxConfiguration_v53",
"assigned" : "2021-07-20T16:41:42.149-0500"
}
},
{
"event" : "addConfiguration",
"timestamp" : "2021-07-20T17:09:26.879-0500",
"value" : {
"name" : "BurninBoxConfiguration_v54",
"assigned" : "2021-07-20T17:09:26.879-0500"
}
},
{
"event" : "addConfiguration",
"timestamp" : "2021-07-20T17:28:40.045-0500",
"value" : {
"name" : "BurninBoxConfiguration_v55",
"assigned" : "2021-07-20T17:28:40.045-0500"
}
},
{
"event" : "addConfiguration",
"timestamp" : "2021-07-20T17:46:27.361-0500",
"value" : {
"name" : "BurninBoxConfiguration_v56",
"assigned" : "2021-07-20T17:46:27.361-0500"
}
},
{
"event" : "addConfiguration",
"timestamp" : "2021-07-21T11:50:01.930-0500",
"value" : {
"name" : "BurninBoxConfiguration_v57",
"assigned" : "2021-07-21T11:50:01.930-0500"
}
},
{
"event" : "addConfiguration",
"timestamp" : "2021-07-21T11:58:37.597-0500",
"value" : {
"name" : "BurninBoxConfiguration_v58",
"assigned" : "2021-07-21T11:58:37.597-0500"
}
},
{
"event" : "addConfiguration",
"timestamp" : "2021-07-21T11:59:33.343-0500",
"value" : {
"name" : "BurninBoxConfiguration_v59",
"assigned" : "2021-07-21T11:59:33.343-0500"
}
},
{
"event" : "addConfiguration",
"timestamp" : "2021-07-22T18:35:00.371-0500",
"value" : {
"name" : "BurninBoxConfiguration_v60",
"assigned" : "2021-07-22T18:35:00.371-0500"
}
},
{
"event" : "addConfiguration",
"timestamp" : "2021-07-23T12:33:56.681-0500",
"value" : {
"name" : "BurninBoxConfiguration_v61",
"assigned" : "2021-07-23T12:33:56.681-0500"
}
},
{
"event" : "addConfiguration",
"timestamp" : "2021-07-24T00:54:49.503-0500",
"value" : {
"name" : "BurninBoxConfiguration_v62",
"assigned" : "2021-07-24T00:54:49.503-0500"
}
},
{
"event" : "addConfiguration",
"timestamp" : "2021-07-24T12:12:51.078-0500",
"value" : {
"name" : "BurninBoxConfiguration_v63",
"assigned" : "2021-07-24T12:12:51.078-0500"
}
},
{
"event" : "addConfiguration",
"timestamp" : "2021-07-25T21:07:16.008-0500",
"value" : {
"name" : "BurninBoxConfiguration_v64",
"assigned" : "2021-07-25T21:07:16.008-0500"
}
},
{
"event" : "addConfiguration",
"timestamp" : "2021-07-26T07:43:11.902-0500",
"value" : {
"name" : "BurninBoxConfiguration_v65",
"assigned" : "2021-07-26T07:43:11.902-0500"
}
},
{
"event" : "addConfiguration",
"timestamp" : "2021-07-26T18:37:11.985-0500",
"value" : {
"name" : "BurninBoxConfiguration_v66",
"assigned" : "2021-07-26T18:37:11.984-0500"
}
},
{
"event" : "addConfiguration",
"timestamp" : "2021-07-27T08:25:40.709-0500",
"value" : {
"name" : "BurninBoxConfiguration_v67",
"assigned" : "2021-07-27T08:25:40.709-0500"
}
},
{
"event" : "addConfiguration",
"timestamp" : "2021-08-03T11:10:37.116-0500",
"value" : {
"name" : "BurninBoxConfiguration_v68",
"assigned" : "2021-08-03T11:10:37.116-0500"
}
},
{
"event" : "addConfiguration",
"timestamp" : "2021-08-04T12:21:57.489-0500",
"value" : {
"name" : "BurninBoxConfiguration_v69",
"assigned" : "2021-08-04T12:21:57.489-0500"
}
},
{
"event" : "addConfiguration",
"timestamp" : "2021-09-02T13:43:33.941-0500",
"value" : {
"name" : "BurninBoxConfiguration_v70",
"assigned" : "2021-09-02T13:43:33.941-0500"
}
},
{
"event" : "addConfiguration",
"timestamp" : "2021-09-02T14:03:36.769-0500",
"value" : {
"name" : "BurninBoxConfiguration_v71",
"assigned" : "2021-09-02T14:03:36.769-0500"
}
},
{
"event" : "addConfiguration",
"timestamp" : "2021-09-23T15:47:05.159-0500",
"value" : {
"name" : "BurninBoxConfiguration_v72",
"assigned" : "2021-09-23T15:47:05.159-0500"
}
},
{
"event" : "addConfiguration",
"timestamp" : "2021-09-23T15:47:42.113-0500",
"value" : {
"name" : "BurninBoxConfiguration_v73",
"assigned" : "2021-09-23T15:47:42.112-0500"
}
},
{
"event" : "addConfiguration",
"timestamp" : "2021-09-24T15:36:50.004-0500",
"value" : {
"name" : "BurninBoxConfiguration_v74",
"assigned" : "2021-09-24T15:36:50.004-0500"
}
},
{
"event" : "addConfiguration",
"timestamp" : "2021-09-24T15:53:23.006-0500",
"value" : {
"name" : "BurninBoxConfiguration_v75",
"assigned" : "2021-09-24T15:53:23.005-0500"
}
},
{
"event" : "addConfiguration",
"timestamp" : "2021-09-24T16:04:21.979-0500",
"value" : {
"name" : "BurninBoxConfiguration_v76",
"assigned" : "2021-09-24T16:04:21.979-0500"
}
},
{
"event" : "addConfiguration",
"timestamp" : "2021-09-24T16:28:06.826-0500",
"value" : {
"name" : "BurninBoxConfiguration_v77",
"assigned" : "2021-09-24T16:28:06.826-0500"
}
},
{
"event" : "addConfiguration",
"timestamp" : "2021-09-27T09:02:56.371-0500",
"value" : {
"name" : "BurninBoxConfiguration_v78",
"assigned" : "2021-09-27T09:02:56.371-0500"
}
},
{
"event" : "addConfiguration",
"timestamp" : "2021-09-27T14:22:24.668-0500",
"value" : {
"name" : "BurninBoxConfiguration_v79",
"assigned" : "2021-09-27T14:22:24.667-0500"
}
},
{
"event" : "addConfiguration",
"timestamp" : "2021-09-28T09:24:50.554-0500",
"value" : {
"name" : "BurninBoxConfiguration_v80",
"assigned" : "2021-09-28T09:24:50.554-0500"
}
},
{
"event" : "addConfiguration",
"timestamp" : "2021-09-30T09:14:50.846-0500",
"value" : {
"name" : "BurninBoxConfiguration_v81",
"assigned" : "2021-09-30T09:14:50.846-0500"
}
},
{
"event" : "addConfiguration",
"timestamp" : "2021-10-01T10:56:21.354-0500",
"value" : {
"name" : "BurninBoxConfiguration_v82",
"assigned" : "2021-10-01T10:56:21.354-0500"
}
},
{
"event" : "addConfiguration",
"timestamp" : "2021-10-01T11:01:40.982-0500",
"value" : {
"name" : "BurninBoxConfiguration_v83",
"assigned" : "2021-10-01T11:01:40.982-0500"
}
},
{
"event" : "addConfiguration",
"timestamp" : "2021-10-06T10:02:31.242-0500",
"value" : {
"name" : "BurninBoxConfiguration_v84",
"assigned" : "2021-10-06T10:02:31.242-0500"
}
},
{
"event" : "addConfiguration",
"timestamp" : "2021-10-07T16:32:40.369-0500",
"value" : {
"name" : "BurninBoxConfiguration_v85",
"assigned" : "2021-10-07T16:32:40.369-0500"
}
},
{
"event" : "addConfiguration",
"timestamp" : "2021-10-08T14:03:15.244-0500",
"value" : {
"name" : "BurninBoxConfiguration_v86",
"assigned" : "2021-10-08T14:03:15.244-0500"
}
},
{
"event" : "addConfiguration",
"timestamp" : "2021-10-11T16:00:56.164-0500",
"value" : {
"name" : "BurninBoxConfiguration_v87",
"assigned" : "2021-10-11T16:00:56.164-0500"
}
},
{
"event" : "addConfiguration",
"timestamp" : "2021-10-12T09:07:17.406-0500",
"value" : {
"name" : "BurninBoxConfiguration_v88",
"assigned" : "2021-10-12T09:07:17.406-0500"
}
},
{
"event" : "addConfiguration",
"timestamp" : "2021-10-12T11:11:23.077-0500",
"value" : {
"name" : "BurninBoxConfiguration_v89",
"assigned" : "2021-10-12T11:11:23.077-0500"
}
},
{
"event" : "addConfiguration",
"timestamp" : "2021-10-14T17:03:16.489-0500",
"value" : {
"name" : "BurninBoxConfiguration_v90",
"assigned" : "2021-10-14T17:03:16.489-0500"
}
},
{
"event" : "addConfiguration",
"timestamp" : "2021-10-15T10:48:31.253-0500",
"value" : {
"name" : "BurninBoxConfiguration_v91",
"assigned" : "2021-10-15T10:48:31.253-0500"
}
},
{
"event" : "addConfiguration",
"timestamp" : "2021-10-15T15:50:49.184-0500",
"value" : {
"name" : "BurninBoxConfiguration_v92",
"assigned" : "2021-10-15T15:50:49.183-0500"
}
},
{
"event" : "addConfiguration",
"timestamp" : "2021-11-03T16:30:20.043-0500",
"value" : {
"name" : "BurninBoxConfiguration_v93",
"assigned" : "2021-11-03T16:30:20.043-0500"
}
},
{
"event" : "addConfiguration",
"timestamp" : "2021-11-10T15:11:02.419-0600",
"value" : {
"name" : "BurninBoxConfiguration_v94",
"assigned" : "2021-11-10T15:11:02.419-0600"
}
},
{
"event" : "addConfiguration",
"timestamp" : "2022-04-19T14:35:56.404-0400",
"value" : {
"name" : "BurninBoxConfiguration_v95",
"assigned" : "2022-04-19T14:35:56.404-0400"
}
},
{
"event" : "addConfiguration",
"timestamp" : "2022-04-20T10:06:05.402-0400",
"value" : {
"name" : "BurninBoxConfiguration_v96",
"assigned" : "2022-04-20T10:06:05.402-0400"
}
},
{
"event" : "addConfiguration",
"timestamp" : "2022-04-20T11:23:52.125-0400",
"value" : {
"name" : "BurninBoxConfiguration_v97",
"assigned" : "2022-04-20T11:23:52.125-0400"
}
},
{
"event" : "addConfiguration",
"timestamp" : "2022-06-03T14:30:16.374-0500",
"value" : {
"name" : "BurninBoxConfiguration_v98",
"assigned" : "2022-06-03T14:30:16.374-0500"
}
},
{
"event" : "addConfiguration",
"timestamp" : "2022-06-03T14:34:09.237-0500",
"value" : {
"name" : "BurninBoxConfiguration_v99",
"assigned" : "2022-06-03T14:34:09.237-0500"
}
},
{
"event" : "addConfiguration",
"timestamp" : "2022-06-07T14:59:59.367-0500",
"value" : {
"name" : "BurninBoxConfiguration_v100",
"assigned" : "2022-06-07T14:59:59.366-0500"
}
},
{
"event" : "addConfiguration",
"timestamp" : "2022-06-07T15:05:53.611-0500",
"value" : {
"name" : "BurninBoxConfiguration_v101",
"assigned" : "2022-06-07T15:05:53.611-0500"
}
},
{
"event" : "addConfiguration",
"timestamp" : "2022-06-07T16:09:17.614-0500",
"value" : {
"name" : "BurninBoxConfiguration_v102",
"assigned" : "2022-06-07T16:09:17.614-0500"
}
},
{
"event" : "addConfiguration",
"timestamp" : "2022-06-10T10:17:25.901-0500",
"value" : {
"name" : "BurninBoxConfiguration_v103",
"assigned" : "2022-06-10T10:17:25.900-0500"
}
},
{
"event" : "addConfiguration",
"timestamp" : "2022-06-10T10:18:22.390-0500",
"value" : {
"name" : "BurninBoxConfiguration_v104",
"assigned" : "2022-06-10T10:18:22.390-0500"
}
},
{
"event" : "addConfiguration",
"timestamp" : "2022-06-13T14:13:01.121-0500",
"value" : {
"name" : "BurninBoxConfiguration_v105",
"assigned" : "2022-06-13T14:13:01.121-0500"
}
},
{
"event" : "addConfiguration",
"timestamp" : "2022-06-13T15:22:18.516-0500",
"value" : {
"name" : "BurninBoxConfiguration_v106",
"assigned" : "2022-06-13T15:22:18.515-0500"
}
},
{
"event" : "addConfiguration",
"timestamp" : "2022-06-21T15:37:14.641-0500",
"value" : {
"name" : "BurninBoxConfiguration_v107",
"assigned" : "2022-06-21T15:37:14.641-0500"
}
},
{
"event" : "addConfiguration",
"timestamp" : "2022-06-21T15:39:37.220-0500",
"value" : {
"name" : "BurninBoxConfiguration_v108",
"assigned" : "2022-06-21T15:39:37.220-0500"
}
},
{
"event" : "addConfiguration",
"timestamp" : "2022-06-30T12:02:31.660-0500",
"value" : {
"name" : "BurninBoxConfiguration_v109",
"assigned" : "2022-06-30T12:02:31.660-0500"
}
},
{
"event" : "addConfiguration",
"timestamp" : "2023-01-19T10:05:42.972-0600",
"value" : {
"name" : "BurninBoxConfiguration_v110",
"assigned" : "2023-01-19T10:05:42.972-0600"
}
},
{
"event" : "addConfiguration",
"timestamp" : "2023-01-19T10:08:19.781-0600",
"value" : {
"name" : "BurninBoxConfiguration_v111",
"assigned" : "2023-01-19T10:08:19.781-0600"
}
},
{
"event" : "addConfiguration",
"timestamp" : "2023-01-19T11:02:44.874-0600",
"value" : {
"name" : "BurninBoxConfiguration_v112",
"assigned" : "2023-01-19T11:02:44.874-0600"
}
},
{
"event" : "addConfiguration",
"timestamp" : "2023-01-20T11:51:30.870-0600",
"value" : {
"name" : "BurninBoxConfiguration_v113",
"assigned" : "2023-01-20T11:51:30.870-0600"
}
},
{
"event" : "addConfiguration",
"timestamp" : "2023-01-30T11:15:46.013-0600",
"value" : {
"name" : "BurninBoxConfiguration_v114",
"assigned" : "2023-01-30T11:15:46.013-0600"
}
},
{
"event" : "addConfiguration",
"timestamp" : "2023-03-01T10:10:33.864-0600",
"value" : {
"name" : "BurninBoxConfiguration_v115",
"assigned" : "2023-03-01T10:10:33.864-0600"
}
},
{
"event" : "addConfiguration",
"timestamp" : "2023-03-07T16:36:50.864-0600",
"value" : {
"name" : "BurninBoxConfiguration_v116",
"assigned" : "2023-03-07T16:36:50.864-0600"
}
},
{
"event" : "addConfiguration",
"timestamp" : "2023-03-09T15:31:31.887-0600",
"value" : {
"name" : "BurninBoxConfiguration_v117",
"assigned" : "2023-03-09T15:31:31.887-0600"
}
},
{
"event" : "addConfiguration",
"timestamp" : "2023-03-15T12:03:56.011-0500",
"value" : {
"name" : "BurninBoxConfiguration_v118",
"assigned" : "2023-03-15T12:03:56.011-0500"
}
},
{
"event" : "addConfiguration",
"timestamp" : "2023-03-16T14:10:40.825-0500",
"value" : {
"name" : "BurninBoxConfiguration_v119",
"assigned" : "2023-03-16T14:10:40.825-0500"
}
},
{
"event" : "addConfiguration",
"timestamp" : "2023-04-04T11:18:54.223-0500",
"value" : {
"name" : "BurninBoxConfiguration_v120",
"assigned" : "2023-04-04T11:18:54.223-0500"
}
},
{
"event" : "addConfiguration",
"timestamp" : "2023-04-04T11:19:17.320-0500",
"value" : {
"name" : "BurninBoxConfiguration_v121",
"assigned" : "2023-04-04T11:19:17.320-0500"
}
},
{
"event" : "addConfiguration",
"timestamp" : "2023-04-04T11:23:00.888-0500",
"value" : {
"name" : "BurninBoxConfiguration_v122",
"assigned" : "2023-04-04T11:23:00.888-0500"
}
},
{
"event" : "addConfiguration",
"timestamp" : "2023-04-04T13:48:51.760-0500",
"value" : {
"name" : "BurninBoxConfiguration_v123",
"assigned" : "2023-04-04T13:48:51.760-0500"
}
},
{
"event" : "addConfiguration",
"timestamp" : "2023-04-04T13:51:58.922-0500",
"value" : {
"name" : "BurninBoxConfiguration_v124",
"assigned" : "2023-04-04T13:51:58.922-0500"
}
},
{
"event" : "addConfiguration",
"timestamp" : "2023-04-04T14:31:00.484-0500",
"value" : {
"name" : "BurninBoxConfiguration_v125",
"assigned" : "2023-04-04T14:31:00.484-0500"
}
},
{
"event" : "addConfiguration",
"timestamp" : "2023-04-04T16:05:04.449-0500",
"value" : {
"name" : "BurninBoxConfiguration_v126",
"assigned" : "2023-04-04T16:05:04.449-0500"
}
},
{
"event" : "addConfiguration",
"timestamp" : "2023-04-07T10:09:32.334-0500",
"value" : {
"name" : "BurninBoxConfiguration_v127",
"assigned" : "2023-04-07T10:09:32.334-0500"
}
},
{
"event" : "addConfiguration",
"timestamp" : "2023-04-07T16:20:29.551-0500",
"value" : {
"name" : "BurninBoxConfiguration_v128",
"assigned" : "2023-04-07T16:20:29.551-0500"
}
},
{
"event" : "addConfiguration",
"timestamp" : "2023-04-14T10:53:43.849-0500",
"value" : {
"name" : "BurninBoxConfiguration_v129",
"assigned" : "2023-04-14T10:53:43.849-0500"
}
},
{
"event" : "addConfiguration",
"timestamp" : "2023-04-14T11:01:23.623-0500",
"value" : {
"name" : "BurninBoxConfiguration_v130",
"assigned" : "2023-04-14T11:01:23.623-0500"
}
},
{
"event" : "addConfiguration",
"timestamp" : "2023-04-14T11:05:25.661-0500",
"value" : {
"name" : "BurninBoxConfiguration_v131",
"assigned" : "2023-04-14T11:05:25.661-0500"
}
},
{
"event" : "addConfiguration",
"timestamp" : "2023-04-14T12:25:10.794-0500",
"value" : {
"name" : "BurninBoxConfiguration_v132",
"assigned" : "2023-04-14T12:25:10.794-0500"
}
},
{
"event" : "addConfiguration",
"timestamp" : "2023-04-14T14:03:26.773-0500",
"value" : {
"name" : "BurninBoxConfiguration_v133",
"assigned" : "2023-04-14T14:03:26.773-0500"
}
},
{
"event" : "addConfiguration",
"timestamp" : "2023-04-14T15:36:49.357-0500",
"value" : {
"name" : "BurninBoxConfiguration_v134",
"assigned" : "2023-04-14T15:36:49.356-0500"
}
},
{
"event" : "addConfiguration",
"timestamp" : "2023-04-14T15:57:03.967-0500",
"value" : {
"name" : "BurninBoxConfiguration_v135",
"assigned" : "2023-04-14T15:57:03.967-0500"
}
},
{
"event" : "addConfiguration",
"timestamp" : "2023-04-14T15:59:00.571-0500",
"value" : {
"name" : "BurninBoxConfiguration_v136",
"assigned" : "2023-04-14T15:59:00.571-0500"
}
},
{
"event" : "addConfiguration",
"timestamp" : "2023-04-14T16:18:32.544-0500",
"value" : {
"name" : "BurninBoxConfiguration_v137",
"assigned" : "2023-04-14T16:18:32.544-0500"
}
},
{
"event" : "addConfiguration",
"timestamp" : "2023-04-14T16:20:11.744-0500",
"value" : {
"name" : "BurninBoxConfiguration_v138",
"assigned" : "2023-04-14T16:20:11.744-0500"
}
},
{
"event" : "addConfiguration",
"timestamp" : "2023-04-17T15:51:48.818-0500",
"value" : {
"name" : "BurninBoxConfiguration_v139",
"assigned" : "2023-04-17T15:51:48.818-0500"
}
},
{
"event" : "addConfiguration",
"timestamp" : "2023-04-18T10:48:02.177-0500",
"value" : {
"name" : "BurninBoxConfiguration_v140",
"assigned" : "2023-04-18T10:48:02.177-0500"
}
},
{
"event" : "addConfiguration",
"timestamp" : "2023-04-18T12:02:41.252-0500",
"value" : {
"name" : "BurninBoxConfiguration_v141",
"assigned" : "2023-04-18T12:02:41.252-0500"
}
},
{
"event" : "addConfiguration",
"timestamp" : "2023-04-18T12:03:56.764-0500",
"value" : {
"name" : "BurninBoxConfiguration_v142",
"assigned" : "2023-04-18T12:03:56.764-0500"
}
},
{
"event" : "addConfiguration",
"timestamp" : "2023-04-18T13:48:31.724-0500",
"value" : {
"name" : "BurninBoxConfiguration_v143",
"assigned" : "2023-04-18T13:48:31.724-0500"
}
},
{
"event" : "addConfiguration",
"timestamp" : "2023-04-18T14:33:54.948-0500",
"value" : {
"name" : "BurninBoxConfiguration_v144",
"assigned" : "2023-04-18T14:33:54.948-0500"
}
},
{
"event" : "addConfiguration",
"timestamp" : "2023-04-18T16:14:31.512-0500",
"value" : {
"name" : "BurninBoxConfiguration_v145",
"assigned" : "2023-04-18T16:14:31.512-0500"
}
},
{
"event" : "addConfiguration",
"timestamp" : "2023-04-18T16:20:21.053-0500",
"value" : {
"name" : "BurninBoxConfiguration_v146",
"assigned" : "2023-04-18T16:20:21.053-0500"
}
},
{
"event" : "addConfiguration",
"timestamp" : "2023-04-21T15:02:47.995-0500",
"value" : {
"name" : "BurninBoxConfiguration_v147",
"assigned" : "2023-04-21T15:02:47.995-0500"
}
},
{
"event" : "addConfiguration",
"timestamp" : "2023-05-09T09:06:44.228-0500",
"value" : {
"name" : "BurninBoxConfiguration_v148",
"assigned" : "2023-05-09T09:06:44.228-0500"
}
},
{
"event" : "addConfiguration",
"timestamp" : "2023-05-11T08:26:02.346-0500",
"value" : {
"name" : "BurninBoxConfiguration_v149",
"assigned" : "2023-05-11T08:26:02.346-0500"
}
},
{
"event" : "addConfiguration",
"timestamp" : "2023-05-11T14:10:22.782-0500",
"value" : {
"name" : "BurninBoxConfiguration_v150",
"assigned" : "2023-05-11T14:10:22.782-0500"
}
},
{
"event" : "addConfiguration",
"timestamp" : "2023-05-11T14:10:59.859-0500",
"value" : {
"name" : "BurninBoxConfiguration_v151",
"assigned" : "2023-05-11T14:10:59.859-0500"
}
},
{
"event" : "addConfiguration",
"timestamp" : "2023-05-11T14:12:47.852-0500",
"value" : {
"name" : "BurninBoxConfiguration_v152",
"assigned" : "2023-05-11T14:12:47.852-0500"
}
},
{
"event" : "addConfiguration",
"timestamp" : "2023-05-19T11:54:17.724-0500",
"value" : {
"name" : "BurninBoxConfiguration_v153",
"assigned" : "2023-05-19T11:54:17.723-0500"
}
},
{
"event" : "addConfiguration",
"timestamp" : "2023-05-19T11:57:27.508-0500",
"value" : {
"name" : "BurninBoxConfiguration_v154",
"assigned" : "2023-05-19T11:57:27.508-0500"
}
},
{
"event" : "addConfiguration",
"timestamp" : "2023-05-19T13:22:53.629-0500",
"value" : {
"name" : "BurninBoxConfiguration_v155",
"assigned" : "2023-05-19T13:22:53.629-0500"
}
},
{
"event" : "addConfiguration",
"timestamp" : "2023-06-01T14:54:09.909-0500",
"value" : {
"name" : "BurninBoxConfiguration_v156",
"assigned" : "2023-06-01T14:54:09.909-0500"
}
},
{
"event" : "addConfiguration",
"timestamp" : "2023-06-01T14:56:07.238-0500",
"value" : {
"name" : "BurninBoxConfiguration_v157",
"assigned" : "2023-06-01T14:56:07.238-0500"
}
},
{
"event" : "addConfiguration",
"timestamp" : "2023-06-01T14:56:43.870-0500",
"value" : {
"name" : "BurninBoxConfiguration_v158",
"assigned" : "2023-06-01T14:56:43.870-0500"
}
},
{
"event" : "addConfiguration",
"timestamp" : "2023-06-02T12:37:16.893-0500",
"value" : {
"name" : "BurninBoxConfiguration_v159",
"assigned" : "2023-06-02T12:37:16.893-0500"
}
}
],
"created" : "2020-10-29T11:54:24.391-0500"
},
"_id" : {
"$oid" : "ab9dd9f9a56e45089214d20c"
},
"collection" : "FEInterfaceTable",
"aliases" : {
"active" : [

],
"history" : [

]
},
"runs" : [

],
"attachments" : [

],
"configtype" : "notprovided"
}