{
"document" : {
"data" : {
"NAME" : "XDAQ_APPLICATION_TABLE",
"COMMENT" : "No comment.",
"AUTHOR" : "admin",
"CREATION_TIME" : 1596055315,
"COL_TYPES" : {
"APPLICATION_GROUP_ID" : "STRING",
"APPLICATION_UID" : "STRING",
"LINK_TO_SUPERVISOR_TABLE" : "STRING",
"LINK_TO_SUPERVISOR_UID" : "STRING",
"STATUS" : "STRING",
"CLASS" : "STRING",
"ID" : "NUMBER",
"INSTANCE" : "NUMBER",
"NETWORK" : "STRING",
"GROUP" : "STRING",
"MODULE" : "STRING",
"CONFIGURE_PRIORITY" : "NUMBER",
"START_PRIORITY" : "NUMBER",
"STOP_PRIORITY" : "NUMBER",
"LINK_TO_PROPERTY_TABLE" : "STRING",
"LINK_TO_PROPERTY_GROUP_ID" : "STRING",
"COMMENT_DESCRIPTION" : "STRING",
"AUTHOR" : "STRING",
"RECORD_INSERTION_TIME" : "TIMESTAMP WITH TIMEZONE"
},
"DATA_SET" : [
{
"APPLICATION_GROUP_ID" : "MainContextApps",
"APPLICATION_UID" : "Supervisor",
"LINK_TO_SUPERVISOR_TABLE" : "GatewaySupervisorTable",
"LINK_TO_SUPERVISOR_UID" : "Supervisor0",
"STATUS" : "On",
"CLASS" : "ots::Supervisor",
"ID" : "100",
"INSTANCE" : "1",
"NETWORK" : "local",
"GROUP" : "daq",
"MODULE" : "${OTSDAQ_LIB}/libGatewaySupervisor.so",
"CONFIGURE_PRIORITY" : "0",
"START_PRIORITY" : "0",
"STOP_PRIORITY" : "0",
"LINK_TO_PROPERTY_TABLE" : "NO_LINK",
"LINK_TO_PROPERTY_GROUP_ID" : "DEFAULT",
"COMMENT_DESCRIPTION" : "DEFAULT",
"AUTHOR" : "admin",
"RECORD_INSERTION_TIME" : "1596055315"
},
{
"APPLICATION_GROUP_ID" : "MainContextApps",
"APPLICATION_UID" : "ChatSupervisor",
"LINK_TO_SUPERVISOR_TABLE" : "NO_LINK",
"LINK_TO_SUPERVISOR_UID" : "ChatSupervisor0",
"STATUS" : "On",
"CLASS" : "ots::ChatSupervisor",
"ID" : "110",
"INSTANCE" : "1",
"NETWORK" : "local",
"GROUP" : "daq",
"MODULE" : "${OTSDAQ_UTILITIES_LIB}/libChat.so",
"CONFIGURE_PRIORITY" : "0",
"START_PRIORITY" : "0",
"STOP_PRIORITY" : "0",
"LINK_TO_PROPERTY_TABLE" : "NO_LINK",
"LINK_TO_PROPERTY_GROUP_ID" : "DEFAULT",
"COMMENT_DESCRIPTION" : "DEFAULT",
"AUTHOR" : "admin",
"RECORD_INSERTION_TIME" : "1596055315"
},
{
"APPLICATION_GROUP_ID" : "MainContextApps",
"APPLICATION_UID" : "ConsoleSupervisor",
"LINK_TO_SUPERVISOR_TABLE" : "NO_LINK",
"LINK_TO_SUPERVISOR_UID" : "ConsoleSupervisor0",
"STATUS" : "On",
"CLASS" : "ots::ConsoleSupervisor",
"ID" : "111",
"INSTANCE" : "1",
"NETWORK" : "local",
"GROUP" : "daq",
"MODULE" : "${OTSDAQ_UTILITIES_LIB}/libConsole.so",
"CONFIGURE_PRIORITY" : "0",
"START_PRIORITY" : "0",
"STOP_PRIORITY" : "0",
"LINK_TO_PROPERTY_TABLE" : "NO_LINK",
"LINK_TO_PROPERTY_GROUP_ID" : "DEFAULT",
"COMMENT_DESCRIPTION" : "DEFAULT",
"AUTHOR" : "admin",
"RECORD_INSERTION_TIME" : "1596055315"
},
{
"APPLICATION_GROUP_ID" : "MainContextApps",
"APPLICATION_UID" : "LogbookSupervisor",
"LINK_TO_SUPERVISOR_TABLE" : "NO_LINK",
"LINK_TO_SUPERVISOR_UID" : "LogbookSupervisor0",
"STATUS" : "On",
"CLASS" : "ots::LogbookSupervisor",
"ID" : "112",
"INSTANCE" : "1",
"NETWORK" : "local",
"GROUP" : "daq",
"MODULE" : "${OTSDAQ_UTILITIES_LIB}/libLogbook.so",
"CONFIGURE_PRIORITY" : "0",
"START_PRIORITY" : "0",
"STOP_PRIORITY" : "0",
"LINK_TO_PROPERTY_TABLE" : "NO_LINK",
"LINK_TO_PROPERTY_GROUP_ID" : "DEFAULT",
"COMMENT_DESCRIPTION" : "DEFAULT",
"AUTHOR" : "admin",
"RECORD_INSERTION_TIME" : "1596055315"
},
{
"APPLICATION_GROUP_ID" : "MainContextApps",
"APPLICATION_UID" : "VisualSupervisor",
"LINK_TO_SUPERVISOR_TABLE" : "DataManagerSupervisorTable",
"LINK_TO_SUPERVISOR_UID" : "VisualSupervisor0",
"STATUS" : "On",
"CLASS" : "ots::VisualSupervisor",
"ID" : "270",
"INSTANCE" : "1",
"NETWORK" : "local",
"GROUP" : "daq",
"MODULE" : "${OTSDAQ_UTILITIES_LIB}/libVisualization.so",
"CONFIGURE_PRIORITY" : "0",
"START_PRIORITY" : "0",
"STOP_PRIORITY" : "0",
"LINK_TO_PROPERTY_TABLE" : "NO_LINK",
"LINK_TO_PROPERTY_GROUP_ID" : "DEFAULT",
"COMMENT_DESCRIPTION" : "DEFAULT",
"AUTHOR" : "admin",
"RECORD_INSERTION_TIME" : "1536677851"
},
{
"APPLICATION_GROUP_ID" : "MainContextApps",
"APPLICATION_UID" : "ConfigurationGUISupervisor",
"LINK_TO_SUPERVISOR_TABLE" : "NO_LINK",
"LINK_TO_SUPERVISOR_UID" : "ConfigurationGUISupervisor0",
"STATUS" : "On",
"CLASS" : "ots::ConfigurationGUISupervisor",
"ID" : "113",
"INSTANCE" : "1",
"NETWORK" : "local",
"GROUP" : "daq",
"MODULE" : "${OTSDAQ_UTILITIES_LIB}/libConfigurationGUI.so",
"CONFIGURE_PRIORITY" : "0",
"START_PRIORITY" : "0",
"STOP_PRIORITY" : "0",
"LINK_TO_PROPERTY_TABLE" : "NO_LINK",
"LINK_TO_PROPERTY_GROUP_ID" : "DEFAULT",
"COMMENT_DESCRIPTION" : "DEFAULT",
"AUTHOR" : "admin",
"RECORD_INSERTION_TIME" : "1596055315"
},
{
"APPLICATION_GROUP_ID" : "testContextApps",
"APPLICATION_UID" : "ControlsDashboardSupervisor",
"LINK_TO_SUPERVISOR_TABLE" : "NO_LINK",
"LINK_TO_SUPERVISOR_UID" : "ControlsDashboardSupervisor0",
"STATUS" : "On",
"CLASS" : "ots::ControlsDashboardSupervisor",
"ID" : "114",
"INSTANCE" : "1",
"NETWORK" : "local",
"GROUP" : "daq",
"MODULE" : "${OTSDAQ_UTILITIES_LIB}/libControlsDashboard.so",
"CONFIGURE_PRIORITY" : "0",
"START_PRIORITY" : "0",
"STOP_PRIORITY" : "0",
"LINK_TO_PROPERTY_TABLE" : "NO_LINK",
"LINK_TO_PROPERTY_GROUP_ID" : "DEFAULT",
"COMMENT_DESCRIPTION" : "Used for arbitrary controls guis",
"AUTHOR" : "admin",
"RECORD_INSERTION_TIME" : "1596055315"
},
{
"APPLICATION_GROUP_ID" : "MainContextApps",
"APPLICATION_UID" : "MacroMakerSupervisor",
"LINK_TO_SUPERVISOR_TABLE" : "NO_LINK",
"LINK_TO_SUPERVISOR_UID" : "MacroMakerSupervisor0",
"STATUS" : "On",
"CLASS" : "ots::MacroMakerSupervisor",
"ID" : "115",
"INSTANCE" : "1",
"NETWORK" : "local",
"GROUP" : "daq",
"MODULE" : "${OTSDAQ_UTILITIES_LIB}/libMacroMaker.so",
"CONFIGURE_PRIORITY" : "0",
"START_PRIORITY" : "0",
"STOP_PRIORITY" : "0",
"LINK_TO_PROPERTY_TABLE" : "NO_LINK",
"LINK_TO_PROPERTY_GROUP_ID" : "DEFAULT",
"COMMENT_DESCRIPTION" : "DEFAULT",
"AUTHOR" : "admin",
"RECORD_INSERTION_TIME" : "1596055315"
},
{
"APPLICATION_GROUP_ID" : "OuterTrackerContextApp",
"APPLICATION_UID" : "OuterTrackerSupervisor",
"LINK_TO_SUPERVISOR_TABLE" : "FESupervisorTable",
"LINK_TO_SUPERVISOR_UID" : "OuterTrackerSupervisor0",
"STATUS" : "On",
"CLASS" : "ots::FESupervisor",
"ID" : "300",
"INSTANCE" : "1",
"NETWORK" : "local",
"GROUP" : "daq",
"MODULE" : "${OTSDAQ_LIB}/libCoreSupervisors.so",
"CONFIGURE_PRIORITY" : "0",
"START_PRIORITY" : "0",
"STOP_PRIORITY" : "0",
"LINK_TO_PROPERTY_TABLE" : "NO_LINK",
"LINK_TO_PROPERTY_GROUP_ID" : "DEFAULT",
"COMMENT_DESCRIPTION" : "No Comment",
"AUTHOR" : "admin",
"RECORD_INSERTION_TIME" : "1596055315"
},
{
"APPLICATION_GROUP_ID" : "BurninBoxContextApp",
"APPLICATION_UID" : "BurninBoxSupervisor",
"LINK_TO_SUPERVISOR_TABLE" : "FESupervisorTable",
"LINK_TO_SUPERVISOR_UID" : "FEBurninBoxSupervisor",
"STATUS" : "On",
"CLASS" : "ots::FESupervisor",
"ID" : "400",
"INSTANCE" : "1",
"NETWORK" : "local",
"GROUP" : "daq",
"MODULE" : "${OTSDAQ_LIB}/libCoreSupervisors.so",
"CONFIGURE_PRIORITY" : "0",
"START_PRIORITY" : "0",
"STOP_PRIORITY" : "0",
"LINK_TO_PROPERTY_TABLE" : "NO_LINK",
"LINK_TO_PROPERTY_GROUP_ID" : "DEFAULT",
"COMMENT_DESCRIPTION" : "No Comment",
"AUTHOR" : "admin",
"RECORD_INSERTION_TIME" : "1596055315"
}
]
},
"metadata" : {

},
"search" : [

]
},
"comments" : [

],
"origin" : {
"source" : "template",
"name" : "notprovided",
"format" : "json",
"created" : "2020-07-29T15:41:55.869-0500",
"rawdata" : [

]
},
"version" : "3",
"entities" : [
{
"name" : "OTSROOT",
"assigned" : "2020-07-29T15:41:55.870-0500"
}
],
"configurations" : [
{
"name" : "notprovided",
"assigned" : "2020-07-29T15:41:55.869-0500"
}
],
"changelog" : "notprovided",
"bookkeeping" : {
"isdeleted" : false,
"isreadonly" : false,
"updates" : [
{
"event" : "addConfiguration",
"timestamp" : "2020-07-29T15:41:55.870-0500",
"value" : {
"name" : "notprovided",
"assigned" : "2020-07-29T15:41:55.869-0500"
}
},
{
"event" : "setVersion",
"timestamp" : "2020-07-29T15:41:55.870-0500",
"value" : {
"name" : "3",
"assigned" : "2020-07-29T15:41:55.870-0500"
}
},
{
"event" : "setCollection",
"timestamp" : "2020-07-29T15:41:55.870-0500",
"value" : {
"name" : "XDAQApplicationTable",
"assigned" : "2020-07-29T15:41:55.870-0500"
}
},
{
"event" : "addEntity",
"timestamp" : "2020-07-29T15:41:55.870-0500",
"value" : {
"name" : "OTSROOT",
"assigned" : "2020-07-29T15:41:55.870-0500"
}
}
],
"created" : "2020-07-29T15:41:55.869-0500"
},
"_id" : {
"$oid" : "2c7649b19c43445aa80e191e"
},
"collection" : "XDAQApplicationTable",
"aliases" : {
"active" : [

],
"history" : [

]
},
"runs" : [

],
"attachments" : [

],
"configtype" : "notprovided"
}