{
"document" : {
"data" : {
"NAME" : "XDAQ_APPLICATION_TABLE",
"COMMENT" : "No comment.",
"AUTHOR" : "admin",
"CREATION_TIME" : 1676321892,
"COL_TYPES" : {
"APPLICATION_GROUP_ID" : "STRING",
"APPLICATION_UID" : "STRING",
"LINK_TO_SUPERVISOR_TABLE" : "STRING",
"LINK_TO_SUPERVISOR_UID" : "STRING",
"STATUS" : "STRING",
"CLASS" : "STRING",
"ID" : "NUMBER",
"INSTANCE" : "NUMBER",
"NETWORK" : "STRING",
"GROUP" : "STRING",
"MODULE" : "STRING",
"CONFIGURE_PRIORITY" : "NUMBER",
"START_PRIORITY" : "NUMBER",
"STOP_PRIORITY" : "NUMBER",
"LINK_TO_PROPERTY_TABLE" : "STRING",
"LINK_TO_PROPERTY_GROUP_ID" : "STRING",
"COMMENT_DESCRIPTION" : "STRING",
"AUTHOR" : "STRING",
"RECORD_INSERTION_TIME" : "TIMESTAMP WITH TIMEZONE"
},
"DATA_SET" : [
{
"APPLICATION_GROUP_ID" : "MainContextApps",
"APPLICATION_UID" : "GatewaySupervisor",
"LINK_TO_SUPERVISOR_TABLE" : "GatewaySupervisorTable",
"LINK_TO_SUPERVISOR_UID" : "GatewaySupervisor",
"STATUS" : "On",
"CLASS" : "ots::GatewaySupervisor",
"ID" : "200",
"INSTANCE" : "1",
"NETWORK" : "local",
"GROUP" : "daq",
"MODULE" : "${OTSDAQ_LIB}/libGatewaySupervisor.so",
"CONFIGURE_PRIORITY" : "0",
"START_PRIORITY" : "0",
"STOP_PRIORITY" : "0",
"LINK_TO_PROPERTY_TABLE" : "NO_LINK",
"LINK_TO_PROPERTY_GROUP_ID" : "DEFAULT",
"COMMENT_DESCRIPTION" : "DEFAULT",
"AUTHOR" : "admin",
"RECORD_INSERTION_TIME" : "1676321892"
},
{
"APPLICATION_GROUP_ID" : "MainContextApps",
"APPLICATION_UID" : "ChatSupervisor",
"LINK_TO_SUPERVISOR_TABLE" : "NO_LINK",
"LINK_TO_SUPERVISOR_UID" : "ChatSupervisor",
"STATUS" : "On",
"CLASS" : "ots::ChatSupervisor",
"ID" : "110",
"INSTANCE" : "1",
"NETWORK" : "local",
"GROUP" : "daq",
"MODULE" : "${OTSDAQ_UTILITIES_LIB}/libChat.so",
"CONFIGURE_PRIORITY" : "0",
"START_PRIORITY" : "0",
"STOP_PRIORITY" : "0",
"LINK_TO_PROPERTY_TABLE" : "NO_LINK",
"LINK_TO_PROPERTY_GROUP_ID" : "DEFAULT",
"COMMENT_DESCRIPTION" : "DEFAULT",
"AUTHOR" : "admin",
"RECORD_INSERTION_TIME" : "1601934164"
},
{
"APPLICATION_GROUP_ID" : "MainContextApps",
"APPLICATION_UID" : "ConsoleSupervisor",
"LINK_TO_SUPERVISOR_TABLE" : "NO_LINK",
"LINK_TO_SUPERVISOR_UID" : "ConsoleSupervisor",
"STATUS" : "On",
"CLASS" : "ots::ConsoleSupervisor",
"ID" : "111",
"INSTANCE" : "1",
"NETWORK" : "local",
"GROUP" : "daq",
"MODULE" : "${OTSDAQ_UTILITIES_LIB}/libConsole.so",
"CONFIGURE_PRIORITY" : "0",
"START_PRIORITY" : "0",
"STOP_PRIORITY" : "0",
"LINK_TO_PROPERTY_TABLE" : "NO_LINK",
"LINK_TO_PROPERTY_GROUP_ID" : "DEFAULT",
"COMMENT_DESCRIPTION" : "DEFAULT",
"AUTHOR" : "admin",
"RECORD_INSERTION_TIME" : "1601934164"
},
{
"APPLICATION_GROUP_ID" : "MainContextApps",
"APPLICATION_UID" : "LogbookSupervisor",
"LINK_TO_SUPERVISOR_TABLE" : "NO_LINK",
"LINK_TO_SUPERVISOR_UID" : "LogbookSupervisor",
"STATUS" : "Off",
"CLASS" : "ots::LogbookSupervisor",
"ID" : "112",
"INSTANCE" : "1",
"NETWORK" : "local",
"GROUP" : "daq",
"MODULE" : "${OTSDAQ_UTILITIES_LIB}/libLogbook.so",
"CONFIGURE_PRIORITY" : "0",
"START_PRIORITY" : "0",
"STOP_PRIORITY" : "0",
"LINK_TO_PROPERTY_TABLE" : "NO_LINK",
"LINK_TO_PROPERTY_GROUP_ID" : "DEFAULT",
"COMMENT_DESCRIPTION" : "DEFAULT",
"AUTHOR" : "admin",
"RECORD_INSERTION_TIME" : "1650300929"
},
{
"APPLICATION_GROUP_ID" : "MainContextApps",
"APPLICATION_UID" : "ConfigurationGUISupervisor",
"LINK_TO_SUPERVISOR_TABLE" : "NO_LINK",
"LINK_TO_SUPERVISOR_UID" : "ConfigurationGUISupervisor",
"STATUS" : "On",
"CLASS" : "ots::ConfigurationGUISupervisor",
"ID" : "113",
"INSTANCE" : "1",
"NETWORK" : "local",
"GROUP" : "daq",
"MODULE" : "${OTSDAQ_UTILITIES_LIB}/libConfigurationGUI.so",
"CONFIGURE_PRIORITY" : "0",
"START_PRIORITY" : "0",
"STOP_PRIORITY" : "0",
"LINK_TO_PROPERTY_TABLE" : "NO_LINK",
"LINK_TO_PROPERTY_GROUP_ID" : "DEFAULT",
"COMMENT_DESCRIPTION" : "DEFAULT",
"AUTHOR" : "admin",
"RECORD_INSERTION_TIME" : "1603996409"
},
{
"APPLICATION_GROUP_ID" : "MainContextApps",
"APPLICATION_UID" : "ControlsDashboardSupervisor",
"LINK_TO_SUPERVISOR_TABLE" : "NO_LINK",
"LINK_TO_SUPERVISOR_UID" : "ControlsDashboardSupervisor",
"STATUS" : "Off",
"CLASS" : "ots::ControlsDashboardSupervisor",
"ID" : "114",
"INSTANCE" : "1",
"NETWORK" : "local",
"GROUP" : "daq",
"MODULE" : "${OTSDAQ_UTILITIES_LIB}/libControlsDashboard.so",
"CONFIGURE_PRIORITY" : "0",
"START_PRIORITY" : "0",
"STOP_PRIORITY" : "0",
"LINK_TO_PROPERTY_TABLE" : "NO_LINK",
"LINK_TO_PROPERTY_GROUP_ID" : "DEFAULT",
"COMMENT_DESCRIPTION" : "Used for arbitrary controls guis",
"AUTHOR" : "admin",
"RECORD_INSERTION_TIME" : "1603996409"
},
{
"APPLICATION_GROUP_ID" : "MainContextApps",
"APPLICATION_UID" : "MacroMakerSupervisor",
"LINK_TO_SUPERVISOR_TABLE" : "NO_LINK",
"LINK_TO_SUPERVISOR_UID" : "MacroMakerSupervisor",
"STATUS" : "On",
"CLASS" : "ots::MacroMakerSupervisor",
"ID" : "115",
"INSTANCE" : "1",
"NETWORK" : "local",
"GROUP" : "daq",
"MODULE" : "${OTSDAQ_UTILITIES_LIB}/libMacroMaker.so",
"CONFIGURE_PRIORITY" : "0",
"START_PRIORITY" : "0",
"STOP_PRIORITY" : "0",
"LINK_TO_PROPERTY_TABLE" : "NO_LINK",
"LINK_TO_PROPERTY_GROUP_ID" : "DEFAULT",
"COMMENT_DESCRIPTION" : "DEFAULT",
"AUTHOR" : "admin",
"RECORD_INSERTION_TIME" : "1603996409"
},
{
"APPLICATION_GROUP_ID" : "TrackerContextApps",
"APPLICATION_UID" : "TrackerSupervisor0",
"LINK_TO_SUPERVISOR_TABLE" : "FESupervisorTable",
"LINK_TO_SUPERVISOR_UID" : "FETrackerSupervisor0",
"STATUS" : "On",
"CLASS" : "ots::FESupervisor",
"ID" : "400",
"INSTANCE" : "1",
"NETWORK" : "local",
"GROUP" : "daq",
"MODULE" : "${OTSDAQ_LIB}/libCoreSupervisors.so",
"CONFIGURE_PRIORITY" : "40",
"START_PRIORITY" : "40",
"STOP_PRIORITY" : "10",
"LINK_TO_PROPERTY_TABLE" : "NO_LINK",
"LINK_TO_PROPERTY_GROUP_ID" : "DEFAULT",
"COMMENT_DESCRIPTION" : "No Comment",
"AUTHOR" : "admin",
"RECORD_INSERTION_TIME" : "1674147628"
},
{
"APPLICATION_GROUP_ID" : "TrackerContextApps",
"APPLICATION_UID" : "TrackerSupervisor1",
"LINK_TO_SUPERVISOR_TABLE" : "FESupervisorTable",
"LINK_TO_SUPERVISOR_UID" : "FETrackerSupervisor1",
"STATUS" : "Off",
"CLASS" : "ots::FESupervisor",
"ID" : "401",
"INSTANCE" : "1",
"NETWORK" : "local",
"GROUP" : "daq",
"MODULE" : "${OTSDAQ_LIB}/libCoreSupervisors.so",
"CONFIGURE_PRIORITY" : "40",
"START_PRIORITY" : "40",
"STOP_PRIORITY" : "10",
"LINK_TO_PROPERTY_TABLE" : "NO_LINK",
"LINK_TO_PROPERTY_GROUP_ID" : "DEFAULT",
"COMMENT_DESCRIPTION" : "No Comment",
"AUTHOR" : "admin",
"RECORD_INSERTION_TIME" : "1626887300"
},
{
"APPLICATION_GROUP_ID" : "BurninBoxContextApps",
"APPLICATION_UID" : "BurninBoxSupervisor",
"LINK_TO_SUPERVISOR_TABLE" : "FESupervisorTable",
"LINK_TO_SUPERVISOR_UID" : "FEBurninBoxSupervisor",
"STATUS" : "On",
"CLASS" : "ots::FESupervisor",
"ID" : "500",
"INSTANCE" : "1",
"NETWORK" : "local",
"GROUP" : "daq",
"MODULE" : "${OTSDAQ_LIB}/libCoreSupervisors.so",
"CONFIGURE_PRIORITY" : "20",
"START_PRIORITY" : "20",
"STOP_PRIORITY" : "30",
"LINK_TO_PROPERTY_TABLE" : "NO_LINK",
"LINK_TO_PROPERTY_GROUP_ID" : "DEFAULT",
"COMMENT_DESCRIPTION" : "No Comment",
"AUTHOR" : "admin",
"RECORD_INSERTION_TIME" : "1626887300"
},
{
"APPLICATION_GROUP_ID" : "BurninBoxContextApps",
"APPLICATION_UID" : "BurninBoxGUISupervisor",
"LINK_TO_SUPERVISOR_TABLE" : "NO_LINK",
"LINK_TO_SUPERVISOR_UID" : "BurninBoxGUISupervisor",
"STATUS" : "On",
"CLASS" : "ots::BurninBoxGUISupervisor",
"ID" : "501",
"INSTANCE" : "1",
"NETWORK" : "local",
"GROUP" : "daq",
"MODULE" : "${OTSDAQ_CMSBURNINBOX_LIB}/libBurninBoxGUISupervisor.so",
"CONFIGURE_PRIORITY" : "0",
"START_PRIORITY" : "0",
"STOP_PRIORITY" : "0",
"LINK_TO_PROPERTY_TABLE" : "NO_LINK",
"LINK_TO_PROPERTY_GROUP_ID" : "DEFAULT",
"COMMENT_DESCRIPTION" : "No Comment",
"AUTHOR" : "admin",
"RECORD_INSERTION_TIME" : "1676320421"
},
{
"APPLICATION_GROUP_ID" : "PowerSupplyContextApps",
"APPLICATION_UID" : "PowerSupplySupervisor",
"LINK_TO_SUPERVISOR_TABLE" : "FESupervisorTable",
"LINK_TO_SUPERVISOR_UID" : "FEPowerSupplySupervisor",
"STATUS" : "On",
"CLASS" : "ots::FESupervisor",
"ID" : "600",
"INSTANCE" : "1",
"NETWORK" : "local",
"GROUP" : "daq",
"MODULE" : "${OTSDAQ_LIB}/libCoreSupervisors.so",
"CONFIGURE_PRIORITY" : "30",
"START_PRIORITY" : "30",
"STOP_PRIORITY" : "20",
"LINK_TO_PROPERTY_TABLE" : "NO_LINK",
"LINK_TO_PROPERTY_GROUP_ID" : "DEFAULT",
"COMMENT_DESCRIPTION" : "No Comment",
"AUTHOR" : "admin",
"RECORD_INSERTION_TIME" : "1676318915"
},
{
"APPLICATION_GROUP_ID" : "VisualizerContextApp",
"APPLICATION_UID" : "VisualizerSupervisor",
"LINK_TO_SUPERVISOR_TABLE" : "DataManagerSupervisorTable",
"LINK_TO_SUPERVISOR_UID" : "VisualizerSupervisor",
"STATUS" : "On",
"CLASS" : "ots::VisualSupervisor",
"ID" : "700",
"INSTANCE" : "1",
"NETWORK" : "local",
"GROUP" : "daq",
"MODULE" : "${OTSDAQ_UTILITIES_LIB}/libVisualization.so",
"CONFIGURE_PRIORITY" : "10",
"START_PRIORITY" : "10",
"STOP_PRIORITY" : "40",
"LINK_TO_PROPERTY_TABLE" : "NO_LINK",
"LINK_TO_PROPERTY_GROUP_ID" : "DEFAULT",
"COMMENT_DESCRIPTION" : "No Comment",
"AUTHOR" : "admin",
"RECORD_INSERTION_TIME" : "1676318915"
}
]
},
"metadata" : {

},
"search" : [

]
},
"comments" : [

],
"origin" : {
"source" : "template",
"name" : "notprovided",
"format" : "json",
"created" : "2023-02-13T14:58:12.318-0600",
"rawdata" : [

]
},
"version" : "29",
"entities" : [
{
"name" : "OTSROOT",
"assigned" : "2023-02-13T14:58:12.319-0600"
}
],
"configurations" : [
{
"name" : "notprovided",
"assigned" : "2023-02-13T14:58:12.319-0600"
},
{
"name" : "DefaultContext_v60",
"assigned" : "2023-02-13T14:58:15.037-0600"
},
{
"name" : "DefaultContext_v61",
"assigned" : "2023-02-16T12:29:02.669-0600"
},
{
"name" : "DefaultContext_v62",
"assigned" : "2023-02-16T14:03:01.172-0600"
},
{
"name" : "DefaultContext_v63",
"assigned" : "2023-02-16T14:04:40.209-0600"
},
{
"name" : "DefaultContext_v64",
"assigned" : "2023-02-16T14:42:27.342-0600"
},
{
"name" : "DefaultContext_v65",
"assigned" : "2023-02-16T14:49:47.352-0600"
},
{
"name" : "DefaultContext_v66",
"assigned" : "2023-02-16T14:53:12.052-0600"
},
{
"name" : "DefaultContext_v67",
"assigned" : "2023-02-16T14:55:43.629-0600"
},
{
"name" : "DefaultContext_v68",
"assigned" : "2023-02-17T08:58:42.867-0600"
},
{
"name" : "DefaultContext_v69",
"assigned" : "2023-02-17T09:04:54.645-0600"
},
{
"name" : "DefaultContext_v70",
"assigned" : "2023-02-17T09:06:41.694-0600"
},
{
"name" : "DefaultContext_v71",
"assigned" : "2023-02-17T09:07:48.529-0600"
},
{
"name" : "DefaultContext_v72",
"assigned" : "2023-02-23T08:41:50.708-0600"
},
{
"name" : "DefaultContext_v75",
"assigned" : "2023-03-01T10:10:37.489-0600"
}
],
"changelog" : "notprovided",
"bookkeeping" : {
"isdeleted" : false,
"isreadonly" : false,
"updates" : [
{
"event" : "addConfiguration",
"timestamp" : "2023-02-13T14:58:12.319-0600",
"value" : {
"name" : "notprovided",
"assigned" : "2023-02-13T14:58:12.319-0600"
}
},
{
"event" : "setVersion",
"timestamp" : "2023-02-13T14:58:12.319-0600",
"value" : {
"name" : "29",
"assigned" : "2023-02-13T14:58:12.319-0600"
}
},
{
"event" : "setCollection",
"timestamp" : "2023-02-13T14:58:12.319-0600",
"value" : {
"name" : "XDAQApplicationTable",
"assigned" : "2023-02-13T14:58:12.319-0600"
}
},
{
"event" : "addEntity",
"timestamp" : "2023-02-13T14:58:12.319-0600",
"value" : {
"name" : "OTSROOT",
"assigned" : "2023-02-13T14:58:12.319-0600"
}
},
{
"event" : "addConfiguration",
"timestamp" : "2023-02-13T14:58:15.037-0600",
"value" : {
"name" : "DefaultContext_v60",
"assigned" : "2023-02-13T14:58:15.037-0600"
}
},
{
"event" : "addConfiguration",
"timestamp" : "2023-02-16T12:29:02.669-0600",
"value" : {
"name" : "DefaultContext_v61",
"assigned" : "2023-02-16T12:29:02.669-0600"
}
},
{
"event" : "addConfiguration",
"timestamp" : "2023-02-16T14:03:01.172-0600",
"value" : {
"name" : "DefaultContext_v62",
"assigned" : "2023-02-16T14:03:01.172-0600"
}
},
{
"event" : "addConfiguration",
"timestamp" : "2023-02-16T14:04:40.209-0600",
"value" : {
"name" : "DefaultContext_v63",
"assigned" : "2023-02-16T14:04:40.209-0600"
}
},
{
"event" : "addConfiguration",
"timestamp" : "2023-02-16T14:42:27.342-0600",
"value" : {
"name" : "DefaultContext_v64",
"assigned" : "2023-02-16T14:42:27.342-0600"
}
},
{
"event" : "addConfiguration",
"timestamp" : "2023-02-16T14:49:47.352-0600",
"value" : {
"name" : "DefaultContext_v65",
"assigned" : "2023-02-16T14:49:47.352-0600"
}
},
{
"event" : "addConfiguration",
"timestamp" : "2023-02-16T14:53:12.052-0600",
"value" : {
"name" : "DefaultContext_v66",
"assigned" : "2023-02-16T14:53:12.052-0600"
}
},
{
"event" : "addConfiguration",
"timestamp" : "2023-02-16T14:55:43.629-0600",
"value" : {
"name" : "DefaultContext_v67",
"assigned" : "2023-02-16T14:55:43.629-0600"
}
},
{
"event" : "addConfiguration",
"timestamp" : "2023-02-17T08:58:42.867-0600",
"value" : {
"name" : "DefaultContext_v68",
"assigned" : "2023-02-17T08:58:42.867-0600"
}
},
{
"event" : "addConfiguration",
"timestamp" : "2023-02-17T09:04:54.645-0600",
"value" : {
"name" : "DefaultContext_v69",
"assigned" : "2023-02-17T09:04:54.645-0600"
}
},
{
"event" : "addConfiguration",
"timestamp" : "2023-02-17T09:06:41.694-0600",
"value" : {
"name" : "DefaultContext_v70",
"assigned" : "2023-02-17T09:06:41.694-0600"
}
},
{
"event" : "addConfiguration",
"timestamp" : "2023-02-17T09:07:48.529-0600",
"value" : {
"name" : "DefaultContext_v71",
"assigned" : "2023-02-17T09:07:48.529-0600"
}
},
{
"event" : "addConfiguration",
"timestamp" : "2023-02-23T08:41:50.708-0600",
"value" : {
"name" : "DefaultContext_v72",
"assigned" : "2023-02-23T08:41:50.708-0600"
}
},
{
"event" : "addConfiguration",
"timestamp" : "2023-03-01T10:10:37.489-0600",
"value" : {
"name" : "DefaultContext_v75",
"assigned" : "2023-03-01T10:10:37.489-0600"
}
}
],
"created" : "2023-02-13T14:58:12.318-0600"
},
"_id" : {
"$oid" : "3df61d40d5d3448b9704b637"
},
"collection" : "XDAQApplicationTable",
"aliases" : {
"active" : [

],
"history" : [

]
},
"runs" : [

],
"attachments" : [

],
"configtype" : "notprovided"
}