{
"document" : {
"data" : {
"NAME" : "XDAQ_CONTEXT_TABLE",
"COMMENT" : "Default simplest Outer Tracker table",
"AUTHOR" : "admin",
"CREATION_TIME" : 1571774077,
"COL_TYPES" : {
"CONTEXT_UID" : "VARCHAR2",
"LINK_TO_APPLICATION_TABLE" : "VARCHAR2",
"LINK_TO_APPLICATION_GROUP_ID" : "VARCHAR2",
"STATUS" : "VARCHAR2",
"ID" : "NUMBER",
"ADDRESS" : "VARCHAR2",
"PORT" : "NUMBER",
"COMMENT_DESCRIPTION" : "VARCHAR2",
"AUTHOR" : "VARCHAR2",
"RECORD_INSERTION_TIME" : "TIMESTAMP WITH TIMEZONE"
},
"DATA_SET" : [
{
"CONTEXT_UID" : "MainContext",
"LINK_TO_APPLICATION_TABLE" : "XDAQApplicationTable",
"LINK_TO_APPLICATION_GROUP_ID" : "MainContextApps",
"STATUS" : "On",
"ID" : "0",
"ADDRESS" : "http://${HOSTNAME}",
"PORT" : "2015",
"COMMENT_DESCRIPTION" : "main context",
"AUTHOR" : "admin",
"RECORD_INSERTION_TIME" : "1571774077"
},
{
"CONTEXT_UID" : "OuterTrackerContext",
"LINK_TO_APPLICATION_TABLE" : "XDAQApplicationTable",
"LINK_TO_APPLICATION_GROUP_ID" : "OuterTrackerContextApp",
"STATUS" : "Off",
"ID" : "0",
"ADDRESS" : "http://${HOSTNAME}",
"PORT" : "2020",
"COMMENT_DESCRIPTION" : "No Comment",
"AUTHOR" : "admin",
"RECORD_INSERTION_TIME" : "1571774077"
},
{
"CONTEXT_UID" : "BurninBoxContext",
"LINK_TO_APPLICATION_TABLE" : "XDAQApplicationTable",
"LINK_TO_APPLICATION_GROUP_ID" : "BurninBoxContextApp",
"STATUS" : "On",
"ID" : "0",
"ADDRESS" : "http://${HOSTNAME}",
"PORT" : "2021",
"COMMENT_DESCRIPTION" : "No Comment",
"AUTHOR" : "admin",
"RECORD_INSERTION_TIME" : "1571774077"
}
]
},
"metadata" : {

},
"search" : [

]
},
"comments" : [

],
"origin" : {
"source" : "template",
"name" : "notprovided",
"format" : "json",
"created" : "2019-10-22T14:54:37.857-0500",
"rawdata" : [

]
},
"version" : "2",
"entities" : [
{
"name" : "OTSROOT",
"assigned" : "2019-10-22T14:54:37.857-0500"
}
],
"configurations" : [
{
"name" : "notprovided",
"assigned" : "2019-10-22T14:54:37.857-0500"
},
{
"name" : "DefaultContext_v4",
"assigned" : "2019-10-22T14:55:21.422-0500"
},
{
"name" : "DefaultContext_v5",
"assigned" : "2020-06-29T11:00:05.461-0500"
},
{
"name" : "DefaultContext_v6",
"assigned" : "2020-07-29T16:01:22.584-0500"
},
{
"name" : "DefaultContext_v11",
"assigned" : "2020-07-29T16:49:16.508-0500"
},
{
"name" : "DefaultContext_v12",
"assigned" : "2020-09-02T15:22:09.689-0500"
}
],
"changelog" : "notprovided",
"bookkeeping" : {
"isdeleted" : false,
"isreadonly" : false,
"updates" : [
{
"event" : "addConfiguration",
"timestamp" : "2019-10-22T14:54:37.857-0500",
"value" : {
"name" : "notprovided",
"assigned" : "2019-10-22T14:54:37.857-0500"
}
},
{
"event" : "setVersion",
"timestamp" : "2019-10-22T14:54:37.857-0500",
"value" : {
"name" : "2",
"assigned" : "2019-10-22T14:54:37.857-0500"
}
},
{
"event" : "setCollection",
"timestamp" : "2019-10-22T14:54:37.857-0500",
"value" : {
"name" : "XDAQContextTable",
"assigned" : "2019-10-22T14:54:37.857-0500"
}
},
{
"event" : "addEntity",
"timestamp" : "2019-10-22T14:54:37.857-0500",
"value" : {
"name" : "OTSROOT",
"assigned" : "2019-10-22T14:54:37.857-0500"
}
},
{
"event" : "addConfiguration",
"timestamp" : "2019-10-22T14:55:21.422-0500",
"value" : {
"name" : "DefaultContext_v4",
"assigned" : "2019-10-22T14:55:21.422-0500"
}
},
{
"event" : "addConfiguration",
"timestamp" : "2020-06-29T11:00:05.461-0500",
"value" : {
"name" : "DefaultContext_v5",
"assigned" : "2020-06-29T11:00:05.461-0500"
}
},
{
"event" : "addConfiguration",
"timestamp" : "2020-07-29T16:01:22.584-0500",
"value" : {
"name" : "DefaultContext_v6",
"assigned" : "2020-07-29T16:01:22.584-0500"
}
},
{
"event" : "addConfiguration",
"timestamp" : "2020-07-29T16:49:16.508-0500",
"value" : {
"name" : "DefaultContext_v11",
"assigned" : "2020-07-29T16:49:16.508-0500"
}
},
{
"event" : "addConfiguration",
"timestamp" : "2020-09-02T15:22:09.689-0500",
"value" : {
"name" : "DefaultContext_v12",
"assigned" : "2020-09-02T15:22:09.689-0500"
}
}
],
"created" : "2019-10-22T14:54:37.857-0500"
},
"_id" : {
"$oid" : "71c74dd7e3a349b5b18dbabb"
},
"collection" : "XDAQContextTable",
"aliases" : {
"active" : [

],
"history" : [

]
},
"runs" : [

],
"attachments" : [

],
"configtype" : "notprovided"
}