{
"ouid" : [
"11bb214e9bc846c09f87b1d8",
"321f0368e271451ca9a9828c",
"467e83e77969422c90a61170",
"71c74dd7e3a349b5b18dbabb",
"7991e0dce2f44ccebb9bb74d",
"846b958829c24d318c2652b7",
"85b3390c2266431d95148a88",
"8995eb55fd6b42d3af4c3d31",
"90298aaaa1c643f0a5f0c4be",
"9733e87c267246dd9f1a532a",
"9ddc3347fb674a9db405e000",
"a604738908964a599c289f13",
"b8564b7a90284ec28429ad9c",
"cf9cfed53bd54da595e03c09",
"da6f227a10db420a96d253e4",
"ff98436477ed4cba971a49ca"
],
"version" : {
"1" : [
"8995eb55fd6b42d3af4c3d31"
],
"2" : [
"71c74dd7e3a349b5b18dbabb"
],
"3" : [
"7991e0dce2f44ccebb9bb74d"
],
"4" : [
"9ddc3347fb674a9db405e000"
],
"5" : [
"cf9cfed53bd54da595e03c09"
],
"6" : [
"9733e87c267246dd9f1a532a"
],
"7" : [
"da6f227a10db420a96d253e4"
],
"8" : [
"321f0368e271451ca9a9828c"
],
"9" : [
"85b3390c2266431d95148a88"
],
"10" : [
"b8564b7a90284ec28429ad9c"
],
"11" : [
"a604738908964a599c289f13"
],
"12" : [
"467e83e77969422c90a61170"
],
"13" : [
"846b958829c24d318c2652b7"
],
"14" : [
"90298aaaa1c643f0a5f0c4be"
],
"15" : [
"ff98436477ed4cba971a49ca"
],
"16" : [
"11bb214e9bc846c09f87b1d8"
]
},
"configurations.name" : {
"notprovided" : [
"11bb214e9bc846c09f87b1d8",
"321f0368e271451ca9a9828c",
"467e83e77969422c90a61170",
"71c74dd7e3a349b5b18dbabb",
"7991e0dce2f44ccebb9bb74d",
"846b958829c24d318c2652b7",
"85b3390c2266431d95148a88",
"8995eb55fd6b42d3af4c3d31",
"90298aaaa1c643f0a5f0c4be",
"9733e87c267246dd9f1a532a",
"9ddc3347fb674a9db405e000",
"a604738908964a599c289f13",
"b8564b7a90284ec28429ad9c",
"cf9cfed53bd54da595e03c09",
"da6f227a10db420a96d253e4",
"ff98436477ed4cba971a49ca"
],
"DefaultContext_v1" : [
"8995eb55fd6b42d3af4c3d31"
],
"DefaultContext_v2" : [
"8995eb55fd6b42d3af4c3d31"
],
"DefaultContext_v3" : [
"8995eb55fd6b42d3af4c3d31"
],
"DefaultContext_v4" : [
"71c74dd7e3a349b5b18dbabb"
],
"DefaultContext_v5" : [
"71c74dd7e3a349b5b18dbabb"
],
"DefaultContext_v6" : [
"71c74dd7e3a349b5b18dbabb"
],
"DefaultContext_v7" : [
"7991e0dce2f44ccebb9bb74d"
],
"DefaultContext_v8" : [
"7991e0dce2f44ccebb9bb74d"
],
"DefaultContext_v9" : [
"7991e0dce2f44ccebb9bb74d"
],
"DefaultContext_v10" : [
"7991e0dce2f44ccebb9bb74d"
],
"DefaultContext_v11" : [
"71c74dd7e3a349b5b18dbabb"
],
"DefaultContext_v12" : [
"71c74dd7e3a349b5b18dbabb"
],
"DefaultContext_v13" : [
"cf9cfed53bd54da595e03c09"
],
"DefaultContext_v14" : [
"cf9cfed53bd54da595e03c09"
],
"DefaultContext_v15" : [
"cf9cfed53bd54da595e03c09"
],
"DefaultContext_v16" : [
"cf9cfed53bd54da595e03c09"
],
"DefaultContext_v17" : [
"cf9cfed53bd54da595e03c09"
],
"DefaultContext_v18" : [
"9733e87c267246dd9f1a532a"
],
"DefaultContext_v19" : [
"9733e87c267246dd9f1a532a"
],
"DefaultContext_v20" : [
"da6f227a10db420a96d253e4"
],
"DefaultContext_v21" : [
"321f0368e271451ca9a9828c"
],
"DefaultContext_v22" : [
"85b3390c2266431d95148a88"
],
"DefaultContext_v23" : [
"85b3390c2266431d95148a88"
],
"DefaultContext_v24" : [
"b8564b7a90284ec28429ad9c"
],
"DefaultContext_v25" : [
"a604738908964a599c289f13"
],
"DefaultContext_v26" : [
"da6f227a10db420a96d253e4"
],
"DefaultContext_v27" : [
"467e83e77969422c90a61170"
],
"DefaultContext_v28" : [
"846b958829c24d318c2652b7"
],
"DefaultContext_v29" : [
"846b958829c24d318c2652b7"
],
"DefaultContext_v30" : [
"846b958829c24d318c2652b7"
],
"DefaultContext_v31" : [
"846b958829c24d318c2652b7"
],
"DefaultContext_v32" : [
"846b958829c24d318c2652b7"
],
"DefaultContext_v33" : [
"846b958829c24d318c2652b7"
],
"DefaultContext_v34" : [
"90298aaaa1c643f0a5f0c4be"
],
"DefaultContext_v35" : [
"da6f227a10db420a96d253e4"
],
"DefaultContext_v36" : [
"467e83e77969422c90a61170"
],
"DefaultContext_v37" : [
"da6f227a10db420a96d253e4"
],
"DefaultContext_v38" : [
"846b958829c24d318c2652b7"
],
"DefaultContext_v39" : [
"467e83e77969422c90a61170"
],
"DefaultContext_v40" : [
"ff98436477ed4cba971a49ca"
],
"DefaultContext_v41" : [
"11bb214e9bc846c09f87b1d8"
],
"DefaultContext_v42" : [
"321f0368e271451ca9a9828c"
],
"DefaultContext_v43" : [
"467e83e77969422c90a61170"
],
"DefaultContext_v44" : [
"da6f227a10db420a96d253e4"
],
"DefaultContext_v45" : [
"da6f227a10db420a96d253e4"
],
"DefaultContext_v46" : [
"321f0368e271451ca9a9828c"
],
"DefaultContext_v47" : [
"846b958829c24d318c2652b7"
],
"DefaultContext_v48" : [
"11bb214e9bc846c09f87b1d8"
],
"DefaultContext_v49" : [
"467e83e77969422c90a61170"
],
"DefaultContext_v50" : [
"da6f227a10db420a96d253e4"
]
},
"entities.name" : {
"OTSROOT" : [
"11bb214e9bc846c09f87b1d8",
"321f0368e271451ca9a9828c",
"467e83e77969422c90a61170",
"71c74dd7e3a349b5b18dbabb",
"7991e0dce2f44ccebb9bb74d",
"846b958829c24d318c2652b7",
"85b3390c2266431d95148a88",
"8995eb55fd6b42d3af4c3d31",
"90298aaaa1c643f0a5f0c4be",
"9733e87c267246dd9f1a532a",
"9ddc3347fb674a9db405e000",
"a604738908964a599c289f13",
"b8564b7a90284ec28429ad9c",
"cf9cfed53bd54da595e03c09",
"da6f227a10db420a96d253e4",
"ff98436477ed4cba971a49ca"
]
},
"aliases.active.name" : {

},
"runs.name" : {

},
"configurations.assigned" : {
"notprovided" : [
"2018-09-06T17:34:15.189-0500",
"2019-10-22T14:54:37.857-0500",
"2020-07-29T16:34:41.817-0500",
"2020-10-05T16:35:48.449-0500",
"2020-10-05T16:37:50.142-0500",
"2020-10-09T12:53:52.424-0500",
"2020-10-09T13:00:56.743-0500",
"2020-10-09T15:30:45.089-0500",
"2020-10-09T15:32:22.770-0500",
"2020-10-09T16:47:17.655-0500",
"2020-10-12T09:37:48.431-0500",
"2020-10-29T11:54:24.450-0500",
"2020-10-29T11:54:54.976-0500",
"2021-07-07T16:02:02.920-0500",
"2021-07-14T13:02:12.672-0500",
"2021-07-14T13:02:58.513-0500"
],
"DefaultContext_v1" : [
"2018-09-06T17:34:15.571-0500"
],
"DefaultContext_v2" : [
"2018-09-10T09:24:24.284-0500"
],
"DefaultContext_v3" : [
"2018-09-11T10:00:20.595-0500"
],
"DefaultContext_v4" : [
"2019-10-22T14:55:21.422-0500"
],
"DefaultContext_v5" : [
"2020-06-29T11:00:05.461-0500"
],
"DefaultContext_v6" : [
"2020-07-29T16:01:22.584-0500"
],
"DefaultContext_v7" : [
"2020-07-29T16:34:42.953-0500"
],
"DefaultContext_v8" : [
"2020-07-29T16:39:53.781-0500"
],
"DefaultContext_v9" : [
"2020-07-29T16:40:44.398-0500"
],
"DefaultContext_v10" : [
"2020-07-29T16:45:01.695-0500"
],
"DefaultContext_v11" : [
"2020-07-29T16:49:16.508-0500"
],
"DefaultContext_v12" : [
"2020-09-02T15:22:09.689-0500"
],
"DefaultContext_v13" : [
"2020-10-05T17:04:58.419-0500"
],
"DefaultContext_v14" : [
"2020-10-05T17:07:06.936-0500"
],
"DefaultContext_v15" : [
"2020-10-05T17:43:27.357-0500"
],
"DefaultContext_v16" : [
"2020-10-05T17:51:30.312-0500"
],
"DefaultContext_v17" : [
"2020-10-09T11:58:10.425-0500"
],
"DefaultContext_v18" : [
"2020-10-09T12:53:54.139-0500"
],
"DefaultContext_v19" : [
"2020-10-09T12:57:06.905-0500"
],
"DefaultContext_v20" : [
"2020-10-09T13:00:58.204-0500"
],
"DefaultContext_v21" : [
"2020-10-09T15:30:48.669-0500"
],
"DefaultContext_v22" : [
"2020-10-09T15:32:24.339-0500"
],
"DefaultContext_v23" : [
"2020-10-09T15:32:58.708-0500"
],
"DefaultContext_v24" : [
"2020-10-09T16:47:19.297-0500"
],
"DefaultContext_v25" : [
"2020-10-12T09:37:50.181-0500"
],
"DefaultContext_v26" : [
"2020-10-12T09:41:39.708-0500"
],
"DefaultContext_v27" : [
"2020-10-29T11:54:28.608-0500"
],
"DefaultContext_v28" : [
"2020-10-29T11:54:56.592-0500"
],
"DefaultContext_v29" : [
"2020-10-29T13:33:31.358-0500"
],
"DefaultContext_v30" : [
"2020-11-16T17:04:43.606-0600"
],
"DefaultContext_v31" : [
"2020-11-16T17:07:49.967-0600"
],
"DefaultContext_v32" : [
"2020-11-16T17:10:04.119-0600"
],
"DefaultContext_v33" : [
"2021-07-07T14:45:52.519-0500"
],
"DefaultContext_v34" : [
"2021-07-07T16:02:04.633-0500"
],
"DefaultContext_v35" : [
"2021-07-07T16:05:38.164-0500"
],
"DefaultContext_v36" : [
"2021-07-08T14:00:20.695-0500"
],
"DefaultContext_v37" : [
"2021-07-08T14:17:00.388-0500"
],
"DefaultContext_v38" : [
"2021-07-08T16:21:56.527-0500"
],
"DefaultContext_v39" : [
"2021-07-08T16:24:39.688-0500"
],
"DefaultContext_v40" : [
"2021-07-14T13:02:14.455-0500"
],
"DefaultContext_v41" : [
"2021-07-14T13:03:01.627-0500"
],
"DefaultContext_v42" : [
"2021-07-14T14:39:32.087-0500"
],
"DefaultContext_v43" : [
"2021-07-21T12:08:22.928-0500"
],
"DefaultContext_v44" : [
"2021-08-03T11:10:39.902-0500"
],
"DefaultContext_v45" : [
"2021-09-02T14:08:01.296-0500"
],
"DefaultContext_v46" : [
"2021-09-24T15:36:52.917-0500"
],
"DefaultContext_v47" : [
"2021-09-28T10:22:57.967-0500"
],
"DefaultContext_v48" : [
"2021-11-10T15:11:05.670-0600"
],
"DefaultContext_v49" : [
"2022-04-18T12:56:04.593-0400"
],
"DefaultContext_v50" : [
"2022-04-20T10:06:52.512-0400"
]
}
}