{
"ouid" : [
"1352dd19f41f4879bd345afd",
"2a54b135d0ff4f3396afea77",
"fb8c98fb071245a999139b73"
],
"version" : {
"0" : [
"1352dd19f41f4879bd345afd"
],
"2" : [
"2a54b135d0ff4f3396afea77"
],
"1" : [
"fb8c98fb071245a999139b73"
]
},
"configurations.name" : {
"notprovided" : [
"1352dd19f41f4879bd345afd",
"2a54b135d0ff4f3396afea77",
"fb8c98fb071245a999139b73"
],
"BurninBoxConfiguration_v0" : [
"1352dd19f41f4879bd345afd"
],
"BurninBoxConfiguration_v2" : [
"2a54b135d0ff4f3396afea77"
],
"BurninBoxConfiguration_v1" : [
"fb8c98fb071245a999139b73"
]
},
"entities.name" : {
"OTSROOT" : [
"1352dd19f41f4879bd345afd",
"2a54b135d0ff4f3396afea77",
"fb8c98fb071245a999139b73"
]
},
"aliases.active.name" : {

},
"runs.name" : {

},
"configurations.assigned" : {
"notprovided" : [
"2023-10-25T15:16:48.555-0500",
"2023-10-25T15:16:50.067-0500",
"2023-10-25T15:16:51.111-0500"
],
"BurninBoxConfiguration_v0" : [
"2023-10-25T15:16:49.511-0500"
],
"BurninBoxConfiguration_v2" : [
"2023-10-25T15:16:51.606-0500"
],
"BurninBoxConfiguration_v1" : [
"2023-10-25T15:16:50.373-0500"
]
}
}