{
"ouid" : [
"8407e3c724ca428ca6e11045"
],
"version" : {
"1" : [
"8407e3c724ca428ca6e11045"
]
},
"configurations.name" : {
"notprovided" : [
"8407e3c724ca428ca6e11045"
],
"DefaultContext_v1" : [
"8407e3c724ca428ca6e11045"
],
"DefaultContext_v2" : [
"8407e3c724ca428ca6e11045"
],
"DefaultContext_v3" : [
"8407e3c724ca428ca6e11045"
],
"DefaultContext_v4" : [
"8407e3c724ca428ca6e11045"
],
"DefaultContext_v5" : [
"8407e3c724ca428ca6e11045"
],
"DefaultContext_v6" : [
"8407e3c724ca428ca6e11045"
],
"DefaultContext_v7" : [
"8407e3c724ca428ca6e11045"
],
"DefaultContext_v8" : [
"8407e3c724ca428ca6e11045"
],
"DefaultContext_v9" : [
"8407e3c724ca428ca6e11045"
],
"DefaultContext_v10" : [
"8407e3c724ca428ca6e11045"
],
"DefaultContext_v11" : [
"8407e3c724ca428ca6e11045"
],
"DefaultContext_v12" : [
"8407e3c724ca428ca6e11045"
],
"DefaultContext_v13" : [
"8407e3c724ca428ca6e11045"
],
"DefaultContext_v14" : [
"8407e3c724ca428ca6e11045"
],
"DefaultContext_v15" : [
"8407e3c724ca428ca6e11045"
],
"DefaultContext_v16" : [
"8407e3c724ca428ca6e11045"
],
"DefaultContext_v17" : [
"8407e3c724ca428ca6e11045"
],
"DefaultContext_v18" : [
"8407e3c724ca428ca6e11045"
],
"DefaultContext_v19" : [
"8407e3c724ca428ca6e11045"
],
"DefaultContext_v20" : [
"8407e3c724ca428ca6e11045"
],
"DefaultContext_v21" : [
"8407e3c724ca428ca6e11045"
],
"DefaultContext_v22" : [
"8407e3c724ca428ca6e11045"
],
"DefaultContext_v23" : [
"8407e3c724ca428ca6e11045"
],
"DefaultContext_v24" : [
"8407e3c724ca428ca6e11045"
],
"DefaultContext_v25" : [
"8407e3c724ca428ca6e11045"
],
"DefaultContext_v26" : [
"8407e3c724ca428ca6e11045"
],
"DefaultContext_v27" : [
"8407e3c724ca428ca6e11045"
],
"DefaultContext_v28" : [
"8407e3c724ca428ca6e11045"
],
"DefaultContext_v29" : [
"8407e3c724ca428ca6e11045"
],
"DefaultContext_v30" : [
"8407e3c724ca428ca6e11045"
],
"DefaultContext_v31" : [
"8407e3c724ca428ca6e11045"
],
"DefaultContext_v32" : [
"8407e3c724ca428ca6e11045"
],
"DefaultContext_v33" : [
"8407e3c724ca428ca6e11045"
],
"DefaultContext_v34" : [
"8407e3c724ca428ca6e11045"
],
"DefaultContext_v35" : [
"8407e3c724ca428ca6e11045"
],
"DefaultContext_v36" : [
"8407e3c724ca428ca6e11045"
],
"DefaultContext_v37" : [
"8407e3c724ca428ca6e11045"
],
"DefaultContext_v38" : [
"8407e3c724ca428ca6e11045"
],
"DefaultContext_v39" : [
"8407e3c724ca428ca6e11045"
],
"DefaultContext_v40" : [
"8407e3c724ca428ca6e11045"
],
"DefaultContext_v41" : [
"8407e3c724ca428ca6e11045"
],
"DefaultContext_v42" : [
"8407e3c724ca428ca6e11045"
],
"DefaultContext_v43" : [
"8407e3c724ca428ca6e11045"
],
"DefaultContext_v44" : [
"8407e3c724ca428ca6e11045"
],
"DefaultContext_v45" : [
"8407e3c724ca428ca6e11045"
],
"DefaultContext_v46" : [
"8407e3c724ca428ca6e11045"
],
"DefaultContext_v47" : [
"8407e3c724ca428ca6e11045"
],
"DefaultContext_v48" : [
"8407e3c724ca428ca6e11045"
],
"DefaultContext_v49" : [
"8407e3c724ca428ca6e11045"
],
"DefaultContext_v50" : [
"8407e3c724ca428ca6e11045"
],
"DefaultContext_v51" : [
"8407e3c724ca428ca6e11045"
],
"DefaultContext_v52" : [
"8407e3c724ca428ca6e11045"
],
"DefaultContext_v53" : [
"8407e3c724ca428ca6e11045"
],
"DefaultContext_v54" : [
"8407e3c724ca428ca6e11045"
],
"DefaultContext_v55" : [
"8407e3c724ca428ca6e11045"
],
"DefaultContext_v56" : [
"8407e3c724ca428ca6e11045"
],
"DefaultContext_v57" : [
"8407e3c724ca428ca6e11045"
],
"DefaultContext_v58" : [
"8407e3c724ca428ca6e11045"
],
"DefaultContext_v59" : [
"8407e3c724ca428ca6e11045"
],
"DefaultContext_v60" : [
"8407e3c724ca428ca6e11045"
],
"DefaultContext_v61" : [
"8407e3c724ca428ca6e11045"
],
"DefaultContext_v62" : [
"8407e3c724ca428ca6e11045"
],
"DefaultContext_v63" : [
"8407e3c724ca428ca6e11045"
],
"DefaultContext_v64" : [
"8407e3c724ca428ca6e11045"
],
"DefaultContext_v65" : [
"8407e3c724ca428ca6e11045"
],
"DefaultContext_v66" : [
"8407e3c724ca428ca6e11045"
],
"DefaultContext_v67" : [
"8407e3c724ca428ca6e11045"
],
"DefaultContext_v68" : [
"8407e3c724ca428ca6e11045"
],
"DefaultContext_v69" : [
"8407e3c724ca428ca6e11045"
],
"DefaultContext_v70" : [
"8407e3c724ca428ca6e11045"
],
"DefaultContext_v71" : [
"8407e3c724ca428ca6e11045"
],
"DefaultContext_v72" : [
"8407e3c724ca428ca6e11045"
],
"DefaultContext_v73" : [
"8407e3c724ca428ca6e11045"
],
"DefaultContext_v74" : [
"8407e3c724ca428ca6e11045"
],
"DefaultContext_v75" : [
"8407e3c724ca428ca6e11045"
],
"DefaultContext_v76" : [
"8407e3c724ca428ca6e11045"
],
"DefaultContext_v77" : [
"8407e3c724ca428ca6e11045"
],
"DefaultContext_v78" : [
"8407e3c724ca428ca6e11045"
],
"DefaultContext_v79" : [
"8407e3c724ca428ca6e11045"
],
"DefaultContext_v80" : [
"8407e3c724ca428ca6e11045"
],
"DefaultContext_v81" : [
"8407e3c724ca428ca6e11045"
]
},
"entities.name" : {
"OTSROOT" : [
"8407e3c724ca428ca6e11045"
]
},
"aliases.active.name" : {

},
"runs.name" : {

},
"configurations.assigned" : {
"notprovided" : [
"2018-09-06T17:34:15.142-0500"
],
"DefaultContext_v1" : [
"2018-09-06T17:34:15.539-0500"
],
"DefaultContext_v2" : [
"2018-09-10T09:24:24.239-0500"
],
"DefaultContext_v3" : [
"2018-09-11T10:00:20.550-0500"
],
"DefaultContext_v4" : [
"2019-10-22T14:55:21.356-0500"
],
"DefaultContext_v5" : [
"2020-06-29T11:00:05.390-0500"
],
"DefaultContext_v6" : [
"2020-07-29T16:01:22.507-0500"
],
"DefaultContext_v7" : [
"2020-07-29T16:34:42.871-0500"
],
"DefaultContext_v8" : [
"2020-07-29T16:39:53.703-0500"
],
"DefaultContext_v9" : [
"2020-07-29T16:40:44.320-0500"
],
"DefaultContext_v10" : [
"2020-07-29T16:45:01.615-0500"
],
"DefaultContext_v11" : [
"2020-07-29T16:49:16.426-0500"
],
"DefaultContext_v12" : [
"2020-09-02T15:22:09.601-0500"
],
"DefaultContext_v13" : [
"2020-10-05T17:04:58.334-0500"
],
"DefaultContext_v14" : [
"2020-10-05T17:07:06.847-0500"
],
"DefaultContext_v15" : [
"2020-10-05T17:43:27.275-0500"
],
"DefaultContext_v16" : [
"2020-10-05T17:51:30.225-0500"
],
"DefaultContext_v17" : [
"2020-10-09T11:58:10.331-0500"
],
"DefaultContext_v18" : [
"2020-10-09T12:53:54.044-0500"
],
"DefaultContext_v19" : [
"2020-10-09T12:57:06.805-0500"
],
"DefaultContext_v20" : [
"2020-10-09T13:00:58.123-0500"
],
"DefaultContext_v21" : [
"2020-10-09T15:30:48.578-0500"
],
"DefaultContext_v22" : [
"2020-10-09T15:32:24.253-0500"
],
"DefaultContext_v23" : [
"2020-10-09T15:32:58.623-0500"
],
"DefaultContext_v24" : [
"2020-10-09T16:47:19.208-0500"
],
"DefaultContext_v25" : [
"2020-10-12T09:37:50.090-0500"
],
"DefaultContext_v26" : [
"2020-10-12T09:41:39.607-0500"
],
"DefaultContext_v27" : [
"2020-10-29T11:54:28.508-0500"
],
"DefaultContext_v28" : [
"2020-10-29T11:54:56.494-0500"
],
"DefaultContext_v29" : [
"2020-10-29T13:33:31.232-0500"
],
"DefaultContext_v30" : [
"2020-11-16T17:04:43.497-0600"
],
"DefaultContext_v31" : [
"2020-11-16T17:07:49.856-0600"
],
"DefaultContext_v32" : [
"2020-11-16T17:10:04.000-0600"
],
"DefaultContext_v33" : [
"2021-07-07T14:45:52.416-0500"
],
"DefaultContext_v34" : [
"2021-07-07T16:02:04.520-0500"
],
"DefaultContext_v35" : [
"2021-07-07T16:05:38.064-0500"
],
"DefaultContext_v36" : [
"2021-07-08T14:00:20.597-0500"
],
"DefaultContext_v37" : [
"2021-07-08T14:17:00.296-0500"
],
"DefaultContext_v38" : [
"2021-07-08T16:21:56.410-0500"
],
"DefaultContext_v39" : [
"2021-07-08T16:24:39.567-0500"
],
"DefaultContext_v40" : [
"2021-07-14T13:02:14.370-0500"
],
"DefaultContext_v41" : [
"2021-07-14T13:03:01.507-0500"
],
"DefaultContext_v42" : [
"2021-07-14T14:39:31.968-0500"
],
"DefaultContext_v43" : [
"2021-07-21T12:08:22.803-0500"
],
"DefaultContext_v44" : [
"2021-08-03T11:10:39.784-0500"
],
"DefaultContext_v45" : [
"2021-09-02T14:08:01.152-0500"
],
"DefaultContext_v46" : [
"2021-09-24T15:36:52.792-0500"
],
"DefaultContext_v47" : [
"2021-09-28T10:22:57.832-0500"
],
"DefaultContext_v48" : [
"2021-11-10T15:11:05.519-0600"
],
"DefaultContext_v49" : [
"2022-04-18T12:56:04.492-0400"
],
"DefaultContext_v50" : [
"2022-04-20T10:06:52.409-0400"
],
"DefaultContext_v51" : [
"2023-01-19T10:05:01.811-0600"
],
"DefaultContext_v52" : [
"2023-01-19T11:02:48.454-0600"
],
"DefaultContext_v53" : [
"2023-01-19T12:09:18.309-0600"
],
"DefaultContext_v54" : [
"2023-01-23T15:11:58.394-0600"
],
"DefaultContext_v55" : [
"2023-01-30T13:43:41.141-0600"
],
"DefaultContext_v56" : [
"2023-02-13T14:11:46.143-0600"
],
"DefaultContext_v57" : [
"2023-02-13T14:13:00.647-0600"
],
"DefaultContext_v58" : [
"2023-02-13T14:20:59.838-0600"
],
"DefaultContext_v59" : [
"2023-02-13T14:33:43.754-0600"
],
"DefaultContext_v60" : [
"2023-02-13T14:58:14.967-0600"
],
"DefaultContext_v61" : [
"2023-02-16T12:29:02.594-0600"
],
"DefaultContext_v62" : [
"2023-02-16T14:03:01.083-0600"
],
"DefaultContext_v63" : [
"2023-02-16T14:04:40.127-0600"
],
"DefaultContext_v64" : [
"2023-02-16T14:42:27.280-0600"
],
"DefaultContext_v65" : [
"2023-02-16T14:49:47.281-0600"
],
"DefaultContext_v66" : [
"2023-02-16T14:53:11.990-0600"
],
"DefaultContext_v67" : [
"2023-02-16T14:55:43.571-0600"
],
"DefaultContext_v68" : [
"2023-02-17T08:58:42.797-0600"
],
"DefaultContext_v69" : [
"2023-02-17T09:04:54.561-0600"
],
"DefaultContext_v70" : [
"2023-02-17T09:06:41.600-0600"
],
"DefaultContext_v71" : [
"2023-02-17T09:07:48.431-0600"
],
"DefaultContext_v72" : [
"2023-02-23T08:41:50.610-0600"
],
"DefaultContext_v73" : [
"2023-02-28T13:19:24.360-0600"
],
"DefaultContext_v74" : [
"2023-02-28T13:20:45.247-0600"
],
"DefaultContext_v75" : [
"2023-03-01T10:10:37.382-0600"
],
"DefaultContext_v76" : [
"2023-04-14T11:05:29.707-0500"
],
"DefaultContext_v77" : [
"2023-04-14T11:09:59.887-0500"
],
"DefaultContext_v78" : [
"2023-04-14T14:03:30.622-0500"
],
"DefaultContext_v79" : [
"2023-04-14T15:36:53.458-0500"
],
"DefaultContext_v80" : [
"2023-09-18T14:48:51.740-0500"
],
"DefaultContext_v81" : [
"2023-09-18T14:49:35.645-0500"
]
}
}