{
"ouid" : [
"0b720ec320264b80b667ff9e",
"554bbe3afb6d4e919d1b2b4e",
"60eac543a638498abd8595fb",
"6b08701f64154846a691415d",
"74e9c469e9764ebb8af7de80",
"96555058ee0444a188541548",
"a005e80244c4474b8d35b5cb",
"b88c0ee18cf94d2b8bc9b850",
"b8d8a7a304a647bf85a1e705",
"dfe7a00f3d874cf493a9df34"
],
"version" : {
"0" : [
"b8d8a7a304a647bf85a1e705"
],
"1" : [
"0b720ec320264b80b667ff9e"
],
"2" : [
"dfe7a00f3d874cf493a9df34"
],
"3" : [
"b88c0ee18cf94d2b8bc9b850"
],
"4" : [
"554bbe3afb6d4e919d1b2b4e"
],
"5" : [
"60eac543a638498abd8595fb"
],
"6" : [
"6b08701f64154846a691415d"
],
"7" : [
"a005e80244c4474b8d35b5cb"
],
"8" : [
"96555058ee0444a188541548"
],
"9" : [
"74e9c469e9764ebb8af7de80"
]
},
"configurations.name" : {
"notprovided" : [
"0b720ec320264b80b667ff9e",
"554bbe3afb6d4e919d1b2b4e",
"60eac543a638498abd8595fb",
"6b08701f64154846a691415d",
"74e9c469e9764ebb8af7de80",
"96555058ee0444a188541548",
"a005e80244c4474b8d35b5cb",
"b88c0ee18cf94d2b8bc9b850",
"b8d8a7a304a647bf85a1e705",
"dfe7a00f3d874cf493a9df34"
],
"BurninBoxConfiguration_v0" : [
"b8d8a7a304a647bf85a1e705"
],
"BurninBoxConfiguration_v1" : [
"0b720ec320264b80b667ff9e"
],
"BurninBoxConfiguration_v2" : [
"dfe7a00f3d874cf493a9df34"
],
"BurninBoxConfiguration_v3" : [
"dfe7a00f3d874cf493a9df34"
],
"BurninBoxConfiguration_v4" : [
"dfe7a00f3d874cf493a9df34"
],
"BurninBoxConfiguration_v5" : [
"dfe7a00f3d874cf493a9df34"
],
"BurninBoxConfiguration_v6" : [
"dfe7a00f3d874cf493a9df34"
],
"BurninBoxConfiguration_v7" : [
"dfe7a00f3d874cf493a9df34"
],
"BurninBoxConfiguration_v8" : [
"b88c0ee18cf94d2b8bc9b850"
],
"BurninBoxConfiguration_v9" : [
"b88c0ee18cf94d2b8bc9b850"
],
"BurninBoxConfiguration_v10" : [
"554bbe3afb6d4e919d1b2b4e"
],
"BurninBoxConfiguration_v11" : [
"554bbe3afb6d4e919d1b2b4e"
],
"BurninBoxConfiguration_v12" : [
"554bbe3afb6d4e919d1b2b4e"
],
"BurninBoxConfiguration_v13" : [
"554bbe3afb6d4e919d1b2b4e"
],
"BurninBoxConfiguration_v14" : [
"60eac543a638498abd8595fb"
],
"BurninBoxConfiguration_v15" : [
"60eac543a638498abd8595fb"
],
"BurninBoxConfiguration_v16" : [
"60eac543a638498abd8595fb"
],
"BurninBoxConfiguration_v17" : [
"60eac543a638498abd8595fb"
],
"BurninBoxConfiguration_v18" : [
"60eac543a638498abd8595fb"
],
"BurninBoxConfiguration_v19" : [
"60eac543a638498abd8595fb"
],
"BurninBoxConfiguration_v20" : [
"60eac543a638498abd8595fb"
],
"BurninBoxConfiguration_v21" : [
"60eac543a638498abd8595fb"
],
"BurninBoxConfiguration_v22" : [
"60eac543a638498abd8595fb"
],
"BurninBoxConfiguration_v23" : [
"6b08701f64154846a691415d"
],
"BurninBoxConfiguration_v24" : [
"6b08701f64154846a691415d"
],
"BurninBoxConfiguration_v25" : [
"a005e80244c4474b8d35b5cb"
],
"BurninBoxConfiguration_v26" : [
"a005e80244c4474b8d35b5cb"
],
"BurninBoxConfiguration_v27" : [
"a005e80244c4474b8d35b5cb"
],
"BurninBoxConfiguration_v28" : [
"a005e80244c4474b8d35b5cb"
],
"BurninBoxConfiguration_v29" : [
"a005e80244c4474b8d35b5cb"
],
"BurninBoxConfiguration_v30" : [
"a005e80244c4474b8d35b5cb"
],
"BurninBoxConfiguration_v31" : [
"a005e80244c4474b8d35b5cb"
],
"BurninBoxConfiguration_v32" : [
"a005e80244c4474b8d35b5cb"
],
"BurninBoxConfiguration_v33" : [
"a005e80244c4474b8d35b5cb"
],
"BurninBoxConfiguration_v34" : [
"a005e80244c4474b8d35b5cb"
],
"BurninBoxConfiguration_v35" : [
"74e9c469e9764ebb8af7de80"
],
"BurninBoxConfiguration_v36" : [
"74e9c469e9764ebb8af7de80"
],
"BurninBoxConfiguration_v37" : [
"74e9c469e9764ebb8af7de80"
],
"BurninBoxConfiguration_v38" : [
"74e9c469e9764ebb8af7de80"
],
"BurninBoxConfiguration_v39" : [
"74e9c469e9764ebb8af7de80"
],
"BurninBoxConfiguration_v40" : [
"74e9c469e9764ebb8af7de80"
],
"BurninBoxConfiguration_v41" : [
"74e9c469e9764ebb8af7de80"
],
"BurninBoxConfiguration_v42" : [
"74e9c469e9764ebb8af7de80"
],
"BurninBoxConfiguration_v43" : [
"74e9c469e9764ebb8af7de80"
],
"BurninBoxConfiguration_v44" : [
"74e9c469e9764ebb8af7de80"
],
"BurninBoxConfiguration_v45" : [
"74e9c469e9764ebb8af7de80"
],
"BurninBoxConfiguration_v46" : [
"74e9c469e9764ebb8af7de80"
],
"BurninBoxConfiguration_v47" : [
"74e9c469e9764ebb8af7de80"
],
"BurninBoxConfiguration_v48" : [
"74e9c469e9764ebb8af7de80"
],
"BurninBoxConfiguration_v49" : [
"74e9c469e9764ebb8af7de80"
],
"BurninBoxConfiguration_v50" : [
"74e9c469e9764ebb8af7de80"
],
"BurninBoxConfiguration_v51" : [
"74e9c469e9764ebb8af7de80"
],
"BurninBoxConfiguration_v52" : [
"74e9c469e9764ebb8af7de80"
],
"BurninBoxConfiguration_v53" : [
"74e9c469e9764ebb8af7de80"
],
"BurninBoxConfiguration_v54" : [
"74e9c469e9764ebb8af7de80"
],
"BurninBoxConfiguration_v55" : [
"74e9c469e9764ebb8af7de80"
],
"BurninBoxConfiguration_v56" : [
"74e9c469e9764ebb8af7de80"
],
"BurninBoxConfiguration_v57" : [
"74e9c469e9764ebb8af7de80"
],
"BurninBoxConfiguration_v58" : [
"74e9c469e9764ebb8af7de80"
],
"BurninBoxConfiguration_v59" : [
"74e9c469e9764ebb8af7de80"
],
"BurninBoxConfiguration_v60" : [
"74e9c469e9764ebb8af7de80"
],
"BurninBoxConfiguration_v61" : [
"74e9c469e9764ebb8af7de80"
],
"BurninBoxConfiguration_v62" : [
"74e9c469e9764ebb8af7de80"
],
"BurninBoxConfiguration_v63" : [
"74e9c469e9764ebb8af7de80"
],
"BurninBoxConfiguration_v64" : [
"74e9c469e9764ebb8af7de80"
],
"BurninBoxConfiguration_v65" : [
"74e9c469e9764ebb8af7de80"
],
"BurninBoxConfiguration_v66" : [
"74e9c469e9764ebb8af7de80"
],
"BurninBoxConfiguration_v67" : [
"74e9c469e9764ebb8af7de80"
],
"BurninBoxConfiguration_v68" : [
"74e9c469e9764ebb8af7de80"
],
"BurninBoxConfiguration_v69" : [
"74e9c469e9764ebb8af7de80"
],
"BurninBoxConfiguration_v70" : [
"74e9c469e9764ebb8af7de80"
],
"BurninBoxConfiguration_v71" : [
"74e9c469e9764ebb8af7de80"
],
"BurninBoxConfiguration_v72" : [
"74e9c469e9764ebb8af7de80"
],
"BurninBoxConfiguration_v73" : [
"74e9c469e9764ebb8af7de80"
],
"BurninBoxConfiguration_v74" : [
"74e9c469e9764ebb8af7de80"
],
"BurninBoxConfiguration_v75" : [
"74e9c469e9764ebb8af7de80"
],
"BurninBoxConfiguration_v76" : [
"74e9c469e9764ebb8af7de80"
],
"BurninBoxConfiguration_v77" : [
"74e9c469e9764ebb8af7de80"
],
"BurninBoxConfiguration_v78" : [
"74e9c469e9764ebb8af7de80"
],
"BurninBoxConfiguration_v79" : [
"74e9c469e9764ebb8af7de80"
],
"BurninBoxConfiguration_v80" : [
"74e9c469e9764ebb8af7de80"
],
"BurninBoxConfiguration_v81" : [
"74e9c469e9764ebb8af7de80"
],
"BurninBoxConfiguration_v82" : [
"74e9c469e9764ebb8af7de80"
],
"BurninBoxConfiguration_v83" : [
"74e9c469e9764ebb8af7de80"
],
"BurninBoxConfiguration_v84" : [
"74e9c469e9764ebb8af7de80"
],
"BurninBoxConfiguration_v85" : [
"74e9c469e9764ebb8af7de80"
],
"BurninBoxConfiguration_v86" : [
"74e9c469e9764ebb8af7de80"
],
"BurninBoxConfiguration_v87" : [
"74e9c469e9764ebb8af7de80"
],
"BurninBoxConfiguration_v88" : [
"74e9c469e9764ebb8af7de80"
],
"BurninBoxConfiguration_v89" : [
"74e9c469e9764ebb8af7de80"
],
"BurninBoxConfiguration_v90" : [
"74e9c469e9764ebb8af7de80"
],
"BurninBoxConfiguration_v91" : [
"74e9c469e9764ebb8af7de80"
],
"BurninBoxConfiguration_v92" : [
"74e9c469e9764ebb8af7de80"
],
"BurninBoxConfiguration_v93" : [
"74e9c469e9764ebb8af7de80"
],
"BurninBoxConfiguration_v94" : [
"74e9c469e9764ebb8af7de80"
],
"BurninBoxConfiguration_v95" : [
"74e9c469e9764ebb8af7de80"
],
"BurninBoxConfiguration_v96" : [
"74e9c469e9764ebb8af7de80"
],
"BurninBoxConfiguration_v97" : [
"74e9c469e9764ebb8af7de80"
]
},
"entities.name" : {
"OTSROOT" : [
"0b720ec320264b80b667ff9e",
"554bbe3afb6d4e919d1b2b4e",
"60eac543a638498abd8595fb",
"6b08701f64154846a691415d",
"74e9c469e9764ebb8af7de80",
"96555058ee0444a188541548",
"a005e80244c4474b8d35b5cb",
"b88c0ee18cf94d2b8bc9b850",
"b8d8a7a304a647bf85a1e705",
"dfe7a00f3d874cf493a9df34"
]
},
"aliases.active.name" : {

},
"runs.name" : {

},
"configurations.assigned" : {
"notprovided" : [
"2020-07-29T15:55:20.787-0500",
"2020-07-30T11:42:26.402-0500",
"2020-07-30T12:05:11.820-0500",
"2020-10-05T16:55:47.603-0500",
"2020-10-05T17:10:54.070-0500",
"2020-10-09T15:30:44.926-0500",
"2020-10-26T14:52:59.635-0500",
"2020-10-27T17:42:08.711-0500",
"2021-07-08T14:05:29.035-0500",
"2021-07-08T14:06:12.190-0500"
],
"BurninBoxConfiguration_v0" : [
"2020-07-29T15:59:40.753-0500"
],
"BurninBoxConfiguration_v1" : [
"2020-07-30T11:42:27.386-0500"
],
"BurninBoxConfiguration_v2" : [
"2020-07-30T12:05:12.769-0500"
],
"BurninBoxConfiguration_v3" : [
"2020-09-02T11:30:04.480-0500"
],
"BurninBoxConfiguration_v4" : [
"2020-09-02T11:31:32.301-0500"
],
"BurninBoxConfiguration_v5" : [
"2020-09-02T15:08:51.248-0500"
],
"BurninBoxConfiguration_v6" : [
"2020-09-02T16:01:05.990-0500"
],
"BurninBoxConfiguration_v7" : [
"2020-09-02T16:05:19.412-0500"
],
"BurninBoxConfiguration_v8" : [
"2020-10-05T17:05:55.491-0500"
],
"BurninBoxConfiguration_v9" : [
"2020-10-05T17:09:48.531-0500"
],
"BurninBoxConfiguration_v10" : [
"2020-10-05T17:11:02.390-0500"
],
"BurninBoxConfiguration_v11" : [
"2020-10-05T17:39:03.935-0500"
],
"BurninBoxConfiguration_v12" : [
"2020-10-05T17:43:06.165-0500"
],
"BurninBoxConfiguration_v13" : [
"2020-10-09T14:43:40.104-0500"
],
"BurninBoxConfiguration_v14" : [
"2020-10-09T15:30:46.690-0500"
],
"BurninBoxConfiguration_v15" : [
"2020-10-12T10:14:43.582-0500"
],
"BurninBoxConfiguration_v16" : [
"2020-10-12T15:33:09.169-0500"
],
"BurninBoxConfiguration_v17" : [
"2020-10-19T16:16:02.723-0500"
],
"BurninBoxConfiguration_v18" : [
"2020-10-23T11:00:20.532-0500"
],
"BurninBoxConfiguration_v19" : [
"2020-10-26T11:51:21.546-0500"
],
"BurninBoxConfiguration_v20" : [
"2020-10-26T11:51:43.182-0500"
],
"BurninBoxConfiguration_v21" : [
"2020-10-26T11:56:42.631-0500"
],
"BurninBoxConfiguration_v22" : [
"2020-10-26T14:34:34.554-0500"
],
"BurninBoxConfiguration_v23" : [
"2020-10-26T14:53:01.484-0500"
],
"BurninBoxConfiguration_v24" : [
"2020-10-26T15:02:46.739-0500"
],
"BurninBoxConfiguration_v25" : [
"2020-10-27T17:42:10.543-0500"
],
"BurninBoxConfiguration_v26" : [
"2020-10-29T11:52:32.754-0500"
],
"BurninBoxConfiguration_v27" : [
"2020-10-29T11:54:26.502-0500"
],
"BurninBoxConfiguration_v28" : [
"2020-10-29T13:30:24.471-0500"
],
"BurninBoxConfiguration_v29" : [
"2020-10-29T13:45:55.861-0500"
],
"BurninBoxConfiguration_v30" : [
"2020-10-29T13:46:38.138-0500"
],
"BurninBoxConfiguration_v31" : [
"2020-10-29T13:48:02.798-0500"
],
"BurninBoxConfiguration_v32" : [
"2020-10-29T14:39:28.830-0500"
],
"BurninBoxConfiguration_v33" : [
"2021-06-30T16:17:51.814-0500"
],
"BurninBoxConfiguration_v34" : [
"2021-06-30T16:23:48.187-0500"
],
"BurninBoxConfiguration_v35" : [
"2021-07-08T14:06:14.061-0500"
],
"BurninBoxConfiguration_v36" : [
"2021-07-08T14:16:58.258-0500"
],
"BurninBoxConfiguration_v37" : [
"2021-07-08T16:20:44.836-0500"
],
"BurninBoxConfiguration_v38" : [
"2021-07-09T11:47:14.035-0500"
],
"BurninBoxConfiguration_v39" : [
"2021-07-09T11:48:46.144-0500"
],
"BurninBoxConfiguration_v40" : [
"2021-07-09T16:06:00.618-0500"
],
"BurninBoxConfiguration_v41" : [
"2021-07-12T11:04:55.592-0500"
],
"BurninBoxConfiguration_v42" : [
"2021-07-13T12:01:31.457-0500"
],
"BurninBoxConfiguration_v43" : [
"2021-07-13T12:22:05.928-0500"
],
"BurninBoxConfiguration_v44" : [
"2021-07-14T13:05:58.527-0500"
],
"BurninBoxConfiguration_v45" : [
"2021-07-14T14:26:04.696-0500"
],
"BurninBoxConfiguration_v46" : [
"2021-07-14T14:46:56.967-0500"
],
"BurninBoxConfiguration_v47" : [
"2021-07-14T15:24:33.839-0500"
],
"BurninBoxConfiguration_v48" : [
"2021-07-14T16:05:29.423-0500"
],
"BurninBoxConfiguration_v49" : [
"2021-07-14T16:15:41.081-0500"
],
"BurninBoxConfiguration_v50" : [
"2021-07-14T16:17:40.852-0500"
],
"BurninBoxConfiguration_v51" : [
"2021-07-15T11:50:33.872-0500"
],
"BurninBoxConfiguration_v52" : [
"2021-07-20T13:45:54.007-0500"
],
"BurninBoxConfiguration_v53" : [
"2021-07-20T16:41:42.209-0500"
],
"BurninBoxConfiguration_v54" : [
"2021-07-20T17:09:26.929-0500"
],
"BurninBoxConfiguration_v55" : [
"2021-07-20T17:28:40.096-0500"
],
"BurninBoxConfiguration_v56" : [
"2021-07-20T17:46:27.424-0500"
],
"BurninBoxConfiguration_v57" : [
"2021-07-21T11:50:02.001-0500"
],
"BurninBoxConfiguration_v58" : [
"2021-07-21T11:58:37.657-0500"
],
"BurninBoxConfiguration_v59" : [
"2021-07-21T11:59:33.410-0500"
],
"BurninBoxConfiguration_v60" : [
"2021-07-22T18:35:00.436-0500"
],
"BurninBoxConfiguration_v61" : [
"2021-07-23T12:33:56.756-0500"
],
"BurninBoxConfiguration_v62" : [
"2021-07-24T00:54:49.578-0500"
],
"BurninBoxConfiguration_v63" : [
"2021-07-24T12:12:51.132-0500"
],
"BurninBoxConfiguration_v64" : [
"2021-07-25T21:07:16.072-0500"
],
"BurninBoxConfiguration_v65" : [
"2021-07-26T07:43:11.977-0500"
],
"BurninBoxConfiguration_v66" : [
"2021-07-26T18:37:12.042-0500"
],
"BurninBoxConfiguration_v67" : [
"2021-07-27T08:25:40.772-0500"
],
"BurninBoxConfiguration_v68" : [
"2021-08-03T11:10:37.166-0500"
],
"BurninBoxConfiguration_v69" : [
"2021-08-04T12:21:57.561-0500"
],
"BurninBoxConfiguration_v70" : [
"2021-09-02T13:43:34.010-0500"
],
"BurninBoxConfiguration_v71" : [
"2021-09-02T14:03:36.850-0500"
],
"BurninBoxConfiguration_v72" : [
"2021-09-23T15:47:05.238-0500"
],
"BurninBoxConfiguration_v73" : [
"2021-09-23T15:47:42.190-0500"
],
"BurninBoxConfiguration_v74" : [
"2021-09-24T15:36:50.078-0500"
],
"BurninBoxConfiguration_v75" : [
"2021-09-24T15:53:23.081-0500"
],
"BurninBoxConfiguration_v76" : [
"2021-09-24T16:04:22.057-0500"
],
"BurninBoxConfiguration_v77" : [
"2021-09-24T16:28:06.886-0500"
],
"BurninBoxConfiguration_v78" : [
"2021-09-27T09:02:56.431-0500"
],
"BurninBoxConfiguration_v79" : [
"2021-09-27T14:22:24.748-0500"
],
"BurninBoxConfiguration_v80" : [
"2021-09-28T09:24:50.608-0500"
],
"BurninBoxConfiguration_v81" : [
"2021-09-30T09:14:50.923-0500"
],
"BurninBoxConfiguration_v82" : [
"2021-10-01T10:56:21.403-0500"
],
"BurninBoxConfiguration_v83" : [
"2021-10-01T11:01:41.049-0500"
],
"BurninBoxConfiguration_v84" : [
"2021-10-06T10:02:31.307-0500"
],
"BurninBoxConfiguration_v85" : [
"2021-10-07T16:32:40.458-0500"
],
"BurninBoxConfiguration_v86" : [
"2021-10-08T14:03:15.310-0500"
],
"BurninBoxConfiguration_v87" : [
"2021-10-11T16:00:56.239-0500"
],
"BurninBoxConfiguration_v88" : [
"2021-10-12T09:07:17.473-0500"
],
"BurninBoxConfiguration_v89" : [
"2021-10-12T11:11:23.155-0500"
],
"BurninBoxConfiguration_v90" : [
"2021-10-14T17:03:16.576-0500"
],
"BurninBoxConfiguration_v91" : [
"2021-10-15T10:48:31.316-0500"
],
"BurninBoxConfiguration_v92" : [
"2021-10-15T15:50:49.263-0500"
],
"BurninBoxConfiguration_v93" : [
"2021-11-03T16:30:20.122-0500"
],
"BurninBoxConfiguration_v94" : [
"2021-11-10T15:11:02.514-0600"
],
"BurninBoxConfiguration_v95" : [
"2022-04-19T14:35:56.464-0400"
],
"BurninBoxConfiguration_v96" : [
"2022-04-20T10:06:05.458-0400"
],
"BurninBoxConfiguration_v97" : [
"2022-04-20T11:23:52.181-0400"
]
}
}