{
"document" : {
"data" : {
"NAME" : "DATA_BUFFER_TABLE",
"COMMENT" : "Records for data buffer Producers and Consumers.",
"AUTHOR" : "admin",
"CREATION_TIME" : 1625847241,
"COL_TYPES" : {
"DATA_BUFFER_GROUP_ID" : "STRING",
"DATA_BUFFER_UID" : "STRING",
"LINK_TO_DATA_PROCESSOR_TABLE" : "STRING",
"LINK_TO_DATA_PROCESSOR_GROUP_ID" : "STRING",
"STATUS" : "STRING",
"COMMENT_DESCRIPTION" : "STRING",
"AUTHOR" : "STRING",
"RECORD_INSERTION_TIME" : "TIMESTAMP WITH TIMEZONE"
},
"DATA_SET" : [
{
"DATA_BUFFER_GROUP_ID" : "VisualizerDataBuffer",
"DATA_BUFFER_UID" : "VisualizerBurninBoxBuffer",
"LINK_TO_DATA_PROCESSOR_TABLE" : "DataProcessorTable",
"LINK_TO_DATA_PROCESSOR_GROUP_ID" : "VisualizerBurninBoxBuffer",
"STATUS" : "On",
"COMMENT_DESCRIPTION" : "DEFAULT",
"AUTHOR" : "admin",
"RECORD_INSERTION_TIME" : "1603996075"
},
{
"DATA_BUFFER_GROUP_ID" : "VisualizerDataBuffer",
"DATA_BUFFER_UID" : "VisualizerPowerSupplyBuffer",
"LINK_TO_DATA_PROCESSOR_TABLE" : "DataProcessorTable",
"LINK_TO_DATA_PROCESSOR_GROUP_ID" : "VisualizerPowerSupplyBuffer",
"STATUS" : "Off",
"COMMENT_DESCRIPTION" : "DEFAULT",
"AUTHOR" : "admin",
"RECORD_INSERTION_TIME" : "1625771770"
},
{
"DATA_BUFFER_GROUP_ID" : "VisualizerDataBuffer",
"DATA_BUFFER_UID" : "TrackerBuffer",
"LINK_TO_DATA_PROCESSOR_TABLE" : "DataProcessorTable",
"LINK_TO_DATA_PROCESSOR_GROUP_ID" : "VisualizerTrackerBuffer",
"STATUS" : "Off",
"COMMENT_DESCRIPTION" : "DEFAULT",
"AUTHOR" : "admin",
"RECORD_INSERTION_TIME" : "1625847241"
}
]
},
"metadata" : {

},
"search" : [

]
},
"comments" : [

],
"origin" : {
"source" : "template",
"name" : "notprovided",
"format" : "json",
"created" : "2021-07-09T11:14:01.923-0500",
"rawdata" : [

]
},
"version" : "6",
"entities" : [
{
"name" : "OTSROOT",
"assigned" : "2021-07-09T11:14:01.924-0500"
}
],
"configurations" : [
{
"name" : "notprovided",
"assigned" : "2021-07-09T11:14:01.924-0500"
},
{
"name" : "BurninBoxConfiguration_v38",
"assigned" : "2021-07-09T11:47:13.767-0500"
},
{
"name" : "BurninBoxConfiguration_v46",
"assigned" : "2021-07-14T14:46:56.715-0500"
},
{
"name" : "BurninBoxConfiguration_v68",
"assigned" : "2021-08-03T11:10:36.891-0500"
},
{
"name" : "BurninBoxConfiguration_v69",
"assigned" : "2021-08-04T12:21:57.218-0500"
},
{
"name" : "BurninBoxConfiguration_v70",
"assigned" : "2021-09-02T13:43:33.658-0500"
},
{
"name" : "BurninBoxConfiguration_v71",
"assigned" : "2021-09-02T14:03:36.487-0500"
},
{
"name" : "BurninBoxConfiguration_v72",
"assigned" : "2021-09-23T15:47:04.875-0500"
},
{
"name" : "BurninBoxConfiguration_v73",
"assigned" : "2021-09-23T15:47:41.881-0500"
},
{
"name" : "BurninBoxConfiguration_v75",
"assigned" : "2021-09-24T15:53:22.736-0500"
},
{
"name" : "BurninBoxConfiguration_v81",
"assigned" : "2021-09-30T09:14:50.594-0500"
},
{
"name" : "BurninBoxConfiguration_v82",
"assigned" : "2021-10-01T10:56:21.092-0500"
},
{
"name" : "BurninBoxConfiguration_v97",
"assigned" : "2022-04-20T11:23:51.909-0400"
}
],
"changelog" : "notprovided",
"bookkeeping" : {
"isdeleted" : false,
"isreadonly" : false,
"updates" : [
{
"event" : "addConfiguration",
"timestamp" : "2021-07-09T11:14:01.924-0500",
"value" : {
"name" : "notprovided",
"assigned" : "2021-07-09T11:14:01.924-0500"
}
},
{
"event" : "setVersion",
"timestamp" : "2021-07-09T11:14:01.924-0500",
"value" : {
"name" : "6",
"assigned" : "2021-07-09T11:14:01.924-0500"
}
},
{
"event" : "setCollection",
"timestamp" : "2021-07-09T11:14:01.924-0500",
"value" : {
"name" : "DataBufferTable",
"assigned" : "2021-07-09T11:14:01.924-0500"
}
},
{
"event" : "addEntity",
"timestamp" : "2021-07-09T11:14:01.925-0500",
"value" : {
"name" : "OTSROOT",
"assigned" : "2021-07-09T11:14:01.924-0500"
}
},
{
"event" : "addConfiguration",
"timestamp" : "2021-07-09T11:47:13.767-0500",
"value" : {
"name" : "BurninBoxConfiguration_v38",
"assigned" : "2021-07-09T11:47:13.767-0500"
}
},
{
"event" : "addConfiguration",
"timestamp" : "2021-07-14T14:46:56.715-0500",
"value" : {
"name" : "BurninBoxConfiguration_v46",
"assigned" : "2021-07-14T14:46:56.715-0500"
}
},
{
"event" : "addConfiguration",
"timestamp" : "2021-08-03T11:10:36.891-0500",
"value" : {
"name" : "BurninBoxConfiguration_v68",
"assigned" : "2021-08-03T11:10:36.891-0500"
}
},
{
"event" : "addConfiguration",
"timestamp" : "2021-08-04T12:21:57.218-0500",
"value" : {
"name" : "BurninBoxConfiguration_v69",
"assigned" : "2021-08-04T12:21:57.218-0500"
}
},
{
"event" : "addConfiguration",
"timestamp" : "2021-09-02T13:43:33.658-0500",
"value" : {
"name" : "BurninBoxConfiguration_v70",
"assigned" : "2021-09-02T13:43:33.658-0500"
}
},
{
"event" : "addConfiguration",
"timestamp" : "2021-09-02T14:03:36.487-0500",
"value" : {
"name" : "BurninBoxConfiguration_v71",
"assigned" : "2021-09-02T14:03:36.487-0500"
}
},
{
"event" : "addConfiguration",
"timestamp" : "2021-09-23T15:47:04.875-0500",
"value" : {
"name" : "BurninBoxConfiguration_v72",
"assigned" : "2021-09-23T15:47:04.875-0500"
}
},
{
"event" : "addConfiguration",
"timestamp" : "2021-09-23T15:47:41.881-0500",
"value" : {
"name" : "BurninBoxConfiguration_v73",
"assigned" : "2021-09-23T15:47:41.881-0500"
}
},
{
"event" : "addConfiguration",
"timestamp" : "2021-09-24T15:53:22.736-0500",
"value" : {
"name" : "BurninBoxConfiguration_v75",
"assigned" : "2021-09-24T15:53:22.736-0500"
}
},
{
"event" : "addConfiguration",
"timestamp" : "2021-09-30T09:14:50.594-0500",
"value" : {
"name" : "BurninBoxConfiguration_v81",
"assigned" : "2021-09-30T09:14:50.594-0500"
}
},
{
"event" : "addConfiguration",
"timestamp" : "2021-10-01T10:56:21.092-0500",
"value" : {
"name" : "BurninBoxConfiguration_v82",
"assigned" : "2021-10-01T10:56:21.092-0500"
}
},
{
"event" : "addConfiguration",
"timestamp" : "2022-04-20T11:23:51.909-0400",
"value" : {
"name" : "BurninBoxConfiguration_v97",
"assigned" : "2022-04-20T11:23:51.909-0400"
}
}
],
"created" : "2021-07-09T11:14:01.923-0500"
},
"_id" : {
"$oid" : "a6c717349aa74cf1a47b254e"
},
"collection" : "DataBufferTable",
"aliases" : {
"active" : [

],
"history" : [

]
},
"runs" : [

],
"attachments" : [

],
"configtype" : "notprovided"
}