{
"ouid" : [
"0409590e5b1549f597f1299e",
"08ae3ecead914a199461947a",
"120ba451ff734bb9990ab953",
"166279916f5b4972b6ed8089",
"327131c755d5494a8fdce58c",
"341b2b25f3ec47e6a5176dce",
"3cbd4d53d17f4460abe992b2",
"3cfe3cc1389544ccb1f516c7",
"58279a9c00aa4263bbca1d9a",
"6cd2b881874c46d8b3af16c1",
"722ae8ac73a44265b63dc93e",
"82409a67dcc642e58a4c8002",
"879f3f176272416bbc7947ec",
"8d928ba2595c43cbb9f194a4",
"8e2f960d8ccb47aa81e1f16e",
"93bbe315e29c42cd93d2854d",
"a337830749d145c9b45a3f4b",
"b0c0a34d9dce42b995b7c838",
"c34dac56ca284af1b0fbb538",
"c5aaea5a21ba4f098fd7a4a1",
"cea07cf9a487484a8d1da7f4",
"e0b834063d3f422fa70acccf",
"ec54fc91cebc4a0ab8f561b1",
"fcbc7234f47942bbb9e31ccc"
],
"version" : {
"0" : [
"b0c0a34d9dce42b995b7c838"
],
"1" : [
"58279a9c00aa4263bbca1d9a"
],
"2" : [
"fcbc7234f47942bbb9e31ccc"
],
"3" : [
"6cd2b881874c46d8b3af16c1"
],
"4" : [
"166279916f5b4972b6ed8089"
],
"5" : [
"3cbd4d53d17f4460abe992b2"
],
"6" : [
"e0b834063d3f422fa70acccf"
],
"7" : [
"722ae8ac73a44265b63dc93e"
],
"8" : [
"120ba451ff734bb9990ab953"
],
"9" : [
"341b2b25f3ec47e6a5176dce"
],
"10" : [
"327131c755d5494a8fdce58c"
],
"11" : [
"c34dac56ca284af1b0fbb538"
],
"12" : [
"cea07cf9a487484a8d1da7f4"
],
"13" : [
"a337830749d145c9b45a3f4b"
],
"14" : [
"8e2f960d8ccb47aa81e1f16e"
],
"15" : [
"0409590e5b1549f597f1299e"
],
"16" : [
"82409a67dcc642e58a4c8002"
],
"17" : [
"8d928ba2595c43cbb9f194a4"
],
"18" : [
"08ae3ecead914a199461947a"
],
"19" : [
"ec54fc91cebc4a0ab8f561b1"
],
"20" : [
"93bbe315e29c42cd93d2854d"
],
"21" : [
"c5aaea5a21ba4f098fd7a4a1"
],
"22" : [
"3cfe3cc1389544ccb1f516c7"
],
"23" : [
"879f3f176272416bbc7947ec"
]
},
"configurations.name" : {
"notprovided" : [
"0409590e5b1549f597f1299e",
"08ae3ecead914a199461947a",
"120ba451ff734bb9990ab953",
"166279916f5b4972b6ed8089",
"327131c755d5494a8fdce58c",
"341b2b25f3ec47e6a5176dce",
"3cbd4d53d17f4460abe992b2",
"3cfe3cc1389544ccb1f516c7",
"58279a9c00aa4263bbca1d9a",
"6cd2b881874c46d8b3af16c1",
"722ae8ac73a44265b63dc93e",
"82409a67dcc642e58a4c8002",
"879f3f176272416bbc7947ec",
"8d928ba2595c43cbb9f194a4",
"8e2f960d8ccb47aa81e1f16e",
"93bbe315e29c42cd93d2854d",
"a337830749d145c9b45a3f4b",
"b0c0a34d9dce42b995b7c838",
"c34dac56ca284af1b0fbb538",
"c5aaea5a21ba4f098fd7a4a1",
"cea07cf9a487484a8d1da7f4",
"e0b834063d3f422fa70acccf",
"ec54fc91cebc4a0ab8f561b1",
"fcbc7234f47942bbb9e31ccc"
],
"iterateDefaultGroup_v0" : [
"b0c0a34d9dce42b995b7c838"
],
"iterateDefaultGroup_v1" : [
"b0c0a34d9dce42b995b7c838"
],
"iterateDefaultGroup_v2" : [
"b0c0a34d9dce42b995b7c838"
],
"iterateDefaultGroup_v3" : [
"b0c0a34d9dce42b995b7c838"
],
"iterateDefaultGroup_v4" : [
"58279a9c00aa4263bbca1d9a"
],
"iterateDefaultGroup_v5" : [
"fcbc7234f47942bbb9e31ccc"
],
"iterateDefaultGroup_v6" : [
"fcbc7234f47942bbb9e31ccc"
],
"iterateDefaultGroup_v7" : [
"fcbc7234f47942bbb9e31ccc"
],
"iterateDefaultGroup_v8" : [
"fcbc7234f47942bbb9e31ccc"
],
"iterateDefaultGroup_v9" : [
"fcbc7234f47942bbb9e31ccc"
],
"iterateDefaultGroup_v10" : [
"fcbc7234f47942bbb9e31ccc"
],
"iterateDefaultGroup_v11" : [
"fcbc7234f47942bbb9e31ccc"
],
"iterateDefaultGroup_v12" : [
"fcbc7234f47942bbb9e31ccc"
],
"iterateDefaultGroup_v13" : [
"fcbc7234f47942bbb9e31ccc"
],
"iterateDefaultGroup_v14" : [
"6cd2b881874c46d8b3af16c1"
],
"iterateDefaultGroup_v15" : [
"166279916f5b4972b6ed8089"
],
"iterateDefaultGroup_v16" : [
"166279916f5b4972b6ed8089"
],
"iterateDefaultGroup_v17" : [
"166279916f5b4972b6ed8089"
],
"iterateDefaultGroup_v18" : [
"3cbd4d53d17f4460abe992b2"
],
"iterateDefaultGroup_v19" : [
"e0b834063d3f422fa70acccf"
],
"iterateDefaultGroup_v20" : [
"e0b834063d3f422fa70acccf"
],
"iterateDefaultGroup_v21" : [
"722ae8ac73a44265b63dc93e"
],
"iterateDefaultGroup_v22" : [
"722ae8ac73a44265b63dc93e"
],
"iterateDefaultGroup_v23" : [
"722ae8ac73a44265b63dc93e"
],
"iterateDefaultGroup_v24" : [
"722ae8ac73a44265b63dc93e"
],
"iterateDefaultGroup_v25" : [
"722ae8ac73a44265b63dc93e"
],
"iterateDefaultGroup_v26" : [
"120ba451ff734bb9990ab953"
],
"iterateDefaultGroup_v27" : [
"120ba451ff734bb9990ab953"
],
"iterateDefaultGroup_v28" : [
"120ba451ff734bb9990ab953"
],
"iterateDefaultGroup_v29" : [
"120ba451ff734bb9990ab953"
],
"iterateDefaultGroup_v30" : [
"120ba451ff734bb9990ab953"
],
"iterateDefaultGroup_v31" : [
"120ba451ff734bb9990ab953"
],
"iterateDefaultGroup_v32" : [
"120ba451ff734bb9990ab953"
],
"iterateDefaultGroup_v33" : [
"120ba451ff734bb9990ab953"
],
"iterateDefaultGroup_v34" : [
"341b2b25f3ec47e6a5176dce"
],
"iterateDefaultGroup_v35" : [
"327131c755d5494a8fdce58c"
],
"iterateDefaultGroup_v36" : [
"c34dac56ca284af1b0fbb538"
],
"iterateDefaultGroup_v37" : [
"341b2b25f3ec47e6a5176dce"
],
"iterateDefaultGroup_v38" : [
"341b2b25f3ec47e6a5176dce"
],
"iterateDefaultGroup_v39" : [
"341b2b25f3ec47e6a5176dce"
],
"iterateDefaultGroup_v40" : [
"341b2b25f3ec47e6a5176dce"
],
"iterateDefaultGroup_v41" : [
"cea07cf9a487484a8d1da7f4"
],
"iterateDefaultGroup_v42" : [
"a337830749d145c9b45a3f4b"
],
"iterateDefaultGroup_v43" : [
"8e2f960d8ccb47aa81e1f16e"
],
"iterateDefaultGroup_v44" : [
"8e2f960d8ccb47aa81e1f16e"
],
"iterateDefaultGroup_v45" : [
"8e2f960d8ccb47aa81e1f16e"
],
"iterateDefaultGroup_v46" : [
"8e2f960d8ccb47aa81e1f16e"
],
"iterateDefaultGroup_v47" : [
"a337830749d145c9b45a3f4b"
],
"iterateDefaultGroup_v48" : [
"0409590e5b1549f597f1299e"
],
"iterateDefaultGroup_v49" : [
"0409590e5b1549f597f1299e"
],
"iterateDefaultGroup_v50" : [
"82409a67dcc642e58a4c8002"
],
"iterateDefaultGroup_v51" : [
"8d928ba2595c43cbb9f194a4"
],
"iterateDefaultGroup_v52" : [
"8d928ba2595c43cbb9f194a4"
],
"iterateDefaultGroup_v53" : [
"82409a67dcc642e58a4c8002"
],
"iterateDefaultGroup_v54" : [
"08ae3ecead914a199461947a"
],
"iterateDefaultGroup_v55" : [
"08ae3ecead914a199461947a"
],
"iterateDefaultGroup_v56" : [
"ec54fc91cebc4a0ab8f561b1"
],
"iterateDefaultGroup_v57" : [
"93bbe315e29c42cd93d2854d"
],
"iterateDefaultGroup_v58" : [
"c5aaea5a21ba4f098fd7a4a1"
],
"iterateDefaultGroup_v59" : [
"3cfe3cc1389544ccb1f516c7"
],
"iterateDefaultGroup_v60" : [
"879f3f176272416bbc7947ec"
]
},
"entities.name" : {
"OTSROOT" : [
"0409590e5b1549f597f1299e",
"08ae3ecead914a199461947a",
"120ba451ff734bb9990ab953",
"166279916f5b4972b6ed8089",
"327131c755d5494a8fdce58c",
"341b2b25f3ec47e6a5176dce",
"3cbd4d53d17f4460abe992b2",
"3cfe3cc1389544ccb1f516c7",
"58279a9c00aa4263bbca1d9a",
"6cd2b881874c46d8b3af16c1",
"722ae8ac73a44265b63dc93e",
"82409a67dcc642e58a4c8002",
"879f3f176272416bbc7947ec",
"8d928ba2595c43cbb9f194a4",
"8e2f960d8ccb47aa81e1f16e",
"93bbe315e29c42cd93d2854d",
"a337830749d145c9b45a3f4b",
"b0c0a34d9dce42b995b7c838",
"c34dac56ca284af1b0fbb538",
"c5aaea5a21ba4f098fd7a4a1",
"cea07cf9a487484a8d1da7f4",
"e0b834063d3f422fa70acccf",
"ec54fc91cebc4a0ab8f561b1",
"fcbc7234f47942bbb9e31ccc"
]
},
"aliases.active.name" : {

},
"runs.name" : {

},
"configurations.assigned" : {
"notprovided" : [
"2018-09-10T09:26:39.201-0500",
"2020-07-29T13:56:46.553-0500",
"2020-07-29T15:14:10.816-0500",
"2020-10-26T11:12:07.171-0500",
"2020-10-26T13:20:57.356-0500",
"2021-06-30T15:46:02.622-0500",
"2021-07-12T11:48:20.028-0500",
"2021-07-12T13:40:07.203-0500",
"2021-07-23T12:45:33.678-0500",
"2021-07-28T09:11:40.306-0500",
"2021-07-28T10:45:26.470-0500",
"2021-07-28T11:09:39.531-0500",
"2021-07-28T14:47:05.062-0500",
"2021-07-28T14:48:21.209-0500",
"2021-07-28T14:48:49.077-0500",
"2021-07-28T15:30:19.006-0500",
"2021-07-28T15:54:15.775-0500",
"2021-07-28T16:06:48.881-0500",
"2021-09-02T13:40:31.201-0500",
"2021-09-02T14:42:06.691-0500",
"2021-10-12T11:12:22.221-0500",
"2021-10-12T16:34:01.064-0500",
"2021-10-13T18:15:34.725-0500",
"2021-10-15T15:39:56.252-0500"
],
"iterateDefaultGroup_v0" : [
"2018-09-10T09:26:39.712-0500"
],
"iterateDefaultGroup_v1" : [
"2018-09-10T09:27:20.573-0500"
],
"iterateDefaultGroup_v2" : [
"2020-07-28T16:25:06.142-0500"
],
"iterateDefaultGroup_v3" : [
"2020-07-29T13:52:20.445-0500"
],
"iterateDefaultGroup_v4" : [
"2020-07-29T13:56:47.567-0500"
],
"iterateDefaultGroup_v5" : [
"2020-07-29T15:14:11.814-0500"
],
"iterateDefaultGroup_v6" : [
"2020-10-09T16:10:10.027-0500"
],
"iterateDefaultGroup_v7" : [
"2020-10-09T16:31:31.950-0500"
],
"iterateDefaultGroup_v8" : [
"2020-10-09T16:46:00.633-0500"
],
"iterateDefaultGroup_v9" : [
"2020-10-12T10:30:01.756-0500"
],
"iterateDefaultGroup_v10" : [
"2020-10-12T13:54:18.177-0500"
],
"iterateDefaultGroup_v11" : [
"2020-10-12T15:28:45.754-0500"
],
"iterateDefaultGroup_v12" : [
"2020-10-12T15:33:41.128-0500"
],
"iterateDefaultGroup_v13" : [
"2020-10-26T10:34:09.566-0500"
],
"iterateDefaultGroup_v14" : [
"2020-10-26T11:12:08.629-0500"
],
"iterateDefaultGroup_v15" : [
"2020-10-26T13:20:58.801-0500"
],
"iterateDefaultGroup_v16" : [
"2020-10-26T13:46:31.701-0500"
],
"iterateDefaultGroup_v17" : [
"2020-10-27T17:08:44.335-0500"
],
"iterateDefaultGroup_v18" : [
"2021-06-30T15:46:04.050-0500"
],
"iterateDefaultGroup_v19" : [
"2021-07-12T11:48:21.680-0500"
],
"iterateDefaultGroup_v20" : [
"2021-07-12T13:38:44.798-0500"
],
"iterateDefaultGroup_v21" : [
"2021-07-12T13:40:39.731-0500"
],
"iterateDefaultGroup_v22" : [
"2021-07-14T16:20:56.626-0500"
],
"iterateDefaultGroup_v23" : [
"2021-07-20T15:29:51.234-0500"
],
"iterateDefaultGroup_v24" : [
"2021-07-22T18:34:18.971-0500"
],
"iterateDefaultGroup_v25" : [
"2021-07-23T12:39:38.337-0500"
],
"iterateDefaultGroup_v26" : [
"2021-07-23T12:45:35.743-0500"
],
"iterateDefaultGroup_v27" : [
"2021-07-23T13:08:43.452-0500"
],
"iterateDefaultGroup_v28" : [
"2021-07-23T13:16:30.019-0500"
],
"iterateDefaultGroup_v29" : [
"2021-07-23T14:16:53.794-0500"
],
"iterateDefaultGroup_v30" : [
"2021-07-28T08:44:04.764-0500"
],
"iterateDefaultGroup_v31" : [
"2021-07-28T09:04:35.536-0500"
],
"iterateDefaultGroup_v32" : [
"2021-07-28T09:08:06.327-0500"
],
"iterateDefaultGroup_v33" : [
"2021-07-28T09:09:00.346-0500"
],
"iterateDefaultGroup_v34" : [
"2021-07-28T09:11:42.384-0500"
],
"iterateDefaultGroup_v35" : [
"2021-07-28T10:45:28.438-0500"
],
"iterateDefaultGroup_v36" : [
"2021-07-28T11:09:41.599-0500"
],
"iterateDefaultGroup_v37" : [
"2021-07-28T11:56:31.999-0500"
],
"iterateDefaultGroup_v38" : [
"2021-07-28T13:37:16.528-0500"
],
"iterateDefaultGroup_v39" : [
"2021-07-28T14:34:06.725-0500"
],
"iterateDefaultGroup_v40" : [
"2021-07-28T14:42:30.022-0500"
],
"iterateDefaultGroup_v41" : [
"2021-07-28T14:47:07.004-0500"
],
"iterateDefaultGroup_v42" : [
"2021-07-28T14:48:23.392-0500"
],
"iterateDefaultGroup_v43" : [
"2021-07-28T14:48:51.322-0500"
],
"iterateDefaultGroup_v44" : [
"2021-07-28T14:51:22.759-0500"
],
"iterateDefaultGroup_v45" : [
"2021-07-28T15:03:29.693-0500"
],
"iterateDefaultGroup_v46" : [
"2021-07-28T15:11:18.550-0500"
],
"iterateDefaultGroup_v47" : [
"2021-07-28T15:13:40.014-0500"
],
"iterateDefaultGroup_v48" : [
"2021-07-28T15:30:21.136-0500"
],
"iterateDefaultGroup_v49" : [
"2021-07-28T15:42:30.386-0500"
],
"iterateDefaultGroup_v50" : [
"2021-07-28T15:54:18.314-0500"
],
"iterateDefaultGroup_v51" : [
"2021-07-28T16:06:51.128-0500"
],
"iterateDefaultGroup_v52" : [
"2021-07-28T16:13:47.156-0500"
],
"iterateDefaultGroup_v53" : [
"2021-07-28T16:15:01.337-0500"
],
"iterateDefaultGroup_v54" : [
"2021-09-02T13:40:33.533-0500"
],
"iterateDefaultGroup_v55" : [
"2021-09-02T14:33:16.530-0500"
],
"iterateDefaultGroup_v56" : [
"2021-09-02T14:42:09.030-0500"
],
"iterateDefaultGroup_v57" : [
"2021-10-12T11:12:24.822-0500"
],
"iterateDefaultGroup_v58" : [
"2021-10-12T16:34:03.542-0500"
],
"iterateDefaultGroup_v59" : [
"2021-10-13T18:15:37.266-0500"
],
"iterateDefaultGroup_v60" : [
"2021-10-15T15:39:58.827-0500"
]
}
}