{
"document" : {
"data" : {
"NAME" : "POWER_SUPPLY_TO_DETECTOR_TABLE",
"COMMENT" : "No comment.",
"AUTHOR" : "admin",
"CREATION_TIME" : 1626814831,
"COL_TYPES" : {
"FE_INTERFACE_GROUP_ID" : "STRING",
"CHANNEL_UID" : "STRING",
"LINK_TO_CHANNEL_TABLE" : "STRING",
"LINK_TO_CHANNEL_UID" : "STRING",
"CHANNEL_GROUP" : "STRING",
"TURN_ON_SEQUENCE" : "NUMBER",
"TURN_OFF_SEQUENCE" : "NUMBER",
"COMMENT_DESCRIPTION" : "STRING",
"AUTHOR" : "STRING",
"RECORD_INSERTION_TIME" : "TIMESTAMP WITH TIMEZONE"
},
"DATA_SET" : [
{
"FE_INTERFACE_GROUP_ID" : "BurninBox",
"CHANNEL_UID" : "Module1Left_LV",
"LINK_TO_CHANNEL_TABLE" : "CAENPowerSupplyChannelTable",
"LINK_TO_CHANNEL_UID" : "Module1Left_LV",
"CHANNEL_GROUP" : "Module1Left",
"TURN_ON_SEQUENCE" : "1",
"TURN_OFF_SEQUENCE" : "0",
"COMMENT_DESCRIPTION" : "No Comment",
"AUTHOR" : "admin",
"RECORD_INSERTION_TIME" : "1626814831"
},
{
"FE_INTERFACE_GROUP_ID" : "BurninBox",
"CHANNEL_UID" : "Module1Left_HV",
"LINK_TO_CHANNEL_TABLE" : "CAENPowerSupplyChannelTable",
"LINK_TO_CHANNEL_UID" : "Module1Left_HV",
"CHANNEL_GROUP" : "Module1Left",
"TURN_ON_SEQUENCE" : "0",
"TURN_OFF_SEQUENCE" : "1",
"COMMENT_DESCRIPTION" : "No Comment",
"AUTHOR" : "admin",
"RECORD_INSERTION_TIME" : "1626814831"
},
{
"FE_INTERFACE_GROUP_ID" : "BurninBox",
"CHANNEL_UID" : "Module2Left_LV",
"LINK_TO_CHANNEL_TABLE" : "CAENPowerSupplyChannelTable",
"LINK_TO_CHANNEL_UID" : "Module2Left_LV",
"CHANNEL_GROUP" : "Module2Left",
"TURN_ON_SEQUENCE" : "1",
"TURN_OFF_SEQUENCE" : "0",
"COMMENT_DESCRIPTION" : "No Comment",
"AUTHOR" : "admin",
"RECORD_INSERTION_TIME" : "1626814831"
},
{
"FE_INTERFACE_GROUP_ID" : "BurninBox",
"CHANNEL_UID" : "Module2Left_HV",
"LINK_TO_CHANNEL_TABLE" : "CAENPowerSupplyChannelTable",
"LINK_TO_CHANNEL_UID" : "Module2Left_HV",
"CHANNEL_GROUP" : "Module2Left",
"TURN_ON_SEQUENCE" : "0",
"TURN_OFF_SEQUENCE" : "1",
"COMMENT_DESCRIPTION" : "No Comment",
"AUTHOR" : "admin",
"RECORD_INSERTION_TIME" : "1626814831"
},
{
"FE_INTERFACE_GROUP_ID" : "BurninBox",
"CHANNEL_UID" : "Module3Left_LV",
"LINK_TO_CHANNEL_TABLE" : "CAENPowerSupplyChannelTable",
"LINK_TO_CHANNEL_UID" : "Module3Left_LV",
"CHANNEL_GROUP" : "Module3Left",
"TURN_ON_SEQUENCE" : "1",
"TURN_OFF_SEQUENCE" : "0",
"COMMENT_DESCRIPTION" : "No Comment",
"AUTHOR" : "admin",
"RECORD_INSERTION_TIME" : "1626814831"
},
{
"FE_INTERFACE_GROUP_ID" : "BurninBox",
"CHANNEL_UID" : "Module3Left_HV",
"LINK_TO_CHANNEL_TABLE" : "CAENPowerSupplyChannelTable",
"LINK_TO_CHANNEL_UID" : "Module3Left_HV",
"CHANNEL_GROUP" : "Module3Left",
"TURN_ON_SEQUENCE" : "0",
"TURN_OFF_SEQUENCE" : "1",
"COMMENT_DESCRIPTION" : "No Comment",
"AUTHOR" : "admin",
"RECORD_INSERTION_TIME" : "1626814831"
},
{
"FE_INTERFACE_GROUP_ID" : "BurninBox",
"CHANNEL_UID" : "Module4Left_LV",
"LINK_TO_CHANNEL_TABLE" : "CAENPowerSupplyChannelTable",
"LINK_TO_CHANNEL_UID" : "Module4Left_LV",
"CHANNEL_GROUP" : "Module4Left",
"TURN_ON_SEQUENCE" : "1",
"TURN_OFF_SEQUENCE" : "0",
"COMMENT_DESCRIPTION" : "No Comment",
"AUTHOR" : "admin",
"RECORD_INSERTION_TIME" : "1626814831"
},
{
"FE_INTERFACE_GROUP_ID" : "BurninBox",
"CHANNEL_UID" : "Module4Left_HV",
"LINK_TO_CHANNEL_TABLE" : "CAENPowerSupplyChannelTable",
"LINK_TO_CHANNEL_UID" : "Module4Left_HV",
"CHANNEL_GROUP" : "Module4Left",
"TURN_ON_SEQUENCE" : "0",
"TURN_OFF_SEQUENCE" : "1",
"COMMENT_DESCRIPTION" : "No Comment",
"AUTHOR" : "admin",
"RECORD_INSERTION_TIME" : "1626814831"
},
{
"FE_INTERFACE_GROUP_ID" : "BurninBox",
"CHANNEL_UID" : "Module5Left_LV",
"LINK_TO_CHANNEL_TABLE" : "CAENPowerSupplyChannelTable",
"LINK_TO_CHANNEL_UID" : "Module5Left_LV",
"CHANNEL_GROUP" : "Module5Left",
"TURN_ON_SEQUENCE" : "1",
"TURN_OFF_SEQUENCE" : "0",
"COMMENT_DESCRIPTION" : "No Comment",
"AUTHOR" : "admin",
"RECORD_INSERTION_TIME" : "1626814831"
},
{
"FE_INTERFACE_GROUP_ID" : "BurninBox",
"CHANNEL_UID" : "Module5Left_HV",
"LINK_TO_CHANNEL_TABLE" : "CAENPowerSupplyChannelTable",
"LINK_TO_CHANNEL_UID" : "Module5Left_HV",
"CHANNEL_GROUP" : "Module5Left",
"TURN_ON_SEQUENCE" : "0",
"TURN_OFF_SEQUENCE" : "1",
"COMMENT_DESCRIPTION" : "No Comment",
"AUTHOR" : "admin",
"RECORD_INSERTION_TIME" : "1626814831"
},
{
"FE_INTERFACE_GROUP_ID" : "BurninBox",
"CHANNEL_UID" : "Module1Right_LV",
"LINK_TO_CHANNEL_TABLE" : "CAENPowerSupplyChannelTable",
"LINK_TO_CHANNEL_UID" : "Module1Right_LV",
"CHANNEL_GROUP" : "Module1Right",
"TURN_ON_SEQUENCE" : "1",
"TURN_OFF_SEQUENCE" : "0",
"COMMENT_DESCRIPTION" : "No Comment",
"AUTHOR" : "admin",
"RECORD_INSERTION_TIME" : "1626814831"
},
{
"FE_INTERFACE_GROUP_ID" : "BurninBox",
"CHANNEL_UID" : "Module1Right_HV",
"LINK_TO_CHANNEL_TABLE" : "CAENPowerSupplyChannelTable",
"LINK_TO_CHANNEL_UID" : "Module1Right_HV",
"CHANNEL_GROUP" : "Module1Right",
"TURN_ON_SEQUENCE" : "0",
"TURN_OFF_SEQUENCE" : "1",
"COMMENT_DESCRIPTION" : "No Comment",
"AUTHOR" : "admin",
"RECORD_INSERTION_TIME" : "1626814831"
},
{
"FE_INTERFACE_GROUP_ID" : "BurninBox",
"CHANNEL_UID" : "Module2Right_LV",
"LINK_TO_CHANNEL_TABLE" : "CAENPowerSupplyChannelTable",
"LINK_TO_CHANNEL_UID" : "Module2Right_LV",
"CHANNEL_GROUP" : "Module2Right",
"TURN_ON_SEQUENCE" : "1",
"TURN_OFF_SEQUENCE" : "0",
"COMMENT_DESCRIPTION" : "No Comment",
"AUTHOR" : "admin",
"RECORD_INSERTION_TIME" : "1626814831"
},
{
"FE_INTERFACE_GROUP_ID" : "BurninBox",
"CHANNEL_UID" : "Module2Right_HV",
"LINK_TO_CHANNEL_TABLE" : "CAENPowerSupplyChannelTable",
"LINK_TO_CHANNEL_UID" : "Module2Right_HV",
"CHANNEL_GROUP" : "Module2Right",
"TURN_ON_SEQUENCE" : "0",
"TURN_OFF_SEQUENCE" : "1",
"COMMENT_DESCRIPTION" : "No Comment",
"AUTHOR" : "admin",
"RECORD_INSERTION_TIME" : "1626814831"
},
{
"FE_INTERFACE_GROUP_ID" : "BurninBox",
"CHANNEL_UID" : "Module3Right_LV",
"LINK_TO_CHANNEL_TABLE" : "CAENPowerSupplyChannelTable",
"LINK_TO_CHANNEL_UID" : "Module3Right_LV",
"CHANNEL_GROUP" : "Module3Right",
"TURN_ON_SEQUENCE" : "1",
"TURN_OFF_SEQUENCE" : "0",
"COMMENT_DESCRIPTION" : "No Comment",
"AUTHOR" : "admin",
"RECORD_INSERTION_TIME" : "1626814831"
},
{
"FE_INTERFACE_GROUP_ID" : "BurninBox",
"CHANNEL_UID" : "Module3Right_HV",
"LINK_TO_CHANNEL_TABLE" : "CAENPowerSupplyChannelTable",
"LINK_TO_CHANNEL_UID" : "Module3Right_HV",
"CHANNEL_GROUP" : "Module3Right",
"TURN_ON_SEQUENCE" : "0",
"TURN_OFF_SEQUENCE" : "1",
"COMMENT_DESCRIPTION" : "No Comment",
"AUTHOR" : "admin",
"RECORD_INSERTION_TIME" : "1626814831"
},
{
"FE_INTERFACE_GROUP_ID" : "BurninBox",
"CHANNEL_UID" : "Module4Right_LV",
"LINK_TO_CHANNEL_TABLE" : "CAENPowerSupplyChannelTable",
"LINK_TO_CHANNEL_UID" : "Module4Right_LV",
"CHANNEL_GROUP" : "Module4Right",
"TURN_ON_SEQUENCE" : "1",
"TURN_OFF_SEQUENCE" : "0",
"COMMENT_DESCRIPTION" : "No Comment",
"AUTHOR" : "admin",
"RECORD_INSERTION_TIME" : "1626814831"
},
{
"FE_INTERFACE_GROUP_ID" : "BurninBox",
"CHANNEL_UID" : "Module4Right_HV",
"LINK_TO_CHANNEL_TABLE" : "CAENPowerSupplyChannelTable",
"LINK_TO_CHANNEL_UID" : "Module4Right_HV",
"CHANNEL_GROUP" : "Module4Right",
"TURN_ON_SEQUENCE" : "0",
"TURN_OFF_SEQUENCE" : "1",
"COMMENT_DESCRIPTION" : "No Comment",
"AUTHOR" : "admin",
"RECORD_INSERTION_TIME" : "1626814831"
},
{
"FE_INTERFACE_GROUP_ID" : "BurninBox",
"CHANNEL_UID" : "Module5Right_LV",
"LINK_TO_CHANNEL_TABLE" : "CAENPowerSupplyChannelTable",
"LINK_TO_CHANNEL_UID" : "Module5Right_LV",
"CHANNEL_GROUP" : "Module5Right",
"TURN_ON_SEQUENCE" : "1",
"TURN_OFF_SEQUENCE" : "0",
"COMMENT_DESCRIPTION" : "No Comment",
"AUTHOR" : "admin",
"RECORD_INSERTION_TIME" : "1626814831"
},
{
"FE_INTERFACE_GROUP_ID" : "BurninBox",
"CHANNEL_UID" : "Module5Right_HV",
"LINK_TO_CHANNEL_TABLE" : "CAENPowerSupplyChannelTable",
"LINK_TO_CHANNEL_UID" : "Module5Right_HV",
"CHANNEL_GROUP" : "Module5Right",
"TURN_ON_SEQUENCE" : "0",
"TURN_OFF_SEQUENCE" : "1",
"COMMENT_DESCRIPTION" : "No Comment",
"AUTHOR" : "admin",
"RECORD_INSERTION_TIME" : "1626814831"
}
]
},
"metadata" : {

},
"search" : [

]
},
"comments" : [

],
"origin" : {
"source" : "template",
"name" : "notprovided",
"format" : "json",
"created" : "2021-07-20T16:00:31.621-0500",
"rawdata" : [

]
},
"version" : "1",
"entities" : [
{
"name" : "OTSROOT",
"assigned" : "2021-07-20T16:00:31.622-0500"
}
],
"configurations" : [
{
"name" : "notprovided",
"assigned" : "2021-07-20T16:00:31.622-0500"
},
{
"name" : "BurninBoxConfiguration_v53",
"assigned" : "2021-07-20T16:41:42.421-0500"
}
],
"changelog" : "notprovided",
"bookkeeping" : {
"isdeleted" : false,
"isreadonly" : false,
"updates" : [
{
"event" : "addConfiguration",
"timestamp" : "2021-07-20T16:00:31.622-0500",
"value" : {
"name" : "notprovided",
"assigned" : "2021-07-20T16:00:31.622-0500"
}
},
{
"event" : "setVersion",
"timestamp" : "2021-07-20T16:00:31.622-0500",
"value" : {
"name" : "1",
"assigned" : "2021-07-20T16:00:31.622-0500"
}
},
{
"event" : "setCollection",
"timestamp" : "2021-07-20T16:00:31.622-0500",
"value" : {
"name" : "PowerSupplyToDetectorTable",
"assigned" : "2021-07-20T16:00:31.622-0500"
}
},
{
"event" : "addEntity",
"timestamp" : "2021-07-20T16:00:31.622-0500",
"value" : {
"name" : "OTSROOT",
"assigned" : "2021-07-20T16:00:31.622-0500"
}
},
{
"event" : "addConfiguration",
"timestamp" : "2021-07-20T16:41:42.421-0500",
"value" : {
"name" : "BurninBoxConfiguration_v53",
"assigned" : "2021-07-20T16:41:42.421-0500"
}
}
],
"created" : "2021-07-20T16:00:31.621-0500"
},
"_id" : {
"$oid" : "fda1598fd1f245bc8dda93f8"
},
"collection" : "PowerSupplyToDetectorTable",
"aliases" : {
"active" : [

],
"history" : [

]
},
"runs" : [

],
"attachments" : [

],
"configtype" : "notprovided"
}